{
    "@class": "com.kony.gen.viz.model.component.KVizButton",
    "DNDConfig": null,
    "__parentReadjusting__": false,
    "_height_": {
        "type": "string",
        "value": "40dp"
    },
    "_left_": {
        "type": "number",
        "value": ""
    },
    "_margin_": [
        6,
        6,
        6,
        6
    ],
    "_padding_": [
        0,
        0,
        0,
        0
    ],
    "_right_": {
        "type": "string",
        "value": "50.60%"
    },
    "_skin_": "s4fe0674a3c84b76a21524a90bad4282",
    "_text_": "Set Default Bill Pay Account",
    "_top_": {
        "type": "string",
        "value": "20dp"
    },
    "_width_": {
        "type": "string",
        "value": "20.60%"
    },
    "accessibilityconfig": {
        "a11yLabel": "Set Default Bill Pay Account"
    },
    "canUpdateUI": true,
    "containerweight": 100,
    "contentalignment": 5,
    "desktopweb": {
        "psp": {
            "hoverSkin": "s81054b5e2b74f17a5261991df565427"
        }
    },
    "displaytext": true,
    "focusskin": "s5a4f67acd3e47b9be6d6910a7a6686f",
    "id": "btnSetDefaultBillPayAccnt",
    "info": null,
    "isvisible": false,
    "kuid": "j4935c5e670e4fb0a59b50434d8093d6",
    "name": "kony.ui.Button",
    "parent": "flxButtons",
    "pf": "frmPayeeAcknowledgement",
    "responsiveData": {
        "b2": {
            "left": {
                "type": "string",
                "value": "20dp"
            },
            "right": {
                "type": "string",
                "value": "20dp"
            },
            "width": {
                "type": "string",
                "value": ""
            }
        },
        "b3": {
            "left": {
                "type": "string",
                "value": "2.50%"
            },
            "right": {
                "type": "string",
                "value": ""
            },
            "width": {
                "type": "string",
                "value": "95%"
            }
        }
    },
    "texti18n": "i18n.AddPayee.SetDefaultBillPayAccount",
    "tooltip": "Make a Bill Payment",
    "wType": "Button",
    "zindex": 1
}