{
    "DNDConfig": null,
    "__parentReadjusting__": false,
    "_height_": {
        "type": "string",
        "value": "1dp"
    },
    "_left_": {
        "type": "string",
        "value": "2%"
    },
    "_margin_": [
        0,
        0,
        0,
        0
    ],
    "_orientation_": 6,
    "_padding_": [
        0,
        0,
        0,
        0
    ],
    "_percent_": true,
    "_skin_": "s5f8d10ce8734c0f80d528b8398c3cf5",
    "_top_": {
        "type": "string",
        "value": "0dp"
    },
    "_width_": {
        "type": "string",
        "value": "96%"
    },
    "allboxes": [],
    "autogrowmode": 0,
    "canUpdateUI": true,
    "children": [],
    "clipbounds": true,
    "containerweight": 100,
    "enablescrolling": true,
    "id": "flxSeparatorPayeeSelected",
    "info": null,
    "isvisible": true,
    "kuid": "gf5f7ebd4a4c4124bab11197bf6512cf",
    "layouttype": 2,
    "name": "kony.ui.FlexContainer",
    "parent": "flxPayeeDetails",
    "pf": "frmPayeeAcknowledgement",
    "responsiveData": {
        "b2": {
            "left": {
                "type": "string",
                "value": "2.50%"
            }
        },
        "b3": {
            "left": {
                "type": "string",
                "value": "3%"
            },
            "width": {
                "type": "string",
                "value": "94%"
            }
        }
    },
    "snapgridsize": 10,
    "snaptogrid": true,
    "wType": "FlexContainer",
    "widgetalignment": 1,
    "zindex": 5
}