{
    "@class": "com.kony.gen.viz.model.component.KVizLabel",
    "DNDConfig": null,
    "__parentReadjusting__": false,
    "_height_": {
        "type": "ref",
        "value": "preferred"
    },
    "_left_": {
        "type": "string",
        "value": "5.07%"
    },
    "_margin_": [
        1,
        1,
        1,
        1
    ],
    "_padding_": [
        0,
        0,
        0,
        0
    ],
    "_skin_": "saba7a95163a455f8f2f131435e16122",
    "_text_": "Label",
    "_width_": {
        "type": "ref",
        "value": "preferred"
    },
    "_wrapping_": 2,
    "accessibilityconfig": {
        "a11yLabel": "Acknowledgement"
    },
    "android": {
        "textStyle": {
            "letterSpacing": 0,
            "strikeThrough": false
        }
    },
    "canUpdateUI": true,
    "centery": {
        "type": "string",
        "value": "50%"
    },
    "containerweight": 100,
    "contentalignment": 4,
    "id": "lblHeaderAck",
    "info": null,
    "ipad": {
        "psp": {
            "wrapping": 2
        }
    },
    "iphone": {
        "psp": {
            "wrapping": 2
        }
    },
    "isvisible": true,
    "kuid": "a98b1089c00d4eb6a5fa3daca0727714",
    "name": "kony.ui.Label",
    "parent": "flxAckHeader",
    "pf": "frmPayeeAcknowledgement",
    "responsiveData": {
        "b1": {
            "skin": "s6e13e645ba1488d9cac62841907bbb3"
        },
        "b2": {
            "left": {
                "type": "string",
                "value": "2.50%"
            },
            "skin": "s6e13e645ba1488d9cac62841907bbb3"
        },
        "b3": {
            "left": {
                "type": "string",
                "value": "3%"
            },
            "skin": "s6e13e645ba1488d9cac62841907bbb3"
        },
        "b4": {
            "skin": "s6e13e645ba1488d9cac62841907bbb3"
        }
    },
    "texti18n": "i18n.transfers.Acknowledgement",
    "tooltip": "",
    "wType": "Label",
    "zindex": 1
}