{
    "@class": "com.kony.gen.viz.model.component.KVizButton",
    "DNDConfig": null,
    "__parentReadjusting__": false,
    "_height_": {
        "type": "string",
        "value": "50dp"
    },
    "_left_": {
        "type": "string",
        "value": "20dp"
    },
    "_margin_": [
        6,
        6,
        6,
        6
    ],
    "_padding_": [
        0,
        0,
        0,
        0
    ],
    "_skin_": "sd3d7d8bf6784b30adadc45c3bbb44e0",
    "_text_": "Open File",
    "_top_": {
        "type": "string",
        "value": "10dp"
    },
    "_width_": {
        "type": "ref",
        "value": "preferred"
    },
    "canUpdateUI": true,
    "centerx": {
        "type": "string",
        "value": "30%"
    },
    "centery": {
        "type": "string",
        "value": "49.97%"
    },
    "containerweight": 100,
    "contentalignment": 5,
    "disabledSkins": {
        "focusSkin": "sf44d06ca8224832827ea7fdff757013"
    },
    "displaytext": true,
    "id": "btnOpenFile",
    "info": null,
    "iscustomlayout": false,
    "isvisible": true,
    "kuid": "j7ecf6aa1b9246a49bc1d1d1216a659e",
    "name": "kony.ui.Button",
    "parent": "flxUploadedFile",
    "pf": "frmBulkPaymentsUploadFile",
    "responsiveData": {
        "b1": {
            "skin": "sd3d7d8bf6784b30adadc45c3bbb44e0",
            "width": {
                "type": "string",
                "value": "60dp"
            }
        },
        "b2": {
            "width": {
                "type": "string",
                "value": "60dp"
            }
        },
        "b3": {
            "skin": "sd3d7d8bf6784b30adadc45c3bbb44e0",
            "width": {
                "type": "string",
                "value": "60dp"
            }
        },
        "b4": {
            "skin": "s3ef53250df34bc8a22da0f9651e4600"
        }
    },
    "retaincontentalignment": false,
    "retainflexpositionproperties": false,
    "wType": "Button",
    "zindex": 1
}