{
    "@class": "com.kony.gen.viz.model.component.KVizLabel",
    "DNDConfig": null,
    "__parentReadjusting__": false,
    "_height_": {
        "type": "ref",
        "value": "preferred"
    },
    "_left_": {
        "type": "string",
        "value": "270dp"
    },
    "_margin_": [
        1,
        1,
        1,
        1
    ],
    "_padding_": [
        0,
        0,
        0,
        0
    ],
    "_skin_": "sd1d54c1dacd41b28aa7355787b35285",
    "_text_": "Nacha",
    "_top_": {
        "type": "string",
        "value": "0dp"
    },
    "_width_": {
        "type": "ref",
        "value": "preferred"
    },
    "_wrapping_": 2,
    "android": {
        "textStyle": {
            "letterSpacing": 0,
            "strikeThrough": false
        }
    },
    "canUpdateUI": true,
    "containerweight": 100,
    "contentalignment": 4,
    "desktopweb": {
        "psp": {
            "hoverSkin": "sd1d54c1dacd41b28aa7355787b35285"
        }
    },
    "disabledSkins": {},
    "hoverskin": "",
    "id": "lblFileSizeValue",
    "info": null,
    "ipad": {
        "psp": {
            "wrapping": 2
        }
    },
    "iphone": {
        "psp": {
            "wrapping": 2
        }
    },
    "iscustomlayout": false,
    "isvisible": true,
    "kuid": "d7c48c5a6fe14f859f1aa86e598cf4d8",
    "name": "kony.ui.Label",
    "parent": "flxFileSize",
    "pf": "frmBulkPaymentsUploadFile",
    "responsiveData": {
        "b1": {
            "desktopweb": {
                "psp": {
                    "hoverSkin": "s63e81af6a184e7e8e891b0dbbe7895c"
                }
            },
            "left": {
                "type": "string",
                "value": "24.50%"
            },
            "skin": "s63e81af6a184e7e8e891b0dbbe7895c"
        },
        "b2": {
            "desktopweb": {
                "psp": {}
            },
            "disabledSkins": {
                "hoverSkin": "s63e81af6a184e7e8e891b0dbbe7895c"
            },
            "skin": "s63e81af6a184e7e8e891b0dbbe7895c",
            "text": "2.1 MB"
        },
        "b3": {
            "left": {
                "type": "string",
                "value": "30%"
            },
            "skin": "s63e81af6a184e7e8e891b0dbbe7895c",
            "text": "2.1 MB"
        }
    },
    "retaincontentalignment": false,
    "retainflexpositionproperties": false,
    "tooltip": "",
    "wType": "Label",
    "zindex": 1
}