{
    "@class": "com.kony.gen.viz.model.component.KVizLabel",
    "DNDConfig": null,
    "_height_": {
        "type": "ref",
        "value": "preferred"
    },
    "_left_": {
        "type": "string",
        "value": "21%"
    },
    "_margin_": [
        1,
        1,
        1,
        1
    ],
    "_padding_": [
        0,
        0,
        0,
        0
    ],
    "_skin_": "sd1d54c1dacd41b28aa7355787b35285",
    "_text_": "Nacha",
    "_top_": {
        "type": "string",
        "value": "0dp"
    },
    "_width_": {
        "type": "ref",
        "value": "preferred"
    },
    "_wrapping_": 2,
    "android": {
        "textStyle": {
            "letterSpacing": 0,
            "strikeThrough": false
        }
    },
    "canUpdateUI": true,
    "containerweight": 100,
    "contentalignment": 4,
    "desktopweb": {
        "psp": {
            "hoverSkin": "sd1d54c1dacd41b28aa7355787b35285"
        }
    },
    "disabledSkins": {},
    "hoverskin": "",
    "id": "lblUploadDateAckValue",
    "info": null,
    "ipad": {
        "psp": {
            "wrapping": 2
        }
    },
    "iphone": {
        "psp": {
            "wrapping": 2
        }
    },
    "iscustomlayout": false,
    "isvisible": true,
    "kuid": "dfd7c72687e8454295bec9477324b339",
    "name": "kony.ui.Label",
    "parent": "flxUploadDateAck",
    "pf": "frmBulkPaymentsUploadFile",
    "responsiveData": {
        "b1": {
            "desktopweb": {
                "psp": {}
            },
            "disabledSkins": {
                "hoverSkin": "s63e81af6a184e7e8e891b0dbbe7895c"
            },
            "skin": "s63e81af6a184e7e8e891b0dbbe7895c",
            "text": "06/25/2020"
        },
        "b2": {
            "disabledSkins": {
                "hoverSkin": "sd1d54c1dacd41b28aa7355787b35285"
            },
            "skin": "s63e81af6a184e7e8e891b0dbbe7895c",
            "text": "06/05/2020"
        },
        "b3": {
            "desktopweb": {
                "psp": {
                    "hoverSkin": "s63e81af6a184e7e8e891b0dbbe7895c"
                }
            },
            "skin": "s63e81af6a184e7e8e891b0dbbe7895c",
            "text": "06/25/2020"
        }
    },
    "retaincontentalignment": false,
    "retainflexpositionproperties": false,
    "tooltip": "",
    "wType": "Label",
    "zindex": 1
}