{
    "DNDConfig": null,
    "_height_": {
        "type": "string",
        "value": "211dp"
    },
    "_left_": {
        "type": "string",
        "value": "0dp"
    },
    "_margin_": [
        0,
        0,
        0,
        0
    ],
    "_orientation_": 6,
    "_padding_": [
        0,
        0,
        0,
        0
    ],
    "_percent_": true,
    "_skin_": "s2ce93a13331476c8dd4bdd20e9a2e14",
    "_top_": {
        "type": "string",
        "value": "0dp"
    },
    "_width_": {
        "type": "string",
        "value": "100%"
    },
    "allboxes": [],
    "autogrowmode": 0,
    "canUpdateUI": true,
    "children": [
        "flxIdentifier",
        "flxSelectedRowWrapper"
    ],
    "clipbounds": true,
    "containerId": true,
    "containerweight": 100,
    "controllerInfo": {
        "default": {
            "channel": "desktop",
            "name": "flxExternalAccountsFastTransfersSelectedController"
        }
    },
    "enablescrolling": true,
    "id": "flxExternalAccountsFastTransfersSelected",
    "info": null,
    "iscustomlayout": false,
    "isvisible": true,
    "kuid": "f3a48e841e954597b0292279e8cef965",
    "layouttype": 3,
    "name": "kony.ui.FlexContainer",
    "parent": "segExternalAccountsFastTransfersSelected",
    "pf": "segExternalAccountsFastTransfersSelected",
    "retaincontentalignment": false,
    "retainflexpositionproperties": false,
    "retainflowhorizontalalignment": false,
    "snapgridsize": 10,
    "snaptogrid": true,
    "wType": "FlexContainer",
    "widgetalignment": 1
}