{
    "DNDConfig": null,
    "__parentReadjusting__": false,
    "_height_": {
        "type": "string",
        "value": "25dp"
    },
    "_margin_": [
        0,
        0,
        0,
        0
    ],
    "_orientation_": 6,
    "_padding_": [
        0,
        0,
        0,
        0
    ],
    "_percent_": true,
    "_right_": {
        "type": "string",
        "value": "6.25%"
    },
    "_skin_": "s24c92fc23b14f5484b693ee9b8a9b35",
    "_top_": {
        "type": "string",
        "value": "-25dp"
    },
    "_width_": {
        "type": "string",
        "value": "25dp"
    },
    "allboxes": [],
    "autogrowmode": 0,
    "canUpdateUI": true,
    "children": [
        "imgPrint",
        "lblPrintfontIconConfirm"
    ],
    "clipbounds": true,
    "containerweight": 100,
    "desktopweb": {
        "psp": {
            "hoverSkin": "s33beaea65744dc8aecdacfe3caf89af"
        }
    },
    "enablescrolling": true,
    "id": "flxPrint",
    "info": null,
    "isvisible": false,
    "kuid": "f5b66372faf144cba77fab6e4947df44",
    "layouttype": 2,
    "name": "kony.ui.FlexContainer",
    "parent": "flxMain",
    "pf": "frmWireTransferAddKonyAccountStep1",
    "responsiveData": {
        "b1": {},
        "b2": {},
        "b3": {
            "top": {
                "type": "string",
                "value": "0dp"
            },
            "width": {
                "type": "string",
                "value": "25dp"
            },
            "zIndex": 2
        },
        "b4": {
            "height": {
                "type": "string",
                "value": "30dp"
            },
            "top": {
                "type": "string",
                "value": "-25dp"
            }
        }
    },
    "snapgridsize": 10,
    "snaptogrid": true,
    "wType": "FlexContainer",
    "widgetalignment": 1,
    "zindex": 1
}