{
    "DNDConfig": null,
    "__parentReadjusting__": false,
    "_height_": {
        "type": "ref",
        "value": "preferred"
    },
    "_left_": {
        "type": "string",
        "value": "0dp"
    },
    "_margin_": [
        0,
        0,
        0,
        0
    ],
    "_orientation_": 6,
    "_padding_": [
        0,
        0,
        0,
        0
    ],
    "_percent_": true,
    "_skin_": "s24c92fc23b14f5484b693ee9b8a9b35",
    "_top_": {
        "type": "string",
        "value": "0dp"
    },
    "_width_": {
        "type": "string",
        "value": "100%"
    },
    "allboxes": [],
    "autogrowmode": 1,
    "canUpdateUI": true,
    "children": [
        "flxStep1Header",
        "flxCountry",
        "flxNameAndType",
        "flxRecipientAddress",
        "flxCityStateZipcode",
        "flxStep1Buttons"
    ],
    "clipbounds": true,
    "containerweight": 100,
    "enablescrolling": true,
    "id": "flxStep1",
    "info": null,
    "isvisible": true,
    "kuid": "caa5eb4878a34e5bbf99cd7b9bf9be8d",
    "layouttype": 4,
    "name": "kony.ui.FlexContainer",
    "parent": "flxAddRecipientsWindow",
    "pf": "frmWireTransferAddKonyAccountStep1",
    "snapgridsize": 10,
    "snaptogrid": true,
    "wType": "FlexContainer",
    "widgetalignment": 1,
    "zindex": 1
}