{
    "@class": "com.kony.gen.viz.model.component.KVizButton",
    "DNDConfig": null,
    "_height_": {
        "type": "string",
        "value": "50dp"
    },
    "_margin_": [
        6,
        6,
        6,
        6
    ],
    "_padding_": [
        0,
        0,
        0,
        0
    ],
    "_right_": {
        "type": "string",
        "value": "30dp"
    },
    "_skin_": "sfbbba35ede4457b94eb681b72349b98",
    "_text_": "PROCEED",
    "_width_": {
        "type": "string",
        "value": "258dp"
    },
    "accessibilityconfig": {
        "a11yLabel": "Yes"
    },
    "canUpdateUI": true,
    "centery": {
        "type": "string",
        "value": "50%"
    },
    "containerweight": 100,
    "contentalignment": 5,
    "desktopweb": {
        "psp": {
            "hoverSkin": "s7ab6326aaf94c28b90b61fcb1b54547"
        }
    },
    "disabledSkins": {},
    "displaytext": true,
    "focusskin": "sfd0ce0d7f454c9f83c7e815a90a8a55",
    "id": "btnProceed",
    "info": null,
    "isvisible": true,
    "kuid": "dc72ca4c92cd435a94f6799544e918b6",
    "name": "kony.ui.Button",
    "parent": "flxButtons",
    "pf": "frmBillPaymentDue",
    "responsiveData": {
        "b1": {
            "height": {
                "type": "string",
                "value": "40dp"
            },
            "right": {
                "type": "string",
                "value": "20dp"
            },
            "width": {
                "type": "string",
                "value": "150dp"
            }
        },
        "b2": {
            "height": {
                "type": "string",
                "value": "40dp"
            },
            "right": {
                "type": "string",
                "value": "20dp"
            },
            "width": {
                "type": "string",
                "value": "150dp"
            }
        },
        "b3": {
            "height": {
                "type": "string",
                "value": "40dp"
            },
            "right": {
                "type": "string",
                "value": "20dp"
            },
            "width": {
                "type": "string",
                "value": "120dp"
            }
        },
        "b4": {
            "right": {
                "type": "string",
                "value": "20dp"
            },
            "width": {
                "type": "string",
                "value": "150dp"
            }
        }
    },
    "texti18n": "i18n.common.yes",
    "tooltip": "Yes",
    "wType": "Button",
    "zindex": 2
}