{
    "@class": "com.kony.gen.viz.model.component.KVizButton",
    "DNDConfig": null,
    "_height_": {
        "type": "ref",
        "value": "preferred"
    },
    "_margin_": [
        6,
        6,
        6,
        6
    ],
    "_padding_": [
        0,
        0,
        0,
        0
    ],
    "_skin_": "sa98f2bef628482fb3e48715d668e3ec",
    "_text_": "",
    "_top_": {
        "type": "string",
        "value": "35dp"
    },
    "_width_": {
        "type": "ref",
        "value": "preferred"
    },
    "accessibilityconfig": {
        "a11yLabel": "Cant log in?"
    },
    "canUpdateUI": true,
    "centerx": {
        "type": "string",
        "value": "50%"
    },
    "containerweight": 100,
    "contentalignment": 3,
    "desktopweb": {
        "psp": {
            "hoverSkin": "sa98f2bef628482fb3e48715d668e3ec"
        }
    },
    "displaytext": true,
    "focusskin": "sa98f2bef628482fb3e48715d668e3ec",
    "id": "btnForgotPassword",
    "info": null,
    "isvisible": true,
    "kuid": "h94f0ac33db8468d9354168853324a16",
    "name": "kony.ui.Button",
    "parent": "flxOtherOptions",
    "pf": "userwidgetmodel",
    "texti18n": "i18n.Login.CantLogin",
    "tooltip": "Cant Sign in",
    "wType": "Button",
    "zindex": 1
}