{
    "@class": "com.kony.gen.viz.model.component.KVizUserWidget",
    "DNDConfig": null,
    "__parentReadjusting__": false,
    "_children_": [],
    "_height_": {
        "type": "ref",
        "value": "preferred"
    },
    "_left_": {
        "type": "number",
        "value": "0"
    },
    "_margin_": [
        0,
        0,
        0,
        0
    ],
    "_orientation_": 1,
    "_padding_": [
        0,
        0,
        0,
        0
    ],
    "_percent_": true,
    "_skin_": "sfc70b0d48c74fc5b678d118b1b8e23b",
    "_top_": {
        "type": "string",
        "value": "0dp"
    },
    "_width_": {
        "type": "string",
        "value": "100%"
    },
    "areflexpropsreferenced": false,
    "autogrowmode": 1,
    "canUpdateUI": true,
    "clipbounds": true,
    "containerweight": 0,
    "dataDiffs": {
        "EditableBulkPaymentDetails": {
            "__events__": {},
            "__info__": {
                "isRoot": true,
                "kuid": "e674f1bba2a748bba1f8536faa9cbf5e",
                "srcKUID": "a51f6f6c65e042a797ac91df9a638ed3",
                "wType": "FlexContainer"
            },
            "autogrowMode": {
                "Default": 1
            },
            "height": {
                "Default": {
                    "type": "ref",
                    "value": "preferred"
                }
            },
            "isVisible": false,
            "responsiveData": {},
            "top": {
                "Default": {
                    "type": "string",
                    "value": "0dp"
                }
            }
        },
        "btnEdit": {
            "__events__": {},
            "__info__": {
                "kuid": "j88d0384f0cc478a89b10cfaac3933a7",
                "srcKUID": "e7d5c6c6ba5f4facbd0419788dc6863f",
                "wType": "Button"
            }
        },
        "flxBtmSeperator": {
            "__events__": {},
            "__info__": {
                "kuid": "b950294cd0e043b48cba176776c67b0e",
                "srcKUID": "bf0fcd4ae91a43f0be98f503cbddcac9",
                "wType": "FlexContainer"
            },
            "responsiveData": {},
            "top": {
                "Default": {
                    "type": "string",
                    "value": "180dp"
                }
            }
        },
        "flxTitle": {
            "__events__": {},
            "__info__": {
                "kuid": "a7a383a4d2474b9aa32500f12d94be4c",
                "srcKUID": "e92c55c7755645499d4ba4776381882c",
                "wType": "FlexContainer"
            }
        },
        "flxTopSepartor": {
            "__events__": {},
            "__info__": {
                "kuid": "ec7bfb5ed051462881ac1b0d870b6d16",
                "srcKUID": "ed4b17b5ed9d4a428076c665f1a6f8e2",
                "wType": "FlexContainer"
            },
            "centerX": {
                "Default": {
                    "type": "string",
                    "value": "50%"
                }
            },
            "top": {
                "Default": {
                    "type": "string",
                    "value": "13dp"
                }
            }
        },
        "lblACHTitleText": {
            "__events__": {},
            "__info__": {
                "kuid": "e0c422f191494a289ad32ff8b01c299f",
                "srcKUID": "jb9c7c33af6740c898d4190dfa959643",
                "wType": "Label"
            }
        },
        "segEditableListBoxDetails": {
            "__events__": {},
            "__info__": {
                "kuid": "g865699d41e4405db6c10daccbf94be1",
                "srcKUID": "b1501e915d8443e6bd6ea187baa7244f",
                "wType": "Segment"
            },
            "autogrowMode": {
                "Default": 1
            },
            "data": {
                "desktop": [
                    {
                        "lblColon": {
                            "@class": "com.viz.ide.model.segment.SimpleTextSegmentData",
                            "text": ":"
                        },
                        "lblKey": {
                            "@class": "com.viz.ide.model.segment.SimpleTextSegmentData",
                            "text": "From Account"
                        },
                        "lstFrmAccount": {
                            "@class": "com.viz.ide.model.segment.CheckableSegmentData",
                            "masterData": [
                                [
                                    "Key3792415575",
                                    "Savings Account Nickname...2365"
                                ],
                                [
                                    "Key3338633066",
                                    "Value"
                                ],
                                [
                                    "Key2518722184",
                                    "Value"
                                ]
                            ],
                            "selectedKey": "Key3792415575"
                        }
                    }
                ]
            },
            "height": {
                "Default": {
                    "type": "ref",
                    "value": "preferred"
                }
            },
            "isVisible": true,
            "responsiveData": {},
            "top": {
                "Default": {
                    "type": "string",
                    "value": "20dp"
                }
            }
        },
        "segEditableTextBoxDetails": {
            "__events__": {},
            "__info__": {
                "kuid": "i6944b746e63412cabb35af47d00e6f0",
                "srcKUID": "ceb9b33d46324d938c8baed40c80d871",
                "wType": "Segment"
            },
            "autogrowMode": {
                "Default": 1
            },
            "data": {
                "desktop": [
                    {
                        "lblColon": {
                            "@class": "com.viz.ide.model.segment.SimpleTextSegmentData",
                            "text": ":"
                        },
                        "lblKey": {
                            "@class": "com.viz.ide.model.segment.SimpleTextSegmentData",
                            "text": "Description"
                        },
                        "txtDescription": {
                            "@class": "com.viz.ide.model.segment.ComplexTextSegmentData",
                            "placeholder": "",
                            "text": "June Salary Payment"
                        }
                    }
                ]
            },
            "height": {
                "Default": {
                    "type": "ref",
                    "value": "preferred"
                }
            },
            "responsiveData": {},
            "top": {
                "Default": {
                    "type": "string",
                    "value": "20dp"
                }
            }
        }
    },
    "enablescrolling": true,
    "id": "EditableBulkPaymentDetails",
    "info": null,
    "iscustomlayout": false,
    "isdatareferenced": false,
    "isvisible": false,
    "kuid": "e674f1bba2a748bba1f8536faa9cbf5e",
    "layouttype": 4,
    "masterType": 0,
    "name": "kony.ui.UserWidgetInstance",
    "parent": "flxEditableDetails",
    "pf": "frmBulkPaymentsReview",
    "retaincontentalignment": false,
    "retainflexpositionproperties": false,
    "snapgridsize": 10,
    "snaptogrid": true,
    "sourceUserWidget": "a51f6f6c65e042a797ac91df9a638ed3",
    "wType": "UserWidgetInstance"
}