{
    "DNDConfig": null,
    "__parentReadjusting__": false,
    "_height_": {
        "type": "string",
        "value": "100%"
    },
    "_left_": {
        "type": "number",
        "value": "0"
    },
    "_margin_": [
        0,
        0,
        0,
        0
    ],
    "_orientation_": 6,
    "_padding_": [
        0,
        0,
        0,
        0
    ],
    "_percent_": true,
    "_skin_": "s24c92fc23b14f5484b693ee9b8a9b35",
    "_top_": {
        "type": "number",
        "value": "0"
    },
    "_width_": {
        "type": "string",
        "value": "10%"
    },
    "allboxes": [],
    "canUpdateUI": true,
    "children": [
        "imgCheck"
    ],
    "clipbounds": true,
    "containerweight": 100,
    "enablescrolling": true,
    "id": "flxImgContainer",
    "info": null,
    "iscustomlayout": false,
    "isvisible": true,
    "kuid": "a5959265aaca4278ac40dc68d5168272",
    "layouttype": 2,
    "name": "kony.ui.FlexContainer",
    "parent": "flxAckMessage",
    "pf": "frmBulkPaymentsReview",
    "responsiveData": {
        "b1": {},
        "b2": {},
        "b3": {}
    },
    "retaincontentalignment": false,
    "retainflexpositionproperties": false,
    "retainflowhorizontalalignment": false,
    "snapgridsize": 10,
    "snaptogrid": true,
    "wType": "FlexContainer",
    "widgetalignment": 1
}