{
    "DNDConfig": null,
    "__parentReadjusting__": false,
    "_bottom_": {
        "type": "string",
        "value": "5dp"
    },
    "_height_": {
        "type": "string",
        "value": "85dp"
    },
    "_left_": {
        "type": "string",
        "value": "0dp"
    },
    "_margin_": [
        0,
        0,
        0,
        0
    ],
    "_orientation_": 6,
    "_padding_": [
        0,
        0,
        0,
        0
    ],
    "_percent_": true,
    "_skin_": "s24c92fc23b14f5484b693ee9b8a9b35",
    "_top_": {
        "type": "string",
        "value": "0dp"
    },
    "_width_": {
        "type": "string",
        "value": "100%"
    },
    "allboxes": [],
    "canUpdateUI": true,
    "children": [
        "lblPaymentRef",
        "tbxPaymentRef"
    ],
    "clipbounds": true,
    "containerweight": 100,
    "enablescrolling": true,
    "id": "flxPaymentRef",
    "info": null,
    "isvisible": true,
    "kuid": "b2734797988445cfa85663c468d71532",
    "layouttype": 2,
    "name": "kony.ui.FlexContainer",
    "parent": "flxAddMain",
    "pf": "frmBulkPaymentsReview",
    "responsiveData": {
        "b3": {
            "bottom": {
                "type": "string",
                "value": "0dp"
            }
        },
        "b4": {
            "height": {
                "type": "string",
                "value": "135dp"
            }
        }
    },
    "snapgridsize": 10,
    "snaptogrid": true,
    "wType": "FlexContainer",
    "widgetalignment": 1,
    "zindex": 1
}