{
    "@class": "com.kony.gen.viz.model.component.KVizTextBox2",
    "DNDConfig": null,
    "__parentReadjusting__": false,
    "_height_": {
        "type": "string",
        "value": "40dp"
    },
    "_left_": {
        "type": "string",
        "value": "1.39%"
    },
    "_margin_": [
        0,
        0,
        0,
        0
    ],
    "_padding_": [
        1,
        0,
        0,
        0
    ],
    "_placeholder_": "Enter Beneficiary Name",
    "_right_": {
        "type": "number",
        "value": ""
    },
    "_skin_": "sbad3c0dbd09447ea3f81eebcfc69002",
    "_text_": "",
    "_top_": {
        "type": "string",
        "value": "40dp"
    },
    "_width_": {
        "type": "string",
        "value": "35%"
    },
    "accessibilityconfig": {
        "a11yLabel": "Address Line 1"
    },
    "autocapitalize": "none",
    "autocomplete": false,
    "autocorrect": false,
    "autofilter": false,
    "canUpdateUI": true,
    "containerheight": "",
    "containerheightmode": 1,
    "containerweight": 100,
    "contentalignment": 4,
    "desktopweb": {
        "placeholderSkin": "s2c80fa6d5134545a85338a7ff090510",
        "psp": {
            "hoverSkin": "s80a8c5539a441ee9b9b49917cc45cc2"
        }
    },
    "disabledSkins": {},
    "focusskin": "s2faf9c2766d4142ab33d0bf97445ae0",
    "id": "tbxRecipientName",
    "info": null,
    "isvisible": true,
    "keyboardtype": "A",
    "kuid": "i20a82822b154c60897af3e9618a8d87",
    "mode": "A",
    "name": "kony.ui.TextBox2",
    "paddinginpixel": false,
    "parent": "flxRecipientName",
    "pf": "frmBulkPaymentsReview",
    "placeholderskin": "s2c80fa6d5134545a85338a7ff090510",
    "responsiveData": {
        "b3": {
            "width": {
                "type": "string",
                "value": "44.50%"
            }
        },
        "b4": {
            "right": {
                "type": "string",
                "value": "15dp"
            }
        }
    },
    "securetextentry": false,
    "textinputmode": "A",
    "tooltip": "",
    "viewtype": "default",
    "wType": "TextField",
    "zindex": 1
}