{
    "@class": "com.kony.gen.viz.model.component.KVizTextBox2",
    "DNDConfig": null,
    "__parentReadjusting__": false,
    "_height_": {
        "type": "string",
        "value": "100%"
    },
    "_left_": {
        "type": "string",
        "value": "45dp"
    },
    "_margin_": [
        0,
        0,
        0,
        0
    ],
    "_padding_": [
        0,
        0,
        0,
        0
    ],
    "_placeholder_": "Search for keywords",
    "_skin_": "s7a4fe8997aa47b08db84e90d970f612",
    "_text_": "",
    "_width_": {
        "type": "string",
        "value": "90%"
    },
    "autocapitalize": "none",
    "autocomplete": false,
    "autocorrect": false,
    "autofilter": false,
    "canUpdateUI": true,
    "centery": {
        "type": "string",
        "value": "50%"
    },
    "containerheight": "",
    "containerheightmode": 1,
    "containerweight": 100,
    "contentalignment": 4,
    "desktopweb": {
        "placeholderSkin": "s1471302d30a495aa7b9d5bf5f0556e1"
    },
    "disabledSkins": {},
    "focusskin": "s7a4fe8997aa47b08db84e90d970f612",
    "id": "tbxSearch",
    "info": null,
    "iscustomlayout": false,
    "isvisible": true,
    "keyboardtype": "A",
    "kuid": "ifc3556e96d64140aa9a16dea239b62f",
    "mode": "A",
    "name": "kony.ui.TextBox2",
    "paddingLocked": false,
    "paddinginpixel": false,
    "parent": "flxBoxSearch",
    "pf": "frmBulkPaymentsReview",
    "placeholderskin": "s1471302d30a495aa7b9d5bf5f0556e1",
    "retaincontentalignment": false,
    "retainflexpositionproperties": false,
    "securetextentry": false,
    "textinputmode": "A",
    "tooltip": "",
    "viewtype": "default",
    "wType": "TextField",
    "zindex": 1
}