{
    "DNDConfig": null,
    "__parentReadjusting__": false,
    "_height_": {
        "type": "string",
        "value": "180dp"
    },
    "_left_": {
        "type": "string",
        "value": "30dp"
    },
    "_margin_": [
        0,
        0,
        0,
        0
    ],
    "_orientation_": 6,
    "_padding_": [
        0,
        0,
        0,
        0
    ],
    "_percent_": true,
    "_skin_": "s2f1930e68bc4b258cfe821e7f0122cd",
    "_top_": {
        "type": "string",
        "value": "265dp"
    },
    "_width_": {
        "type": "string",
        "value": "235dp"
    },
    "allboxes": [],
    "autogrowmode": 0,
    "canUpdateUI": true,
    "children": [
        "flxToInternationalInfo",
        "flxToInternationalProceed",
        "flxArrow4"
    ],
    "clipbounds": false,
    "containerweight": 100,
    "desktopweb": {
        "psp": {
            "hoverSkin": "sdc143f0e5b64ae3a3f155f691c73fa7"
        }
    },
    "disabledSkins": {},
    "enablescrolling": true,
    "id": "flxToInternational",
    "info": null,
    "isvisible": true,
    "kuid": "f94b3c78128345d58c7a5723b4be24ed",
    "layouttype": 2,
    "name": "kony.ui.FlexContainer",
    "parent": "flxTransfersGateway",
    "pf": "userwidgetmodel",
    "snapgridsize": 10,
    "snaptogrid": true,
    "wType": "FlexContainer",
    "widgetalignment": 1,
    "zindex": 1
}