{
	 "@class": "com.kony.gen.viz.model.component.KVizImage2",
	 "DNDConfig": null,
	 "__parentReadjusting__": false,
	 "_base64_": null,
	 "_height_": {
		 "type": "string",
		 "value": "15dp"
	},
	 "_left_": {
		 "type": "number",
		 "value": "3"
	},
	 "_margin_": [
		 0,
		 0,
		 0,
		 0
	],
	 "_padding_": [
		 0,
		 0,
		 0,
		 0
	],
	 "_skin_": "s8ee487de5774c1eb668e74bf92f5cdd",
	 "_src_": "sorting.png",
	 "_width_": {
		 "type": "string",
		 "value": "12dp"
	},
	 "accessibilityconfig": {
		 "a11yLabel": "Sort",
		 "a11yValue": ""
	},
	 "canUpdateUI": true,
	 "centery": {
		 "type": "string",
		 "value": "50%"
	},
	 "containerweight": 100,
	 "context": {
		 "channel": "desktop",
		 "formID": "uw48f59ba1ac324f07b3ab3a83be7f3f93",
		 "platform": "desktopweb",
		 "templateType": "userwidgets",
		 "topLevelBox": null
	},
	 "id": "imgSortTypeExternal",
	 "imagescalemode": 1,
	 "imagewhiledownloading": "img_transparent.png",
	 "info": null,
	 "isvisible": true,
	 "kuid": "g0aca6c130f14f6da797cbb8ec32a497",
	 "name": "kony.ui.Image2",
	 "parent": "flxSortAmountExternal",
	 "pf": "userwidgetmodel",
	 "srcType": 1,
	 "tooltip": "Sort By Status",
	 "wType": "Image",
	 "widgetalignment": 5,
	 "zindex": 1
}