{
	 "@class": "com.kony.gen.viz.model.component.KVizLabel",
	 "DNDConfig": null,
	 "__parentReadjusting__": false,
	 "_height_": {
		 "type": "ref",
		 "value": "preferred"
	},
	 "_margin_": [
		 1,
		 1,
		 1,
		 1
	],
	 "_padding_": [
		 0,
		 0,
		 0,
		 0
	],
	 "_right_": {
		 "type": "string",
		 "value": "15dp"
	},
	 "_skin_": "sb762cfb10e44767ab55e9698df7f8f9",
	 "_text_": "Q",
	 "_width_": {
		 "type": "ref",
		 "value": "preferred"
	},
	 "_wrapping_": 2,
	 "accessibilityconfig": {
		 "a11yLabel": "Pagination Right"
	},
	 "android": {
		 "textStyle": {
			 "letterSpacing": 0,
			 "strikeThrough": false
		}
	},
	 "canUpdateUI": true,
	 "centery": {
		 "type": "string",
		 "value": "50%"
	},
	 "containerweight": 100,
	 "contentalignment": 4,
	 "id": "lblArrow1",
	 "info": null,
	 "ipad": {
		 "psp": {
			 "wrapping": 2
		}
	},
	 "iphone": {
		 "psp": {
			 "wrapping": 2
		}
	},
	 "isvisible": true,
	 "kuid": "hf0927be6b3a4709ba07a6f353bff531",
	 "name": "kony.ui.Label",
	 "parent": "flxArrow1",
	 "pf": "userwidgetmodel",
	 "tooltip": "",
	 "wType": "Label",
	 "zindex": 1
}