{
    "BusinessControllerConfig": {
        "BusinessControllerClass": "TransferFastModule/BusinessControllers/BusinessController",
        "CommandHandler": []
    },
    "Forms": {
        "desktop": {
            "frmConfirmTransfer": {
                "Controller": "TransferFastModule/frmConfirmTransferController",
                "ControllerExtensions": [],
                "FormController": "kony.mvc.MDAFormController",
                "FormName": "TransferFastModule/frmConfirmTransfer",
                "friendlyName": "frmConfirmTransfer"
            },
            "frmFastActiveAck": {
                "Controller": "TransferFastModule/frmFastActiveAckController",
                "ControllerExtensions": [],
                "FormController": "kony.mvc.MDAFormController",
                "FormName": "TransferFastModule/frmFastActiveAck",
                "friendlyName": "frmFastActiveAck"
            },
            "frmFastActiveRecipient": {
                "Controller": "TransferFastModule/frmFastActiveRecipientController",
                "ControllerExtensions": [],
                "FormController": "kony.mvc.MDAFormController",
                "FormName": "TransferFastModule/frmFastActiveRecipient",
                "friendlyName": "frmFastActiveRecipient"
            },
            "frmFastActiveServices": {
                "Controller": "TransferFastModule/frmFastActiveServicesController",
                "ControllerExtensions": [],
                "FormController": "kony.mvc.MDAFormController",
                "FormName": "TransferFastModule/frmFastActiveServices",
                "friendlyName": "frmFastActiveServices"
            },
            "frmFastAddDBXAccount": {
                "Controller": "TransferFastModule/frmFastAddDBXAccountController",
                "ControllerExtensions": [],
                "FormController": "kony.mvc.MDAFormController",
                "FormName": "TransferFastModule/frmFastAddDBXAccount",
                "friendlyName": "frmFastAddDBXAccount"
            },
            "frmFastAddDBXAccountAcknowledgement": {
                "Controller": "TransferFastModule/frmFastAddDBXAccountAcknowledgementController",
                "ControllerExtensions": [],
                "FormController": "kony.mvc.MDAFormController",
                "FormName": "TransferFastModule/frmFastAddDBXAccountAcknowledgement",
                "friendlyName": "frmFastAddDBXAccountAcknowledgement"
            },
            "frmFastAddDBXAccountConfirm": {
                "Controller": "TransferFastModule/frmFastAddDBXAccountConfirmController",
                "ControllerExtensions": [],
                "FormController": "kony.mvc.MDAFormController",
                "FormName": "TransferFastModule/frmFastAddDBXAccountConfirm",
                "friendlyName": "frmFastAddDBXAccountConfirm"
            },
            "frmFastAddDBXLinkRecipient": {
                "Controller": "TransferFastModule/frmFastAddDBXLinkRecipientController",
                "ControllerExtensions": [],
                "FormController": "kony.mvc.MDAFormController",
                "FormName": "TransferFastModule/frmFastAddDBXLinkRecipient"
            },
            "frmFastAddExternalAccount": {
                "Controller": "TransferFastModule/frmFastAddExternalAccountController",
                "ControllerExtensions": [],
                "FormController": "kony.mvc.MDAFormController",
                "FormName": "TransferFastModule/frmFastAddExternalAccount",
                "friendlyName": "frmFastAddExternalAccount"
            },
            "frmFastAddExternalAccountAcknowledgement": {
                "Controller": "TransferFastModule/frmFastAddExternalAccountAcknowledgementController",
                "ControllerExtensions": [],
                "FormController": "kony.mvc.MDAFormController",
                "FormName": "TransferFastModule/frmFastAddExternalAccountAcknowledgement",
                "friendlyName": "frmFastAddExternalAccountAcknowledgement"
            },
            "frmFastAddExternalAccountConfirm": {
                "Controller": "TransferFastModule/frmFastAddExternalAccountConfirmController",
                "ControllerExtensions": [],
                "FormController": "kony.mvc.MDAFormController",
                "FormName": "TransferFastModule/frmFastAddExternalAccountConfirm",
                "friendlyName": "frmFastAddExternalAccountConfirm"
            },
            "frmFastAddInternationalAccount": {
                "Controller": "TransferFastModule/frmFastAddInternationalAccountController",
                "ControllerExtensions": [],
                "FormController": "kony.mvc.MDAFormController",
                "FormName": "TransferFastModule/frmFastAddInternationalAccount",
                "friendlyName": "frmFastAddInternationalAccount"
            },
            "frmFastAddInternationalAccountAcknowledgement": {
                "Controller": "TransferFastModule/frmFastAddInternationalAccountAcknowledgementController",
                "ControllerExtensions": [],
                "FormController": "kony.mvc.MDAFormController",
                "FormName": "TransferFastModule/frmFastAddInternationalAccountAcknowledgement",
                "friendlyName": "frmFastAddInternationalAccountAcknowledgement"
            },
            "frmFastAddInternationalAccountConfirm": {
                "Controller": "TransferFastModule/frmFastAddInternationalAccountConfirmController",
                "ControllerExtensions": [],
                "FormController": "kony.mvc.MDAFormController",
                "FormName": "TransferFastModule/frmFastAddInternationalAccountConfirm",
                "friendlyName": "frmFastAddInternationalAccountConfirm"
            },
            "frmFastAddRecipient": {
                "Controller": "TransferFastModule/frmFastAddRecipientController",
                "ControllerExtensions": [],
                "FormController": "kony.mvc.MDAFormController",
                "FormName": "TransferFastModule/frmFastAddRecipient",
                "friendlyName": "frmFastAddRecipient"
            },
            "frmFastAddRecipientAcknowledgement": {
                "Controller": "TransferFastModule/frmFastAddRecipientAcknowledgementController",
                "ControllerExtensions": [],
                "FormController": "kony.mvc.MDAFormController",
                "FormName": "TransferFastModule/frmFastAddRecipientAcknowledgement",
                "friendlyName": "frmFastAddRecipientAcknowledgement"
            },
            "frmFastAddRecipientConfirm": {
                "Controller": "TransferFastModule/frmFastAddRecipientConfirmController",
                "ControllerExtensions": [],
                "FormController": "kony.mvc.MDAFormController",
                "FormName": "TransferFastModule/frmFastAddRecipientConfirm",
                "friendlyName": "frmFastAddRecipientConfirm"
            },
            "frmFastDeActiveRecipient": {
                "Controller": "TransferFastModule/frmFastDeActiveRecipientController",
                "ControllerExtensions": [],
                "FormController": "kony.mvc.MDAFormController",
                "FormName": "TransferFastModule/frmFastDeActiveRecipient",
                "friendlyName": "frmFastDeActiveRecipient"
            },
            "frmFastDeActiveRecipienttAcknowledgement": {
                "Controller": "TransferFastModule/frmFastDeActiveRecipienttAcknowledgementController",
                "ControllerExtensions": [],
                "FormController": "kony.mvc.MDAFormController",
                "FormName": "TransferFastModule/frmFastDeActiveRecipienttAcknowledgement",
                "friendlyName": "frmFastDeActiveRecipienttAcknowledgement"
            },
            "frmFastManagePayee": {
                "Controller": "TransferFastModule/frmFastManagePayeeController",
                "ControllerExtensions": [],
                "FormController": "kony.mvc.MDAFormController",
                "FormName": "TransferFastModule/frmFastManagePayee",
                "friendlyName": "frmFastManagePayee"
            },
            "frmFastRecipientGateWay": {
                "Controller": "TransferFastModule/frmFastRecipientGateWayController",
                "ControllerExtensions": [],
                "FormController": "kony.mvc.MDAFormController",
                "FormName": "TransferFastModule/frmFastRecipientGateWay",
                "friendlyName": "frmFastRecipientGateWay"
            },
            "frmFastTransfers": {
                "Controller": "TransferFastModule/frmFastTransfersController",
                "ControllerExtensions": [],
                "FormController": "kony.mvc.MDAFormController",
                "FormName": "TransferFastModule/frmFastTransfers",
                "friendlyName": "frmFastTransfers"
            },
            "frmFastTransfersActivites": {
                "Controller": "TransferFastModule/frmFastTransfersActivitesController",
                "ControllerExtensions": [],
                "FormController": "kony.mvc.MDAFormController",
                "FormName": "TransferFastModule/frmFastTransfersActivites",
                "friendlyName": "frmFastTransfersActivites"
            },
            "frmFastVerifyAccount": {
                "Controller": "TransferFastModule/frmFastVerifyAccountController",
                "ControllerExtensions": [],
                "FormController": "kony.mvc.MDAFormController",
                "FormName": "TransferFastModule/frmFastVerifyAccount"
            },
            "frmFastViewActivity": {
                "Controller": "TransferFastModule/frmFastViewActivityController",
                "ControllerExtensions": [],
                "FormController": "kony.mvc.MDAFormController",
                "FormName": "TransferFastModule/frmFastViewActivity",
                "friendlyName": "frmFastViewActivity"
            },
            "frmP2PSettings": {
                "Controller": "TransferFastModule/frmP2PSettingsController",
                "ControllerExtensions": [],
                "FormController": "kony.mvc.MDAFormController",
                "FormName": "TransferFastModule/frmP2PSettings",
                "friendlyName": "frmP2PSettings"
            },
            "frmReview": {
                "Controller": "TransferFastModule/frmReviewController",
                "ControllerExtensions": [],
                "FormController": "kony.mvc.MDAFormController",
                "FormName": "TransferFastModule/frmReview",
                "friendlyName": "frmReview"
            }
        }
    },
    "ModuleName": "TransferFastModule",
    "PresentationControllerConfig": {
        "Default": {
            "PresentationControllerClass": "TransferFastModule/PresentationControllers/PresentationController",
            "PresentationExtensions": []
        }
    }
}