{
    "@class": "com.kony.gen.viz.model.component.KVizUserWidget",
    "DNDConfig": null,
    "__parentReadjusting__": false,
    "_android_": {},
    "_androidwearos_": {},
    "_children_": [],
    "_desktopweb_": {},
    "_height_": {
        "type": "string",
        "value": "52dp"
    },
    "_ipad_": {},
    "_iphone_": {},
    "_kiosk_": {},
    "_left_": {
        "type": "string",
        "value": "0dp"
    },
    "_margin_": [
        0,
        0,
        0,
        0
    ],
    "_orientation_": 1,
    "_padding_": [
        0,
        0,
        0,
        0
    ],
    "_percent_": true,
    "_render_": true,
    "_responsiveData_": {},
    "_skin_": "s2ce93a13331476c8dd4bdd20e9a2e14",
    "_spa_": {},
    "_spaan_": {},
    "_spaandroidtablet_": {},
    "_spabb_": {},
    "_spaip_": {},
    "_spaipad_": {},
    "_spamobile_": {},
    "_spatablet_": {},
    "_spawindowstablet_": {},
    "_spawinphone8_": {},
    "_tabrcandroid_": {},
    "_top_": {
        "type": "string",
        "value": "1dp"
    },
    "_vizProps_": {
        "hidewidgethierarchy": false
    },
    "_width_": {
        "type": "string",
        "value": "100%"
    },
    "_windows10_": {},
    "_windows8_": {},
    "_winphone10_": {},
    "_winphone8_": {},
    "areflexpropsreferenced": false,
    "autogrowmode": 0,
    "canUpdateUI": true,
    "clipbounds": true,
    "containerweight": 0,
    "dataDiffs": {
        "breadcrumb": {
            "__events__": {},
            "__info__": {
                "isRoot": true,
                "kuid": "c875dffb40f24fa6ba7cb56776400061",
                "srcKUID": "jdbd779e0c7743739197ebb17ae3c27e",
                "wType": "FlexContainer"
            },
            "autogrowMode": {
                "Default": 0
            },
            "height": {
                "Default": {
                    "type": "string",
                    "value": "52dp"
                }
            },
            "isVisible": false,
            "responsiveData": {},
            "top": {
                "Default": {
                    "type": "string",
                    "value": "1dp"
                }
            }
        },
        "btnBreadcrumb1": {
            "__events__": {
                "ide_onClick": "AS_Button_cc4d8c9e32304406b0b35ff3a5973c01"
            },
            "__info__": {
                "kuid": "c6d33b4d07634ddf9d1482c8a742702b",
                "srcKUID": "j8c10426f5ad4cc5abe5b3dafa2dbb1c",
                "wType": "Button"
            },
            "i18n_text": "i18n.hamburger.transfers",
            "text": "TRANSFERS"
        },
        "btnBreadcrumb2": {
            "__events__": {
                "ide_onClick": "AS_Button_c7749033cdc2442cb77658d27e7fb201"
            },
            "__info__": {
                "kuid": "f234a25fb3d449849bca46638bc914d1",
                "srcKUID": "e8107b226c2b40cf90a9a46174bc7f1d",
                "wType": "Button"
            },
            "i18n_text": "i18n.AccountDetails.MAKETRANSFER"
        },
        "flxBottomBorder": {
            "__events__": {},
            "__info__": {
                "kuid": "c04d751a7405457084ffdc2cf538ea28",
                "srcKUID": "i0ec1627a998464aade04cd886ef46aa",
                "wType": "FlexContainer"
            }
        },
        "flxBreadcrumbcontainer": {
            "__events__": {},
            "__info__": {
                "kuid": "c5ce6be281774bbf9eaf3c69dac37467",
                "srcKUID": "j0c7057677fd4a26b82f7fa59cdd360e",
                "wType": "FlexContainer"
            },
            "autogrowMode": {
                "Default": 0
            },
            "centerX": {
                "Default": {
                    "type": "string",
                    "value": "50%"
                }
            },
            "height": {
                "Default": {
                    "type": "string",
                    "value": "50dp"
                }
            },
            "top": {
                "Default": {
                    "type": "string",
                    "value": "1dp"
                }
            },
            "width": {
                "Default": {
                    "type": "string",
                    "value": "1366dp"
                }
            }
        },
        "flxTopBorder": {
            "__events__": {},
            "__info__": {
                "kuid": "f7d5c1212a2345928663adbc417bbdfd",
                "srcKUID": "bb6bda1822574264b7678002ffe888d6",
                "wType": "FlexContainer"
            },
            "top": {
                "Default": {
                    "type": "string",
                    "value": "0dp"
                }
            }
        },
        "imgBreadcrumb": {
            "__events__": {},
            "__info__": {
                "kuid": "a7a10986a0eb4f5d9fa699b79505b51e",
                "srcKUID": "f5a4304fad2f41a3b5b783c4326dfc7f",
                "wType": "Image"
            }
        },
        "imgBreadcrumb2": {
            "__events__": {},
            "__info__": {
                "kuid": "f33f3ed7bcaf4af2ac9d96d4cfe7134b",
                "srcKUID": "ec657451494941c9970301e279e7bf1a",
                "wType": "Image"
            }
        },
        "lblBreadcrumb2": {
            "__events__": {},
            "__info__": {
                "kuid": "a6d78c07df5546c4921ed4b4c95d38b1",
                "srcKUID": "c087aea595bb4c9fa3e64e58b7e245f9",
                "wType": "Label"
            },
            "i18n_text": "i18n.AccountDetails.MAKETRANSFER"
        },
        "lblBreadcrumb3": {
            "__events__": {},
            "__info__": {
                "kuid": "f55bfa7a9a4d45d3908e1b6e932927c4",
                "srcKUID": "ec107db8650a4c9db78a5676ab665c29",
                "wType": "Label"
            },
            "i18n_text": "i18n.hamburger.transfers"
        }
    },
    "id": "breadcrumb",
    "info": null,
    "isdatareferenced": false,
    "isvisible": false,
    "kuid": "c875dffb40f24fa6ba7cb56776400061",
    "layouttype": 2,
    "masterType": 0,
    "name": "kony.ui.UserWidgetInstance",
    "parent": "flxMainContainer",
    "pf": "frmAddInternalAccountEur",
    "snaptogrid": true,
    "sourceUserWidget": "jdbd779e0c7743739197ebb17ae3c27e",
    "vizprops": {
        "hidewidgethierarchy": false
    },
    "wType": "UserWidgetInstance"
}