{
	"DNDConfig": null,
	"__parentReadjusting__": false,
	"_height_": {
		"type": "string",
		"value": "150dp"
	},
	"_left_": {
		"type": "string",
		"value": "0dp"
	},
	"_margin_": [
		0,
		0,
		0,
		0
	],
	"_orientation_": 6,
	"_padding_": [
		0,
		0,
		0,
		0
	],
	"_percent_": true,
	"_skin_": "sd3a991a352b4393a7ba7f7ee976b318",
	"_top_": {
		"type": "string",
		"value": "0dp"
	},
	"_width_": {
		"type": "string",
		"value": "100%"
	},
	"allboxes": [],
	"autogrowmode": 0,
	"canUpdateUI": true,
	"children": [
		"customfooter",
		"flxleftcontainer",
		"flxrightcontainer"
	],
	"clipbounds": false,
	"containerweight": 100,
	"enablescrolling": true,
	"id": "flxfootercontainer",
	"info": null,
	"isvisible": false,
	"kuid": "bc1866c153414afa9151b87a64f39189",
	"layouttype": 2,
	"name": "kony.ui.FlexContainer",
	"parent": "flxMainContainer",
	"pf": "frmAddInternalAccountEur",
	"snapgridsize": 10,
	"snaptogrid": true,
	"wType": "FlexContainer",
	"widgetalignment": 1,
	"zindex": 1
}