{
    "@class": "com.kony.gen.viz.model.component.KVizButton",
    "DNDConfig": null,
    "__parentReadjusting__": false,
    "_height_": {
        "type": "string",
        "value": "40dp"
    },
    "_margin_": [
        6,
        6,
        6,
        6
    ],
    "_padding_": [
        0,
        0,
        0,
        0
    ],
    "_right_": {
        "type": "string",
        "value": "4.50%"
    },
    "_skin_": "s95376e131db404ebbe858e3b39046ef",
    "_text_": "",
    "_width_": {
        "type": "string",
        "value": "27.70%"
    },
    "accessibilityconfig": {
        "a11yLabel": "Fund Accounts"
    },
    "canUpdateUI": true,
    "centery": {
        "type": "string",
        "value": "50%"
    },
    "containerweight": 100,
    "contentalignment": 5,
    "desktopweb": {
        "psp": {
            "hoverSkin": "s1adc431d69b4514a216da86d642889f"
        }
    },
    "disabledSkins": {
        "focusSkin": "sf44d06ca8224832827ea7fdff757013"
    },
    "displaytext": true,
    "id": "btnAckFundAccounts",
    "info": null,
    "isvisible": false,
    "kuid": "i5f72d2fb4d3434cb32eeea0eeb32a62",
    "name": "kony.ui.Button",
    "parent": "flxAcknowledgementButtons",
    "pf": "userwidgetmodel",
    "texti18n": "i18n.NAO.FundAccounts",
    "tooltip": "Fund Accounts",
    "wType": "Button",
    "zindex": 1
}