{
    "DNDConfig": null,
    "_height_": {
        "type": "ref",
        "value": "preferred"
    },
    "_left_": {
        "type": "string",
        "value": "0dp"
    },
    "_margin_": [
        0,
        0,
        0,
        0
    ],
    "_orientation_": 6,
    "_padding_": [
        0,
        0,
        0,
        0
    ],
    "_percent_": true,
    "_skin_": "s24c92fc23b14f5484b693ee9b8a9b35",
    "_top_": {
        "type": "string",
        "value": "0dp"
    },
    "_width_": {
        "type": "string",
        "value": "100%"
    },
    "allboxes": [],
    "autogrowmode": 1,
    "canUpdateUI": true,
    "children": [
        "flxSelectReasonForDispute",
        "flxHorizontalLine0",
        "flxSort",
        "flxMonthStatements1",
        "flxMonthStatements2",
        "flxMonthStatements3",
        "flxMonthStatements4",
        "flxMonthStatements5",
        "flxMonthStatements6",
        "flxMonthStatements7",
        "flxMonthStatements8",
        "flxMonthStatements9",
        "flxMonthStatements10",
        "flxMonthStatements11",
        "flxMonthStatements12",
        "flxNoRecordsFound"
    ],
    "clipbounds": true,
    "containerweight": 100,
    "enablescrolling": true,
    "id": "flxMonthsData",
    "info": null,
    "iscustomlayout": false,
    "isvisible": true,
    "kuid": "j6d7c24cd9894a3aba659e39313c204c",
    "layouttype": 4,
    "name": "kony.ui.FlexContainer",
    "parent": "flxMain",
    "pf": "userwidgetmodel",
    "responsiveData": {
        "b3": {
            "skin": "sb8778dd78d542b69dd0c20f0a20135f"
        }
    },
    "retaincontentalignment": false,
    "retainflexpositionproperties": false,
    "retainflowhorizontalalignment": false,
    "snapgridsize": 10,
    "snaptogrid": true,
    "wType": "FlexContainer",
    "widgetalignment": 1,
    "zindex": 5
}