{
    "@class": "com.kony.gen.viz.model.component.KVizLabel",
    "DNDConfig": null,
    "_height_": {
        "type": "ref",
        "value": "preferred"
    },
    "_left_": {
        "type": "string",
        "value": "3%"
    },
    "_margin_": [
        1,
        1,
        1,
        1
    ],
    "_padding_": [
        0,
        0,
        0,
        0
    ],
    "_skin_": "s0fd50fdebca46cfb6a7c700f3d0f86a",
    "_text_": "December",
    "_top_": {
        "type": "string",
        "value": "10dp"
    },
    "_width_": {
        "type": "ref",
        "value": "preferred"
    },
    "_wrapping_": 2,
    "accessibilityconfig": {
        "a11yLabel": "Label"
    },
    "android": {
        "textStyle": {
            "letterSpacing": 0,
            "strikeThrough": false
        }
    },
    "canUpdateUI": true,
    "containerweight": 100,
    "contentalignment": 1,
    "id": "lblMonth10",
    "info": null,
    "ipad": {
        "psp": {
            "wrapping": 2
        }
    },
    "iphone": {
        "psp": {
            "wrapping": 2
        }
    },
    "isvisible": true,
    "kuid": "ef0f3c40f3fb4506b11286e0dfd3a1b6",
    "name": "kony.ui.Label",
    "paddinginpixel": false,
    "parent": "flexDataMonth10",
    "pf": "userwidgetmodel",
    "responsiveData": {
        "b1": {
            "left": {
                "type": "string",
                "value": "30dp"
            }
        },
        "b2": {},
        "b3": {
            "contentAlignment": 4,
            "height": {
                "type": "string",
                "value": "40dp"
            },
            "top": {
                "type": "string",
                "value": "0dp"
            }
        }
    },
    "tooltip": "Label",
    "wType": "Label",
    "zindex": 1
}