{
    "@class": "com.kony.gen.viz.model.component.KVizButton",
    "DNDConfig": null,
    "__parentReadjusting__": false,
    "_height_": {
        "type": "ref",
        "value": "preferred"
    },
    "_margin_": [
        6,
        6,
        6,
        6
    ],
    "_padding_": [
        0,
        0,
        0,
        0
    ],
    "_right_": {
        "type": "string",
        "value": "0dp"
    },
    "_skin_": "sf6ca31ec68641e5a2df8232c58cd39a",
    "_text_": "Repeat",
    "_top_": {
        "type": "string",
        "value": "0dp"
    },
    "_width_": {
        "type": "string",
        "value": "100%"
    },
    "accessibilityconfig": {
        "a11yLabel": "Repeat"
    },
    "canUpdateUI": true,
    "containerId": true,
    "containerweight": 100,
    "contentalignment": 6,
    "desktopweb": {
        "psp": {
            "hoverSkin": "sf6ca31ec68641e5a2df8232c58cd39a"
        }
    },
    "disabledSkins": {
        "focusSkin": "sf44d06ca8224832827ea7fdff757013"
    },
    "displaytext": true,
    "id": "btnRepeat",
    "ide_onClick": "AS_Button_fdc36b0e77b34c39a8ea3585360caa65",
    "info": null,
    "isvisible": true,
    "kuid": "b82e84578d2042c18d5b1d0afdb344b1",
    "name": "kony.ui.Button",
    "parent": "flxAction",
    "pf": "segBillPayHistoryDetailsMobile",
    "tooltip": "Repeat",
    "wType": "Button",
    "zindex": 1
}