{
    "@class": "com.kony.gen.viz.model.component.KVizButton",
    "DNDConfig": null,
    "__parentReadjusting__": false,
    "_height_": {
        "type": "ref",
        "value": "preferred"
    },
    "_left_": {
        "type": "string",
        "value": "0dp"
    },
    "_margin_": [
        6,
        6,
        6,
        6
    ],
    "_padding_": [
        0,
        0,
        0,
        0
    ],
    "_skin_": "s82771fb0d3040339aab7fd2e47af223",
    "_text_": "Print",
    "_top_": {
        "type": "string",
        "value": "5px"
    },
    "_width_": {
        "type": "string",
        "value": "99%"
    },
    "accessibilityconfig": {
        "a11yLabel": "Print"
    },
    "canUpdateUI": true,
    "containerId": true,
    "containerweight": 100,
    "contentalignment": 4,
    "disabledSkins": {
        "focusSkin": "sf44d06ca8224832827ea7fdff757013"
    },
    "displaytext": true,
    "id": "lblWithdrawalAmountValue",
    "ide_onClick": "AS_Button_e78e5dadef594966ac2006fdad5896df",
    "info": null,
    "isvisible": true,
    "kuid": "j5b89b62cc3641d18fe7a71d0d0bd259",
    "name": "kony.ui.Button",
    "parent": "flxWithdrawalAmountHeader",
    "pf": "segTransactionsRowSelectedSavings",
    "tooltip": "Print",
    "wType": "Button",
    "zindex": 1
}