{
	 "@class": "com.kony.gen.viz.model.component.KVizLabel",
	 "DNDConfig": null,
	 "__parentReadjusting__": false,
	 "_height_": {
		 "type": "ref",
		 "value": "preferred"
	},
	 "_left_": {
		 "type": "string",
		 "value": "8dp"
	},
	 "_margin_": [
		 1,
		 1,
		 1,
		 1
	],
	 "_padding_": [
		 0,
		 0,
		 0,
		 0
	],
	 "_skin_": "sf45ca27a4704285be2caf389f55adc3",
	 "_text_": "Select any one or both mode of contact to get a secure access code.",
	 "_top_": {
		 "type": "string",
		 "value": "0dp"
	},
	 "_width_": {
		 "type": "string",
		 "value": "91%"
	},
	 "_wrapping_": 2,
	 "accessibilityconfig": {
		 "a11yLabel": "Note: Your CVV number is confidential. Please dont share this number with anyone!"
	},
	 "android": {
		 "textStyle": {
			 "letterSpacing": 0,
			 "strikeThrough": false
		}
	},
	 "canUpdateUI": true,
	 "containerweight": 100,
	 "contentalignment": 5,
	 "id": "lblResendMessage",
	 "info": null,
	 "ipad": {
		 "psp": {
			 "wrapping": 2
		}
	},
	 "iphone": {
		 "psp": {
			 "wrapping": 2
		}
	},
	 "isvisible": true,
	 "kuid": "cbba658422a8417793c34c8ffd62fca5",
	 "name": "kony.ui.Label",
	 "parent": "flxDescription",
	 "pf": "userwidgetmodel",
	 "texti18n": "i18n.mfa.newDeviceDetected",
	 "tooltip": "",
	 "wType": "Label",
	 "zindex": 1
}