{
	 "@class": "com.kony.gen.viz.model.component.KVizImage2",
	 "DNDConfig": null,
	 "__parentReadjusting__": false,
	 "_base64_": null,
	 "_height_": {
		 "type": "string",
		 "value": "40dp"
	},
	 "_left_": {
		 "type": "string",
		 "value": "30dp"
	},
	 "_margin_": [
		 0,
		 0,
		 0,
		 0
	],
	 "_padding_": [
		 0,
		 0,
		 0,
		 0
	],
	 "_skin_": "s78a5f26c9f14cec9ebed1bb46098f80",
	 "_src_": "info_large.png",
	 "_top_": {
		 "type": "string",
		 "value": "30dp"
	},
	 "_width_": {
		 "type": "string",
		 "value": "40dp"
	},
	 "canUpdateUI": true,
	 "containerweight": 100,
	 "context": {
		 "channel": "desktop",
		 "formID": "uw8b72cd744ff84ed9a2925f84b410bee4",
		 "platform": "desktopweb",
		 "templateType": "userwidgets",
		 "topLevelBox": null
	},
	 "id": "imgInfo",
	 "imagescalemode": 1,
	 "info": null,
	 "isvisible": true,
	 "kuid": "ce9130624fdd48bd97ca711fef349a40",
	 "name": "kony.ui.Image2",
	 "parent": "flxNoRecords",
	 "pf": "userwidgetmodel",
	 "srcType": 1,
	 "wType": "Image",
	 "widgetalignment": 5,
	 "zindex": 1,
	 "accessibilityconfig": {
		 "a11yLabel": "Info",
		 "a11yValue": ""
	}
}