{
    "DNDConfig": null,
    "__parentReadjusting__": false,
    "_height_": {
        "type": "ref",
        "value": "preferred"
    },
    "_left_": {
        "type": "string",
        "value": "0%"
    },
    "_margin_": [
        0,
        0,
        0,
        0
    ],
    "_orientation_": 6,
    "_padding_": [
        0,
        0,
        0,
        0
    ],
    "_percent_": true,
    "_skin_": "sfe7c6ddceef4b24a7f6bb890bb111a5",
    "_top_": {
        "type": "string",
        "value": "15dp"
    },
    "_width_": {
        "type": "string",
        "value": "100%"
    },
    "allboxes": [],
    "autogrowmode": 1,
    "canUpdateUI": true,
    "children": [
        "flxCheck2Ttitle",
        "flxBankName2",
        "flxCheckImage2Icon",
        "flxWithdrawalAmountCheck2"
    ],
    "clipbounds": true,
    "containerId": true,
    "containerweight": 100,
    "enablescrolling": true,
    "id": "flxCheck2",
    "info": null,
    "isvisible": true,
    "kuid": "e1b2e14146294928bc7ffef8c22b4bba",
    "layouttype": 2,
    "name": "kony.ui.FlexContainer",
    "parent": "flxInformation",
    "pf": "segCheckImages",
    "snapgridsize": 10,
    "snaptogrid": true,
    "wType": "FlexContainer",
    "widgetalignment": 1,
    "zindex": 1
}