{
    "DNDConfig": null,
    "__parentReadjusting__": false,
    "_blur_": {
        "enabled": false,
        "value": 0
    },
    "_height_": {
        "type": "ref",
        "value": "preferred"
    },
    "_margin_": [
        0,
        0,
        0,
        0
    ],
    "_orientation_": 6,
    "_padding_": [
        0,
        0,
        0,
        0
    ],
    "_percent_": true,
    "_right_": {
        "type": "string",
        "value": "0%"
    },
    "_skin_": "sfa92d7074084fcdadac5f53533193bb",
    "_top_": {
        "type": "string",
        "value": "-3dp"
    },
    "_width_": {
        "type": "string",
        "value": "100%"
    },
    "allboxes": [],
    "autogrowmode": 1,
    "canUpdateUI": true,
    "children": [
        "segLanguagesList"
    ],
    "clipbounds": false,
    "containerweight": 100,
    "enablescrolling": true,
    "id": "flxDifferentLanguagesSegment",
    "info": null,
    "isvisible": true,
    "kuid": "d82e88f3814b464e873864d88b898378",
    "layouttype": 2,
    "name": "kony.ui.FlexContainer",
    "parent": "flxLanguagePicker",
    "pf": "frmLogout",
    "responsiveData": {
        "b1": {
            "skin": "sfa92d7074084fcdadac5f53533193bb",
            "top": {
                "type": "string",
                "value": "-3dp"
            },
            "width": {
                "type": "string",
                "value": "94%"
            }
        },
        "b2": {
            "skin": "s88ea5ae60984131bd276a705aa72fb9",
            "width": {
                "type": "string",
                "value": "94%"
            }
        },
        "b3": {
            "skin": "s1a212af44e84a23ad02e434a18197cf",
            "width": {
                "type": "string",
                "value": "96%"
            }
        },
        "b4": {
            "skin": "s88ea5ae60984131bd276a705aa72fb9",
            "width": {
                "type": "string",
                "value": "94%"
            }
        }
    },
    "snapgridsize": 10,
    "snaptogrid": true,
    "wType": "FlexContainer",
    "widgetalignment": 1,
    "zindex": 50
}