{
    "@class": "com.kony.gen.viz.model.container.KVizScrollFlexForm",
    "DNDConfig": null,
    "_margin_": [
        0,
        0,
        0,
        0
    ],
    "_orientation_": 1,
    "_padding_": [
        0,
        0,
        0,
        0
    ],
    "_percent_": true,
    "_skin_": "sf9684697add4e62829475852513a8c5",
    "_title_": null,
    "addWidgetsdone": false,
    "allboxes": [],
    "android": {
        "psp": {
            "windowSoftInputMode": 2
        }
    },
    "breakpointInfo": {
        "b1": {
            "width": 1400
        },
        "b2": {
            "width": 1024
        },
        "b3": {
            "width": 640
        },
        "b4": {
            "width": 768
        }
    },
    "canUpdateUI": true,
    "canvasWidth": 1400,
    "children": [
        "tbxAutopopulateIssueFix",
        "flxMain",
        "flxLoading",
        "flxLoadingChangeLanguage",
        "flxFeedbackTakeSurvey",
        "flxChangeLanguage",
        "BrowserCheckPopup"
    ],
    "containerweight": 100,
    "controllerInfo": {
        "default": {
            "channel": "desktop",
            "name": "frmLogoutController"
        }
    },
    "currentBreakpoint": {
        "kuid": "b3",
        "width": 640
    },
    "currentLocale": "default",
    "desktopweb": {
        "ide_onBreakpointChange": "AS_Form_j13c2775b263479a9a1d152b0d608c0d",
        "needAppMenu": false
    },
    "device": "desktopweb",
    "displayorientation": 1,
    "enabledforidletimeout": false,
    "friendlyName": "frmLogout",
    "id": "frmLogout",
    "ide_init": "AS_Form_b7812fe2d9234913a9f7aa9e8775f40e",
    "ide_onDeviceBack": "AS_Form_df9059e362b6444a82d194b315dc1526",
    "ide_onTouchEnd": "AS_Form_ja6a1c95eec5449aad1834e0f47bfc18",
    "ide_postShow": "AS_Form_fdde57133c1e42fcb2459cab9b31c488",
    "ide_preShow": "AS_Form_fe0db28461124300ba070ab83648aec3",
    "info": null,
    "initdone": false,
    "inputaccessoryviewtype": 4,
    "ipad": {
        "psp": {
            "inputAccessoryViewType": 4
        }
    },
    "iphone": {
        "psp": {
            "inputAccessoryViewType": 4
        }
    },
    "isvisible": true,
    "kuid": "af75e38cbab2497c95f233e1ce5c9315",
    "layouttype": 2,
    "name": "kony.ui.Form2",
    "needappmenu": true,
    "paddinginpixel": false,
    "platform": "desktopweb",
    "prevDevice": "desktopweb",
    "prevPlatform": "desktopweb",
    "responsiveData": {
        "b3": {}
    },
    "retainscrollposition": false,
    "shellCSS": "desktop",
    "snapgridsize": 10,
    "snaptogrid": true,
    "titleBarSkin": "s2e24ee0a8ca46b089d8a5bea8a1a32e",
    "titlebar": true,
    "type": 3,
    "vizProps": {
        "globalRespDesignEnabled": false
    },
    "wType": "Form"
}