{
    "@class": "com.kony.gen.viz.model.component.KVizButton",
    "DNDConfig": null,
    "__parentReadjusting__": false,
    "_height_": {
        "type": "ref",
        "value": "preferred"
    },
    "_left_": {
        "type": "string",
        "value": "0.20%"
    },
    "_margin_": [
        6,
        6,
        6,
        6
    ],
    "_padding_": [
        0,
        0,
        0,
        0
    ],
    "_skin_": "s611bd2c5d324490aa9f7ed9d412984f",
    "_text_": "Profile Settings",
    "_top_": {
        "type": "string",
        "value": "5dp"
    },
    "_width_": {
        "type": "ref",
        "value": "preferred"
    },
    "accessibilityconfig": {
        "a11yLabel": "Resend"
    },
    "canUpdateUI": true,
    "containerweight": 100,
    "contentalignment": 5,
    "desktopweb": {
        "psp": {}
    },
    "disabledSkins": {
        "focusSkin": "sf44d06ca8224832827ea7fdff757013",
        "hoverSkin": "s81054b5e2b74f17a5261991df565427"
    },
    "displaytext": true,
    "id": "btnProfileSettings",
    "info": null,
    "isvisible": true,
    "kuid": "jfcda208d9924eec9a29f5d1833c342e",
    "name": "kony.ui.Button",
    "parent": "flxExtendedNotes",
    "pf": "userwidgetmodel",
    "texti18n": "i18n.ProfileManagement.profilesettings",
    "tooltip": "Resend",
    "wType": "Button",
    "zindex": 2
}