{
    "@class": "com.kony.gen.viz.model.component.KVizButton",
    "DNDConfig": null,
    "_height_": {
        "type": "string",
        "value": "50dp"
    },
    "_left_": {
        "type": "string",
        "value": "155dp"
    },
    "_margin_": [
        6,
        6,
        6,
        6
    ],
    "_padding_": [
        0,
        0,
        0,
        0
    ],
    "_right_": {
        "type": "number",
        "value": ""
    },
    "_skin_": "s3392ef9d10746188bd552dff50e1b72",
    "_text_": "Button",
    "_top_": {
        "type": "string",
        "value": "12dp"
    },
    "_width_": {
        "type": "string",
        "value": "300dp"
    },
    "canUpdateUI": true,
    "containerweight": 100,
    "contentalignment": 5,
    "displaytext": true,
    "focusskin": "sf44d06ca8224832827ea7fdff757013",
    "id": "btnContinue1",
    "info": null,
    "iscustomlayout": false,
    "isvisible": true,
    "kuid": "e312ebc3b69b49068cbd039f9f608616",
    "name": "kony.ui.Button",
    "parent": "flxButtonsNext",
    "pf": "frmMakePayment",
    "responsiveData": {
        "b1": {
            "height": {
                "type": "string",
                "value": "40dp"
            },
            "left": {
                "type": "string",
                "value": ""
            },
            "right": {
                "type": "string",
                "value": "2%"
            },
            "skin": "sea1525e3fa24829a889b1fd650f3f24",
            "width": {
                "type": "string",
                "value": "18.99%"
            }
        },
        "b3": {
            "height": {
                "type": "string",
                "value": "40dp"
            },
            "left": {
                "type": "string",
                "value": "0dp"
            },
            "skin": "sea1525e3fa24829a889b1fd650f3f24",
            "top": {
                "type": "string",
                "value": "21dp"
            },
            "width": {
                "type": "string",
                "value": "96%"
            }
        },
        "b5": {
            "height": {
                "type": "string",
                "value": "40dp"
            },
            "left": {
                "type": "string",
                "value": ""
            },
            "right": {
                "type": "string",
                "value": "6%"
            },
            "skin": "sea1525e3fa24829a889b1fd650f3f24",
            "top": {
                "type": "string",
                "value": "17dp"
            },
            "width": {
                "type": "string",
                "value": "150dp"
            }
        }
    },
    "retaincontentalignment": false,
    "retainflexpositionproperties": false,
    "texti18n": "i18n.TransfersEur.btnContinue",
    "wType": "Button",
    "zindex": 1
}