{
    "DNDConfig": null,
    "_height_": {
        "type": "string",
        "value": "23dp"
    },
    "_left_": {
        "type": "string",
        "value": "20dp"
    },
    "_margin_": [
        0,
        0,
        0,
        0
    ],
    "_orientation_": 6,
    "_padding_": [
        0,
        0,
        0,
        0
    ],
    "_percent_": true,
    "_skin_": "s68cde8c1c40436989962f3559a757ac",
    "_top_": {
        "type": "string",
        "value": "1dp"
    },
    "_width_": {
        "type": "string",
        "value": "21dp"
    },
    "accessibilityconfig": {
        "a11yARIA": {
            "tabindex": 1
        }
    },
    "allboxes": [],
    "canUpdateUI": true,
    "children": [
        "lblBankRadioBtn02"
    ],
    "clipbounds": false,
    "containerweight": 100,
    "desktopweb": {
        "psp": {
            "hoverSkin": "s3e0ac30f9774278a868cb7c73908a76"
        }
    },
    "enablescrolling": true,
    "id": "flxBankOption2",
    "ide_onClick": "AS_FlexContainer_d0e06544067c4cbfb0a31f08c1c978dc",
    "info": null,
    "isvisible": true,
    "kuid": "df5aac0bd61f4c9f8499e864e6f3f43c",
    "layouttype": 3,
    "name": "kony.ui.FlexContainer",
    "parent": "flxBeneficiaryBankOptions",
    "pf": "frmMakePayment",
    "responsiveData": {
        "b1": {},
        "b3": {
            "left": {
                "type": "string",
                "value": "1%"
            },
            "top": {
                "type": "string",
                "value": "5dp"
            }
        },
        "b4": {
            "height": {
                "type": "string",
                "value": "33dp"
            }
        }
    },
    "snapgridsize": 10,
    "snaptogrid": true,
    "wType": "FlexContainer",
    "widgetalignment": 1,
    "zindex": 1
}