{
    "DNDConfig": null,
    "_height_": {
        "type": "ref",
        "value": "preferred"
    },
    "_left_": {
        "type": "string",
        "value": "0%"
    },
    "_margin_": [
        0,
        0,
        0,
        0
    ],
    "_orientation_": 6,
    "_padding_": [
        0,
        0,
        0,
        0
    ],
    "_percent_": true,
    "_skin_": "s24c92fc23b14f5484b693ee9b8a9b35",
    "_top_": {
        "type": "string",
        "value": "30dp"
    },
    "_width_": {
        "type": "string",
        "value": "32%"
    },
    "allboxes": [],
    "autogrowmode": 1,
    "canUpdateUI": true,
    "children": [
        "calSendOnLoans"
    ],
    "clipbounds": false,
    "containerweight": 100,
    "enablescrolling": true,
    "id": "flxCalLoans",
    "ide_onTouchEnd": "AS_FlexContainer_a88c150d121a4c4d97a841e9c5994b72",
    "ide_onTouchStart": "AS_FlexContainer_bb8a4585955648538d4b0f651600fe3e",
    "info": null,
    "isvisible": true,
    "kuid": "ab41c9c47edf492db59d0c7448b92c8e",
    "layouttype": 2,
    "name": "kony.ui.FlexContainer",
    "parent": "flxContainer4",
    "pf": "frmMakePayment",
    "responsiveData": {
        "b1": {
            "left": {
                "type": "string",
                "value": "68%"
            }
        },
        "b2": {
            "left": {
                "type": "string",
                "value": "68%"
            }
        },
        "b3": {
            "isVisible": false,
            "left": {
                "type": "string",
                "value": "2%"
            },
            "top": {
                "type": "string",
                "value": "10dp"
            },
            "width": {
                "type": "string",
                "value": "96%"
            }
        },
        "b4": {
            "isVisible": true,
            "left": {
                "type": "string",
                "value": "68%"
            }
        },
        "b5": {
            "left": {
                "type": "string",
                "value": "68%"
            }
        }
    },
    "snapgridsize": 10,
    "snaptogrid": true,
    "wType": "FlexContainer",
    "widgetalignment": 1,
    "zindex": 1
}