{
    "DNDConfig": null,
    "_height_": {
        "type": "ref",
        "value": "preferred"
    },
    "_left_": {
        "type": "string",
        "value": "0dp"
    },
    "_margin_": [
        0,
        0,
        0,
        0
    ],
    "_orientation_": 6,
    "_padding_": [
        0,
        0,
        0,
        0
    ],
    "_percent_": true,
    "_skin_": "sf4c85c506de4687bf0645de2533a314",
    "_top_": {
        "type": "string",
        "value": "0dp"
    },
    "_width_": {
        "type": "string",
        "value": "100%"
    },
    "allboxes": [],
    "autogrowmode": 1,
    "canUpdateUI": true,
    "children": [
        "flxRadioLoan1",
        "flxRadioLoan2"
    ],
    "clipbounds": true,
    "containerweight": 100,
    "enablescrolling": true,
    "id": "flxGroupRadioLoanPay",
    "info": null,
    "isvisible": false,
    "kuid": "j05be441ac804bedad1730be8371fadc",
    "layouttype": 2,
    "name": "kony.ui.FlexContainer",
    "parent": "flxLoan",
    "pf": "frmMakePayment",
    "responsiveData": {
        "b1": {
            "isVisible": true,
            "layoutType": 3,
            "top": {
                "type": "string",
                "value": "25dp"
            }
        },
        "b2": {
            "isVisible": true,
            "layoutType": 3,
            "top": {
                "type": "string",
                "value": "25dp"
            }
        },
        "b3": {
            "isVisible": true,
            "layoutType": 4,
            "top": {
                "type": "string",
                "value": "30dp"
            }
        },
        "b4": {
            "isVisible": true,
            "layoutType": 3,
            "top": {
                "type": "string",
                "value": "25dp"
            }
        },
        "b5": {
            "isVisible": true,
            "layoutType": 3,
            "top": {
                "type": "string",
                "value": "10dp"
            }
        }
    },
    "snapgridsize": 10,
    "snaptogrid": true,
    "wType": "FlexContainer",
    "widgetalignment": 1,
    "zindex": 5
}