{
    "DNDConfig": null,
    "_height_": {
        "type": "string",
        "value": "1dp"
    },
    "_left_": {
        "type": "string",
        "value": "20dp"
    },
    "_margin_": [
        0,
        0,
        0,
        0
    ],
    "_orientation_": 6,
    "_padding_": [
        0,
        0,
        0,
        0
    ],
    "_percent_": true,
    "_right_": {
        "type": "string",
        "value": "20dp"
    },
    "_skin_": "sd8c129bd6814cb6a7c3e69543d96f7b",
    "_top_": {
        "type": "string",
        "value": "1dp"
    },
    "allboxes": [],
    "autogrowmode": 0,
    "canUpdateUI": true,
    "children": [],
    "clipbounds": true,
    "containerweight": 100,
    "enablescrolling": true,
    "id": "flxHorizontalLine",
    "info": null,
    "isvisible": true,
    "kuid": "d799425de05e4da7961d114cabe787b0",
    "layouttype": 2,
    "name": "kony.ui.FlexContainer",
    "parent": "flxTransferSubmit",
    "pf": "frmMakePayment",
    "responsiveData": {
        "b1": {
            "left": {
                "type": "string",
                "value": "3%"
            },
            "right": {
                "type": "string",
                "value": "3%"
            }
        },
        "b4": {
            "left": {
                "type": "string",
                "value": "3%"
            },
            "right": {
                "type": "string",
                "value": "3%"
            }
        }
    },
    "snapgridsize": 10,
    "snaptogrid": true,
    "wType": "FlexContainer",
    "widgetalignment": 1,
    "zindex": 1
}