{
    "DNDConfig": null,
    "_bottom_": {
        "type": "string",
        "value": "10dp"
    },
    "_height_": {
        "type": "string",
        "value": "100dp"
    },
    "_left_": {
        "type": "string",
        "value": "0dp"
    },
    "_margin_": [
        0,
        0,
        0,
        0
    ],
    "_orientation_": 6,
    "_padding_": [
        0,
        0,
        0,
        0
    ],
    "_percent_": true,
    "_skin_": "s24c92fc23b14f5484b693ee9b8a9b35",
    "_top_": {
        "type": "string",
        "value": "0dp"
    },
    "_width_": {
        "type": "string",
        "value": "100%"
    },
    "allboxes": [],
    "canUpdateUI": true,
    "children": [
        "lblPaymentReference",
        "txtPaymentReference",
        "lblCount1"
    ],
    "clipbounds": true,
    "containerweight": 100,
    "enablescrolling": true,
    "id": "flxPaymentReference",
    "info": null,
    "iscustomlayout": false,
    "isvisible": true,
    "kuid": "ea4b657494f34430b5f76b455d4c0570",
    "layouttype": 2,
    "name": "kony.ui.FlexContainer",
    "parent": "flxTransferForm",
    "pf": "frmMakePayment",
    "responsiveData": {
        "b1": {
            "layoutType": 4,
            "top": {
                "type": "string",
                "value": "10dp"
            }
        },
        "b2": {
            "layoutType": 4,
            "top": {
                "type": "string",
                "value": "10dp"
            }
        },
        "b3": {
            "bottom": {
                "type": "string",
                "value": "15dp"
            },
            "height": {
                "type": "string",
                "value": "85dp"
            },
            "isVisible": true,
            "layoutType": 4
        },
        "b4": {
            "isVisible": true,
            "layoutType": 4,
            "top": {
                "type": "string",
                "value": "10dp"
            }
        },
        "b5": {
            "isVisible": true,
            "layoutType": 4,
            "top": {
                "type": "string",
                "value": "5dp"
            }
        }
    },
    "retaincontentalignment": false,
    "retainflexpositionproperties": false,
    "snapgridsize": 10,
    "snaptogrid": true,
    "wType": "FlexContainer",
    "widgetalignment": 1,
    "zindex": 1
}