{
    "DNDConfig": null,
    "_height_": {
        "type": "string",
        "value": "23dp"
    },
    "_left_": {
        "type": "string",
        "value": "7dp"
    },
    "_margin_": [
        0,
        0,
        0,
        0
    ],
    "_orientation_": 6,
    "_padding_": [
        0,
        0,
        0,
        0
    ],
    "_percent_": true,
    "_skin_": "s68cde8c1c40436989962f3559a757ac",
    "_top_": {
        "type": "string",
        "value": "1dp"
    },
    "_width_": {
        "type": "string",
        "value": "124dp"
    },
    "accessibilityconfig": {
        "a11yARIA": {
            "tabindex": 1
        }
    },
    "allboxes": [],
    "canUpdateUI": true,
    "children": [
        "lblCCRadioBtn4",
        "lblPayOtherAmount"
    ],
    "clipbounds": false,
    "containerweight": 100,
    "desktopweb": {
        "psp": {
            "hoverSkin": "s3e0ac30f9774278a868cb7c73908a76"
        }
    },
    "enablescrolling": true,
    "id": "flxPayOtherAmount",
    "ide_onClick": "AS_FlexContainer_df77b9e8461c4a72904a6a0aaafb763c",
    "info": null,
    "isvisible": true,
    "kuid": "i2110aca0c3c49a8a42dca45a910342d",
    "layouttype": 3,
    "name": "kony.ui.FlexContainer",
    "parent": "flxCreditCardPaymentOptions",
    "pf": "frmMakePayment",
    "responsiveData": {
        "b3": {
            "left": {
                "type": "string",
                "value": "1%"
            },
            "top": {
                "type": "string",
                "value": "5dp"
            },
            "width": {
                "type": "string",
                "value": "98%"
            }
        },
        "b4": {
            "height": {
                "type": "string",
                "value": "30dp"
            },
            "left": {
                "type": "string",
                "value": "15dp"
            }
        },
        "b5": {
            "left": {
                "type": "string",
                "value": "15dp"
            },
            "width": {
                "type": "string",
                "value": "120dp"
            }
        }
    },
    "snapgridsize": 10,
    "snaptogrid": true,
    "wType": "FlexContainer",
    "widgetalignment": 1,
    "zindex": 1
}