{
    "@class": "com.kony.gen.viz.model.component.KVizLabel",
    "DNDConfig": null,
    "_height_": {
        "type": "string",
        "value": "18dp"
    },
    "_margin_": [
        1,
        1,
        1,
        1
    ],
    "_padding_": [
        0,
        0,
        0,
        0
    ],
    "_skin_": "s7b013da610149b687ff70100336c9e5",
    "_text_": "Open a New Account",
    "_top_": {
        "type": "string",
        "value": "114dp"
    },
    "_width_": {
        "type": "string",
        "value": "100%"
    },
    "_wrapping_": 2,
    "accessibilityconfig": {
        "a11yLabel": "Open a New Account"
    },
    "android": {
        "textStyle": {
            "letterSpacing": 0,
            "strikeThrough": false
        }
    },
    "canUpdateUI": true,
    "centerx": {
        "type": "string",
        "value": "50%"
    },
    "containerweight": 100,
    "contentalignment": 5,
    "desktopweb": {
        "psp": {
            "hoverSkin": "s7b013da610149b687ff70100336c9e5"
        }
    },
    "disabledSkins": {},
    "id": "lblOpenAccounttFrom",
    "ide_onTouchStart": "AS_Label_a3b6b24fa60945f59e2c2f9524561e41",
    "info": null,
    "ipad": {
        "psp": {
            "wrapping": 2
        }
    },
    "iphone": {
        "psp": {
            "wrapping": 2
        }
    },
    "iscustomlayout": false,
    "isvisible": true,
    "kuid": "fb90d3675c2c4342b4b4fda117fd0e7f",
    "name": "kony.ui.Label",
    "parent": "flxNoAccountsFrom",
    "pf": "frmMakePayment",
    "retaincontentalignment": false,
    "retainflexpositionproperties": false,
    "texti18n": "i18n.FastTransfers.OpenNewAccount",
    "tooltip": "",
    "wType": "Label",
    "zindex": 1
}