{
    "@class": "com.kony.gen.viz.model.component.KVizTextBox2",
    "DNDConfig": null,
    "_height_": {
        "type": "string",
        "value": "100%"
    },
    "_left_": {
        "type": "string",
        "value": "0%"
    },
    "_margin_": [
        0,
        0,
        0,
        0
    ],
    "_padding_": [
        2,
        0,
        0,
        0
    ],
    "_placeholder_": "Select the account you want to pay from",
    "_right_": {
        "type": "number",
        "value": ""
    },
    "_skin_": "s38834f7b6374aa597f26c3d9367ae84",
    "_text_": "",
    "_top_": {
        "type": "string",
        "value": "0dp"
    },
    "_width_": {
        "type": "string",
        "value": "100%"
    },
    "accessibilityconfig": {
        "a11yLabel": "Search by account name or number"
    },
    "autocapitalize": "none",
    "autocomplete": false,
    "autocorrect": false,
    "autofilter": false,
    "canUpdateUI": true,
    "containerheight": "",
    "containerheightmode": 1,
    "containerweight": 100,
    "contentalignment": 4,
    "desktopweb": {},
    "disabledSkins": {
        "focusSkin": "s38834f7b6374aa597f26c3d9367ae84",
        "placeholderSkin": "sbce1b5ec9fe447c87835476767798f0"
    },
    "id": "txtTransferFrom",
    "info": null,
    "iscustomlayout": false,
    "isvisible": true,
    "keyboardtype": "A",
    "kuid": "e5b4214606ef418f91de2109b12060f3",
    "mode": "A",
    "name": "kony.ui.TextBox2",
    "paddinginpixel": false,
    "parent": "flxFrom",
    "pf": "frmMakePayment",
    "placeholderi18n": "i18n.TransfersEur.Selecttheaccountyouwanttopayfrom",
    "responsiveData": {
        "b4": {
            "disabledSkins": {}
        },
        "b5": {
            "right": {
                "type": "number",
                "value": "3"
            }
        }
    },
    "retaincontentalignment": false,
    "retainflexpositionproperties": false,
    "securetextentry": false,
    "textinputmode": "A",
    "tooltip": "",
    "viewtype": "default",
    "wType": "TextField",
    "zindex": 5
}