{
	 "@class": "com.kony.gen.viz.model.component.KVizLabel",
	 "DNDConfig": null,
	 "__parentReadjusting__": false,
	 "_height_": {
		 "type": "string",
		 "value": "1px"
	},
	 "_left_": {
		 "type": "string",
		 "value": "2.50%"
	},
	 "_margin_": [
		 1,
		 1,
		 1,
		 1
	],
	 "_padding_": [
		 0,
		 0,
		 0,
		 0
	],
	 "_skin_": "s0163b2b61c84c77a499a8f2f7f2e9be",
	 "_text_": "Dummy text",
	 "_top_": {
		 "type": "string",
		 "value": "20dp"
	},
	 "_width_": {
		 "type": "string",
		 "value": "95%"
	},
	 "_wrapping_": 2,
	 "accessibilityconfig": {
		 "a11yLabel": "Dummy text",
		 "a11yHidden": true,
		 "a11yARIA": {
			 "tabindex": -1
		}
	},
	 "android": {
		 "textStyle": {
			 "letterSpacing": 0,
			 "strikeThrough": false
		}
	},
	 "canUpdateUI": true,
	 "centerx": {
		 "type": "string",
		 "value": "48%"
	},
	 "containerId": true,
	 "containerweight": 100,
	 "contentalignment": 4,
	 "id": "lblSeparatorTwo",
	 "info": null,
	 "ipad": {
		 "psp": {
			 "wrapping": 2
		}
	},
	 "iphone": {
		 "psp": {
			 "wrapping": 2
		}
	},
	 "isvisible": true,
	 "kuid": "bab9828134754082a4f64adddbac781f",
	 "name": "kony.ui.Label",
	 "parent": "flxBillPayManagePayeesEditMobile",
	 "pf": "segBillPayManagePayeesEditMobile",
	 "tooltip": "",
	 "wType": "Label",
	 "zindex": 1
}