{
    "@class": "com.kony.gen.viz.model.component.KVizButton",
    "DNDConfig": null,
    "_height_": {
        "type": "string",
        "value": "100%"
    },
    "_margin_": [
        6,
        6,
        6,
        6
    ],
    "_padding_": [
        0,
        0,
        0,
        0
    ],
    "_right_": {
        "type": "string",
        "value": "0dp"
    },
    "_skin_": "sf6ca31ec68641e5a2df8232c58cd39a",
    "_text_": "Pay Bill",
    "_top_": {
        "type": "string",
        "value": "0dp"
    },
    "_width_": {
        "type": "string",
        "value": "80dp"
    },
    "accessibilityconfig": {
        "a11yLabel": "Pay Bill"
    },
    "canUpdateUI": true,
    "centery": {
        "type": "string",
        "value": "50%"
    },
    "containerId": true,
    "containerweight": 100,
    "contentalignment": 6,
    "desktopweb": {
        "psp": {
            "hoverSkin": "sd36babbd8f6461f8b492698ab830d13"
        }
    },
    "disabledSkins": {
        "focusSkin": "sf44d06ca8224832827ea7fdff757013"
    },
    "displaytext": true,
    "id": "btnPayBill",
    "ide_onClick": "AS_Button_f05d906c22024cb29aaa9f62bb0e4807",
    "info": null,
    "isvisible": true,
    "kuid": "c9bd5f6ae29f4337a24b89584709e755",
    "name": "kony.ui.Button",
    "parent": "flxAmount",
    "pf": "segBillPaymentManagePayeesSelectedMobile",
    "tooltip": "Pay Bill",
    "wType": "Button",
    "zindex": 1
}