{
    "DNDConfig": null,
    "_height_": {
        "type": "ref",
        "value": "preferred"
    },
    "_left_": {
        "type": "string",
        "value": "3.77%"
    },
    "_margin_": [
        0,
        0,
        0,
        0
    ],
    "_orientation_": 6,
    "_padding_": [
        0,
        0,
        0,
        0
    ],
    "_percent_": true,
    "_skin_": "s2f1930e68bc4b258cfe821e7f0122cd",
    "_top_": {
        "type": "string",
        "value": "59%"
    },
    "_width_": {
        "type": "string",
        "value": "45.32%"
    },
    "allboxes": [],
    "autogrowmode": 1,
    "canUpdateUI": true,
    "children": [
        "calSendOn"
    ],
    "clipbounds": false,
    "containerweight": 100,
    "disabledSkins": {},
    "enablescrolling": true,
    "focusskin": "s3308b031b8e4da8a5965b769840b865",
    "id": "flxCalSendOn",
    "info": null,
    "isvisible": true,
    "kuid": "g61347c48c934ac09a0361ac2a1f984e",
    "layouttype": 2,
    "name": "kony.ui.FlexContainer",
    "parent": "flxDetails",
    "pf": "frmMakeOneTimePayment",
    "responsiveData": {
        "b2": {
            "isVisible": true,
            "top": {
                "type": "string",
                "value": "61%"
            }
        },
        "b3": {
            "left": {
                "type": "string",
                "value": "3%"
            },
            "top": {
                "type": "string",
                "value": "315dp"
            },
            "width": {
                "type": "string",
                "value": "94%"
            }
        }
    },
    "snapgridsize": 10,
    "snaptogrid": true,
    "wType": "FlexContainer",
    "widgetalignment": 1,
    "zindex": 1
}