{
	 "@class": "com.kony.gen.viz.model.component.KVizImage2",
	 "DNDConfig": null,
	 "__parentReadjusting__": false,
	 "_base64_": null,
	 "_height_": {
		 "type": "string",
		 "value": "24dp"
	},
	 "_left_": {
		 "type": "string",
		 "value": "0dp"
	},
	 "_margin_": [
		 0,
		 0,
		 0,
		 0
	],
	 "_padding_": [
		 0,
		 0,
		 0,
		 0
	],
	 "_skin_": "s78a5f26c9f14cec9ebed1bb46098f80",
	 "_src_": "payment_method.png",
	 "_width_": {
		 "type": "string",
		 "value": "19dp"
	},
	 "accessibilityconfig": {
		 "a11yLabel": "Account Type",
		 "a11yHidden": false,
		 "a11yARIA": {
			 "tabindex": -1
		},
		 "a11yValue": ""
	},
	 "canUpdateUI": true,
	 "centery": {
		 "type": "string",
		 "value": "50%"
	},
	 "containerId": true,
	 "containerweight": 100,
	 "context": {
		 "channel": "desktop",
		 "platform": "desktopweb",
		 "templateType": "segments",
		 "topLevelBox": null
	},
	 "id": "imgType",
	 "imagescalemode": 1,
	 "imagewhiledownloading": "img_transparent.png",
	 "info": null,
	 "isvisible": true,
	 "kuid": "e4f0afea982a46e1918fb65353fbe952",
	 "name": "kony.ui.Image2",
	 "parent": "flxTypeImage",
	 "pf": "segTransactionsRowSavingsMobile",
	 "srcType": 1,
	 "tooltip": "Account Type",
	 "wType": "Image",
	 "widgetalignment": 5,
	 "zindex": 1
}