{
    "@class": "com.kony.gen.viz.model.component.KVizUserWidget",
    "DNDConfig": null,
    "__parentReadjusting__": false,
    "_children_": [],
    "_height_": {
        "type": "ref",
        "value": "preferred"
    },
    "_left_": {
        "type": "string",
        "value": "0dp"
    },
    "_margin_": [
        0,
        0,
        0,
        0
    ],
    "_orientation_": 1,
    "_padding_": [
        0,
        0,
        0,
        0
    ],
    "_percent_": true,
    "_render_": true,
    "_skin_": "s24c92fc23b14f5484b693ee9b8a9b35",
    "_top_": {
        "type": "string",
        "value": "0dp"
    },
    "_width_": {
        "type": "string",
        "value": "100%"
    },
    "areflexpropsreferenced": false,
    "autogrowmode": 1,
    "canUpdateUI": true,
    "clipbounds": true,
    "containerweight": 0,
    "dataDiffs": {
        "flxLeftKeyValue": {
            "__events__": {},
            "__info__": {
                "kuid": "b52866da0e7d4c02b6db37107041932a",
                "srcKUID": "bb9994115f8e43d0b2804570d0fdf86e",
                "wType": "FlexContainer"
            }
        },
        "flxRightKeyValue": {
            "__events__": {},
            "__info__": {
                "kuid": "j23ad0e691154fc3930b529965455b05",
                "srcKUID": "e8fd71dd7bba489b935b9c3b6b23909b",
                "wType": "FlexContainer"
            }
        },
        "inboundKeyValue": {
            "__events__": {},
            "__info__": {
                "isRoot": true,
                "kuid": "f5a092764ab24be9b3134476efe8fe7e",
                "srcKUID": "b730959e6a1f455ab7345ff3c4fb878a",
                "wType": "FlexContainer"
            }
        },
        "lblLeftKey": {
            "__events__": {},
            "__info__": {
                "kuid": "bd4cc7254d3147e9b3fb152c91af0203",
                "srcKUID": "c6f674632a7744aaab81c7302d8dcc08",
                "wType": "Label"
            }
        },
        "lblRightKey": {
            "__events__": {},
            "__info__": {
                "kuid": "eb27e1b738ec44c1aa8ffc7d40ea3ca0",
                "srcKUID": "c514ef2b9d5642e38e5c66b916272aec",
                "wType": "Label"
            }
        },
        "rtxLeftValue": {
            "__events__": {},
            "__info__": {
                "kuid": "c45d16a3130d47a9a88dfb0d974a2dd8",
                "srcKUID": "he470e837fc34cccbfc6f526c97163b1",
                "wType": "RichText"
            }
        },
        "rtxRightValue": {
            "__events__": {},
            "__info__": {
                "kuid": "i05b62d397e24796926ddabc8f923603",
                "srcKUID": "cf6fe37a9d924fc0991a08ff3b9bd760",
                "wType": "RichText"
            }
        }
    },
    "id": "accountInfoRow3",
    "info": null,
    "isdatareferenced": false,
    "isvisible": true,
    "kuid": "d416a6bc54744d9dbf78bc1043317c3d",
    "layouttype": 2,
    "masterType": 0,
    "name": "kony.ui.UserWidgetInstance",
    "parent": "flxAccountInfoRow3",
    "pf": "userwidgetmodel",
    "snaptogrid": true,
    "sourceUserWidget": "b730959e6a1f455ab7345ff3c4fb878a",
    "wType": "UserWidgetInstance"
}