{
  "@class": "com.kony.gen.viz.model.component.KVizUserWidget",
  "DNDConfig": null,
  "__parentReadjusting__": false,
  "_children_": [],
  "_height_": {
    "type": "ref",
    "value": "preferred"
  },
  "_left_": {
    "type": "string",
    "value": "0dp"
  },
  "_margin_": [
    0,
    0,
    0,
    0
  ],
  "_orientation_": 1,
  "_padding_": [
    0,
    0,
    0,
    0
  ],
  "_percent_": true,
  "_render_": true,
  "_skin_": "s24c92fc23b14f5484b693ee9b8a9b35",
  "_top_": {
    "type": "string",
    "value": "0dp"
  },
  "_width_": {
    "type": "string",
    "value": "100%"
  },
  "areflexpropsreferenced": false,
  "autogrowmode": 1,
  "canUpdateUI": true,
  "clipbounds": true,
  "containerweight": 0,
  "dataDiffs": {
    "flxLeftKeyValue": {
      "__events__": {},
      "__info__": {
        "kuid": "ea506e8a21844c6ea3b3c808a3eef928",
        "srcKUID": "bb9994115f8e43d0b2804570d0fdf86e",
        "wType": "FlexContainer"
      }
    },
    "flxRightKeyValue": {
      "__events__": {},
      "__info__": {
        "kuid": "e5031ccafdd84e659198d89a9b55b746",
        "srcKUID": "e8fd71dd7bba489b935b9c3b6b23909b",
        "wType": "FlexContainer"
      }
    },
    "inboundKeyValue": {
      "__events__": {},
      "__info__": {
        "isRoot": true,
        "kuid": "abab7179963f4a9283cc83e949d91833",
        "srcKUID": "b730959e6a1f455ab7345ff3c4fb878a",
        "wType": "FlexContainer"
      }
    },
    "lblLeftKey": {
      "__events__": {},
      "__info__": {
        "kuid": "aad6f3abc63d4f539061b5a65a74d40c",
        "srcKUID": "c6f674632a7744aaab81c7302d8dcc08",
        "wType": "Label"
      },
      "i18n_text": "i18n.transfers.bankAddress"
    },
    "lblRightKey": {
      "__events__": {},
      "__info__": {
        "kuid": "c6e34eed031142008062fb11289f2441",
        "srcKUID": "c514ef2b9d5642e38e5c66b916272aec",
        "wType": "Label"
      },
      "i18n_text": "i18n.inboundTransfer.IntermediaryBankAddress"
    },
    "rtxLeftValue": {
      "__events__": {},
      "__info__": {
        "kuid": "d79d7bf3a307480a95a181edaa41277b",
        "srcKUID": "he470e837fc34cccbfc6f526c97163b1",
        "wType": "RichText"
      },
      "text": "142 LakeView, M.G Road, Hyderbad<br>500072"
    },
    "rtxRightValue": {
      "__events__": {},
      "__info__": {
        "kuid": "a39bb66a90e84524afa73f634028d0de",
        "srcKUID": "cf6fe37a9d924fc0991a08ff3b9bd760",
        "wType": "RichText"
      },
      "text": "401, Marine Drive, C.A, San jose,<br>342160"
    }
  },
  "id": "bankDetailsRow2",
  "info": null,
  "isdatareferenced": false,
  "isvisible": true,
  "kuid": "d49e997c17fb40ef9805c6cb54d91d84",
  "layouttype": 2,
  "masterType": 0,
  "name": "kony.ui.UserWidgetInstance",
  "parent": "flxBankDetailsRow2",
  "pf": "userwidgetmodel",
  "snaptogrid": true,
  "sourceUserWidget": "b730959e6a1f455ab7345ff3c4fb878a",
  "wType": "UserWidgetInstance"
}
