{
    "@class": "com.kony.gen.viz.model.component.KVizButton",
    "DNDConfig": null,
    "_height_": {
        "type": "string",
        "value": "40dp"
    },
    "_left_": {
        "type": "number",
        "value": ""
    },
    "_margin_": [
        6,
        6,
        6,
        6
    ],
    "_padding_": [
        0,
        0,
        0,
        0
    ],
    "_right_": {
        "type": "string",
        "value": "17%"
    },
    "_skin_": "s215ef7edf8c4ddb8f9f91fcc80f7b42",
    "_text_": "Back",
    "_top_": {
        "type": "string",
        "value": "0dp"
    },
    "_width_": {
        "type": "string",
        "value": "15%"
    },
    "accessibilityconfig": {
        "a11yLabel": "No"
    },
    "canUpdateUI": true,
    "centerx": {
        "type": "number",
        "value": ""
    },
    "centery": {
        "type": "string",
        "value": "50%"
    },
    "containerweight": 100,
    "contentalignment": 5,
    "desktopweb": {
        "psp": {
            "hoverSkin": "s83729feaa224e359d660d5af05c4bac"
        }
    },
    "displaytext": true,
    "focusskin": "sb23593b913b4005add4a246020aa1cc",
    "id": "btnBack",
    "info": null,
    "isvisible": true,
    "kuid": "b603cfe0333840cfa4b2b1d59b3d517d",
    "name": "kony.ui.Button",
    "parent": "flxSubmitBtnWrapper",
    "pf": "frmEditGoal",
    "responsiveData": {
        "b1": {
            "right": {
                "type": "string",
                "value": "172dp"
            },
            "width": {
                "type": "string",
                "value": "150dp"
            }
        },
        "b2": {
            "right": {
                "type": "string",
                "value": "172dp"
            },
            "width": {
                "type": "string",
                "value": "150px"
            }
        },
        "b3": {
            "centerX": {
                "type": "string",
                "value": ""
            },
            "centerY": {
                "type": "string",
                "value": ""
            },
            "right": {
                "type": "string",
                "value": ""
            },
            "top": {
                "type": "string",
                "value": "20dp"
            },
            "width": {
                "type": "string",
                "value": "100%"
            }
        },
        "b4": {
            "right": {
                "type": "string",
                "value": "172dp"
            },
            "width": {
                "type": "string",
                "value": "150dp"
            }
        }
    },
    "texti18n": "i18n.ProfileManagement.BACK",
    "tooltip": "Back",
    "wType": "Button",
    "zindex": 1
}