{
    "DNDConfig": null,
    "_height_": {
        "type": "string",
        "value": "20dp"
    },
    "_left_": {
        "type": "string",
        "value": "105dp"
    },
    "_margin_": [
        0,
        0,
        0,
        0
    ],
    "_orientation_": 6,
    "_padding_": [
        0,
        0,
        0,
        0
    ],
    "_percent_": true,
    "_skin_": "s24c92fc23b14f5484b693ee9b8a9b35",
    "_top_": {
        "type": "string",
        "value": "0dp"
    },
    "_width_": {
        "type": "string",
        "value": "20dp"
    },
    "allboxes": [],
    "autogrowmode": 0,
    "canUpdateUI": true,
    "children": [
        "imgWhatisFreqDay"
    ],
    "clipbounds": true,
    "containerweight": 100,
    "enablescrolling": true,
    "id": "flxWhatisFreqDay",
    "info": null,
    "iscustomlayout": false,
    "isvisible": true,
    "kuid": "h4d4894b955141e0aa4b2f07a91f4002",
    "layouttype": 2,
    "name": "kony.ui.FlexContainer",
    "parent": "flxFreqDayDetails",
    "pf": "frmEditGoal",
    "responsiveData": {
        "b1": {
            "left": {
                "type": "string",
                "value": "105dp"
            }
        },
        "b2": {},
        "b3": {
            "left": {
                "type": "string",
                "value": "110dp"
            }
        },
        "b4": {
            "left": {
                "type": "string",
                "value": "120dp"
            }
        }
    },
    "retaincontentalignment": false,
    "retainflexpositionproperties": false,
    "retainflowhorizontalalignment": false,
    "snapgridsize": 10,
    "snaptogrid": true,
    "wType": "FlexContainer",
    "widgetalignment": 1,
    "zindex": 1
}