{
    "@class": "com.kony.gen.viz.model.component.KVizLabel",
    "DNDConfig": null,
    "__parentReadjusting__": false,
    "_height_": {
        "type": "string",
        "value": "18px"
    },
    "_left_": {
        "type": "number",
        "value": "0"
    },
    "_margin_": [
        1,
        1,
        1,
        1
    ],
    "_padding_": [
        0,
        0,
        0,
        0
    ],
    "_skin_": "s089a30edc014fedb2eb54b3b16a7723",
    "_text_": "Frequency Day:",
    "_top_": {
        "type": "string",
        "value": "0dp"
    },
    "_width_": {
        "type": "string",
        "value": "105dp"
    },
    "_wrapping_": 2,
    "accessibilityconfig": {
        "a11yLabel": "Loan Payoff Amount"
    },
    "android": {
        "textStyle": {
            "letterSpacing": 0,
            "strikeThrough": false
        }
    },
    "canUpdateUI": true,
    "containerweight": 100,
    "contentalignment": 4,
    "id": "lblFreqDay",
    "info": null,
    "ipad": {
        "psp": {
            "wrapping": 2
        }
    },
    "iphone": {
        "psp": {
            "wrapping": 2
        }
    },
    "isvisible": true,
    "kuid": "c29cb2e9e40449aa8efbb888c127dd49",
    "name": "kony.ui.Label",
    "parent": "flxFreqDayDetails",
    "pf": "frmEditGoal",
    "responsiveData": {
        "b1": {},
        "b2": {},
        "b3": {}
    },
    "texti18n": "i18n.savingsPot.frequencyDay",
    "tooltip": "",
    "wType": "Label",
    "zindex": 1
}