{
    "@class": "com.kony.gen.viz.model.component.KVizButton",
    "DNDConfig": null,
    "__parentReadjusting__": false,
    "_bottom_": {
        "type": "number",
        "value": ""
    },
    "_height_": {
        "type": "string",
        "value": "40px"
    },
    "_left_": {
        "type": "number",
        "value": ""
    },
    "_margin_": [
        6,
        6,
        6,
        6
    ],
    "_padding_": [
        0,
        0,
        0,
        0
    ],
    "_right_": {
        "type": "string",
        "value": "0dp"
    },
    "_skin_": "sa611611b2f24e93bcfd09e1606c0d86",
    "_text_": "Back to Bulk Transfer Files",
    "_top_": {
        "type": "string",
        "value": "0dp"
    },
    "_width_": {
        "type": "string",
        "value": "230dp"
    },
    "accessibilityconfig": {
        "a11yLabel": "New Transfer"
    },
    "canUpdateUI": true,
    "centerx": {
        "type": "number",
        "value": ""
    },
    "containerweight": 100,
    "contentalignment": 5,
    "desktopweb": {
        "psp": {
            "hoverSkin": "s83729feaa224e359d660d5af05c4bac"
        }
    },
    "disabledSkins": {},
    "displaytext": true,
    "focusskin": "s434743e49c446699565893e4974ec52",
    "id": "btnNewTransfer",
    "info": null,
    "iscustomlayout": false,
    "isvisible": true,
    "kuid": "af6a45adc89c4c46b4ae8790033d278d",
    "name": "kony.ui.Button",
    "parent": "flxAckButtons",
    "pf": "frmBulkWireViewFileDetails",
    "responsiveData": {
        "b1": {
            "skin": "sa611611b2f24e93bcfd09e1606c0d86"
        },
        "b2": {
            "skin": "sa611611b2f24e93bcfd09e1606c0d86"
        },
        "b3": {
            "bottom": {
                "type": "string",
                "value": ""
            },
            "centerX": {
                "type": "string",
                "value": "50%"
            },
            "left": {
                "type": "string",
                "value": "20dp"
            },
            "right": {
                "type": "string",
                "value": "20dp"
            },
            "skin": "sa611611b2f24e93bcfd09e1606c0d86",
            "width": {
                "type": "string",
                "value": ""
            }
        },
        "b4": {
            "skin": "sa611611b2f24e93bcfd09e1606c0d86"
        }
    },
    "retaincontentalignment": false,
    "retainflexpositionproperties": false,
    "wType": "Button",
    "zindex": 1
}