{
    "@class": "com.kony.gen.viz.model.component.KVizImage2",
    "DNDConfig": null,
    "__parentReadjusting__": false,
    "_base64_": null,
    "_height_": {
        "type": "string",
        "value": "15dp"
    },
    "_margin_": [
        0,
        0,
        0,
        0
    ],
    "_padding_": [
        0,
        0,
        0,
        0
    ],
    "_right_": {
        "type": "string",
        "value": "10%"
    },
    "_skin_": "s8ee487de5774c1eb668e74bf92f5cdd",
    "_src_": "sorting.png",
    "_width_": {
        "type": "string",
        "value": "12dp"
    },
    "accessibilityconfig": {
        "a11yLabel": "Sort",
        "a11yValue": ""
    },
    "canUpdateUI": true,
    "centery": {
        "type": "string",
        "value": "50%"
    },
    "containerweight": 100,
    "id": "imgSortType",
    "imagescalemode": 1,
    "imagewhiledownloading": "img_transparent.png",
    "info": null,
    "isvisible": true,
    "kuid": "bc79a5bed22d4ed0b839d4bccdd909ac",
    "name": "kony.ui.Image2",
    "parent": "flxSortAmount",
    "pf": "frmBulkWireViewFileDetails",
    "responsiveData": {
        "b1": {
            "left": {
                "type": "string",
                "value": ""
            },
            "right": {
                "type": "string",
                "value": "0dp"
            }
        }
    },
    "srcType": 1,
    "tooltip": "Sort By Amount",
    "wType": "Image",
    "widgetalignment": 5,
    "zindex": 1
}