{
    "DNDConfig": null,
    "_height_": {
        "type": "ref",
        "value": "preferred"
    },
    "_left_": {
        "type": "string",
        "value": "0dp"
    },
    "_margin_": [
        0,
        0,
        0,
        0
    ],
    "_orientation_": 6,
    "_padding_": [
        0,
        0,
        0,
        0
    ],
    "_percent_": true,
    "_skin_": "s24c92fc23b14f5484b693ee9b8a9b35",
    "_top_": {
        "type": "string",
        "value": "0dp"
    },
    "_width_": {
        "type": "string",
        "value": "100%"
    },
    "allboxes": [],
    "autogrowmode": 1,
    "canUpdateUI": true,
    "children": [
        "flxHeading",
        "flxFrom",
        "flxBeneficiary",
        "flxAccountNumber",
        "flxPaymentType",
        "flxPaymentMethod",
        "flxSWIFTBIC",
        "flxBankAddress",
        "flxCurrency",
        "flxAmount",
        "flxExchangeRate",
        "flxPaymentMedium",
        "flxFeeBreakdown",
        "flxTotalDebit",
        "flxFeesPaidBy",
        "flxFrequency",
        "flxSendOn",
        "flxEndingDate",
        "flxSupportingDocuments",
        "flxPaymentReference",
        "flxBeneficiaryNickname",
        "flxBeneficiaryAddress",
        "flxButtons"
    ],
    "clipbounds": true,
    "containerweight": 100,
    "enablescrolling": true,
    "id": "flxDetails",
    "info": null,
    "iscustomlayout": false,
    "isvisible": true,
    "kuid": "gb6f04d1bfae4d6c9c9d3046accd360e",
    "layouttype": 4,
    "name": "kony.ui.FlexContainer",
    "parent": "flxLeft",
    "pf": "frmConfirmEuro",
    "responsiveData": {
        "b3": {}
    },
    "retaincontentalignment": false,
    "retainflexpositionproperties": false,
    "retainflowhorizontalalignment": false,
    "snapgridsize": 10,
    "snaptogrid": true,
    "wType": "FlexContainer",
    "widgetalignment": 1,
    "zindex": 1
}