{
    "DNDConfig": null,
    "__parentReadjusting__": false,
    "_height_": {
        "type": "ref",
        "value": "preferred"
    },
    "_left_": {
        "type": "string",
        "value": "0%"
    },
    "_margin_": [
        0,
        0,
        0,
        0
    ],
    "_orientation_": 6,
    "_padding_": [
        0,
        0,
        0,
        0
    ],
    "_percent_": true,
    "_skin_": "s24c92fc23b14f5484b693ee9b8a9b35",
    "_top_": {
        "type": "string",
        "value": "20dp"
    },
    "_width_": {
        "type": "string",
        "value": "100%"
    },
    "allboxes": [],
    "autogrowmode": 1,
    "canUpdateUI": true,
    "children": [
        "lblFirstNameWithCIF",
        "lblLastNameWithCIF",
        "flxFirstNameWithCIF",
        "flxLastNameWithCIF"
    ],
    "clipbounds": true,
    "containerweight": 100,
    "enablescrolling": true,
    "id": "flxNameDetailsWithCIF",
    "info": null,
    "iscustomlayout": false,
    "isvisible": true,
    "kuid": "d6ec6925705447539879361c82cbebd7",
    "layouttype": 2,
    "name": "kony.ui.FlexContainer",
    "parent": "flxPersonalDetailsWithCIF",
    "pf": "frmEnrollBusiness",
    "responsiveData": {
        "b2": {
            "top": {
                "type": "string",
                "value": "15dp"
            }
        }
    },
    "retaincontentalignment": false,
    "retainflexpositionproperties": false,
    "snapgridsize": 10,
    "snaptogrid": true,
    "wType": "FlexContainer",
    "widgetalignment": 1,
    "zindex": 1
}