{
    "@class": "com.kony.gen.viz.model.component.KVizButton",
    "DNDConfig": null,
    "_height_": {
        "type": "string",
        "value": "20dp"
    },
    "_margin_": [
        6,
        6,
        6,
        6
    ],
    "_padding_": [
        0,
        0,
        0,
        0
    ],
    "_right_": {
        "type": "string",
        "value": "0dp"
    },
    "_skin_": "sc06cd4470f84a808162d6ac0de1f0ec",
    "_text_": "Repeat",
    "_top_": {
        "type": "string",
        "value": "0dp"
    },
    "_width_": {
        "type": "ref",
        "value": "preferred"
    },
    "accessibilityconfig": {
        "a11yLabel": "Repeat"
    },
    "canUpdateUI": true,
    "containerId": true,
    "containerweight": 100,
    "contentalignment": 6,
    "disabledSkins": {},
    "displaytext": true,
    "focusskin": "sc06cd4470f84a808162d6ac0de1f0ec",
    "id": "btnDetails2",
    "ide_onClick": "AS_Button_c3ca2f123d7c45a986a41cd0a53ba885",
    "info": null,
    "isvisible": true,
    "kuid": "ia43459d293040f8ab02d152a7d96990",
    "name": "kony.ui.Button",
    "parent": "flxActionsWrapper",
    "pf": "ICSegTransactionsRowSelectedSavings",
    "tooltip": "",
    "wType": "Button",
    "zindex": 1
}