{
    "@class": "com.kony.gen.viz.model.component.KVizLabel",
    "DNDConfig": null,
    "_height_": {
        "type": "string",
        "value": "30px"
    },
    "_left_": {
        "type": "string",
        "value": "3.77%"
    },
    "_margin_": [
        1,
        1,
        1,
        1
    ],
    "_padding_": [
        0,
        0,
        0,
        0
    ],
    "_skin_": "sdb59c8c8e8a436883049536416d32ba",
    "_text_": "Account Number:",
    "_top_": {
        "type": "string",
        "value": "45px"
    },
    "_width_": {
        "type": "string",
        "value": "21%"
    },
    "_wrapping_": 2,
    "accessibilityconfig": {
        "a11yLabel": "Account Number:"
    },
    "android": {
        "textStyle": {
            "letterSpacing": 0,
            "strikeThrough": false
        }
    },
    "canUpdateUI": true,
    "containerweight": 100,
    "contentalignment": 4,
    "id": "lblAccountNumberKey",
    "info": null,
    "ipad": {
        "psp": {
            "wrapping": 2
        }
    },
    "iphone": {
        "psp": {
            "wrapping": 2
        }
    },
    "isvisible": true,
    "kuid": "jc4612f081cd4305a223ba92e1b04ff4",
    "name": "kony.ui.Label",
    "parent": "flxMiddle",
    "pf": "frmManagePayees",
    "responsiveData": {
        "b2": {},
        "b3": {
            "height": {
                "type": "string",
                "value": "20px"
            },
            "top": {
                "type": "string",
                "value": "10px"
            }
        },
        "b4": {}
    },
    "texti18n": "i18n.ProfileManagement.AccountNumber",
    "tooltip": "",
    "wType": "Label",
    "zindex": 1
}