{
    "@class": "com.kony.gen.viz.model.component.KVizButton",
    "DNDConfig": null,
    "__parentReadjusting__": false,
    "_height_": {
        "type": "string",
        "value": "50dp"
    },
    "_left_": {
        "type": "number",
        "value": ""
    },
    "_margin_": [
        6,
        6,
        6,
        6
    ],
    "_padding_": [
        0,
        0,
        0,
        0
    ],
    "_right_": {
        "type": "string",
        "value": "21.20%"
    },
    "_skin_": "sfa0dea91cfb4875b1891cd576d80938",
    "_text_": "",
    "_top_": {
        "type": "number",
        "value": ""
    },
    "_width_": {
        "type": "string",
        "value": "18.81%"
    },
    "accessibilityconfig": {
        "a11yLabel": "Back to Account Details"
    },
    "canUpdateUI": true,
    "centery": {
        "type": "string",
        "value": "50%"
    },
    "containerweight": 100,
    "contentalignment": 5,
    "desktopweb": {
        "psp": {
            "hoverSkin": "s81054b5e2b74f17a5261991df565427"
        }
    },
    "displaytext": true,
    "focusskin": "s5a4f67acd3e47b9be6d6910a7a6686f",
    "id": "btnBackToAccoutnDetails",
    "info": null,
    "isvisible": true,
    "kuid": "aa96f7e92c54491b80e8dcd78456ce30",
    "name": "kony.ui.Button",
    "parent": "flxAckButtons",
    "pf": "frmStopPayments",
    "responsiveData": {
        "b1": {
            "height": {
                "type": "string",
                "value": "40dp"
            },
            "right": {
                "type": "string",
                "value": "22.20%"
            }
        },
        "b2": {
            "height": {
                "type": "string",
                "value": "40dp"
            },
            "right": {
                "type": "string",
                "value": "22.20%"
            }
        },
        "b3": {
            "height": {
                "type": "string",
                "value": "40dp"
            },
            "left": {
                "type": "string",
                "value": "2.50%"
            },
            "right": {
                "type": "number",
                "value": "0"
            },
            "top": {
                "type": "string",
                "value": "20dp"
            },
            "width": {
                "type": "string",
                "value": "95%"
            }
        },
        "b4": {
            "height": {
                "type": "string",
                "value": "40dp"
            },
            "right": {
                "type": "string",
                "value": "260dp"
            },
            "width": {
                "type": "string",
                "value": "200dp"
            }
        }
    },
    "texti18n": "i18n.ViewStatements.BackToAccountDetails",
    "tooltip": "Back to Account Details",
    "wType": "Button",
    "zindex": 1
}