{
    "@class": "com.kony.gen.viz.model.component.KVizButton",
    "DNDConfig": null,
    "__parentReadjusting__": false,
    "_bottom_": 30,
    "_height_": {
        "type": "string",
        "value": "40dp"
    },
    "_left_": {
        "type": "string",
        "value": "35%"
    },
    "_margin_": [
        6,
        6,
        6,
        6
    ],
    "_padding_": [
        0,
        0,
        0,
        0
    ],
    "_skin_": "s215ef7edf8c4ddb8f9f91fcc80f7b42",
    "_text_": "NO",
    "_width_": {
        "type": "string",
        "value": "29.74%"
    },
    "accessibilityconfig": {
        "a11yLabel": "Cancel"
    },
    "canUpdateUI": true,
    "centery": {
        "type": "string",
        "value": "50%"
    },
    "containerweight": 100,
    "contentalignment": 5,
    "disabledSkins": {
        "focusSkin": "sf44d06ca8224832827ea7fdff757013"
    },
    "displaytext": true,
    "id": "btnCancel",
    "ide_onClick": "AS_Button_aece9a3ff99b4377b48776bef9874149",
    "info": null,
    "isvisible": true,
    "kuid": "g4917c7be5dd45b0be2ed134a540e0f7",
    "name": "kony.ui.Button",
    "parent": "flxContentsButtons",
    "pf": "frmStopPayments",
    "responsiveData": {
        "b1": {
            "skin": "s215ef7edf8c4ddb8f9f91fcc80f7b42"
        },
        "b2": {
            "skin": "s215ef7edf8c4ddb8f9f91fcc80f7b42"
        },
        "b3": {
            "left": {
                "type": "string",
                "value": "5%"
            },
            "skin": "s215ef7edf8c4ddb8f9f91fcc80f7b42",
            "width": {
                "type": "string",
                "value": "42.50%"
            }
        },
        "b4": {
            "skin": "s215ef7edf8c4ddb8f9f91fcc80f7b42"
        }
    },
    "texti18n": "i18n.transfers.Cancel",
    "tooltip": "Cancel",
    "wType": "Button",
    "zindex": 1
}