{
    "@class": "com.kony.gen.viz.model.component.KVizButton",
    "DNDConfig": null,
    "__parentReadjusting__": false,
    "_height_": {
        "type": "string",
        "value": "50dp"
    },
    "_left_": {
        "type": "string",
        "value": "20dp"
    },
    "_margin_": [
        6,
        6,
        6,
        6
    ],
    "_padding_": [
        0,
        0,
        0,
        0
    ],
    "_skin_": "s611bd2c5d324490aa9f7ed9d412984f",
    "_text_": "SCHEDULED TRANSACTIONS",
    "_top_": {
        "type": "string",
        "value": "0dp"
    },
    "_width_": {
        "type": "string",
        "value": "90%"
    },
    "accessibilityconfig": {
        "a11yLabel": "View Disputed Transactions"
    },
    "canUpdateUI": true,
    "containerweight": 100,
    "contentalignment": 4,
    "desktopweb": {
        "psp": {
            "hoverSkin": "s611bd2c5d324490aa9f7ed9d4129848"
        }
    },
    "disabledSkins": {},
    "displaytext": true,
    "focusskin": "sbf72662805b48f3b06b5cd3a5a6fdca",
    "hoverskin": "",
    "id": "btnViewDisputedTransactions",
    "info": null,
    "isvisible": true,
    "kuid": "jb4ba2664d804aedbb0a1c55d8f4eda0",
    "name": "kony.ui.Button",
    "parent": "flxPrimaryActionsDisputeTransactionDetails",
    "pf": "frmStopPayments",
    "responsiveData": {
        "b1": {
            "isVisible": false,
            "skin": "s611bd2c5d324490aa9f7ed9d412984f"
        },
        "b2": {
            "desktopweb": {
                "psp": {}
            },
            "disabledSkins": {},
            "skin": "s611bd2c5d324490aa9f7ed9d412984f"
        },
        "b3": {
            "height": {
                "type": "string",
                "value": "0dp"
            },
            "width": {
                "type": "string",
                "value": "0%"
            }
        },
        "b4": {
            "skin": "s611bd2c5d324490aa9f7ed9d412984f"
        }
    },
    "texti18n": "i18n.StopCheckPayments.ViewDisputedTransactions",
    "tooltip": "View Disputed Transactions",
    "wType": "Button",
    "zindex": 1
}