{
    "@class": "com.kony.gen.viz.model.component.KVizButton",
    "DNDConfig": null,
    "__parentReadjusting__": false,
    "_height_": {
        "type": "string",
        "value": "50dp"
    },
    "_left_": {
        "type": "string",
        "value": "20dp"
    },
    "_margin_": [
        6,
        6,
        6,
        6
    ],
    "_padding_": [
        0,
        0,
        0,
        0
    ],
    "_skin_": "s611bd2c5d324490aa9f7ed9d412984f",
    "_text_": "MAKE A TRANSFER",
    "_top_": {
        "type": "string",
        "value": "0dp"
    },
    "_width_": {
        "type": "string",
        "value": "90%"
    },
    "accessibilityconfig": {
        "a11yLabel": "View Disputed Checks"
    },
    "canUpdateUI": true,
    "containerweight": 100,
    "contentalignment": 4,
    "desktopweb": {
        "psp": {
            "hoverSkin": "s611bd2c5d324490aa9f7ed9d4129848"
        }
    },
    "disabledSkins": {},
    "displaytext": true,
    "focusskin": "sbf72662805b48f3b06b5cd3a5a6fdca",
    "hoverskin": "",
    "id": "btnViewMyCheques",
    "info": null,
    "isvisible": true,
    "kuid": "ef0345e5a67a47d0a2a5f02da8b9dd46",
    "name": "kony.ui.Button",
    "parent": "flxPrimaryActionsDisputeTransactionDetails",
    "pf": "frmStopPayments",
    "responsiveData": {
        "b1": {
            "skin": "s611bd2c5d324490aa9f7ed9d412984f",
            "text": "VIew My Cheques"
        },
        "b2": {
            "desktopweb": {
                "psp": {}
            },
            "disabledSkins": {}
        },
        "b4": {
            "skin": "s611bd2c5d324490aa9f7ed9d412984f"
        }
    },
    "texti18n": "i18n.StopCheckPayments.ViewMyCheques",
    "tooltip": "View Disputed Checks",
    "wType": "Button",
    "zindex": 1
}