{
    "DNDConfig": null,
    "__parentReadjusting__": false,
    "_height_": {
        "type": "ref",
        "value": "preferred"
    },
    "_left_": {
        "type": "string",
        "value": "0dp"
    },
    "_margin_": [
        0,
        0,
        0,
        0
    ],
    "_orientation_": 6,
    "_padding_": [
        0,
        0,
        0,
        0
    ],
    "_percent_": true,
    "_skin_": "sb75f187c17c456fb0450d66550451bb",
    "_top_": {
        "type": "number",
        "value": "116"
    },
    "_width_": {
        "type": "string",
        "value": "100%"
    },
    "allboxes": [],
    "autogrowmode": 1,
    "canUpdateUI": true,
    "children": [
        "accountTypes",
        "breadcrumb",
        "flxMain"
    ],
    "clipbounds": true,
    "containerweight": 100,
    "enablescrolling": true,
    "id": "flxContainer",
    "info": null,
    "isvisible": true,
    "kuid": "a11223537d564040aca01e62d4ed6361",
    "layouttype": 4,
    "name": "kony.ui.FlexContainer",
    "parent": "frmStopPayments",
    "pf": "frmStopPayments",
    "responsiveData": {
        "b1": {
            "layoutType": 2,
            "skin": "sb75f187c17c456fb0450d66550451bb",
            "width": {
                "type": "string",
                "value": "100%"
            }
        },
        "b2": {
            "centerX": {
                "type": "string",
                "value": "50%"
            },
            "layoutType": 2,
            "skin": "sb75f187c17c456fb0450d66550451bb",
            "width": {
                "type": "string",
                "value": "1366dp"
            }
        },
        "b3": {
            "layoutType": 2,
            "skin": "sb75f187c17c456fb0450d66550451bb",
            "top": {
                "type": "number",
                "value": "0"
            }
        },
        "b4": {
            "height": {
                "type": "ref",
                "value": "preferred"
            },
            "isVisible": true,
            "layoutType": 2,
            "skin": "sb75f187c17c456fb0450d66550451bb",
            "width": {
                "type": "string",
                "value": "100%"
            }
        }
    },
    "snapgridsize": 10,
    "snaptogrid": true,
    "wType": "FlexContainer",
    "widgetalignment": 1,
    "zindex": 1
}