{
    "DNDConfig": null,
    "_height_": {
        "type": "ref",
        "value": "preferred"
    },
    "_left_": {
        "type": "string",
        "value": "0dp"
    },
    "_margin_": [
        0,
        0,
        0,
        0
    ],
    "_orientation_": 6,
    "_padding_": [
        0,
        0,
        0,
        0
    ],
    "_percent_": true,
    "_skin_": "s344174b66d24a22be7a954acfcdefc5",
    "_top_": {
        "type": "string",
        "value": "0dp"
    },
    "_width_": {
        "type": "string",
        "value": "100%"
    },
    "allboxes": [],
    "autogrowmode": 1,
    "canUpdateUI": true,
    "children": [
        "flxHorizantalSeperator",
        "lblDisputeWarning",
        "flxHeaderDisputeTransactionDetails",
        "flxKeyValues",
        "flxHorizontal2",
        "flxSelectReasonForDispute",
        "lstBoxSelectReasonForDisputeTransaction",
        "flxDesciption",
        "txtBoxDescription",
        "flxConfirmBtns"
    ],
    "clipbounds": true,
    "containerweight": 100,
    "enablescrolling": true,
    "id": "flxDisputeTransactionDetail",
    "info": null,
    "isvisible": true,
    "kuid": "gb59a51409944a8085f71fe3213af21d",
    "layouttype": 4,
    "name": "kony.ui.FlexContainer",
    "parent": "flxDisputedTransactionDetails",
    "pf": "frmStopPayments",
    "responsiveData": {
        "b1": {
            "isVisible": false
        },
        "b3": {
            "isVisible": false
        }
    },
    "snapgridsize": 10,
    "snaptogrid": true,
    "wType": "FlexContainer",
    "widgetalignment": 1,
    "zindex": 1
}