{
    "DNDConfig": null,
    "__parentReadjusting__": false,
    "_height_": {
        "type": "string",
        "value": "38dp"
    },
    "_left_": {
        "type": "string",
        "value": "10dp"
    },
    "_margin_": [
        0,
        0,
        0,
        0
    ],
    "_orientation_": 6,
    "_padding_": [
        0,
        0,
        0,
        0
    ],
    "_percent_": true,
    "_skin_": "s24c92fc23b14f5484b693ee9b8a9b35",
    "_top_": {
        "type": "string",
        "value": "10dp"
    },
    "_width_": {
        "type": "string",
        "value": "466px"
    },
    "allboxes": [],
    "canUpdateUI": true,
    "children": [
        "imgTCInfo",
        "flxMessage1",
        "flxMessage2"
    ],
    "clipbounds": true,
    "containerweight": 100,
    "enablescrolling": true,
    "id": "flxFollowing",
    "info": null,
    "isvisible": true,
    "kuid": "c0ff26b980284e96aa65b7c8d5d45195",
    "layouttype": 3,
    "name": "kony.ui.FlexContainer",
    "parent": "flxPleaseNoteTheFollowing",
    "pf": "frmStopPayments",
    "responsiveData": {
        "b3": {
            "height": {
                "type": "string",
                "value": "50dp"
            },
            "width": {
                "type": "string",
                "value": "280px"
            }
        },
        "b4": {
            "layoutType": 2,
            "width": {
                "type": "string",
                "value": "90%"
            }
        }
    },
    "snapgridsize": 10,
    "snaptogrid": true,
    "wType": "FlexContainer",
    "widgetalignment": 1,
    "zindex": 1
}