{
    "DNDConfig": null,
    "__parentReadjusting__": false,
    "_height_": {
        "type": "string",
        "value": "1px"
    },
    "_left_": {
        "type": "number",
        "value": ""
    },
    "_margin_": [
        0,
        0,
        0,
        0
    ],
    "_orientation_": 6,
    "_padding_": [
        0,
        0,
        0,
        0
    ],
    "_percent_": true,
    "_skin_": "s3bd38ffdb374ddfb5e1cef876b795c1",
    "_top_": {
        "type": "string",
        "value": "0px"
    },
    "_width_": {
        "type": "string",
        "value": "100%"
    },
    "allboxes": [],
    "autogrowmode": 0,
    "canUpdateUI": true,
    "children": [],
    "clipbounds": true,
    "containerweight": 100,
    "enablescrolling": true,
    "id": "flxLineSeparator1",
    "info": null,
    "isvisible": true,
    "kuid": "dfcd1fefc5cc4e8db67841c6b89d1f08",
    "layouttype": 2,
    "name": "kony.ui.FlexContainer",
    "parent": "flxAcknowledgementDetails",
    "pf": "frmStopPayments",
    "responsiveData": {
        "b1": {
            "left": {
                "type": "string",
                "value": "10dp"
            },
            "width": {
                "type": "string",
                "value": "94%"
            }
        },
        "b2": {
            "left": {
                "type": "string",
                "value": "10dp"
            },
            "width": {
                "type": "string",
                "value": "94%"
            }
        },
        "b4": {
            "left": {
                "type": "string",
                "value": "2%"
            },
            "width": {
                "type": "string",
                "value": "94%"
            }
        }
    },
    "snapgridsize": 10,
    "snaptogrid": true,
    "wType": "FlexContainer",
    "widgetalignment": 1,
    "zindex": 1
}