{
    "@class": "com.kony.gen.viz.model.component.KVizTextBox2",
    "DNDConfig": null,
    "__parentReadjusting__": false,
    "_height_": {
        "type": "string",
        "value": "40dp"
    },
    "_left_": {
        "type": "string",
        "value": "32dp"
    },
    "_margin_": [
        0,
        0,
        0,
        0
    ],
    "_padding_": [
        3,
        0,
        0,
        0
    ],
    "_placeholder_": "Optional",
    "_skin_": "sbad3c0dbd09447ea3f81eebcfc69002",
    "_text_": "",
    "_top_": {
        "type": "number",
        "value": ""
    },
    "_width_": {
        "type": "string",
        "value": "93%"
    },
    "accessibilityconfig": {
        "a11yLabel": "Amount"
    },
    "autocapitalize": "none",
    "autocomplete": false,
    "autocorrect": false,
    "autofilter": false,
    "canUpdateUI": true,
    "centerx": {
        "type": "number",
        "value": ""
    },
    "centery": {
        "type": "string",
        "value": "69.67%"
    },
    "containerheight": "",
    "containerheightmode": 1,
    "containerweight": 100,
    "contentalignment": 4,
    "disabledSkins": {
        "focusSkin": "s5f5a9f8c3a548e281fa49915b760e95"
    },
    "focusskin": "s2faf9c2766d4142ab33d0bf97445ae0",
    "id": "tbxOptional",
    "info": null,
    "isvisible": true,
    "keyboardtype": "A",
    "kuid": "i56bdfa0bdad4bc9a35bbe6a7c71f0a9",
    "mode": "A",
    "name": "kony.ui.TextBox2",
    "parent": "flxAmountSelectReason1",
    "pf": "frmStopPayments",
    "responsiveData": {
        "b1": {
            "left": {
                "type": "string",
                "value": "30dp"
            }
        },
        "b3": {
            "centerX": {
                "type": "string",
                "value": "50%"
            },
            "centerY": {
                "type": "string",
                "value": "67%"
            },
            "left": {
                "type": "string",
                "value": "0%"
            },
            "top": {
                "type": "string",
                "value": "35dp"
            },
            "width": {
                "type": "string",
                "value": "100%"
            }
        },
        "b4": {
            "left": {
                "type": "string",
                "value": "3%"
            },
            "width": {
                "type": "string",
                "value": "94%"
            }
        }
    },
    "securetextentry": false,
    "textinputmode": "A",
    "viewtype": "default",
    "wType": "TextField",
    "zindex": 1
}