{
    "@class": "com.kony.gen.viz.model.component.KVizLabel",
    "DNDConfig": null,
    "__parentReadjusting__": false,
    "_bottom_": {
        "type": "string",
        "value": "0dp"
    },
    "_height_": {
        "type": "string",
        "value": "1px"
    },
    "_left_": {
        "type": "string",
        "value": "20dp"
    },
    "_margin_": [
        1,
        1,
        1,
        1
    ],
    "_padding_": [
        0,
        0,
        0,
        0
    ],
    "_right_": {
        "type": "string",
        "value": "25px"
    },
    "_skin_": "sbdeeab4f7084696b39041ac38df96c2",
    "_text_": "'",
    "_wrapping_": 2,
    "accessibilityconfig": {
        "a11yLabel": "'"
    },
    "android": {
        "textStyle": {
            "letterSpacing": 0,
            "strikeThrough": false
        }
    },
    "canUpdateUI": true,
    "containerId": true,
    "containerweight": 100,
    "contentalignment": 4,
    "id": "lblSeperator",
    "info": null,
    "ipad": {
        "psp": {
            "wrapping": 2
        }
    },
    "iphone": {
        "psp": {
            "wrapping": 2
        }
    },
    "isvisible": true,
    "kuid": "fd5253272d4b44a59a7b908d11726e75",
    "name": "kony.ui.Label",
    "parent": "flxAccountAlertsCategoryDetails",
    "pf": "segAccountAlertsCategoryDetails",
    "tooltip": "",
    "wType": "Label",
    "zindex": 1
}