{
    "DNDConfig": null,
    "__parentReadjusting__": false,
    "_height_": {
        "type": "string",
        "value": "400dp"
    },
    "_left_": {
        "type": "string",
        "value": "6.07%"
    },
    "_margin_": [
        0,
        0,
        0,
        0
    ],
    "_orientation_": 6,
    "_padding_": [
        0,
        0,
        0,
        0
    ],
    "_percent_": true,
    "_skin_": "sdc143f0e5b64ae3a3f155f691c73fa7",
    "_top_": {
        "type": "string",
        "value": "20dp"
    },
    "_width_": {
        "type": "string",
        "value": "88%"
    },
    "allboxes": [],
    "canUpdateUI": true,
    "children": [
        "flxSubHeader",
        "flxHorizontalLine",
        "flxRegisteredName",
        "flxRegisteredeNumber",
        "flxRegisteredEmail",
        "flxDefaultAccount",
        "flxButtons"
    ],
    "clipbounds": false,
    "containerweight": 100,
    "enablescrolling": true,
    "id": "flxSubConfirmation",
    "info": null,
    "iscustomlayout": false,
    "isvisible": false,
    "kuid": "i3b77548c1614b59974fe460b9b68fb1",
    "layouttype": 4,
    "name": "kony.ui.FlexContainer",
    "parent": "flxMain",
    "pf": "frmP2PSettings",
    "responsiveData": {
        "b1": {
            "isVisible": true
        },
        "b2": {
            "isVisible": true,
            "left": {
                "type": "string",
                "value": "2.50%"
            }
        },
        "b3": {
            "height": {
                "type": "string",
                "value": "660dp"
            },
            "isVisible": true,
            "left": {
                "type": "string",
                "value": "2%"
            }
        },
        "b4": {
            "isVisible": true
        }
    },
    "retaincontentalignment": false,
    "retainflexpositionproperties": false,
    "retainflowhorizontalalignment": false,
    "snapgridsize": 10,
    "snaptogrid": true,
    "wType": "FlexContainer",
    "widgetalignment": 1,
    "zindex": 1
}