{
    "DNDConfig": null,
    "__parentReadjusting__": false,
    "_height_": {
        "type": "ref",
        "value": "preferred"
    },
    "_left_": {
        "type": "string",
        "value": "-1dp"
    },
    "_margin_": [
        0,
        0,
        0,
        0
    ],
    "_orientation_": 6,
    "_padding_": [
        0,
        0,
        0,
        0
    ],
    "_percent_": true,
    "_skin_": "scbd4cac3526468089bf3013adff0549",
    "_top_": {
        "type": "string",
        "value": "10dp"
    },
    "_width_": {
        "type": "string",
        "value": "100%"
    },
    "allboxes": [],
    "autogrowmode": 1,
    "canUpdateUI": true,
    "children": [
        "flxDetails",
        "lblFromDetails",
        "listbxFromDetails",
        "flxTransferTo",
        "flxPayOffDate",
        "flxCalender",
        "lblLoanPayOffAmountLabel",
        "tbxLoanPayOffAmountValue",
        "flxPayOff",
        "tbxPayoffPenalityValue",
        "flxWarningMessage",
        "flxSeperator",
        "flxButtons"
    ],
    "clipbounds": true,
    "containerweight": 100,
    "enablescrolling": true,
    "id": "flxContentDuplicate",
    "info": null,
    "isvisible": true,
    "kuid": "e54b8195221c48f2a73a6ed524daaf6b",
    "layouttype": 4,
    "name": "kony.ui.FlexContainer",
    "parent": "flxLoanPayOff",
    "pf": "userwidgetmodel",
    "snapgridsize": 10,
    "snaptogrid": true,
    "wType": "FlexContainer",
    "widgetalignment": 1,
    "zindex": 1
}