{
    "@class": "com.kony.gen.viz.model.component.KVizUserWidget",
    "DNDConfig": null,
    "__markedForDelete__": true,
    "__parentReadjusting__": false,
    "_children_": [],
    "_height_": {
        "type": "ref",
        "value": "preferred"
    },
    "_left_": {
        "type": "string",
        "value": "0dp"
    },
    "_margin_": [
        0,
        0,
        0,
        0
    ],
    "_orientation_": 1,
    "_padding_": [
        0,
        0,
        0,
        0
    ],
    "_percent_": true,
    "_render_": true,
    "_skin_": "s24c92fc23b14f5484b693ee9b8a9b35",
    "_top_": {
        "type": "string",
        "value": "20dp"
    },
    "_width_": {
        "type": "string",
        "value": "100%"
    },
    "areflexpropsreferenced": false,
    "autogrowmode": 1,
    "canUpdateUI": true,
    "clipbounds": true,
    "containerweight": 0,
    "dataDiffs": {
        "flxContainer": {
            "__events__": {},
            "__info__": {
                "kuid": "db1c085cd54a488eb71ff6014d727d4e",
                "srcKUID": "f13dc08cac9b42cf84a6cd0eb46e5de8",
                "wType": "FlexContainer"
            }
        },
        "flxInfo": {
            "__events__": {},
            "__info__": {
                "kuid": "e270884db1ac4ae0bb8ebfa1fe0dd11a",
                "srcKUID": "e95f6b8ffb5f415db6652af917c31c62",
                "wType": "FlexContainer"
            }
        },
        "flxKey": {
            "__events__": {},
            "__info__": {
                "kuid": "i7841148f42e473ebcc9582fd0303795",
                "srcKUID": "d4492c719df94445a861e97f34dc4949",
                "wType": "FlexContainer"
            }
        },
        "flxValue": {
            "__events__": {},
            "__info__": {
                "kuid": "je1f9e5d4fc6471a96d14efbae447d13",
                "srcKUID": "b141325e5e9048519b71af002cfee26a",
                "wType": "FlexContainer"
            },
            "left": {
                "Default": {
                    "type": "string",
                    "value": "30.75%"
                }
            }
        },
        "imgWhatIsSSN": {
            "__events__": {},
            "__info__": {
                "kuid": "fda0e463282a4987945330ba51e52dcf",
                "srcKUID": "f54ec2da1e9d451d9345687646b48cc3",
                "wType": "Image"
            }
        },
        "keyValue": {
            "__events__": {},
            "__info__": {
                "isRoot": true,
                "kuid": "caa5796428744c29a9a079858589303f",
                "srcKUID": "cc43b83fad51498eaee44e391076b1e1",
                "wType": "FlexContainer"
            },
            "autogrowMode": 1,
            "height": {
                "Default": {
                    "type": "ref",
                    "value": "preferred"
                }
            },
            "left": {
                "Default": {
                    "type": "string",
                    "value": "0dp"
                }
            },
            "top": {
                "Default": {
                    "type": "string",
                    "value": "20dp"
                }
            },
            "zIndex": {
                "Default": 5
            }
        },
        "lblColon": {
            "__events__": {},
            "__info__": {
                "kuid": "e58a376304794228994ac4144df597bf",
                "srcKUID": "c1b15d6a704e4365be1c4ff0a75c3f55",
                "wType": "Label"
            },
            "left": {
                "Default": {
                    "type": "string",
                    "value": "28.75%"
                }
            }
        },
        "lblKey": {
            "__events__": {},
            "__info__": {
                "kuid": "hcd00c49c7694043971dc5bbdb4ec9bc",
                "srcKUID": "daa1384a75084c57b8a708d751b05837",
                "wType": "Label"
            },
            "i18n_text": null,
            "text": "Nickname"
        },
        "lblValue": {
            "__events__": {},
            "__info__": {
                "kuid": "c766f445ec4a44ae93b0435f04ff3209",
                "srcKUID": "had7006a19c947e7ae413b191f0cc841",
                "wType": "Label"
            },
            "text": "John"
        }
    },
    "id": "keyValueTwo",
    "info": null,
    "isdatareferenced": false,
    "isvisible": true,
    "kuid": "d97d7a710d4b49f180078f1399b028f7",
    "layouttype": 2,
    "masterType": 0,
    "name": "kony.ui.UserWidgetInstance",
    "parent": "flxKeyValues",
    "pf": "userwidgetmodel",
    "snaptogrid": true,
    "sourceUserWidget": "cc43b83fad51498eaee44e391076b1e1",
    "wType": "UserWidgetInstance",
    "zindex": 5
}