{
    "@class": "com.kony.gen.viz.model.component.KVizLabel",
    "DNDConfig": null,
    "__parentReadjusting__": false,
    "_height_": {
        "type": "string",
        "value": "15dp"
    },
    "_left_": {
        "type": "string",
        "value": "0"
    },
    "_margin_": [
        1,
        1,
        1,
        1
    ],
    "_padding_": [
        0,
        0,
        0,
        0
    ],
    "_skin_": "s91c314f8e2549db82e8f48ae2c7c2ff",
    "_text_": "2",
    "_top_": {
        "type": "string",
        "value": "0"
    },
    "_width_": {
        "type": "string",
        "value": "15dp"
    },
    "_wrapping_": 2,
    "android": {
        "textStyle": {
            "letterSpacing": 0,
            "strikeThrough": false
        }
    },
    "canUpdateUI": true,
    "centerx": {
        "type": "string",
        "value": "80%"
    },
    "centery": {
        "type": "string",
        "value": "20%"
    },
    "containerweight": 100,
    "contentalignment": 5,
    "id": "lblAdvancedFiltersNumber",
    "info": null,
    "ipad": {
        "psp": {
            "wrapping": 2
        }
    },
    "iphone": {
        "psp": {
            "wrapping": 2
        }
    },
    "iscustomlayout": false,
    "isvisible": true,
    "kuid": "jd09e939de7a424dabe644a710c13ca5",
    "name": "kony.ui.Label",
    "parent": "flxAdvancedFiltersDropdown",
    "pf": "frmDashboard",
    "responsiveData": {
        "b3": {
            "centerX": {
                "type": "string",
                "value": "90%"
            },
            "centerY": {
                "type": "string",
                "value": "15%"
            },
            "left": {
                "type": "string",
                "value": "5dp"
            },
            "top": {
                "type": "number",
                "value": "0"
            },
            "zIndex": 5
        }
    },
    "retaincontentalignment": false,
    "retainflexpositionproperties": false,
    "tooltip": "",
    "wType": "Label",
    "zindex": 1
}