{
    "@class": "com.kony.gen.viz.model.component.KVizButton",
    "DNDConfig": null,
    "__parentReadjusting__": false,
    "_height_": {
        "type": "ref",
        "value": "preferred"
    },
    "_left_": {
        "type": "string",
        "value": "0dp"
    },
    "_margin_": [
        6,
        6,
        6,
        6
    ],
    "_padding_": [
        0,
        0,
        0,
        0
    ],
    "_skin_": "s82771fb0d3040339aab7fd2e47af223",
    "_text_": "DELETE BILLER",
    "_top_": {
        "type": "string",
        "value": "10dp"
    },
    "_width_": {
        "type": "string",
        "value": "80%"
    },
    "accessibilityconfig": {
        "a11yLabel": "DELETE BILLER"
    },
    "canUpdateUI": true,
    "containerId": true,
    "containerweight": 100,
    "contentalignment": 4,
    "disabledSkins": {
        "focusSkin": "sf44d06ca8224832827ea7fdff757013"
    },
    "displaytext": true,
    "id": "btnDeleteBiller",
    "info": null,
    "isvisible": false,
    "kuid": "b77d21a8c5cd4413ade6165db8ec5fca",
    "name": "kony.ui.Button",
    "parent": "flxActions",
    "pf": "segBillPayManagePayeesEdit",
    "tooltip": "DELETE BILLER",
    "wType": "Button",
    "zindex": 1
}