{
    "DNDConfig": null,
    "_height_": {
        "type": "string",
        "value": "51dp"
    },
    "_margin_": [
        0,
        0,
        0,
        0
    ],
    "_orientation_": 6,
    "_padding_": [
        0,
        0,
        0,
        0
    ],
    "_percent_": true,
    "_skin_": "secff68ee7904525acebc42c36c39094",
    "allboxes": [],
    "autogrowmode": 0,
    "canUpdateUI": true,
    "children": [
        "lblSeparator",
        "flxSegBulkWireAckWrapper"
    ],
    "clipbounds": true,
    "containerId": true,
    "containerweight": 100,
    "controllerInfo": {
        "default": {
            "channel": "desktop",
            "name": "flxbulkWireViewTemplateController"
        }
    },
    "desktopweb": {
        "psp": {}
    },
    "enablescrolling": true,
    "id": "flxbulkWireViewTemplate",
    "info": null,
    "isTemplate": true,
    "isvisible": true,
    "kuid": "cbd2ce4b1a204f1889103b8bc7334dd5",
    "layouttype": 4,
    "name": "kony.ui.FlexContainer",
    "parent": "segbulkWireViewTemplate",
    "pf": "segbulkWireViewTemplate",
    "snapgridsize": 10,
    "snaptogrid": true,
    "wType": "FlexContainer",
    "widgetalignment": 1
}