{
    "@class": "com.kony.gen.viz.model.component.KVizUserWidget",
    "DNDConfig": null,
    "__parentReadjusting__": false,
    "_children_": [],
    "_height_": {
        "type": "string",
        "value": "150dp"
    },
    "_left_": {
        "type": "string",
        "value": "0dp"
    },
    "_margin_": [
        0,
        0,
        0,
        0
    ],
    "_orientation_": 1,
    "_padding_": [
        0,
        0,
        0,
        0
    ],
    "_percent_": true,
    "_skin_": "s24c92fc23b14f5484b693ee9b8a9b35",
    "_top_": {
        "type": "string",
        "value": "0dp"
    },
    "_width_": {
        "type": "string",
        "value": "100%"
    },
    "areflexpropsreferenced": false,
    "autogrowmode": 0,
    "canUpdateUI": true,
    "clipbounds": true,
    "containerweight": 0,
    "dataDiffs": {
        "btnContactUs": {
            "__events__": {},
            "__info__": {
                "kuid": "h839394437f1488fb12a97df84bb1f7f",
                "srcKUID": "ecc25bc7153f457ab1ba632ef717cd45",
                "wType": "Button"
            }
        },
        "btnFaqs": {
            "__events__": {},
            "__info__": {
                "kuid": "b2c63877a60545768af479688690309f",
                "srcKUID": "b944dd400d92446cac05298aa3a9c3ac",
                "wType": "Button"
            }
        },
        "btnLocateUs": {
            "__events__": {},
            "__info__": {
                "kuid": "eca69076ae4a43be92aa822b2e29d8a4",
                "srcKUID": "cba2d54eb0404403a4e4114e564327e5",
                "wType": "Button"
            }
        },
        "btnPrivacy": {
            "__events__": {},
            "__info__": {
                "kuid": "bf2e22c5554c41de9d0b1d39194f7df0",
                "srcKUID": "fe75665892ee4a40970c4666de147ae2",
                "wType": "Button"
            }
        },
        "btnTermsAndConditions": {
            "__events__": {},
            "__info__": {
                "kuid": "af137cb3f5cd42778cfdd8fb43039b15",
                "srcKUID": "a9613de4c0cb40d0afdd09fc05d3dc16",
                "wType": "Button"
            }
        },
        "customfooternew": {
            "__events__": {},
            "__info__": {
                "isRoot": true,
                "kuid": "e90d10c73a2c49ba8f38fad1db1db814",
                "srcKUID": "fa97e826f07b4e11b7b2f05a53498e1b",
                "wType": "FlexContainer"
            }
        },
        "flxFooterMenu": {
            "__events__": {},
            "__info__": {
                "kuid": "ae1ad696ee634292a319e9a814184d36",
                "srcKUID": "c3f613e8e19b466e9898f5923eac6dac",
                "wType": "FlexContainer"
            }
        },
        "flxVBar1": {
            "__events__": {},
            "__info__": {
                "kuid": "cdb97c4512d84db793143a392db305e0",
                "srcKUID": "a88c7eae5e8a4493a5be272244d91c7a",
                "wType": "FlexContainer"
            }
        },
        "flxVBar2": {
            "__events__": {},
            "__info__": {
                "kuid": "eb0613270e1e48828e67d6d5d6ff48b8",
                "srcKUID": "a0d2718b24fe44de91b15f2e637a8e2d",
                "wType": "FlexContainer"
            }
        },
        "flxVBar3": {
            "__events__": {},
            "__info__": {
                "kuid": "b85f4f5c1b184c16bdc1c7020c9113b4",
                "srcKUID": "ae43b076561248bfae9a405e4e555487",
                "wType": "FlexContainer"
            }
        },
        "flxVBar4": {
            "__events__": {},
            "__info__": {
                "kuid": "e43743653aa04603b13ad1d54455c27f",
                "srcKUID": "cf28e38a18f048a390e3daad3458ffda",
                "wType": "FlexContainer"
            }
        },
        "imgFooterIconOne": {
            "__events__": {},
            "__info__": {
                "kuid": "f5bd83d348e040afa564ecb5e34740b8",
                "srcKUID": "b68329dce07e4f06bda4965244150751",
                "wType": "Image"
            }
        },
        "imgFooterIconThree": {
            "__events__": {},
            "__info__": {
                "kuid": "b6a435b4d9364a98ab3ab88067f6274b",
                "srcKUID": "ab2e9617d03b4611bfeaff54271952d9",
                "wType": "Image"
            }
        },
        "imgFooterIconTwo": {
            "__events__": {},
            "__info__": {
                "kuid": "g5d6667661384b81b5b3bbc0d0519def",
                "srcKUID": "b6938079c04a48afae1d515976363dc6",
                "wType": "Image"
            }
        },
        "lblCopyright": {
            "__events__": {},
            "__info__": {
                "kuid": "je03eb72a14d45768ea0616e206c4ea5",
                "srcKUID": "ee2d73ee228d46d0978a62aae45e4cda",
                "wType": "Label"
            }
        }
    },
    "enablescrolling": true,
    "id": "customfooternew",
    "info": null,
    "isdatareferenced": false,
    "isvisible": true,
    "kuid": "e90d10c73a2c49ba8f38fad1db1db814",
    "layouttype": 2,
    "masterType": 0,
    "name": "kony.ui.UserWidgetInstance",
    "parent": "flxFooter",
    "pf": "frmCreateTempSelectRecipients",
    "snapgridsize": 10,
    "snaptogrid": true,
    "sourceUserWidget": "fa97e826f07b4e11b7b2f05a53498e1b",
    "wType": "UserWidgetInstance"
}