{
    "DNDConfig": null,
    "__parentReadjusting__": false,
    "_height_": {
        "type": "string",
        "value": "100%"
    },
    "_left_": {
        "type": "string",
        "value": "4%"
    },
    "_margin_": [
        0,
        0,
        0,
        0
    ],
    "_orientation_": 6,
    "_padding_": [
        0,
        0,
        0,
        0
    ],
    "_percent_": true,
    "_skin_": "s24c92fc23b14f5484b693ee9b8a9b35",
    "_top_": {
        "type": "string",
        "value": "0dp"
    },
    "_width_": {
        "type": "string",
        "value": ""
    },
    "allboxes": [],
    "autogrowmode": 0,
    "canUpdateUI": true,
    "children": [
        "lblAccountName",
        "imgSortAccountName"
    ],
    "clipbounds": true,
    "containerweight": 100,
    "enablescrolling": true,
    "id": "flxAccountName",
    "info": null,
    "isvisible": true,
    "kuid": "cf726ead7952421f85b5692085acfd71",
    "layouttype": 3,
    "name": "kony.ui.FlexContainer",
    "parent": "flxSort",
    "pf": "frmCreateTempSelectRecipients",
    "responsiveData": {
        "b1": {
            "left": {
                "type": "string",
                "value": "5%"
            },
            "width": {
                "type": "string",
                "value": "20%"
            }
        },
        "b2": {
            "left": {
                "type": "string",
                "value": "5%"
            },
            "top": {
                "type": "string",
                "value": "0dp"
            },
            "width": {
                "type": "string",
                "value": "19.70%"
            }
        },
        "b3": {
            "left": {
                "type": "string",
                "value": "5%"
            },
            "width": {
                "type": "string",
                "value": "19%"
            }
        }
    },
    "snapgridsize": 10,
    "snaptogrid": true,
    "wType": "FlexContainer",
    "widgetalignment": 1,
    "zindex": 1
}