{
    "DNDConfig": null,
    "__parentReadjusting__": false,
    "_height_": {
        "type": "string",
        "value": "52dp"
    },
    "_left_": {
        "type": "string",
        "value": "0dp"
    },
    "_margin_": [
        0,
        0,
        0,
        0
    ],
    "_orientation_": 6,
    "_padding_": [
        0,
        0,
        0,
        0
    ],
    "_percent_": true,
    "_skin_": "s4b5ad27f86e4f7c8aaa9a78bf7cc838",
    "_top_": {
        "type": "string",
        "value": "0dp"
    },
    "_width_": {
        "type": "string",
        "value": "100%"
    },
    "allboxes": [],
    "autogrowmode": 0,
    "canUpdateUI": true,
    "children": [
        "lblHeader"
    ],
    "clipbounds": true,
    "containerweight": 100,
    "enablescrolling": true,
    "id": "flxHeaderViewActivity",
    "info": null,
    "isvisible": true,
    "kuid": "eb450f4e343c4a938140b4d6399291bd",
    "layouttype": 2,
    "name": "kony.ui.FlexContainer",
    "parent": "flxtransferActivityWrapper",
    "pf": "frmCreateTempSelectRecipients",
    "responsiveData": {
        "b3": {
            "isVisible": true
        }
    },
    "snapgridsize": 10,
    "snaptogrid": true,
    "wType": "FlexContainer",
    "widgetalignment": 1,
    "zindex": 1
}