{
    "DNDConfig": null,
    "__parentReadjusting__": false,
    "_height_": {
        "type": "ref",
        "value": "preferred"
    },
    "_left_": {
        "type": "string",
        "value": "0dp"
    },
    "_margin_": [
        0,
        0,
        0,
        0
    ],
    "_orientation_": 6,
    "_padding_": [
        0,
        0,
        0,
        0
    ],
    "_percent_": true,
    "_skin_": "s24c92fc23b14f5484b693ee9b8a9b35",
    "_top_": {
        "type": "string",
        "value": "0dp"
    },
    "_width_": {
        "type": "string",
        "value": "100%"
    },
    "allboxes": [],
    "autogrowmode": 1,
    "canUpdateUI": true,
    "children": [
        "lblViewOnlySelected",
        "flxStatus"
    ],
    "clipbounds": true,
    "containerweight": 100,
    "enablescrolling": true,
    "id": "flxViewOnlySeletced",
    "info": null,
    "iscustomlayout": false,
    "isvisible": true,
    "kuid": "ffcffb01ebe240129afe0f09cd6bef74",
    "layouttype": 2,
    "maxheight": {
        "type": "string",
        "value": ""
    },
    "name": "kony.ui.FlexContainer",
    "parent": "flxSearch",
    "pf": "frmCreateTempSelectRecipients",
    "responsiveData": {
        "b1": {
            "left": {
                "type": "string",
                "value": "900dp"
            },
            "top": {
                "type": "string",
                "value": "0dp"
            },
            "width": {
                "type": "string",
                "value": "25%"
            }
        },
        "b2": {
            "left": {
                "type": "number",
                "value": "890"
            },
            "top": {
                "type": "string",
                "value": "1dp"
            },
            "width": {
                "type": "string",
                "value": "25%"
            }
        },
        "b3": {
            "desktopweb": {
                "maxHeight": {
                    "type": "string",
                    "value": ""
                }
            },
            "left": {
                "type": "string",
                "value": "63%"
            },
            "maxHeight": {
                "type": "string",
                "value": ""
            },
            "top": {
                "type": "string",
                "value": "10dp"
            },
            "width": {
                "type": "string",
                "value": "36%"
            }
        }
    },
    "retaincontentalignment": false,
    "retainflexpositionproperties": false,
    "retainflowhorizontalalignment": false,
    "snapgridsize": 10,
    "snaptogrid": true,
    "wType": "FlexContainer",
    "widgetalignment": 1,
    "zindex": 1
}