{
    "@class": "com.kony.gen.viz.model.component.KVizButton",
    "DNDConfig": null,
    "_height_": {
        "type": "ref",
        "value": "preferred"
    },
    "_left_": {
        "type": "string",
        "value": "0dp"
    },
    "_margin_": [
        6,
        6,
        6,
        6
    ],
    "_padding_": [
        0,
        0,
        0,
        0
    ],
    "_skin_": "sf6ca31ec68641e5a2df8232c58cd39a",
    "_text_": "Skin Next Recurrence",
    "_top_": {
        "type": "string",
        "value": "0dp"
    },
    "_width_": {
        "type": "string",
        "value": "90%"
    },
    "accessibilityconfig": {
        "a11yLabel": "View Activity"
    },
    "canUpdateUI": true,
    "centerx": {
        "type": "string",
        "value": "50%"
    },
    "containerId": true,
    "containerweight": 100,
    "contentalignment": 4,
    "desktopweb": {
        "psp": {}
    },
    "disabledSkins": {
        "focusSkin": "sf44d06ca8224832827ea7fdff757013"
    },
    "displaytext": true,
    "id": "btnViewActivity",
    "info": null,
    "isvisible": false,
    "kuid": "c5f175bb92e84fa98d2bbf1cbf51d877",
    "name": "kony.ui.Button",
    "parent": "flxActions",
    "pf": "segPastPaymentsSelectedEur",
    "tooltip": "VIEW ACTIVITY",
    "wType": "Button",
    "zindex": 1
}