{
    "@class": "com.kony.gen.viz.model.component.KVizTextBox2",
    "DNDConfig": null,
    "__markedForDelete__": true,
    "__parentReadjusting__": false,
    "_height_": {
        "type": "string",
        "value": "84%"
    },
    "_left_": {
        "type": "string",
        "value": "3.40%"
    },
    "_margin_": [
        0,
        0,
        0,
        0
    ],
    "_padding_": [
        0,
        0,
        0,
        0
    ],
    "_placeholder_": "",
    "_right_": {
        "type": "string",
        "value": "14%"
    },
    "_skin_": "s125de0fb2094e22a73b3ac2549fb05c",
    "_text_": "",
    "autocapitalize": "none",
    "autocomplete": false,
    "autocorrect": false,
    "autofilter": false,
    "canUpdateUI": true,
    "centery": {
        "type": "string",
        "value": "50%"
    },
    "containerheight": "",
    "containerheightmode": 1,
    "containerweight": 100,
    "contentalignment": 4,
    "desktopweb": {
        "ide_onEndEditing": "AS_TextField_jccd401f89c54bf199475594b04ba7c4",
        "ide_onKeyUp": "AS_TextField_ibd00f0a43b8469abfe8b87abed26414"
    },
    "focusskin": "s125de0fb2094e22a73b3ac2549fb05c",
    "id": "tbxEnterSACCode",
    "info": null,
    "isvisible": true,
    "keyboardtype": "A",
    "kiosk": {
        "psp": {
            "toolTip": ""
        }
    },
    "kuid": "b26539ab338741c4a7f6a4a9c760dd51",
    "mode": "A",
    "name": "kony.ui.TextBox2",
    "paddinginpixel": false,
    "parent": "flxEnterSACCodes",
    "pf": "userwidgetmodel",
    "placeholderi18n": "i18n.MFA.EnterSecureAccessCodeCapsOn",
    "securetextentry": true,
    "textinputmode": "A",
    "viewtype": "default",
    "wType": "TextField",
    "zindex": 1,
    "texti18n": "i18n.MFA.EnterSecureAccessCode",
    "accessibilityconfig": {
        "a11yLabel": "Enter Secure Access Code"
    }
}