{
    "@class": "com.kony.gen.viz.model.container.KVizSegment2",
    "DNDConfig": null,
    "_data_": [
        {},
        {},
        {},
        {},
        {},
        {},
        {},
        {},
        {},
        {}
    ],
    "_height_": {
        "type": "ref",
        "value": "preferred"
    },
    "_indicator_": "none",
    "_left_": {
        "type": "string",
        "value": "0dp"
    },
    "_margin_": [
        0,
        0,
        0,
        0
    ],
    "_orientation_": 2,
    "_padding_": [
        0,
        0,
        0,
        0
    ],
    "_top_": {
        "type": "string",
        "value": "0dp"
    },
    "_width_": {
        "type": "string",
        "value": "100%"
    },
    "autogrowmode": 1,
    "canUpdateUI": true,
    "containerweight": 100,
    "counter": "05",
    "desktop": {
        "_data_": [
            {
                "lblAccountName": {
                    "@class": "com.viz.ide.model.segment.SimpleTextSegmentData",
                    "text": "Label"
                },
                "lblCheckAccount": {
                    "@class": "com.viz.ide.model.segment.SimpleTextSegmentData",
                    "text": "C"
                }
            },
            {
                "lblAccountName": {
                    "@class": "com.viz.ide.model.segment.SimpleTextSegmentData",
                    "text": "Label"
                },
                "lblCheckAccount": {
                    "@class": "com.viz.ide.model.segment.SimpleTextSegmentData",
                    "text": "C"
                }
            },
            {
                "lblAccountName": {
                    "@class": "com.viz.ide.model.segment.SimpleTextSegmentData",
                    "text": "Label"
                },
                "lblCheckAccount": {
                    "@class": "com.viz.ide.model.segment.SimpleTextSegmentData",
                    "text": "C"
                }
            },
            {
                "lblAccountName": {
                    "@class": "com.viz.ide.model.segment.SimpleTextSegmentData",
                    "text": "Label"
                },
                "lblCheckAccount": {
                    "@class": "com.viz.ide.model.segment.SimpleTextSegmentData",
                    "text": "C"
                }
            },
            {
                "lblAccountName": {
                    "@class": "com.viz.ide.model.segment.SimpleTextSegmentData",
                    "text": "Label"
                },
                "lblCheckAccount": {
                    "@class": "com.viz.ide.model.segment.SimpleTextSegmentData",
                    "text": "C"
                }
            },
            {
                "lblAccountName": {
                    "@class": "com.viz.ide.model.segment.SimpleTextSegmentData",
                    "text": "Label"
                },
                "lblCheckAccount": {
                    "@class": "com.viz.ide.model.segment.SimpleTextSegmentData",
                    "text": "C"
                }
            }
        ],
        "rowTemplateId": "cf6a2027523a46e4822ae61ca44f8cd6",
        "rowtemplate": "flxRowContainer",
        "sectionHeaderTemplateId": null,
        "widgetdatamap": {
            "flxAccountRow": "flxAccountRow",
            "flxRowContainer": "flxRowContainer",
            "lblAccountName": "lblAccountName",
            "lblCheckAccount": "lblCheckAccount"
        }
    },
    "focusedindex": null,
    "focuseditem": null,
    "generatedtemplate": "fd81b8bc1296453e95786a80be598012",
    "groupcells": false,
    "hasSections": false,
    "id": "segAllCompanies",
    "info": null,
    "ipad": {
        "psp": {
            "indicator": "rowselect"
        }
    },
    "iphone": {
        "psp": {
            "indicator": "rowselect"
        }
    },
    "iscustomlayout": false,
    "isvisible": true,
    "kuid": "f127f998bd9a4cfc855b5c0bcfc75156",
    "masterdata": {},
    "name": "kony.ui.SegmentedUI2",
    "needpageindicator": true,
    "pageoffdotimage": "pageoffdot.png",
    "pageondotimage": "pageondot.png",
    "paginationconfig": {
        "position": "bottom"
    },
    "parent": "flxAvailableFeatures",
    "pf": "userwidgetmodel",
    "responsiveData": {
        "b1": {
            "isVisible": true
        },
        "b2": {
            "isVisible": true
        },
        "b3": {
            "top": {
                "type": "string",
                "value": "0dp"
            }
        }
    },
    "retaincontentalignment": false,
    "retainflexpositionproperties": false,
    "retainselection": false,
    "rowcounter": 5,
    "rowfocusskin": "s0f9bf3c1b3e4a7bb6bf9fd18b0211f2",
    "rowskin": "scf5f90f6ac04976ab88b2a4f7153285",
    "screenlevelwidget": false,
    "seccounter": 0,
    "sectionHeaderTemplateId": null,
    "sectionheaderskin": "sdc4ff4ed1584272be2ae69045dfb29d",
    "sectionheadertemplate": null,
    "selectedRows": null,
    "selectedState": false,
    "selectedindex": null,
    "selectedindices": null,
    "selecteditems": null,
    "selectedsectionindex": 0,
    "selectionbehavior": "default",
    "separatorrequired": false,
    "showscrollbars": false,
    "viewtype": "tableview",
    "vizProps": {},
    "wType": "Segment",
    "widgetalignment": 5,
    "widgetdatamap": {
        "flxAccountRow": "flxAccountRow",
        "flxRowContainer": "flxRowContainer",
        "lblAccountName": "lblAccountName",
        "lblCheckAccount": "lblCheckAccount"
    },
    "zindex": 1
}