{
    "@class": "com.kony.gen.viz.model.component.KVizLabel",
    "DNDConfig": null,
    "__parentReadjusting__": false,
    "_height_": {
        "type": "string",
        "value": "18dp"
    },
    "_left_": {
        "type": "string",
        "value": "33.77%"
    },
    "_margin_": [
        1,
        1,
        1,
        1
    ],
    "_padding_": [
        0,
        0,
        2,
        0
    ],
    "_skin_": "s4251078158a4e3fb90708bcb2a535e4",
    "_text_": "Ending Balance:$12345",
    "_top_": {
        "type": "string",
        "value": "35dp"
    },
    "_width_": {
        "type": "string",
        "value": "25%"
    },
    "_wrapping_": 2,
    "accessibilityconfig": {
        "a11yLabel": "Ending Balance:$12345"
    },
    "android": {
        "textStyle": {
            "letterSpacing": 0,
            "strikeThrough": false
        }
    },
    "canUpdateUI": true,
    "containerId": true,
    "containerweight": 100,
    "contentalignment": 4,
    "id": "lblEndingBalanceAccount",
    "info": null,
    "ipad": {
        "psp": {
            "wrapping": 2
        }
    },
    "iphone": {
        "psp": {
            "wrapping": 2
        }
    },
    "isvisible": true,
    "kuid": "f486a372d1f84f0ea79e13a23c64c613",
    "name": "kony.ui.Label",
    "paddinginpixel": false,
    "parent": "flxConfirmBulkBeneficiaries",
    "pf": "segConfirmBulkBeneficiaries",
    "tooltip": "",
    "wType": "Label",
    "zindex": 1
}