{
    "@class": "com.kony.gen.viz.model.component.KVizListBox",
    "DNDConfig": null,
    "__parentReadjusting__": false,
    "_height_": {
        "type": "string",
        "value": "40dp"
    },
    "_left_": {
        "type": "string",
        "value": "343dp"
    },
    "_margin_": [
        0,
        0,
        0,
        0
    ],
    "_padding_": [
        1,
        0,
        0,
        0
    ],
    "_placeholder_": "Please Select",
    "_skin_": "s8dc220d2379477bb1363dc81d9ecf61",
    "_top_": {
        "type": "string",
        "value": "77dp"
    },
    "_width_": {
        "type": "string",
        "value": "300dp"
    },
    "canUpdateUI": true,
    "containerweight": 100,
    "contentalignment": 4,
    "focusskin": "s9eb08f78097439eb767801e8fdeb5cd",
    "groupcells": false,
    "id": "lbxCurrency",
    "info": null,
    "iscustomlayout": false,
    "isvisible": true,
    "kuid": "de98e45ff1724a7caee3f7cf9efd7ff1",
    "masterdata": [
        [
            "lb1",
            "Placeholder One"
        ],
        [
            "lb2",
            "Placeholder Two"
        ],
        [
            "lb3",
            "Placeholder Three"
        ]
    ],
    "name": "kony.ui.ListBox",
    "paddinginpixel": false,
    "parent": "flxApplyChanges",
    "pf": "frmBulkWireEditTemplateRecipient",
    "responsiveData": {
        "b1": {
            "left": {
                "type": "string",
                "value": "28%"
            },
            "padding": [
                1,
                0,
                0,
                0
            ],
            "skin": "s8dc220d2379477bb1363dc81d9ecf61",
            "top": {
                "type": "string",
                "value": "75dp"
            },
            "width": {
                "type": "string",
                "value": "140dp"
            }
        },
        "b2": {
            "isVisible": true,
            "left": {
                "type": "string",
                "value": "24%"
            },
            "padding": [
                1,
                0,
                0,
                0
            ],
            "skin": "s8dc220d2379477bb1363dc81d9ecf61",
            "top": {
                "type": "string",
                "value": "150dp"
            },
            "width": {
                "type": "string",
                "value": "20%"
            }
        },
        "b4": {
            "contentAlignment": 4,
            "left": {
                "type": "string",
                "value": "330dp"
            },
            "padding": [
                1,
                0,
                0,
                0
            ],
            "skin": "s4d3eb56cd07471fa3bd40485a2c2e84",
            "top": {
                "type": "string",
                "value": "75dp"
            },
            "width": {
                "type": "string",
                "value": "150dp"
            }
        }
    },
    "retaincontentalignment": false,
    "retainflexpositionproperties": false,
    "selectedkey": null,
    "selectedkeys": null,
    "selectedkeyvalue": null,
    "selectedkeyvalues": null,
    "size": 18,
    "viewconfig": {
        "toggleViewConfig": {
            "viewStyle": 0
        }
    },
    "viewtype": 0,
    "wType": "ListBox",
    "zindex": 5
}