{
    "@class": "com.kony.gen.viz.model.component.KVizLabel",
    "DNDConfig": null,
    "__parentReadjusting__": false,
    "_height_": {
        "type": "ref",
        "value": "preferred"
    },
    "_margin_": [
        1,
        1,
        1,
        1
    ],
    "_padding_": [
        0,
        0,
        0,
        0
    ],
    "_skin_": "s827485f0acd480d9721673df8b7e993",
    "_text_": "Transfer Payment Gateway- 24x7 Member to Member Fund Transfer; Up to $50,000 per day",
    "_top_": {
        "type": "string",
        "value": "10dp"
    },
    "_width_": {
        "type": "string",
        "value": "90%"
    },
    "_wrapping_": 2,
    "accessibilityconfig": {
        "a11yLabel": "Transfer Payment Gateway- 24x7 Member to Member Fund Transfer; Up to $50,000 per day"
    },
    "android": {
        "textStyle": {
            "letterSpacing": 0,
            "strikeThrough": false
        }
    },
    "canUpdateUI": true,
    "centerx": {
        "type": "string",
        "value": "50%"
    },
    "containerweight": 100,
    "contentalignment": 5,
    "id": "lblToOtherKonyBankInfoTwo",
    "info": null,
    "ipad": {
        "psp": {
            "wrapping": 2
        }
    },
    "iphone": {
        "psp": {
            "wrapping": 2
        }
    },
    "isvisible": true,
    "kuid": "c2610e055b41485893137ebe1c04b4be",
    "maxheight": {
        "type": "string",
        "value": "55dp"
    },
    "name": "kony.ui.Label",
    "parent": "flxToOtherKonyBankInfo",
    "pf": "frmTransfersGateway",
    "responsiveData": {
        "b3": {
            "isVisible": false
        }
    },
    "tooltip": "",
    "wType": "Label",
    "zindex": 1
}