{
    "@class": "com.kony.gen.viz.model.component.KVizLabel",
    "DNDConfig": null,
    "__parentReadjusting__": false,
    "_height_": {
        "type": "string",
        "value": "28px"
    },
    "_left_": {
        "type": "string",
        "value": "1%"
    },
    "_margin_": [
        1,
        1,
        1,
        1
    ],
    "_padding_": [
        0,
        0,
        0,
        0
    ],
    "_skin_": "s9739fe0569d4851a6e139a20b64dd6e",
    "_text_": "",
    "_top_": {
        "type": "number",
        "value": "21"
    },
    "_width_": {
        "type": "ref",
        "value": "preferred"
    },
    "_wrapping_": 2,
    "android": {
        "textStyle": {
            "letterSpacing": 0,
            "strikeThrough": false
        }
    },
    "canUpdateUI": true,
    "containerweight": 100,
    "contentalignment": 4,
    "id": "lblAgree",
    "info": null,
    "ipad": {
        "psp": {
            "wrapping": 2
        }
    },
    "iphone": {
        "psp": {
            "wrapping": 2
        }
    },
    "isvisible": true,
    "kuid": "b16e314ea23447e6afe2174d7484f2e2",
    "name": "kony.ui.Label",
    "parent": "flxIAgree",
    "pf": "userwidgetmodel",
    "texti18n": "i18n.WireTransfer.IAgreeAllThe",
    "tooltip": "",
    "wType": "Label",
    "zindex": 2,
    "accessibilityconfig": {
        "a11yLabel": "I agree to the"
    }
}