{
    "DNDConfig": null,
    "_height_": {
        "type": "string",
        "value": "15dp"
    },
    "_left_": {
        "type": "string",
        "value": "10dp"
    },
    "_margin_": [
        0,
        0,
        0,
        0
    ],
    "_orientation_": 6,
    "_padding_": [
        0,
        0,
        0,
        0
    ],
    "_percent_": true,
    "_skin_": "s24c92fc23b14f5484b693ee9b8a9b35",
    "_top_": {
        "type": "string",
        "value": "12dp"
    },
    "_width_": {
        "type": "string",
        "value": "15dp"
    },
    "allboxes": [],
    "autogrowmode": 0,
    "canUpdateUI": true,
    "children": [
        "imgInfo1"
    ],
    "clipbounds": true,
    "containerweight": 100,
    "enablescrolling": true,
    "id": "flxInfoDefaultDeposit",
    "info": null,
    "iscustomlayout": false,
    "isvisible": true,
    "kuid": "g4191bfd2ff14b71a8f70b5a3c3922b4",
    "layouttype": 2,
    "name": "kony.ui.FlexContainer",
    "parent": "flxinfogroup1",
    "pf": "frmP2PSettingsEdit",
    "retaincontentalignment": false,
    "retainflexpositionproperties": false,
    "retainflowhorizontalalignment": false,
    "snapgridsize": 10,
    "snaptogrid": true,
    "wType": "FlexContainer",
    "widgetalignment": 1,
    "zindex": 1
}