{
	 "@class": "com.kony.gen.viz.model.component.KVizImage2",
	 "DNDConfig": null,
	 "__parentReadjusting__": false,
	 "_base64_": null,
	 "_height_": {
		 "type": "string",
		 "value": "21dp"
	},
	 "_left_": {
		 "type": "string",
		 "value": "0px"
	},
	 "_margin_": [
		 0,
		 0,
		 0,
		 0
	],
	 "_padding_": [
		 0,
		 0,
		 0,
		 0
	],
	 "_skin_": "s78a5f26c9f14cec9ebed1bb46098f80",
	 "_src_": "info.png",
	 "_top_": {
		 "type": "string",
		 "value": "1dp"
	},
	 "_width_": {
		 "type": "string",
		 "value": "20dp"
	},
	 "accessibilityconfig": {
		 "a11yLabel": "Info",
		 "a11yValue": ""
	},
	 "canUpdateUI": true,
	 "containerweight": 100,
	 "context": {
		 "channel": "desktop",
		 "formID": "uwua039858304744f88a00589ed01e1098",
		 "platform": "desktopweb",
		 "templateType": "userwidgets",
		 "topLevelBox": null
	},
	 "id": "imgInfoTC",
	 "imagescalemode": 1,
	 "imagewhiledownloading": "img_transparent.png",
	 "info": null,
	 "invokedProperty": "src",
	 "isvisible": true,
	 "kuid": "ccc83b23b5694f439f2d417c2e482f07",
	 "name": "kony.ui.Image2",
	 "parent": "flxFollowingPoints",
	 "pf": "userwidgetmodel",
	 "srcType": 1,
	 "tooltip": "error",
	 "wType": "Image",
	 "widgetalignment": 5,
	 "zindex": 1
}