{
    "@class": "com.kony.gen.viz.model.component.KVizButton",
    "DNDConfig": null,
    "__parentReadjusting__": false,
    "_height_": {
        "type": "string",
        "value": "20dp"
    },
    "_margin_": [
        6,
        6,
        6,
        6
    ],
    "_padding_": [
        0,
        0,
        0,
        0
    ],
    "_right_": {
        "type": "string",
        "value": "24dp"
    },
    "_skin_": "s535287da20848b2970f91721ae239fd",
    "_text_": "",
    "_top_": {
        "type": "string",
        "value": "8px"
    },
    "_width_": {
        "type": "string",
        "value": "36dp"
    },
    "accessibilityconfig": {
        "a11yLabel": "E-bill"
    },
    "canUpdateUI": true,
    "containerId": true,
    "containerweight": 100,
    "contentalignment": 5,
    "disabledSkins": {
        "focusSkin": "sf44d06ca8224832827ea7fdff757013"
    },
    "displaytext": true,
    "id": "btnEbill",
    "ide_onClick": "AS_Button_a646dfa7713f408b81a43c2d3380ecac",
    "info": null,
    "isvisible": true,
    "kuid": "daa3a95e17ad4f1cb6d82066dc37e595",
    "name": "kony.ui.Button",
    "parent": "flxPayee",
    "pf": "segBillPayAllPayeesSelected",
    "tooltip": "eBill",
    "wType": "Button",
    "zindex": 5
}