{
    "DNDConfig": null,
    "__parentReadjusting__": false,
    "_height_": {
        "type": "string",
        "value": "100%"
    },
    "_left_": {
        "type": "string",
        "value": "0%"
    },
    "_margin_": [
        0,
        0,
        0,
        0
    ],
    "_orientation_": 6,
    "_padding_": [
        0,
        0,
        0,
        0
    ],
    "_percent_": true,
    "_skin_": "s24c92fc23b14f5484b693ee9b8a9b35",
    "_top_": {
        "type": "string",
        "value": "0dp"
    },
    "_width_": {
        "type": "string",
        "value": "100%"
    },
    "allboxes": [],
    "autogrowmode": 0,
    "canUpdateUI": true,
    "children": [
        "flxBillPayAllPayees",
        "lblError",
        "flxDetailRowOne",
        "flxDetailRowTwo",
        "flxDetailRowFive",
        "flxDetailRowSix",
        "flxDetailRowThree",
        "flxDetailRowFour"
    ],
    "clipbounds": true,
    "containerId": true,
    "containerweight": 100,
    "enablescrolling": true,
    "id": "flxContent",
    "info": null,
    "isvisible": true,
    "kuid": "d45ead74153e4ba6bbce8914e3d96edf",
    "layouttype": 4,
    "name": "kony.ui.FlexContainer",
    "parent": "flxBillPayAllPayeesSelected",
    "pf": "segBillPayAllPayeesSelected",
    "snapgridsize": 10,
    "snaptogrid": true,
    "wType": "FlexContainer",
    "widgetalignment": 1,
    "zindex": 1
}