{
    "@class": "com.kony.gen.viz.model.component.KVizUserWidget",
    "DNDConfig": null,
    "__parentReadjusting__": false,
    "_android_": {},
    "_androidwearos_": {},
    "_children_": [],
    "_desktopweb_": {},
    "_height_": {
        "type": "ref",
        "value": "preferred"
    },
    "_ipad_": {},
    "_iphone_": {},
    "_kiosk_": {},
    "_left_": {
        "type": "string",
        "value": "0dp"
    },
    "_margin_": [
        0,
        0,
        0,
        0
    ],
    "_orientation_": 1,
    "_padding_": [
        0,
        0,
        0,
        0
    ],
    "_percent_": true,
    "_render_": true,
    "_responsiveData_": {
        "b3": {
            "top": {
                "type": "string",
                "value": "0dp"
            }
        }
    },
    "_right_": {
        "type": "string",
        "value": ""
    },
    "_skin_": "sf052fd82d224fc1a020a88977067dd5",
    "_spa_": {},
    "_spaan_": {},
    "_spaandroidtablet_": {},
    "_spabb_": {},
    "_spaip_": {},
    "_spaipad_": {},
    "_spamobile_": {},
    "_spatablet_": {},
    "_spawindowstablet_": {},
    "_spawinphone8_": {},
    "_tabrcandroid_": {},
    "_top_": {
        "type": "string",
        "value": "0dp"
    },
    "_vizProps_": {
        "hidewidgethierarchy": false
    },
    "_width_": {
        "type": "string",
        "value": "100%"
    },
    "_windows10_": {},
    "_windows8_": {},
    "_winphone10_": {},
    "_winphone8_": {},
    "areflexpropsreferenced": false,
    "autogrowmode": 1,
    "canUpdateUI": true,
    "clipbounds": true,
    "containerweight": 0,
    "dataDiffs": {
        "AllForms": {
            "__events__": {},
            "__info__": {
                "kuid": "f004d537fcde4d11b6c29cd527f33054",
                "srcKUID": "b79526dde87c4d6987f0fd0ddbe972b9",
                "wType": "UserWidgetInstance"
            },
            "isVisible": false,
            "left": {
                "Default": {
                    "type": "string",
                    "value": "16dp"
                }
            },
            "top": {
                "Default": {
                    "type": "string",
                    "value": "326dp"
                }
            }
        },
        "AllForms.RichTextInfo": {
            "__events__": {},
            "__info__": {
                "kuid": "ia3626a3cbf143e8a6e1a81a372353cf",
                "srcKUID": "ce1f9f01509c4acca5e054fc06ed93e5",
                "wType": "RichText"
            }
        },
        "AllForms.flxAccountType": {
            "__events__": {},
            "__info__": {
                "kuid": "f2a8164012854b809b8e1307ee8e63de",
                "srcKUID": "abc61ff280fa4bbf842170e1035cfd2c",
                "wType": "FlexContainer"
            }
        },
        "AllForms.flxCross": {
            "__events__": {},
            "__info__": {
                "kuid": "c7f5a59650f14607b30d3aad1a9b652f",
                "srcKUID": "e4d29ec97c0e4902bc69749bb24d4abe",
                "wType": "FlexContainer"
            }
        },
        "AllForms.flxInformation": {
            "__events__": {},
            "__info__": {
                "kuid": "e6139586ee754ea3a277cd3f3bdee4f6",
                "srcKUID": "h07a9ebd37d74ab892fc7b519a2d511f",
                "wType": "FlexContainer"
            }
        },
        "AllForms.flxInformationText": {
            "__events__": {},
            "__info__": {
                "kuid": "df90b0447a224d2dbb45ecbfc943c360",
                "srcKUID": "hd6c82a8abb64dcfa68f9176ffe7c206",
                "wType": "FlexContainer"
            }
        },
        "AllForms.imgCross": {
            "__events__": {},
            "__info__": {
                "kuid": "d230800a619e43c9990da2c15bb634cf",
                "srcKUID": "a75590aed5c347f49bd418ceaf8d9be5",
                "wType": "Image"
            },
            "src": "icon_close_grey.png"
        },
        "AllForms.imgToolTip": {
            "__events__": {},
            "__info__": {
                "kuid": "i9286bb68dd94e0f84ef86fc94035cf4",
                "srcKUID": "fa80d8855ba94e21875f5c98340032d8",
                "wType": "Image"
            },
            "src": "tool_tip.png"
        },
        "AllForms.lblInfo": {
            "__events__": {},
            "__info__": {
                "kuid": "gb1d275781764a65adb167c771b61c21",
                "srcKUID": "afca4481340943acb8a01543c24d9452",
                "wType": "Label"
            },
            "i18n_text": "i18n.WireTransfers.Information"
        },
        "AllForms.lblSeperator": {
            "__events__": {},
            "__info__": {
                "kuid": "fc8b8a0801804d72a0c954aea20cceea",
                "srcKUID": "f5f309b51c8747efbd4a3b02f47b9aa9",
                "wType": "Label"
            }
        },
        "FlexContainer0i0bf2f2d21f44a": {
            "__events__": {},
            "__info__": {
                "kuid": "b4e63c37bb674254812b1d7b148330db",
                "srcKUID": "dfe65e3855b945308099db2084035b08",
                "wType": "FlexContainer"
            }
        },
        "btnAddAccountKA": {
            "__events__": {
                "ide_onClick": "AS_Button_f5a672211dd6450596707e4131aa4a6c"
            },
            "__info__": {
                "kuid": "e2d079428fdc4b18aed3400b6c9e5e81",
                "srcKUID": "da4363c3b87749ffb04da816d3bc81ab",
                "wType": "Button"
            },
            "i18n_text": null,
            "left": {},
            "responsiveData": {
                "b1": {
                    "left": {
                        "type": "string",
                        "value": ""
                    },
                    "right": {
                        "type": "string",
                        "value": "26dp"
                    },
                    "width": {
                        "type": "string",
                        "value": "150dp"
                    }
                },
                "b2": {
                    "left": {
                        "type": "string",
                        "value": ""
                    },
                    "right": {
                        "type": "string",
                        "value": "26dp"
                    },
                    "width": {
                        "type": "string",
                        "value": "150dp"
                    }
                },
                "b3": {
                    "left": {
                        "type": "string",
                        "value": "0dp"
                    },
                    "width": {
                        "type": "string",
                        "value": "100%"
                    }
                },
                "b4": {
                    "left": {
                        "type": "string",
                        "value": ""
                    },
                    "right": {
                        "type": "string",
                        "value": "26dp"
                    },
                    "width": {
                        "type": "string",
                        "value": "150dp"
                    }
                }
            },
            "right": {},
            "text": "Add Account",
            "width": {
                "Default": {
                    "type": "string",
                    "value": "32.40%"
                }
            }
        },
        "btnCancelKA": {
            "__events__": {
                "ide_onClick": "AS_Button_f360c5e34c69406fa2c86fae24ace2a8"
            },
            "__info__": {
                "kuid": "fc15129d4b0c414ca8985630751deadd",
                "srcKUID": "i77de028d8f74f48b4ade774244f29bb",
                "wType": "Button"
            },
            "i18n_text": "i18n.transfers.Cancel",
            "left": {
                "Default": {
                    "type": "string",
                    "value": "29%"
                }
            },
            "responsiveData": {
                "b1": {
                    "left": {
                        "type": "string",
                        "value": ""
                    },
                    "right": {
                        "type": "string",
                        "value": "196dp"
                    },
                    "width": {
                        "type": "string",
                        "value": "150dp"
                    }
                },
                "b2": {
                    "left": {
                        "type": "string",
                        "value": ""
                    },
                    "right": {
                        "type": "string",
                        "value": "196dp"
                    },
                    "width": {
                        "type": "string",
                        "value": "150dp"
                    }
                },
                "b3": {
                    "left": {
                        "type": "string",
                        "value": "0dp"
                    },
                    "top": {
                        "type": "string",
                        "value": "60dp"
                    },
                    "width": {
                        "type": "string",
                        "value": "100%"
                    }
                },
                "b4": {
                    "left": {
                        "type": "string",
                        "value": ""
                    },
                    "right": {
                        "type": "string",
                        "value": "196dp"
                    },
                    "width": {
                        "type": "string",
                        "value": "150dp"
                    }
                }
            },
            "right": {},
            "top": {},
            "width": {},
            "zIndex": {
                "Default": 2
            }
        },
        "btnDomesticAccountKA": {
            "__events__": {},
            "__info__": {
                "kuid": "e8bf5722a46145c4847c83f496020ef2",
                "srcKUID": "a47cf942fbf04568b4743747d62655f6",
                "wType": "Button"
            },
            "i18n_text": "i18n.WireTransfer.DomesticAccount",
            "responsiveData": {}
        },
        "btnDummyKA": {
            "__events__": {},
            "__info__": {
                "kuid": "bf7c9f034db649559ab6e26a9728ec1e",
                "srcKUID": "eaa5a71427e1493e9718af2f93de9c1b",
                "wType": "Button"
            },
            "height": {
                "Default": {
                    "type": "string",
                    "value": "100%"
                }
            },
            "left": {
                "Default": {
                    "type": "string",
                    "value": "0%"
                }
            },
            "right": {
                "Default": {
                    "type": "string",
                    "value": "0%"
                }
            },
            "text": "",
            "width": {
                "Default": {
                    "type": "string",
                    "value": "100%"
                }
            }
        },
        "btnIntAddAccountKA": {
            "__events__": {
                "ide_onClick": "AS_Button_bfb4c62952ec43dc8dfc80e0dd5359ff"
            },
            "__info__": {
                "kuid": "j960a53015e54f02846cd56b3717146a",
                "srcKUID": "b42d503418eb408fa4f2961b65ba6b78",
                "wType": "Button"
            },
            "i18n_text": null,
            "left": {},
            "responsiveData": {
                "b1": {
                    "left": {
                        "type": "string",
                        "value": ""
                    },
                    "right": {
                        "type": "string",
                        "value": "26dp"
                    },
                    "width": {
                        "type": "string",
                        "value": "150dp"
                    }
                },
                "b2": {
                    "left": {
                        "type": "string",
                        "value": ""
                    },
                    "right": {
                        "type": "string",
                        "value": "26dp"
                    },
                    "width": {
                        "type": "string",
                        "value": "150dp"
                    }
                },
                "b3": {
                    "left": {
                        "type": "string",
                        "value": "0dp"
                    },
                    "width": {
                        "type": "string",
                        "value": "100%"
                    }
                },
                "b4": {
                    "left": {
                        "type": "string",
                        "value": ""
                    },
                    "right": {
                        "type": "string",
                        "value": "26dp"
                    },
                    "width": {
                        "type": "string",
                        "value": "150dp"
                    }
                }
            },
            "right": {},
            "text": "Add Account",
            "width": {}
        },
        "btnIntCancelKA": {
            "__events__": {
                "ide_onClick": "AS_Button_e4bed968b34641e7ab839b69b400edfe"
            },
            "__info__": {
                "kuid": "e443a42b862e4b5791bf1fb4fb8da15e",
                "srcKUID": "da7d8af3499b4c1dad7b2b821acaf8c8",
                "wType": "Button"
            },
            "i18n_text": "i18n.transfers.Cancel",
            "left": {},
            "responsiveData": {
                "b1": {
                    "left": {
                        "type": "string",
                        "value": ""
                    },
                    "right": {
                        "type": "string",
                        "value": "196dp"
                    },
                    "width": {
                        "type": "string",
                        "value": "150dp"
                    }
                },
                "b2": {
                    "left": {
                        "type": "string",
                        "value": ""
                    },
                    "right": {
                        "type": "string",
                        "value": "196dp"
                    },
                    "width": {
                        "type": "string",
                        "value": "150dp"
                    }
                },
                "b3": {
                    "left": {
                        "type": "string",
                        "value": "0%"
                    },
                    "top": {
                        "type": "string",
                        "value": "60dp"
                    },
                    "width": {
                        "type": "string",
                        "value": "100%"
                    }
                },
                "b4": {
                    "left": {
                        "type": "string",
                        "value": ""
                    },
                    "right": {
                        "type": "string",
                        "value": "196dp"
                    },
                    "width": {
                        "type": "string",
                        "value": "150dp"
                    }
                }
            },
            "right": {},
            "top": {},
            "width": {}
        },
        "btnInternationalAccountKA": {
            "__events__": {},
            "__info__": {
                "kuid": "if2fe66d9ca1467bbd9d84bff9bfbfeb",
                "srcKUID": "f5776d0e00724231a45a6b1d703cb7e7",
                "wType": "Button"
            },
            "i18n_text": "i18n.WireTransfer.InternationalAccount",
            "responsiveData": {}
        },
        "externalAccount": {
            "__events__": {},
            "__info__": {
                "isRoot": true,
                "kuid": "f84efd4744e24a06ae2392256febe0d9",
                "srcKUID": "bc5ea00614854b0eb546013a8a639f90",
                "wType": "FlexContainer"
            },
            "autogrowMode": 1,
            "height": {
                "Default": {
                    "type": "ref",
                    "value": "preferred"
                }
            },
            "isVisible": true,
            "left": {
                "Default": {
                    "type": "string",
                    "value": "0dp"
                }
            },
            "responsiveData": {
                "b3": {
                    "top": {
                        "type": "string",
                        "value": "0dp"
                    }
                }
            },
            "right": {
                "Default": {
                    "type": "string",
                    "value": ""
                }
            },
            "top": {
                "Default": {
                    "type": "string",
                    "value": "0dp"
                }
            },
            "width": {
                "Default": {
                    "type": "string",
                    "value": "100%"
                }
            },
            "zIndex": {
                "Default": 1
            }
        },
        "flxAccountNickNameKA": {
            "__events__": {},
            "__info__": {
                "kuid": "f952324b0a50481fb84a79554633063a",
                "srcKUID": "fd3a4afa200747a289890629c430d446",
                "wType": "FlexContainer"
            },
            "left": {},
            "responsiveData": {
                "b3": {
                    "left": {
                        "type": "string",
                        "value": "2.50%"
                    },
                    "width": {
                        "type": "string",
                        "value": "95%"
                    }
                }
            },
            "width": {}
        },
        "flxAccountNumberAgainKA": {
            "__events__": {},
            "__info__": {
                "kuid": "f2b1054c62e04d33834cc350c93265a6",
                "srcKUID": "f210cacb5dfc4a7e8c20b4311b420c9c",
                "wType": "FlexContainer"
            },
            "left": {},
            "responsiveData": {
                "b3": {
                    "left": {
                        "type": "string",
                        "value": "2.50%"
                    },
                    "width": {
                        "type": "string",
                        "value": "95%"
                    }
                }
            },
            "width": {}
        },
        "flxAccountNumberKA": {
            "__events__": {},
            "__info__": {
                "kuid": "i732e2386876414586bf60cb58da0531",
                "srcKUID": "e5874dd2862a451e9712476e77c6be11",
                "wType": "FlexContainer"
            },
            "left": {},
            "responsiveData": {
                "b3": {
                    "left": {
                        "type": "string",
                        "value": "2.50%"
                    },
                    "width": {
                        "type": "string",
                        "value": "95%"
                    }
                }
            },
            "width": {}
        },
        "flxAccountTypeKA": {
            "__events__": {},
            "__info__": {
                "kuid": "ab14393f28ef430f9f74181413000454",
                "srcKUID": "ec4f4d4873c54653bda89eee28b203c5",
                "wType": "FlexContainer"
            },
            "left": {},
            "responsiveData": {
                "b3": {
                    "left": {
                        "type": "string",
                        "value": "2.50%"
                    },
                    "width": {
                        "type": "string",
                        "value": "95%"
                    }
                }
            },
            "width": {}
        },
        "flxAddOrCancelKA": {
            "__events__": {},
            "__info__": {
                "kuid": "j7ed7f3827d34b0a8dba7a5489938a2b",
                "srcKUID": "b012b5f1ca3e4195ab211af21ec0700d",
                "wType": "FlexContainer"
            },
            "autogrowMode": {
                "Default": 0
            },
            "height": {},
            "left": {},
            "responsiveData": {
                "b3": {
                    "height": {
                        "type": "string",
                        "value": "150px"
                    },
                    "left": {
                        "type": "string",
                        "value": "2.50%"
                    },
                    "top": {
                        "type": "string",
                        "value": "20px"
                    },
                    "width": {
                        "type": "string",
                        "value": "95%"
                    }
                }
            },
            "top": {},
            "width": {}
        },
        "flxBankNameKA": {
            "__events__": {},
            "__info__": {
                "kuid": "fa3fd237c4234b2783eac4370a69131c",
                "srcKUID": "be6c731dcc0341b1bb5f4cbfdf9b6377",
                "wType": "FlexContainer"
            },
            "autogrowMode": {
                "Default": 0
            },
            "height": {},
            "left": {},
            "responsiveData": {
                "b1": {
                    "height": {
                        "type": "string",
                        "value": "70px"
                    }
                },
                "b2": {
                    "height": {
                        "type": "string",
                        "value": "70px"
                    }
                },
                "b3": {
                    "height": {
                        "type": "string",
                        "value": "70px"
                    },
                    "left": {
                        "type": "string",
                        "value": "2.50%"
                    },
                    "width": {
                        "type": "string",
                        "value": "95%"
                    }
                },
                "b4": {
                    "height": {
                        "type": "string",
                        "value": "70px"
                    }
                }
            },
            "width": {}
        },
        "flxBankNameValue": {
            "__events__": {},
            "__info__": {
                "kuid": "hc591bfeed8543c7a7767540288e66f6",
                "srcKUID": "hb8d8f48d5e24ebbb3c5bea74e76819d",
                "wType": "FlexContainer"
            },
            "responsiveData": {
                "b1": {
                    "width": {
                        "type": "string",
                        "value": "100%"
                    }
                },
                "b2": {
                    "width": {
                        "type": "string",
                        "value": "100%"
                    }
                },
                "b3": {
                    "width": {
                        "type": "string",
                        "value": "100%"
                    }
                },
                "b4": {
                    "width": {
                        "type": "string",
                        "value": "100%"
                    }
                }
            },
            "width": {}
        },
        "flxBeneficiaryNameKA": {
            "__events__": {},
            "__info__": {
                "kuid": "f56118c4bcbc4fb8b7506aedf6c98911",
                "srcKUID": "a3206b7ecae44037b44183374a8ae1f7",
                "wType": "FlexContainer"
            },
            "left": {},
            "responsiveData": {
                "b3": {
                    "left": {
                        "type": "string",
                        "value": "2.50%"
                    },
                    "width": {
                        "type": "string",
                        "value": "95%"
                    }
                }
            },
            "width": {}
        },
        "flxCheckboxKA": {
            "__events__": {},
            "__info__": {
                "kuid": "ebc95c4eb2f44915b3caf9c4eb92af0e",
                "srcKUID": "a8030caa811c4651b3417ca802c65d07",
                "wType": "FlexContainer"
            },
            "isVisible": true,
            "left": {},
            "responsiveData": {
                "b3": {
                    "left": {
                        "type": "string",
                        "value": "2.50%"
                    }
                }
            }
        },
        "flxDesktopKA": {
            "__events__": {},
            "__info__": {
                "kuid": "a6cdaee720454c519ccd28fcc4997365",
                "srcKUID": "ee400b3dc9d748a1b41a460eac7f07bb",
                "wType": "FlexContainer"
            },
            "autogrowMode": 1,
            "height": {
                "Default": {
                    "type": "ref",
                    "value": "preferred"
                }
            }
        },
        "flxDomesticDetailsKA": {
            "__events__": {},
            "__info__": {
                "kuid": "fd85084b6a6447cf93993712e7d40b8b",
                "srcKUID": "h6efcd217f4e41ba98ed18aec528677d",
                "wType": "FlexContainer"
            },
            "autogrowMode": 1,
            "height": {
                "Default": {
                    "type": "ref",
                    "value": "preferred"
                }
            },
            "isVisible": true,
            "vizProps": {
                "hide": false
            }
        },
        "flxDowntimeWarningDomestic": {
            "__events__": {},
            "__info__": {
                "kuid": "ba3d135d8da843428e42609ae39f4d4e",
                "srcKUID": "bcdc33d2509e47dea023565ab3057e0d",
                "wType": "FlexContainer"
            }
        },
        "flxDowntimeWarningInternational": {
            "__events__": {},
            "__info__": {
                "kuid": "a006b7114ad644c593d589e7d7772a53",
                "srcKUID": "a13683136bbe4234817f825c36cd945a",
                "wType": "FlexContainer"
            },
            "responsiveData": {
                "b3": {
                    "isVisible": false
                }
            }
        },
        "flxHorizantalLineKA": {
            "__events__": {},
            "__info__": {
                "kuid": "ic7b803c118643d79a1bd9351f61d8d3",
                "srcKUID": "dc7bc23d536b4bffa6ddf902048ec730",
                "wType": "FlexContainer"
            }
        },
        "flxInfoKA": {
            "__events__": {},
            "__info__": {
                "kuid": "ff8dad806a9945a5b41501328fe3352e",
                "srcKUID": "j6b2028449ac4bd5ba78bf6d0c1ef74a",
                "wType": "FlexContainer"
            }
        },
        "flxIntAccountNickNameKA": {
            "__events__": {},
            "__info__": {
                "kuid": "c101328642594370a3c69acbafe2f36e",
                "srcKUID": "df3fdd8936874265983aca46ec7814e6",
                "wType": "FlexContainer"
            },
            "left": {},
            "responsiveData": {
                "b3": {
                    "left": {
                        "type": "string",
                        "value": "2.50%"
                    },
                    "width": {
                        "type": "string",
                        "value": "95%"
                    }
                }
            },
            "width": {}
        },
        "flxIntAccountNumberAgainKA": {
            "__events__": {},
            "__info__": {
                "kuid": "bf01142ef25d470aaee5a583bc613bca",
                "srcKUID": "a9a0ed3453dd4d64877ae0f78f8fe7bb",
                "wType": "FlexContainer"
            },
            "left": {},
            "responsiveData": {
                "b3": {
                    "left": {
                        "type": "string",
                        "value": "2.50%"
                    },
                    "width": {
                        "type": "string",
                        "value": "95%"
                    }
                }
            },
            "width": {}
        },
        "flxIntAccountNumberKA": {
            "__events__": {},
            "__info__": {
                "kuid": "a8e64924325742a9b12eeab6d18b8539",
                "srcKUID": "b22f8928a45e4131a68f607d5cd2acea",
                "wType": "FlexContainer"
            },
            "left": {},
            "responsiveData": {
                "b3": {
                    "left": {
                        "type": "string",
                        "value": "2.50%"
                    },
                    "width": {
                        "type": "string",
                        "value": "95%"
                    }
                }
            },
            "width": {}
        },
        "flxIntAccountTypeHeadingKA": {
            "__events__": {},
            "__info__": {
                "kuid": "f4e22c2936824a6585aace7cf6d38d4d",
                "srcKUID": "i89ed62035f549ef9ea5b5783728e8b5",
                "wType": "FlexContainer"
            }
        },
        "flxIntAccountTypeKA": {
            "__events__": {},
            "__info__": {
                "kuid": "gba6ef6237b44b948508ecba605a922c",
                "srcKUID": "dc7d0758ae9c4812864b8711038a4c91",
                "wType": "FlexContainer"
            },
            "left": {},
            "responsiveData": {
                "b3": {
                    "left": {
                        "type": "string",
                        "value": "2.50%"
                    },
                    "width": {
                        "type": "string",
                        "value": "95%"
                    }
                }
            },
            "width": {}
        },
        "flxIntAddOrCancelKA": {
            "__events__": {},
            "__info__": {
                "kuid": "f42fd77a852e48df8323a6ecfedf4f35",
                "srcKUID": "c144925804d5477cabbec85062a8d0ec",
                "wType": "FlexContainer"
            },
            "autogrowMode": {
                "Default": 0
            },
            "height": {},
            "left": {},
            "responsiveData": {
                "b3": {
                    "height": {
                        "type": "string",
                        "value": "150px"
                    },
                    "left": {
                        "type": "string",
                        "value": "2.50%"
                    },
                    "top": {
                        "type": "string",
                        "value": "20px"
                    },
                    "width": {
                        "type": "string",
                        "value": "95%"
                    }
                }
            },
            "top": {},
            "width": {}
        },
        "flxIntBankNameKA": {
            "__events__": {},
            "__info__": {
                "kuid": "fdf37e1bea524996a35455eac5d8db86",
                "srcKUID": "dd056763805f4af09b6f069dea6605f0",
                "wType": "FlexContainer"
            },
            "left": {},
            "responsiveData": {
                "b3": {
                    "left": {
                        "type": "string",
                        "value": "2.50%"
                    },
                    "width": {
                        "type": "string",
                        "value": "95%"
                    }
                }
            },
            "width": {}
        },
        "flxIntBeneficiaryNameKA": {
            "__events__": {},
            "__info__": {
                "kuid": "f0b520588ac249759255180d5778ac97",
                "srcKUID": "dc0eeaf9703d4b43874638b3b33c67c0",
                "wType": "FlexContainer"
            },
            "left": {},
            "responsiveData": {
                "b3": {
                    "left": {
                        "type": "string",
                        "value": "2.50%"
                    },
                    "width": {
                        "type": "string",
                        "value": "95%"
                    }
                }
            },
            "width": {}
        },
        "flxIntCheckboxKA": {
            "__events__": {},
            "__info__": {
                "kuid": "caf9c35153484fd7a867569c23fe36ab",
                "srcKUID": "fcfe8c6e394644a695655a6a607076c7",
                "wType": "FlexContainer"
            },
            "isVisible": false,
            "left": {},
            "responsiveData": {
                "b3": {
                    "left": {
                        "type": "string",
                        "value": "2.50%"
                    },
                    "width": {
                        "type": "string",
                        "value": "95%"
                    }
                }
            },
            "width": {}
        },
        "flxIntHorizantalLineKA": {
            "__events__": {},
            "__info__": {
                "kuid": "a68075a939a5485ebd2f1df6456a445e",
                "srcKUID": "d2157b7ad41e4fb0a16f85baa7dba757",
                "wType": "FlexContainer"
            }
        },
        "flxIntInfoKA": {
            "__events__": {},
            "__info__": {
                "kuid": "fb16f4943e6c420898cae2549068857e",
                "srcKUID": "ea615091860345fcb0d7a8ccd539cef5",
                "wType": "FlexContainer"
            }
        },
        "flxIntSwiftCodeKA": {
            "__events__": {},
            "__info__": {
                "kuid": "c99dae748dfd4affb3b04f51e1ac2bc3",
                "srcKUID": "he5a21b31c124d4e86256a1a2e78187d",
                "wType": "FlexContainer"
            },
            "left": {},
            "responsiveData": {
                "b3": {
                    "left": {
                        "type": "string",
                        "value": "2.50%"
                    },
                    "width": {
                        "type": "string",
                        "value": "95%"
                    }
                }
            },
            "top": {
                "Default": {
                    "type": "string",
                    "value": "7dp"
                }
            },
            "width": {}
        },
        "flxInternationalCustomerDetailsKA": {
            "__events__": {},
            "__info__": {
                "kuid": "f10c82bc27524b58b095f1b2317a1bc5",
                "srcKUID": "c4232ec145ee41dabe80e274c6b23ca3",
                "wType": "FlexContainer"
            },
            "autogrowMode": {
                "Default": 0
            },
            "height": {},
            "left": {},
            "responsiveData": {
                "b1": {
                    "height": {
                        "type": "string",
                        "value": "660px"
                    }
                },
                "b2": {
                    "height": {
                        "type": "string",
                        "value": "660px"
                    }
                },
                "b3": {
                    "height": {
                        "type": "string",
                        "value": "660px"
                    },
                    "left": {
                        "type": "string",
                        "value": "0%"
                    },
                    "width": {
                        "type": "string",
                        "value": "100%"
                    }
                },
                "b4": {
                    "height": {
                        "type": "string",
                        "value": "665px"
                    }
                }
            },
            "width": {}
        },
        "flxInternationalDetailsKA": {
            "__events__": {},
            "__info__": {
                "kuid": "bff3bf998fbd4bd8b7c8a8e79a4aa390",
                "srcKUID": "e579c2c266fd43079f51a5e879cb1a3f",
                "wType": "FlexContainer"
            },
            "autogrowMode": 1,
            "height": {
                "Default": {
                    "type": "ref",
                    "value": "preferred"
                }
            },
            "isVisible": true,
            "responsiveData": {
                "b3": {
                    "isVisible": false
                }
            },
            "top": {
                "Default": {
                    "type": "string",
                    "value": "0dp"
                }
            }
        },
        "flxMainDesktopKA": {
            "__events__": {},
            "__info__": {
                "kuid": "dbc61e1def9f4447bab934a21b34877f",
                "srcKUID": "eec938f3a0454839b7acc0fdc34e77b5",
                "wType": "FlexContainer"
            },
            "autogrowMode": 1,
            "height": {
                "Default": {
                    "type": "ref",
                    "value": "preferred"
                }
            }
        },
        "flxRoutingNumberKA": {
            "__events__": {},
            "__info__": {
                "kuid": "i62abaa6f5d24453be55a75fd6732cae",
                "srcKUID": "ac0d748c31d448d28281a6b3edae211a",
                "wType": "FlexContainer"
            },
            "left": {},
            "responsiveData": {
                "b3": {
                    "left": {
                        "type": "string",
                        "value": "2.50%"
                    },
                    "width": {
                        "type": "string",
                        "value": "95%"
                    }
                }
            },
            "width": {}
        },
        "flxTabsKA": {
            "__events__": {},
            "__info__": {
                "kuid": "f600aa09d94e455fa21b3d2f4ae4d189",
                "srcKUID": "j905565acece4e5bb55a094ceef7c786",
                "wType": "FlexContainer"
            }
        },
        "flxcheckbox": {
            "__events__": {},
            "__info__": {
                "kuid": "h010d4ea0359428faf82cdf11effea23",
                "srcKUID": "fa34d846580e415a9bcfd97cd225873e",
                "wType": "FlexContainer"
            }
        },
        "flxcheckboximg": {
            "__events__": {},
            "__info__": {
                "kuid": "d3ef35cd2a5b4df385304e0fbd4b248d",
                "srcKUID": "de23d409731b41d7b7bc626168579da6",
                "wType": "FlexContainer"
            }
        },
        "flxcheckboxinternational": {
            "__events__": {},
            "__info__": {
                "kuid": "ad73aa1df3e94faf8693ef7c5f0461e5",
                "srcKUID": "h9ee2677aa094b75aae89e35192c44bb",
                "wType": "FlexContainer"
            }
        },
        "flxcustomerDetailsKA": {
            "__events__": {},
            "__info__": {
                "kuid": "fc0279d13cb14a8ea9699c3118417d47",
                "srcKUID": "d6f3bf5e64204759902a6f93d7e981c9",
                "wType": "FlexContainer"
            },
            "autogrowMode": {
                "Default": 0
            },
            "height": {},
            "left": {},
            "responsiveData": {
                "b1": {
                    "height": {
                        "type": "string",
                        "value": "660px"
                    }
                },
                "b2": {
                    "height": {
                        "type": "string",
                        "value": "665px"
                    }
                },
                "b3": {
                    "height": {
                        "type": "string",
                        "value": "660px"
                    },
                    "left": {
                        "type": "string",
                        "value": "0%"
                    },
                    "width": {
                        "type": "string",
                        "value": "100%"
                    }
                },
                "b4": {
                    "height": {
                        "type": "string",
                        "value": "650px"
                    }
                }
            },
            "width": {}
        },
        "iamtheownerinternational": {
            "__events__": {},
            "__info__": {
                "kuid": "dbccc87e1b48475c8202cb1fc59d271f",
                "srcKUID": "eea209ca92d542d198368956b7d76421",
                "wType": "Label"
            },
            "i18n_text": "i18n.AddExternalAccount.IamOwnerofthisaccount"
        },
        "imgDowntimeWarning": {
            "__events__": {},
            "__info__": {
                "kuid": "a16f46cce96f44698c3ee0eefa4f78e3",
                "srcKUID": "b933329620a54f998f7d63692a64496b",
                "wType": "Image"
            },
            "src": "error_yellow.png"
        },
        "imgDowntimeWarningInternational": {
            "__events__": {},
            "__info__": {
                "kuid": "ifedb756e16c4087a14517fc06aed7d9",
                "srcKUID": "a90e43752e0c411aa7d5ba6bccff392f",
                "wType": "Image"
            },
            "src": "error_yellow.png"
        },
        "imgInfoKA": {
            "__events__": {},
            "__info__": {
                "kuid": "df285b286ca24079848547f8831f6225",
                "srcKUID": "a905d2109a5e4498ad420d02f0126bd2",
                "wType": "Image"
            },
            "src": "info_grey.png"
        },
        "imgIntInfoKA": {
            "__events__": {},
            "__info__": {
                "kuid": "h577146646d84db381bb403cbd62e659",
                "srcKUID": "ha16c42568ac46db941a41e7b8913bba",
                "wType": "Image"
            },
            "src": "info_grey.png"
        },
        "imgcheckboxchecked": {
            "__events__": {},
            "__info__": {
                "kuid": "j966afafcd7c4e4a82d9cf2bcc710de3",
                "srcKUID": "e2c09a2ecc8f4a678f6599d473490c96",
                "wType": "Image"
            },
            "src": "checked_box.png"
        },
        "imgchecked": {
            "__events__": {},
            "__info__": {
                "kuid": "ef4089798fac4cffa8d65f0c9cffddb9",
                "srcKUID": "ab22dfc85cae4a4f81e9f50e57b208e4",
                "wType": "Image"
            },
            "src": "checked_box.png"
        },
        "lblAccountNickNameKA": {
            "__events__": {},
            "__info__": {
                "kuid": "ba71181a31d045919c81358081f255d1",
                "srcKUID": "b10ee51964a542b5b3527fdd1534a2d9",
                "wType": "Label"
            },
            "i18n_text": "i18n.transfers.accountNickName",
            "text": "Account Nickname"
        },
        "lblAccountNumberAgainKA": {
            "__events__": {},
            "__info__": {
                "kuid": "j42534b3e89e49818fe0ec77c35077dc",
                "srcKUID": "c964abe20a7b49d781807cec3787ba97",
                "wType": "Label"
            },
            "i18n_text": "i18n.WireTransfers.ReEnterAccountNumber"
        },
        "lblAccountNumberKA": {
            "__events__": {},
            "__info__": {
                "kuid": "b9329d7b44e2499fa025ec84c8ea9171",
                "srcKUID": "d73c65ff20594a409c5ba6059b23e194",
                "wType": "Label"
            },
            "i18n_text": "i18n.common.accountNumber"
        },
        "lblAccountTypeKA": {
            "__events__": {},
            "__info__": {
                "kuid": "c59c002a3c6e48799b31dfb6443a4116",
                "srcKUID": "h81341bd2ff64cf884c5e27fba306c56",
                "wType": "Label"
            },
            "i18n_text": "i18n.transfers.accountType"
        },
        "lblBankNameKA": {
            "__events__": {},
            "__info__": {
                "kuid": "ff43281118de4f36b527979e009d24b7",
                "srcKUID": "eda339ee03864cc0a7ae0614f6a1caa6",
                "wType": "Label"
            },
            "i18n_text": "i18n.transfers.bankName"
        },
        "lblBankNameValue": {
            "__events__": {},
            "__info__": {
                "kuid": "b4acba723ee94534b98f510051f97add",
                "srcKUID": "cbfec4ab52604c02963d795b876a692f",
                "wType": "Label"
            }
        },
        "lblBeneficiaryNameKA": {
            "__events__": {},
            "__info__": {
                "kuid": "df13cccd6a6d45268f630230d1eb3bed",
                "srcKUID": "b00e8eb08f3c4b3c9c62d66ce49bc9cc",
                "wType": "Label"
            },
            "i18n_text": "i18n.transfers.benificiaryName"
        },
        "lblIntAccountNickNameKA": {
            "__events__": {},
            "__info__": {
                "kuid": "dcb5965f52d4497fa5ff59a568e261e0",
                "srcKUID": "d8057861391047568745bd1bf8487595",
                "wType": "Label"
            },
            "i18n_text": "i18n.transfers.accountNickName",
            "text": "Account Nickname"
        },
        "lblIntAccountNumberAgainKA": {
            "__events__": {},
            "__info__": {
                "kuid": "cab54bfee9d449baae7877e8f958885b",
                "srcKUID": "f344c537af3f44d59d219fd2cb2c5f6e",
                "wType": "Label"
            },
            "i18n_text": "i18n.WireTransfers.ReEnterAccountNumber"
        },
        "lblIntAccountNumberKA": {
            "__events__": {},
            "__info__": {
                "kuid": "a91d0f49f3ef455bb17fa9951c57a090",
                "srcKUID": "f203b14e7bfa44349e991cb7da175464",
                "wType": "Label"
            },
            "i18n_text": "i18n.common.accountNumber"
        },
        "lblIntAccountTypeKA": {
            "__events__": {},
            "__info__": {
                "kuid": "af0119494a0e462a8c66eab7a9449dc9",
                "srcKUID": "ec000130995f456bafd1bd254ccf45ae",
                "wType": "Label"
            },
            "i18n_text": "i18n.transfers.accountType"
        },
        "lblIntBankNameKA": {
            "__events__": {},
            "__info__": {
                "kuid": "b264fc1828a046fe8543cd52f759019b",
                "srcKUID": "ff53d88f53714d4a8534810099990bcd",
                "wType": "Label"
            },
            "i18n_text": "i18n.transfers.bankName"
        },
        "lblIntBeneficiaryNameKA": {
            "__events__": {},
            "__info__": {
                "kuid": "gb9d9dea507645e1b77cdc962e032b2a",
                "srcKUID": "cc293b0929074ba3bd32ae11bb48cdc9",
                "wType": "Label"
            },
            "i18n_text": "i18n.transfers.benificiaryName"
        },
        "lblIntSwiftCodeKA": {
            "__events__": {},
            "__info__": {
                "kuid": "e7a41b80d3ba4b4ab67ecb3e6a24e549",
                "srcKUID": "a7e2ffd0e76743469df3af0c7b85a14b",
                "wType": "Label"
            },
            "i18n_text": "i18n.accounts.swiftCode"
        },
        "lblRoutingNumberKA": {
            "__events__": {},
            "__info__": {
                "kuid": "eb5869eb779445ad9f785b95135221ff",
                "srcKUID": "def44a52a92c4eae8b828c6d434b9074",
                "wType": "Label"
            },
            "i18n_text": "i18n.accounts.routingNumber"
        },
        "lblWarning": {
            "__events__": {},
            "__info__": {
                "kuid": "g2567d5443774075bc7daf725a4661a3",
                "srcKUID": "c40c39bc11134d918775be60737e9002",
                "wType": "Label"
            },
            "i18n_text": "i18n.AddExternalAccount.Enteredaccountnumberisnotmatching"
        },
        "lblWarningInt": {
            "__events__": {},
            "__info__": {
                "kuid": "i07416ba17b2427fb0b2fa5e8237c323",
                "srcKUID": "eb1fa043241e473ba8ae739092507654",
                "wType": "Label"
            },
            "i18n_text": "i18n.AddExternalAccount.Enteredaccountnumberisnotmatching"
        },
        "lblcheckboxchecked": {
            "__events__": {},
            "__info__": {
                "kuid": "gf6af23c0b23407d9e13571f1d992849",
                "srcKUID": "id63bfb1d5ba44e3abd273b49b246dc7",
                "wType": "Label"
            }
        },
        "lblchecked": {
            "__events__": {},
            "__info__": {
                "kuid": "c69740daefce4ec7ac65f08c1d090091",
                "srcKUID": "c7837fc5cea6413f882fb656ee910294",
                "wType": "Label"
            }
        },
        "lbliamownerofaccount": {
            "__events__": {},
            "__info__": {
                "kuid": "d1cedadecdd94b7d999cb26162b813d5",
                "srcKUID": "i78ca58751ac4d6e873e9623f19dff80",
                "wType": "Label"
            },
            "i18n_text": "i18n.AddExternalAccount.IamOwnerofthisaccount"
        },
        "lbxAccountTypeKA": {
            "__events__": {},
            "__info__": {
                "kuid": "b3bc4e3c0ba14b80b4ac2e422fcc8ef5",
                "srcKUID": "h586622f598a4af4b2faec17cd3137a9",
                "wType": "ListBox"
            }
        },
        "lbxIntAccountTypeKA": {
            "__events__": {},
            "__info__": {
                "kuid": "b0e1079919fa4c95898f43213ebc7bba",
                "srcKUID": "ed9d3c1f82ad41fd8f9196e8286435e3",
                "wType": "ListBox"
            },
            "minHeight": {
                "Default": {
                    "type": "string",
                    "value": ""
                }
            },
            "width": {
                "Default": {
                    "type": "string",
                    "value": "99%"
                }
            }
        },
        "rtxDowntimeWarningDomestic": {
            "__events__": {},
            "__info__": {
                "kuid": "bbceacd7f871498c8d496f4223fcf16e",
                "srcKUID": "bbe1d501dba94d349d72e0c579798008",
                "wType": "RichText"
            },
            "i18n_text": "i18n.Transfers.ThereisomeerrorintheserverWecouldnotcompleteyourrequestofaddingtheaccount"
        },
        "rtxDowntimeWarningInternational": {
            "__events__": {},
            "__info__": {
                "kuid": "fc991f61c223425f95be8d8be1479d59",
                "srcKUID": "d5f1d8b424c74393bed9b6c0b5a0d4b9",
                "wType": "RichText"
            }
        },
        "tbxAccountNickNameKA": {
            "__events__": {
                "desktopweb": {
                    "ide_onKeyUp": "AS_TextField_de1d4d3b2af1446facf8a4219fafbb23"
                }
            },
            "__info__": {
                "kuid": "adb9c332ca4643cf86d9d7cdc1bb40ba",
                "srcKUID": "c5d46d615bd64d088f4a16b74b80b6e4",
                "wType": "TextField"
            },
            "i18n_placeholder": "i18n.PayAPerson.EnterNickName",
            "placeholder": "Enter Nickname",
            "responsiveData": {}
        },
        "tbxAccountNumberAgainKA": {
            "__events__": {
                "desktopweb": {
                    "ide_onKeyUp": "AS_TextField_cc6837cd982746debee5dab3a241eff9"
                }
            },
            "__info__": {
                "kuid": "h6184e1e86b045f8a38279a93afec219",
                "srcKUID": "eac2bde82e1f41c5bf0566ac0b4203ae",
                "wType": "TextField"
            },
            "i18n_placeholder": "i18n.addPayee.RelationshipNumberPlaceholder"
        },
        "tbxAccountNumberKA": {
            "__events__": {
                "desktopweb": {
                    "ide_onKeyUp": "AS_TextField_f41816e12da442a58f2ac2c108aca45e"
                }
            },
            "__info__": {
                "kuid": "h1c6f6f615bf492a82b8e9ee016316cd",
                "srcKUID": "df03dcb05c0d4838bc4d7b4b1bc295f0",
                "wType": "TextField"
            },
            "i18n_placeholder": "i18n.addPayee.RelationshipNumberPlaceholder"
        },
        "tbxBankNameKA": {
            "__events__": {
                "desktopweb": {
                    "ide_onKeyUp": "AS_TextField_ccefffac87b74286bd259509d55df73b"
                }
            },
            "__info__": {
                "kuid": "b4e163e718d44e79940810ba5119dae2",
                "srcKUID": "f4dc59a8869442869989e73fcc6272e6",
                "wType": "TextField"
            },
            "i18n_placeholder": "i18n.transfers.bankName",
            "placeholder": "Bank Name"
        },
        "tbxBeneficiaryNameKA": {
            "__events__": {
                "desktopweb": {
                    "ide_onKeyUp": "AS_TextField_ad851b32f8aa4d20a0c86179965f93ba"
                }
            },
            "__info__": {
                "kuid": "he1444f7531f426da6eae094099fcdee",
                "srcKUID": "gdfe2c6f7e094877b3c7473f64d0d13c",
                "wType": "TextField"
            },
            "i18n_placeholder": "i18n.AddExternalAccount.EnterBeneficiaryName"
        },
        "tbxIntAccountNickNameKA": {
            "__events__": {
                "desktopweb": {
                    "ide_onKeyUp": "AS_TextField_ba54143a059a4961affa6cbd1385e961"
                }
            },
            "__info__": {
                "kuid": "ie8a1a4c80e749e98c22af20be66ba71",
                "srcKUID": "dc37a044566744308f74121e8b3c5375",
                "wType": "TextField"
            },
            "centerX": {
                "Default": {
                    "type": "string",
                    "value": ""
                }
            },
            "i18n_placeholder": "i18n.PayAPerson.EnterNickName",
            "placeholder": "Enter Nickname",
            "width": {
                "Default": {
                    "type": "string",
                    "value": "99%"
                }
            }
        },
        "tbxIntAccountNumberAgainKA": {
            "__events__": {
                "desktopweb": {
                    "ide_onKeyUp": "AS_TextField_a4c5a63018c74f2496cd5a6e62035580"
                }
            },
            "__info__": {
                "kuid": "cb1e01b257b44ce7809a3265c23ad68c",
                "srcKUID": "b7fe7f4001714e66b276b0b66ca7a62e",
                "wType": "TextField"
            },
            "i18n_placeholder": "i18n.addPayee.RelationshipNumberPlaceholder",
            "width": {
                "Default": {
                    "type": "string",
                    "value": "99%"
                }
            }
        },
        "tbxIntAccountNumberKA": {
            "__events__": {
                "desktopweb": {
                    "ide_onKeyUp": "AS_TextField_a44523c6bfb24d9dbcf990c1ba926c6e"
                }
            },
            "__info__": {
                "kuid": "ee3093595991460e82c874d998aef2c1",
                "srcKUID": "id374008f27e4ef4b177414e4a88238b",
                "wType": "TextField"
            },
            "i18n_placeholder": "i18n.addPayee.RelationshipNumberPlaceholder",
            "width": {
                "Default": {
                    "type": "string",
                    "value": "99%"
                }
            }
        },
        "tbxIntBankNameKA": {
            "__events__": {
                "desktopweb": {
                    "ide_onKeyUp": "AS_TextField_a892a0332988490d9ac6d609f7cfc6cc"
                }
            },
            "__info__": {
                "kuid": "b9deb5357094457383487d3aba1bbfa1",
                "srcKUID": "ec410ac93d0e43469c8f855a512c6a98",
                "wType": "TextField"
            },
            "i18n_placeholder": "i18n.transfers.bankName",
            "placeholder": "Bank Name",
            "width": {
                "Default": {
                    "type": "string",
                    "value": "99%"
                }
            }
        },
        "tbxIntBeneficiaryNameKA": {
            "__events__": {
                "desktopweb": {
                    "ide_onKeyUp": "AS_TextField_b188aa342fdc4deba1c8b3b9a074bff1"
                }
            },
            "__info__": {
                "kuid": "bc1fa85f094843b19dabd5f9cc8870e5",
                "srcKUID": "f39230f200fd4703abf08ad904594d55",
                "wType": "TextField"
            },
            "i18n_placeholder": "i18n.AddExternalAccount.EnterBeneficiaryName",
            "width": {
                "Default": {
                    "type": "string",
                    "value": "99%"
                }
            }
        },
        "tbxIntSwiftCodeKA": {
            "__events__": {
                "desktopweb": {
                    "ide_onKeyUp": "AS_TextField_ha986d22a14840dda0c3998fcbc0c316"
                }
            },
            "__info__": {
                "kuid": "d21c562d6bd646e5bd190dc075db33d9",
                "srcKUID": "cd38a4e5ca224f11872e1350888e3684",
                "wType": "TextField"
            },
            "i18n_placeholder": "i18n.WireTransfers.EnterSwiftCode",
            "placeholder": "Enter Swift Code",
            "width": {
                "Default": {
                    "type": "string",
                    "value": "99%"
                }
            }
        },
        "tbxRoutingNumberKA": {
            "__events__": {
                "desktopweb": {
                    "ide_onKeyUp": "AS_TextField_g8da09fedddb4d4da4ce6548705a811b"
                }
            },
            "__info__": {
                "kuid": "a637b6b1152a49989fc0cbbdecb063f4",
                "srcKUID": "e38082e421334982bee90fe045e8fe46",
                "wType": "TextField"
            },
            "i18n_placeholder": "i18n.AddExternalAccount.EnterRoutingNumber",
            "responsiveData": {
                "b3": {
                    "width": {
                        "type": "string",
                        "value": "100%"
                    }
                }
            },
            "width": {}
        }
    },
    "id": "externalAccount",
    "info": null,
    "isdatareferenced": false,
    "isvisible": true,
    "kuid": "h18ed0689d31416399959dcc25abf75a",
    "layouttype": 2,
    "masterType": 0,
    "name": "kony.ui.UserWidgetInstance",
    "parent": "flxExternalAccount",
    "pf": "frmAddExternalAccount",
    "snaptogrid": true,
    "sourceUserWidget": "bc5ea00614854b0eb546013a8a639f90",
    "vizprops": {
        "hidewidgethierarchy": false
    },
    "wType": "UserWidgetInstance",
    "zindex": 1
}