{
    "@class": "com.kony.gen.viz.model.component.KVizButton",
    "DNDConfig": null,
    "__parentReadjusting__": false,
    "_height_": {
        "type": "string",
        "value": "50dp"
    },
    "_margin_": [
        6,
        6,
        6,
        6
    ],
    "_padding_": [
        0,
        0,
        0,
        0
    ],
    "_right_": {
        "type": "string",
        "value": "37%"
    },
    "_skin_": "sea1525e3fa24829a889b1fd650f3f24",
    "_text_": "REQUEST MONEY",
    "_top_": {
        "type": "string",
        "value": "30px"
    },
    "_width_": {
        "type": "string",
        "value": "32.49%"
    },
    "accessibilityconfig": {
        "a11yLabel": "Transfer Money Once"
    },
    "canUpdateUI": true,
    "containerweight": 100,
    "contentalignment": 5,
    "desktopweb": {
        "psp": {
            "hoverSkin": "s81054b5e2b74f17a5261991df565427"
        }
    },
    "disabledSkins": {
        "focusSkin": "sf44d06ca8224832827ea7fdff757013"
    },
    "displaytext": true,
    "id": "btnRequestMoney",
    "info": null,
    "isvisible": true,
    "kuid": "j7a8f8d5f91f4d7b955389d13b048603",
    "name": "kony.ui.Button",
    "parent": "flxButtons",
    "pf": "userwidgetmodel",
    "texti18n": "i18n.WireTransfer.MakeOneTimeTransfer",
    "tooltip": "Make One Time Transfer",
    "wType": "Button",
    "zindex": 2
}