{
    "@class": "com.kony.gen.viz.model.component.KVizButton",
    "DNDConfig": null,
    "_bottom_": {
        "type": "number",
        "value": ""
    },
    "_height_": {
        "type": "string",
        "value": "40dp"
    },
    "_left_": {
        "type": "string",
        "value": "58.60%"
    },
    "_margin_": [
        6,
        6,
        6,
        6
    ],
    "_padding_": [
        0,
        0,
        0,
        0
    ],
    "_right_": {
        "type": "number",
        "value": ""
    },
    "_skin_": "sa611611b2f24e93bcfd09e1606c0d86",
    "_text_": "SAVE PAYEE",
    "_top_": {
        "type": "string",
        "value": "30dp"
    },
    "_width_": {
        "type": "string",
        "value": "16.84%"
    },
    "accessibilityconfig": {
        "a11yLabel": "SAVE PAYEE"
    },
    "canUpdateUI": true,
    "containerweight": 100,
    "contentalignment": 5,
    "desktopweb": {
        "psp": {
            "hoverSkin": "s83729feaa224e359d660d5af05c4bac"
        }
    },
    "displaytext": true,
    "focusskin": "s5a4f67acd3e47b9be6d6910a7a6686f",
    "id": "btnSavePayee",
    "info": null,
    "isvisible": true,
    "kuid": "e8d0437d7dd94b87b4ddb024f5952444",
    "name": "kony.ui.Button",
    "parent": "flxButtons",
    "pf": "frmConfirmTransfer",
    "responsiveData": {
        "b1": {},
        "b2": {
            "bottom": {
                "type": "string",
                "value": ""
            },
            "left": {
                "type": "string",
                "value": ""
            },
            "right": {
                "type": "string",
                "value": "27%"
            },
            "width": {
                "type": "string",
                "value": "22%"
            }
        },
        "b3": {
            "bottom": {
                "type": "string",
                "value": ""
            },
            "height": {
                "type": "string",
                "value": "40dp"
            },
            "isVisible": true,
            "left": {
                "type": "string",
                "value": "2%"
            },
            "right": {
                "type": "string",
                "value": "2%"
            },
            "top": {
                "type": "string",
                "value": "20dp"
            },
            "width": {
                "type": "string",
                "value": "96%"
            }
        },
        "b4": {
            "height": {
                "type": "string",
                "value": "40dp"
            },
            "text": "SAVE PAYEE"
        }
    },
    "tooltip": "MAKE TRANSFER",
    "wType": "Button",
    "zindex": 1
}