{
    "@class": "com.kony.gen.viz.model.component.KVizLabel",
    "DNDConfig": null,
    "_height_": {
        "type": "ref",
        "value": "preferred"
    },
    "_left_": {
        "type": "string",
        "value": "2.20%"
    },
    "_margin_": [
        1,
        1,
        1,
        1
    ],
    "_padding_": [
        0,
        0,
        0,
        0
    ],
    "_skin_": "sf0cb6e968274aa389aafbf14ff806fd",
    "_text_": "My Savings Account",
    "_top_": {
        "type": "string",
        "value": "43dp"
    },
    "_width_": {
        "type": "string",
        "value": "50%"
    },
    "_wrapping_": 2,
    "accessibilityconfig": {
        "a11yLabel": "My Savings Account"
    },
    "android": {
        "textStyle": {
            "letterSpacing": 0,
            "strikeThrough": false
        }
    },
    "canUpdateUI": true,
    "containerweight": 100,
    "contentalignment": 4,
    "id": "lblSavingsAccount",
    "info": null,
    "ipad": {
        "psp": {
            "wrapping": 2
        }
    },
    "iphone": {
        "psp": {
            "wrapping": 2
        }
    },
    "isvisible": true,
    "kuid": "a96719acab0545248bf5c9a0ea13a31d",
    "name": "kony.ui.Label",
    "parent": "flxBalance",
    "pf": "frmConfirmTransfer",
    "responsiveData": {
        "b3": {
            "skin": "s14b5921a566439e9ae8c94da666e722",
            "text": "My Savings Account",
            "top": {
                "type": "string",
                "value": "40dp"
            }
        }
    },
    "tooltip": "",
    "wType": "Label",
    "zindex": 1
}