{
    "@class": "com.kony.gen.viz.model.component.KVizTextBox2",
    "DNDConfig": null,
    "__parentReadjusting__": false,
    "_height_": {
        "type": "string",
        "value": "40dp"
    },
    "_left_": {
        "type": "string",
        "value": "0.00%"
    },
    "_margin_": [
        0,
        0,
        0,
        0
    ],
    "_padding_": [
        2,
        0,
        0,
        0
    ],
    "_placeholder_": "Type your answer here",
    "_skin_": "saf81d7c9f3544f4890963da89a43ff3",
    "_text_": "",
    "_top_": {
        "type": "string",
        "value": "9dp"
    },
    "_width_": {
        "type": "string",
        "value": "100%"
    },
    "accessibilityconfig": {
        "a11yLabel": "Type your answer here."
    },
    "autocapitalize": "none",
    "autocomplete": false,
    "autocorrect": false,
    "autofilter": false,
    "canUpdateUI": true,
    "containerheight": "",
    "containerheightmode": 1,
    "containerweight": 100,
    "contentalignment": 4,
    "desktopweb": {
        "ide_onEndEditing": "AS_TextField_efb4d4f2eadc40e6b7ce6c1471ca809f",
        "ide_onKeyUp": "AS_TextField_g8308307c1a040198d6b860bee6d641b",
        "placeholderSkin": "s3e4ba4131a24efb9c8d31326b108327",
        "psp": {
            "hoverSkin": "s80a8c5539a441ee9b9b49917cc45cc2"
        }
    },
    "disabledSkins": {},
    "focusskin": "s80a8c5539a441ee9b9b49917cc45cc2",
    "id": "tbxAnswers1",
    "info": null,
    "isvisible": true,
    "keyboardtype": "A",
    "kiosk": {
        "psp": {
            "toolTip": ""
        }
    },
    "kuid": "j76de079818b4424815579f9633a3c21",
    "mode": "A",
    "name": "kony.ui.TextBox2",
    "parent": "flxAnswerSecurityQuestionsQASet1",
    "pf": "userwidgetmodel",
    "placeholderskin": "s3e4ba4131a24efb9c8d31326b108327",
    "securetextentry": false,
    "textinputmode": "A",
    "viewtype": "default",
    "wType": "TextField",
    "zindex": 1
}