{
    "DNDConfig": null,
    "__parentReadjusting__": false,
    "_height_": {
        "type": "string",
        "value": "100%"
    },
    "_left_": {
        "type": "string",
        "value": "0dp"
    },
    "_margin_": [
        0,
        0,
        0,
        0
    ],
    "_orientation_": 6,
    "_padding_": [
        0,
        0,
        0,
        0
    ],
    "_percent_": true,
    "_skin_": "s24c92fc23b14f5484b693ee9b8a9b35",
    "_top_": {
        "type": "string",
        "value": "0dp"
    },
    "_width_": {
        "type": "string",
        "value": "100%"
    },
    "allboxes": [],
    "autogrowmode": 0,
    "canUpdateUI": true,
    "children": [
        "flxDisputeId",
        "flxAmount",
        "flxDateOfTransaction",
        "flxReferenceNumber",
        "flxFrom",
        "flxTo",
        "flxTransactionType",
        "flxDescription",
        "flxReasonForDispute",
        "lblSeparator01",
        "flxExpiresOnKeyVertical55"
    ],
    "clipbounds": true,
    "containerId": true,
    "containerweight": 100,
    "enablescrolling": true,
    "id": "flxDetails",
    "info": null,
    "isvisible": true,
    "kuid": "f05057f5b2ad45a585bd357dcc587445",
    "layouttype": 4,
    "name": "kony.ui.FlexContainer",
    "parent": "flxInfoVertical0",
    "pf": "segDisputedTransactionsMobile",
    "snapgridsize": 10,
    "snaptogrid": true,
    "wType": "FlexContainer",
    "widgetalignment": 1,
    "zindex": 1
}