{
    "@class": "com.kony.gen.viz.model.component.KVizLabel",
    "DNDConfig": null,
    "__parentReadjusting__": false,
    "_height_": {
        "type": "ref",
        "value": "preferred"
    },
    "_left_": {
        "type": "string",
        "value": "3%"
    },
    "_margin_": [
        1,
        1,
        1,
        1
    ],
    "_padding_": [
        0,
        0,
        2,
        0
    ],
    "_skin_": "s7430d55973048da9e66a8804b019227",
    "_text_": "Notes",
    "_top_": {
        "type": "string",
        "value": "1dp"
    },
    "_width_": {
        "type": "ref",
        "value": "preferred"
    },
    "_wrapping_": 2,
    "accessibilityconfig": {
        "a11yLabel": "Expires On"
    },
    "android": {
        "textStyle": {
            "letterSpacing": 0,
            "strikeThrough": false
        }
    },
    "canUpdateUI": true,
    "containerId": true,
    "containerweight": 100,
    "contentalignment": 6,
    "id": "lblFromAccount",
    "info": null,
    "ipad": {
        "psp": {
            "wrapping": 2
        }
    },
    "iphone": {
        "psp": {
            "wrapping": 2
        }
    },
    "isvisible": true,
    "kuid": "ddc417c3b2f54f08b5784e757ace5dd5",
    "name": "kony.ui.Label",
    "paddinginpixel": false,
    "parent": "flxFrom",
    "pf": "segDisputedTransactionsMobile",
    "texti18n": "i18n.stopChecks.FromAccount:",
    "tooltip": "",
    "wType": "Label",
    "zindex": 1
}