{
    "@class": "com.kony.gen.viz.model.component.KVizUserWidget",
    "DNDConfig": null,
    "__parentReadjusting__": false,
    "_android_": {},
    "_androidwearos_": {},
    "_children_": [],
    "_desktopweb_": {},
    "_height_": {
        "type": "ref",
        "value": "preferred"
    },
    "_ipad_": {},
    "_iphone_": {},
    "_kiosk_": {},
    "_left_": {
        "type": "string",
        "value": "1dp"
    },
    "_margin_": [
        0,
        0,
        0,
        0
    ],
    "_orientation_": 1,
    "_padding_": [
        0,
        0,
        0,
        0
    ],
    "_percent_": true,
    "_render_": true,
    "_responsiveData_": {},
    "_skin_": "sdc143f0e5b64ae3a3f155f691c73fa7",
    "_spa_": {},
    "_spaan_": {},
    "_spaandroidtablet_": {},
    "_spabb_": {},
    "_spaip_": {},
    "_spaipad_": {},
    "_spamobile_": {},
    "_spatablet_": {},
    "_spawindowstablet_": {},
    "_spawinphone8_": {},
    "_tabrcandroid_": {},
    "_top_": "0dp",
    "_vizProps_": {
        "hidewidgethierarchy": false
    },
    "_width_": {
        "type": "string",
        "value": "100%"
    },
    "_windows10_": {},
    "_windows8_": {},
    "_winphone10_": {},
    "_winphone8_": {},
    "areflexpropsreferenced": false,
    "autogrowmode": 1,
    "canUpdateUI": true,
    "clipbounds": false,
    "containerweight": 0,
    "dataDiffs": {
        "AnswerSecurityQuestionsModule": {
            "__events__": {},
            "__info__": {
                "isRoot": true,
                "kuid": "d249d3c7c63b44d8a97d1f4444a71460",
                "srcKUID": "ef14bbca92cd43968b962726c867a178",
                "wType": "FlexContainer"
            }
        },
        "btnCancel": {
            "__events__": {},
            "__info__": {
                "kuid": "d7a4535e770e49c690158bd7dd1e00da",
                "srcKUID": "e09169027c584fa58a7050a22b0b60fc",
                "wType": "Button"
            },
            "bottom": {},
            "height": {},
            "i18n_text": "i18n.transfers.Cancel",
            "left": {},
            "responsiveData": {
                "b3": {
                    "bottom": {
                        "type": "string",
                        "value": ""
                    },
                    "height": {
                        "type": "string",
                        "value": "40dp"
                    },
                    "left": {
                        "type": "string",
                        "value": "10dp"
                    },
                    "right": {
                        "type": "string",
                        "value": "10dp"
                    },
                    "top": {
                        "type": "string",
                        "value": "80dp"
                    },
                    "width": {
                        "type": "string",
                        "value": ""
                    }
                }
            },
            "right": {},
            "top": {},
            "width": {}
        },
        "btnProceed": {
            "__events__": {},
            "__info__": {
                "kuid": "fba95e6ffa9449a1a052c4eaa23c4c2d",
                "srcKUID": "f66c5e1240774a71a6efa7aac96dc83b",
                "wType": "Button"
            },
            "bottom": {},
            "height": {},
            "i18n_text": "i18n.common.proceed",
            "left": {
                "Default": {
                    "type": "string",
                    "value": "76.8%"
                }
            },
            "responsiveData": {
                "b3": {
                    "bottom": {
                        "type": "string",
                        "value": ""
                    },
                    "height": {
                        "type": "string",
                        "value": "40dp"
                    },
                    "left": {
                        "type": "string",
                        "value": "10dp"
                    },
                    "right": {
                        "type": "string",
                        "value": "10dp"
                    },
                    "top": {
                        "type": "string",
                        "value": "20dp"
                    },
                    "width": {
                        "type": "string",
                        "value": ""
                    }
                }
            },
            "right": {},
            "top": {},
            "width": {}
        },
        "flxActions": {
            "__events__": {},
            "__info__": {
                "kuid": "be90b91a668a4badaec9325320afb4fb",
                "srcKUID": "bb03c7e29b534be38d4d610666713e07",
                "wType": "FlexContainer"
            },
            "autogrowMode": {
                "Default": 0
            },
            "height": {},
            "responsiveData": {
                "b3": {
                    "height": {
                        "type": "string",
                        "value": "160dp"
                    }
                }
            }
        },
        "flxAnswerSecurityQuestions": {
            "__events__": {},
            "__info__": {
                "kuid": "bd188c36f5324af084ce5be76b6b3933",
                "srcKUID": "a9d2c0a5eedc4ecaa1419c072ac34e31",
                "wType": "FlexContainer"
            }
        },
        "flxAnswerSecurityQuestionsQASet1": {
            "__events__": {},
            "__info__": {
                "kuid": "a525ce410df240f7b45f71e5554db02d",
                "srcKUID": "j0f9fb943e204afabc21192d424dfd37",
                "wType": "FlexContainer"
            }
        },
        "flxAnswerSecurityQuestionsQASet2": {
            "__events__": {},
            "__info__": {
                "kuid": "j4bc436014214ec6815f01e941dbd969",
                "srcKUID": "h5da2c54a542453db315861ede052b0e",
                "wType": "FlexContainer"
            },
            "left": {
                "Default": {
                    "type": "string",
                    "value": "2.29%"
                }
            }
        },
        "flxHeader": {
            "__events__": {},
            "__info__": {
                "kuid": "c928197942ec4e558eccd9174a2b3354",
                "srcKUID": "da42b088c374429693e78275c5caecc0",
                "wType": "FlexContainer"
            }
        },
        "flxSeparator": {
            "__events__": {},
            "__info__": {
                "kuid": "i40c321707ab4e38896fb73e5cdf9584",
                "srcKUID": "e98d0d4265e6434682879632b2d35ad1",
                "wType": "FlexContainer"
            }
        },
        "flxSeparator2": {
            "__events__": {},
            "__info__": {
                "kuid": "f6cb424fca7f4fad96681510468747fc",
                "srcKUID": "a459ada44577453e9db596eaf717333c",
                "wType": "FlexContainer"
            }
        },
        "flxWarningSecurityQuestions": {
            "__events__": {},
            "__info__": {
                "kuid": "b79a46d48d564f69a18f26c62c3637bb",
                "srcKUID": "cc24c270fe1943c7944d29c91bb26831",
                "wType": "FlexContainer"
            }
        },
        "imgWarningSecurityQuestions": {
            "__events__": {},
            "__info__": {
                "kuid": "af48d66890324f8eaac1b81fba1995c7",
                "srcKUID": "jc943da044f04bc68a11e32ee6889d0e",
                "wType": "Image"
            }
        },
        "lblAnswerSecurityQuestion1": {
            "__events__": {},
            "__info__": {
                "kuid": "ba4a2fbbee634367981a7d1964510b6d",
                "srcKUID": "fbd29941bb5c4b2eb58c8471ef66234d",
                "wType": "Label"
            }
        },
        "lblAnswerSecurityQuestion2": {
            "__events__": {},
            "__info__": {
                "kuid": "fe9b3642170a40a3b3733a4bf8a36f24",
                "srcKUID": "he14f38fd34f47c1ba6d5d3af0fec4d4",
                "wType": "Label"
            }
        },
        "lblAnswers1": {
            "__events__": {},
            "__info__": {
                "kuid": "j293efa1d5f94552b26dc5d502f6237b",
                "srcKUID": "a139706dae6f4e3191c83267aea4f8c6",
                "wType": "Label"
            }
        },
        "lblAnswers2": {
            "__events__": {},
            "__info__": {
                "kuid": "hb8e940ce5f5478a8c90d7fe83d54cbe",
                "srcKUID": "feb323d1c7a3405f93aa659c3f3099e7",
                "wType": "Label"
            }
        },
        "lblHeader": {
            "__events__": {},
            "__info__": {
                "kuid": "dcf54d8ba08f4189a7fd35495b71e9df",
                "srcKUID": "f70576e27c484b40855fff52fe5311f4",
                "wType": "Label"
            }
        },
        "lblHeading2": {
            "__events__": {},
            "__info__": {
                "kuid": "a1399516d87d421597b1bcf459d06823",
                "srcKUID": "id31f8362a7c4c8e921571f556a8e018",
                "wType": "Label"
            }
        },
        "lblNoteAnswerSecurityQuestions": {
            "__events__": {},
            "__info__": {
                "kuid": "d15c6278f9b242ff9a91f8ac6bf4f592",
                "srcKUID": "e47cb60faf4843f39bd4203727340f79",
                "wType": "Label"
            }
        },
        "lblQuestions1": {
            "__events__": {},
            "__info__": {
                "kuid": "b8acdce0a3d641e29693430eff352194",
                "srcKUID": "a6ee69e945084a16b00e097bbf39d4d8",
                "wType": "Label"
            }
        },
        "lblQuestions2": {
            "__events__": {},
            "__info__": {
                "kuid": "f33d0989d9dd49f6958088cdeae1cf1d",
                "srcKUID": "bd2520a1000e46b7af5170c8dc3386c4",
                "wType": "Label"
            }
        },
        "lblWarningSecurityQuestions": {
            "__events__": {},
            "__info__": {
                "kuid": "b7add0c7370e42049dc052f4a9e3169c",
                "srcKUID": "d58fb3ba98b44e24a90f16881cd2d168",
                "wType": "Label"
            }
        },
        "tbxAnswers1": {
            "__events__": {
                "desktopweb": {
                    "ide_onEndEditing": "AS_TextField_f4a97ba83dad4449a5b06a9cab771b2c",
                    "ide_onKeyUp": "AS_TextField_g69571ded423405b9dc951ca48f115e1"
                }
            },
            "__info__": {
                "kuid": "ie2f07c1f35148658779683850fade72",
                "srcKUID": "b8aeac8162874ed5887297d03e10217c",
                "wType": "TextField"
            }
        },
        "tbxAnswers2": {
            "__events__": {
                "desktopweb": {
                    "ide_onEndEditing": "AS_TextField_e078a62143e14ffa9b70000f80946fa6",
                    "ide_onKeyUp": "AS_TextField_c2223a86ea724db7a29054904f7e4c0e"
                }
            },
            "__info__": {
                "kuid": "b414cf3bb8234d209e366f10dcc4018f",
                "srcKUID": "haf5e68e293748f996dd381dbb02f6b6",
                "wType": "TextField"
            }
        }
    },
    "id": "AnswerSecurityQuestionsModule",
    "info": null,
    "isdatareferenced": false,
    "isvisible": true,
    "kuid": "ce680c674bb840959555496dc9262d7a",
    "layouttype": 4,
    "masterType": 0,
    "name": "kony.ui.UserWidgetInstance",
    "parent": "flxAnswerSecurityQuestions",
    "pf": "frmTransfers",
    "sourceUserWidget": "ef14bbca92cd43968b962726c867a178",
    "vizprops": {
        "hidewidgethierarchy": false
    },
    "wType": "UserWidgetInstance"
}