{
	 "@class": "com.kony.gen.viz.model.component.KVizLabel",
	 "DNDConfig": null,
	 "__parentReadjusting__": false,
	 "_height_": {
		 "type": "ref",
		 "value": "preferred"
	},
	 "_left_": {
		 "type": "number",
		 "value": ""
	},
	 "_margin_": [
		 1,
		 1,
		 1,
		 1
	],
	 "_padding_": [
		 0,
		 0,
		 2,
		 0
	],
	 "_skin_": "sc30b371f40d4cd2979dfbd67c441409",
	 "_text_": "Label",
	 "_top_": {
		 "type": "string",
		 "value": "20dp"
	},
	 "_width_": {
		 "type": "string",
		 "value": "1200dp"
	},
	 "_wrapping_": 2,
	 "accessibilityconfig": {
		 "a11yLabel": "Lets authenticate!"
	},
	 "android": {
		 "textStyle": {
			 "letterSpacing": 0,
			 "strikeThrough": false
		}
	},
	 "canUpdateUI": true,
	 "centerx": {
		 "type": "string",
		 "value": "50%"
	},
	 "containerweight": 100,
	 "contentalignment": 4,
	 "id": "lblLetsAuthenticate",
	 "info": null,
	 "ipad": {
		 "psp": {
			 "wrapping": 2
		}
	},
	 "iphone": {
		 "psp": {
			 "wrapping": 2
		}
	},
	 "isvisible": true,
	 "kuid": "fe0963b8afa849bd8991649f6c25e515",
	 "name": "kony.ui.Label",
	 "paddinginpixel": false,
	 "parent": "flxLetsAuthenticateModule",
	 "pf": "frmTransfers",
	 "responsiveData": {
		 "b3": {
			 "centerX": {
				 "type": "string",
				 "value": ""
			},
			 "isVisible": false,
			 "left": {
				 "type": "string",
				 "value": "2.50%"
			},
			 "top": {
				 "type": "string",
				 "value": "0dp"
			},
			 "width": {
				 "type": "string",
				 "value": "0%"
			}
		},
		 "b5": {
			 "width": {
				 "type": "string",
				 "value": "87.84%"
			}
		}
	},
	 "texti18n": "i18n.MFA.LetsAuthenticate",
	 "tooltip": "",
	 "wType": "Label",
	 "zindex": 1
}