{
    "@class": "com.kony.gen.viz.model.component.KVizUserWidget",
    "DNDConfig": null,
    "__parentReadjusting__": false,
    "_android_": {},
    "_androidwearos_": {},
    "_children_": [],
    "_desktopweb_": {},
    "_height_": {
        "type": "ref",
        "value": "preferred"
    },
    "_ipad_": {},
    "_iphone_": {},
    "_kiosk_": {},
    "_left_": {
        "type": "string",
        "value": "0dp"
    },
    "_margin_": [
        0,
        0,
        0,
        0
    ],
    "_orientation_": 1,
    "_padding_": [
        0,
        0,
        0,
        0
    ],
    "_percent_": true,
    "_render_": true,
    "_responsiveData_": {},
    "_skin_": "s24c92fc23b14f5484b693ee9b8a9b35",
    "_spa_": {},
    "_spaan_": {},
    "_spaandroidtablet_": {},
    "_spabb_": {},
    "_spaip_": {},
    "_spaipad_": {},
    "_spamobile_": {},
    "_spatablet_": {},
    "_spawindowstablet_": {},
    "_spawinphone8_": {},
    "_tabrcandroid_": {},
    "_top_": {
        "type": "string",
        "value": "0dp"
    },
    "_vizProps_": {
        "hidewidgethierarchy": false
    },
    "_width_": {
        "type": "string",
        "value": "100%"
    },
    "_windows10_": {},
    "_windows8_": {},
    "_winphone10_": {},
    "_winphone8_": {},
    "areflexpropsreferenced": false,
    "autogrowmode": 1,
    "canUpdateUI": true,
    "clipbounds": false,
    "containerweight": 0,
    "dataDiffs": {
        "CopyimgSortAmount0g924e2b66fe845": {
            "__events__": {},
            "__info__": {
                "kuid": "d1356275491d4c8e9bea404e43311224",
                "srcKUID": "g3ba6d1ecbc9453693e84ae0f5f399e9",
                "wType": "Image"
            },
            "src": "sorting.png"
        },
        "CopyimgSortDate0b28c91ef371c48": {
            "__events__": {},
            "__info__": {
                "kuid": "h574cc72d5e7461fa0ddf2bca9215195",
                "srcKUID": "bb0bfc44f7c94bcc9e3018d53283475b",
                "wType": "Image"
            },
            "src": "sorting.png"
        },
        "CopylblAmount0c7d3995df3ba4f": {
            "__events__": {},
            "__info__": {
                "kuid": "d16933fecb004859bc756ae55d044c2e",
                "srcKUID": "be5109f2029d4787a59f75dd3aa1b6fb",
                "wType": "Label"
            },
            "i18n_text": "i18n.transfers.amountlabel",
            "left": {},
            "responsiveData": {
                "b1": {
                    "left": {
                        "type": "string",
                        "value": "10dp"
                    }
                },
                "b5": {
                    "left": {
                        "type": "string",
                        "value": "35%"
                    }
                }
            }
        },
        "CopylblFrom0f0007b47110a4e": {
            "__events__": {},
            "__info__": {
                "kuid": "h709992c6e154241a83b635746cd3a19",
                "srcKUID": "edcc768df111471b8b3e51506101da76",
                "wType": "Label"
            },
            "i18n_text": "i18n.billPay.Bill"
        },
        "CopylblFrom0id1c1a27969541": {
            "__events__": {},
            "__info__": {
                "kuid": "af5bcc793ef348a3837e7035ec4c42d2",
                "srcKUID": "e1a6ff6f0c2a42bd808d124ac7762b53",
                "wType": "Label"
            },
            "i18n_text": "i18n.transfers.fromAccount"
        },
        "FlexContainer0f0bb233b14be48": {
            "__events__": {},
            "__info__": {
                "kuid": "i936320657a64f44aebca49d0c9cf559",
                "srcKUID": "f15c78d895064a3ea48019008fdbe4e5",
                "wType": "FlexContainer"
            }
        },
        "btnbacktopayeelist": {
            "__events__": {
                "ide_onClick": "AS_Button_ca3b63cfaebb49329d8e4d7f2ab2a689"
            },
            "__info__": {
                "kuid": "a1247eeab73f4d318f393fd2691a5c9a",
                "srcKUID": "g4565d04d2f34fffa5a4b87503eb22b2",
                "wType": "Button"
            },
            "bottom": {},
            "i18n_text": "i18n.Transfers.BACKTOPAYEELIST",
            "left": {},
            "responsiveData": {
                "b3": {
                    "bottom": {
                        "type": "string",
                        "value": ""
                    },
                    "left": {
                        "type": "string",
                        "value": "2.50%"
                    },
                    "right": {
                        "type": "string",
                        "value": "2.50%"
                    },
                    "text": "Back to Recipients",
                    "top": {
                        "type": "string",
                        "value": "22dp"
                    },
                    "width": {
                        "type": "string",
                        "value": ""
                    }
                }
            },
            "right": {},
            "text": "BACK TO PAYEE LIST",
            "top": {},
            "width": {}
        },
        "flxAmount": {
            "__events__": {},
            "__info__": {
                "kuid": "ffd3190569a540d7b24554c6ad3501d3",
                "srcKUID": "a135ed662da7462cb4701620b810112c",
                "wType": "FlexContainer"
            }
        },
        "flxBills": {
            "__events__": {},
            "__info__": {
                "kuid": "j6ae4249ff4d44ff99898b5f3f5b2249",
                "srcKUID": "be61fb935fe04443a69d4b4ef6115dba",
                "wType": "FlexContainer"
            }
        },
        "flxContent": {
            "__events__": {},
            "__info__": {
                "kuid": "de821126f51e4bb78c8241f4bc717f17",
                "srcKUID": "a4b7146f84ee484eaea3678ddeda00c2",
                "wType": "FlexContainer"
            }
        },
        "flxDate": {
            "__events__": {},
            "__info__": {
                "kuid": "d63753f43f2d4bb9b17998ccff246d62",
                "srcKUID": "1bf9c13619f3408f809696c4babf555c",
                "wType": "FlexContainer"
            }
        },
        "flxDetails": {
            "__events__": {},
            "__info__": {
                "kuid": "aa50efd7cb204e71a293e2abbeff7764",
                "srcKUID": "4f7201f8c1f24b87b8bf44365b911697",
                "wType": "FlexContainer"
            },
            "autogrowMode": {
                "Default": 0
            },
            "bottom": {
                "Default": {
                    "type": "string",
                    "value": "20dp"
                }
            },
            "centerY": {},
            "height": {
                "Default": {
                    "type": "string",
                    "value": "55dp"
                }
            },
            "left": {
                "Default": {
                    "type": "string",
                    "value": "2%"
                }
            },
            "responsiveData": {
                "b1": {
                    "bottom": {
                        "type": "string",
                        "value": ""
                    },
                    "height": {
                        "type": "string",
                        "value": "140dp"
                    },
                    "left": {
                        "type": "string",
                        "value": "0%"
                    },
                    "right": {
                        "type": "string",
                        "value": ""
                    },
                    "top": {
                        "type": "string",
                        "value": "0dp"
                    },
                    "width": {
                        "type": "string",
                        "value": "100%"
                    }
                },
                "b3": {
                    "bottom": {
                        "type": "string",
                        "value": "0dp"
                    },
                    "centerY": {
                        "type": "string",
                        "value": ""
                    },
                    "height": {
                        "type": "string",
                        "value": "150dp"
                    },
                    "layoutType": 4,
                    "left": {
                        "type": "string",
                        "value": "0dp"
                    },
                    "right": {
                        "type": "string",
                        "value": ""
                    },
                    "width": {
                        "type": "string",
                        "value": "100%"
                    }
                },
                "b4": {
                    "bottom": {
                        "type": "string",
                        "value": ""
                    },
                    "height": {
                        "type": "string",
                        "value": "140dp"
                    },
                    "left": {
                        "type": "string",
                        "value": "0%"
                    },
                    "right": {
                        "type": "string",
                        "value": ""
                    },
                    "top": {
                        "type": "string",
                        "value": "0dp"
                    },
                    "width": {
                        "type": "string",
                        "value": "100%"
                    }
                }
            },
            "right": {
                "Default": {
                    "type": "string",
                    "value": "2%"
                }
            },
            "top": {
                "Default": {
                    "type": "string",
                    "value": "20dp"
                }
            },
            "width": {
                "Default": {
                    "type": "string",
                    "value": "96%"
                }
            }
        },
        "flxFrom": {
            "__events__": {},
            "__info__": {
                "kuid": "defa0b8c9a6b475bade24c23feca23a4",
                "srcKUID": "3e779147c42c498a973fd089aae964b4",
                "wType": "FlexContainer"
            }
        },
        "flxHeader": {
            "__events__": {},
            "__info__": {
                "kuid": "fc577cd234404637bb27ca28f0cf4add",
                "srcKUID": "d47e0a080e2343aa98f4a51a04da605a",
                "wType": "FlexContainer"
            },
            "responsiveData": {
                "b3": {
                    "isVisible": false
                }
            }
        },
        "flxLeft": {
            "__events__": {},
            "__info__": {
                "kuid": "cdc29e0db4d940f29e81d35bac6bb937",
                "srcKUID": "73b727fc91cf4d7ea6e96e6b33acbc16",
                "wType": "FlexContainer"
            },
            "autogrowMode": {
                "Default": 0
            },
            "centerY": {},
            "height": {},
            "isVisible": false,
            "responsiveData": {
                "b1": {
                    "isVisible": true,
                    "width": {
                        "type": "string",
                        "value": "46.50%"
                    }
                },
                "b3": {
                    "centerY": {
                        "type": "string",
                        "value": ""
                    },
                    "height": {
                        "type": "string",
                        "value": "70dp"
                    },
                    "isVisible": true,
                    "width": {
                        "type": "string",
                        "value": "100%"
                    }
                },
                "b4": {
                    "isVisible": true
                }
            },
            "width": {}
        },
        "flxNoRecords": {
            "__events__": {},
            "__info__": {
                "kuid": "f9bdc2f5634243c084d07d81ddab6b56",
                "srcKUID": "hc8dcea6c7bf41a580851ad0cde1ee92",
                "wType": "FlexContainer"
            },
            "isVisible": false,
            "responsiveData": {
                "b3": {
                    "isVisible": false
                }
            }
        },
        "flxRight": {
            "__events__": {},
            "__info__": {
                "kuid": "c803d375fb1e4501a89e6fe58a55beb0",
                "srcKUID": "aa4cb7c333d5433babfdfe7dd9eb3201",
                "wType": "FlexContainer"
            },
            "autogrowMode": {
                "Default": 0
            },
            "bottom": {},
            "centerY": {},
            "height": {
                "Default": {
                    "type": "string",
                    "value": "100%"
                }
            },
            "layoutType": 2,
            "left": {
                "Default": {
                    "type": "string",
                    "value": "10dp"
                }
            },
            "responsiveData": {
                "b1": {
                    "height": {
                        "type": "string",
                        "value": "100dp"
                    },
                    "layoutType": 4,
                    "left": {
                        "type": "string",
                        "value": ""
                    },
                    "right": {
                        "type": "string",
                        "value": "20dp"
                    },
                    "width": {
                        "type": "string",
                        "value": "46.50%"
                    }
                },
                "b3": {
                    "centerY": {
                        "type": "string",
                        "value": ""
                    },
                    "height": {
                        "type": "string",
                        "value": "60dp"
                    },
                    "layoutType": 4,
                    "left": {
                        "type": "string",
                        "value": "-2dp"
                    },
                    "top": {
                        "type": "string",
                        "value": "10dp"
                    },
                    "width": {
                        "type": "string",
                        "value": "100%"
                    }
                },
                "b4": {
                    "bottom": {
                        "type": "string",
                        "value": ""
                    },
                    "height": {
                        "type": "string",
                        "value": "100dp"
                    },
                    "layoutType": 4,
                    "left": {
                        "type": "string",
                        "value": ""
                    },
                    "right": {
                        "type": "string",
                        "value": "20dp"
                    },
                    "width": {
                        "type": "string",
                        "value": "46.50%"
                    }
                }
            },
            "right": {
                "Default": {
                    "type": "string",
                    "value": "10dp"
                }
            },
            "top": {},
            "width": {
                "Default": {
                    "type": "string",
                    "value": ""
                }
            }
        },
        "flxSegment": {
            "__events__": {},
            "__info__": {
                "kuid": "d44b74cd486d42818fa35e875ccf2a85",
                "srcKUID": "72b267be6dd04329b7f2f40031cad76b",
                "wType": "FlexContainer"
            },
            "responsiveData": {
                "b3": {
                    "isVisible": false
                }
            }
        },
        "flxSegmentBillPay": {
            "__events__": {},
            "__info__": {
                "kuid": "e1ed5df4ad4d4e3fb2f1f02a342a07c9",
                "srcKUID": "a107039b9769477ea075dfc7b1ed3fd8",
                "wType": "FlexContainer"
            },
            "autogrowMode": {
                "Default": 1
            },
            "height": {
                "Default": {
                    "type": "ref",
                    "value": "preferred"
                }
            },
            "isVisible": true,
            "responsiveData": {
                "b3": {
                    "isVisible": true
                }
            },
            "width": {
                "Default": {
                    "type": "string",
                    "value": "100%"
                }
            }
        },
        "flxSeparator": {
            "__events__": {},
            "__info__": {
                "kuid": "g55d7968d01e483a8dfdac34a7b3997a",
                "srcKUID": "1378d436c0644c33a35703d21baf39ed",
                "wType": "FlexContainer"
            },
            "isVisible": false,
            "left": {},
            "responsiveData": {
                "b1": {
                    "left": {
                        "type": "string",
                        "value": "0%"
                    },
                    "right": {
                        "type": "string",
                        "value": ""
                    },
                    "width": {
                        "type": "string",
                        "value": "100%"
                    }
                },
                "b3": {
                    "isVisible": false
                },
                "b4": {
                    "isVisible": true,
                    "left": {
                        "type": "string",
                        "value": "0%"
                    },
                    "right": {
                        "type": "string",
                        "value": ""
                    },
                    "width": {
                        "type": "string",
                        "value": "100%"
                    }
                }
            },
            "right": {},
            "width": {}
        },
        "flxSeparatorDetails": {
            "__events__": {},
            "__info__": {
                "kuid": "e29cff465ea240ab984ab32aed083ea5",
                "srcKUID": "0586f18e48034494ac3f051b94fda801",
                "wType": "FlexContainer"
            }
        },
        "flxSeparatorSort": {
            "__events__": {},
            "__info__": {
                "kuid": "i41b92d2ba13419eb92e7cd17f1e4d97",
                "srcKUID": "2861686f89944fbdb227ec17e68a5ea7",
                "wType": "FlexContainer"
            },
            "autogrowMode": {
                "Default": 0
            },
            "height": {
                "Default": {
                    "type": "string",
                    "value": "0dp"
                }
            },
            "isVisible": false,
            "responsiveData": {
                "b1": {
                    "height": {
                        "type": "string",
                        "value": "1dp"
                    },
                    "isVisible": true,
                    "width": {
                        "type": "string",
                        "value": "100%"
                    }
                },
                "b4": {
                    "height": {
                        "type": "string",
                        "value": "1dp"
                    },
                    "isVisible": true,
                    "width": {
                        "type": "string",
                        "value": "100%"
                    }
                }
            },
            "width": {
                "Default": {
                    "type": "string",
                    "value": "0%"
                }
            }
        },
        "flxSort": {
            "__events__": {},
            "__info__": {
                "kuid": "c1bb001de9354724acacaa9aedaecf81",
                "srcKUID": "aad05919316742cdbf68426364af5bec",
                "wType": "FlexContainer"
            },
            "autogrowMode": {
                "Default": 0
            },
            "height": {
                "Default": {
                    "type": "string",
                    "value": "0dp"
                }
            },
            "isVisible": false,
            "responsiveData": {
                "b1": {
                    "height": {
                        "type": "string",
                        "value": "40dp"
                    },
                    "isVisible": false,
                    "width": {
                        "type": "string",
                        "value": "100%"
                    }
                },
                "b3": {},
                "b4": {
                    "height": {
                        "type": "string",
                        "value": "40dp"
                    },
                    "width": {
                        "type": "string",
                        "value": "100%"
                    }
                }
            },
            "width": {
                "Default": {
                    "type": "string",
                    "value": "0%"
                }
            }
        },
        "flxStatus": {
            "__events__": {},
            "__info__": {
                "kuid": "ba3839200c9a4e1f8104a611699d2b49",
                "srcKUID": "4da90cbe22564b1d8d3eb606d6a783b3",
                "wType": "FlexContainer"
            }
        },
        "flxamountmod": {
            "__events__": {},
            "__info__": {
                "kuid": "e1f27d064b70466fb6488b7a3d84af37",
                "srcKUID": "afe1bd6c606b4bd894024f08ce8233c7",
                "wType": "FlexContainer"
            }
        },
        "flxamountmodified": {
            "__events__": {},
            "__info__": {
                "kuid": "c0eae8c14aa74b99b73e7f211bd0799f",
                "srcKUID": "d0c41b1626894355acb9d7b2eacc6edf",
                "wType": "FlexContainer"
            }
        },
        "flxbtn": {
            "__events__": {},
            "__info__": {
                "kuid": "c1a269a315424498abce2e924174c5f6",
                "srcKUID": "ff5e275b2e614a8dbf6a4f110cfd16ee",
                "wType": "FlexContainer"
            }
        },
        "flxdatemod": {
            "__events__": {},
            "__info__": {
                "kuid": "h4129d8fa9a04e65afe477ab2090a799",
                "srcKUID": "ga204e01061d48e2a70a30d8d51a8956",
                "wType": "FlexContainer"
            }
        },
        "flxfromaccount": {
            "__events__": {},
            "__info__": {
                "kuid": "h0306a3ddc5f4faa862cc2586af33eab",
                "srcKUID": "ccf58a398ccf4cc1a3b0a9c9e5464231",
                "wType": "FlexContainer"
            }
        },
        "flxfromaccountimgmod": {
            "__events__": {},
            "__info__": {
                "kuid": "aff7fd7c8af5420fb95d9eb1e101b53b",
                "srcKUID": "ec6af5d22d0149f182d7eeb4411133ff",
                "wType": "Image"
            },
            "src": "sorting.png"
        },
        "flxfromaccountlblmod": {
            "__events__": {},
            "__info__": {
                "kuid": "h6d1222c129f4af289dc3dc2f2a6012c",
                "srcKUID": "f40ccdb703c54204a913e46f6535212b",
                "wType": "Label"
            },
            "i18n_text": "i18n.transfers.fromAccount",
            "left": {},
            "responsiveData": {
                "b1": {
                    "left": {
                        "type": "string",
                        "value": "101dp"
                    }
                },
                "b5": {
                    "left": {
                        "type": "string",
                        "value": "27%"
                    }
                }
            }
        },
        "flxfromaccountmod": {
            "__events__": {},
            "__info__": {
                "kuid": "d3fb9da51e5c486ea7b4c27553722174",
                "srcKUID": "fd2115ae47884ea89f7d6f82a49f823f",
                "wType": "FlexContainer"
            }
        },
        "flximgdatemod": {
            "__events__": {},
            "__info__": {
                "kuid": "c8ebb72a3b7f40b48d7628f6f2374a75",
                "srcKUID": "af74c50886544d36a9d5ffac5a06fd6f",
                "wType": "Image"
            },
            "src": "sorting.png"
        },
        "flxlbldatemod": {
            "__events__": {},
            "__info__": {
                "kuid": "e971dbcd2a514870b0cac39a2405457a",
                "srcKUID": "de2aa5fb5c13402d9a8fd77cf98ac91d",
                "wType": "Label"
            },
            "i18n_text": "i18n.Transfers.PaidDate"
        },
        "flxsorttransfers": {
            "__events__": {},
            "__info__": {
                "kuid": "f46d35ca5c0e40ea86ac9c79ddba9775",
                "srcKUID": "b5a3276e427b4a509147363388a2314b",
                "wType": "FlexContainer"
            },
            "autogrowMode": {
                "Default": 0
            },
            "height": {
                "Default": {
                    "type": "string",
                    "value": "0dp"
                }
            },
            "responsiveData": {
                "b1": {
                    "height": {
                        "type": "string",
                        "value": "40dp"
                    },
                    "width": {
                        "type": "string",
                        "value": "100%"
                    }
                },
                "b4": {
                    "height": {
                        "type": "string",
                        "value": "40dp"
                    },
                    "isVisible": false,
                    "width": {
                        "type": "string",
                        "value": "100%"
                    }
                }
            },
            "width": {
                "Default": {
                    "type": "string",
                    "value": "0%"
                }
            }
        },
        "flxtransferActivityWrapper": {
            "__events__": {},
            "__info__": {
                "kuid": "fbb18f57e50e4101a27f9282082874a5",
                "srcKUID": "a2dd390fcedc4bf196af1a82be5c6a8d",
                "wType": "FlexContainer"
            },
            "isVisible": true,
            "width": {
                "Default": {
                    "type": "string",
                    "value": "100%"
                }
            }
        },
        "imgInfo": {
            "__events__": {},
            "__info__": {
                "kuid": "e8e37c8bcc1c4f52a32ecf640c8d0015",
                "srcKUID": "c3661905a5f4423cbc070944b4b56116",
                "wType": "Image"
            },
            "left": {},
            "responsiveData": {
                "b3": {
                    "left": {
                        "type": "string",
                        "value": "10dp"
                    }
                }
            },
            "src": "info_large.png"
        },
        "imgSortAmount": {
            "__events__": {},
            "__info__": {
                "kuid": "i48293e7293d49e78df725860aa8abf9",
                "srcKUID": "49412fb23ad84f81b29383802e89a0b2",
                "wType": "Image"
            },
            "src": "sorting.png"
        },
        "imgSortDate": {
            "__events__": {},
            "__info__": {
                "kuid": "c4f9c0a7a7644a7dbe8217ae9fdbac59",
                "srcKUID": "62cc584886f44c6baa14717e50c4cfcc",
                "wType": "Image"
            },
            "src": "sorting.png"
        },
        "imgSortFrom": {
            "__events__": {},
            "__info__": {
                "kuid": "c51f533d8e5d4f3ca8fe9269344ad40c",
                "srcKUID": "457fbac2bff14cb18b79abf4a8fff35f",
                "wType": "Image"
            },
            "src": "sorting.png"
        },
        "imgSortStatus": {
            "__events__": {},
            "__info__": {
                "kuid": "ad38a33229e64962b07881c56e152556",
                "srcKUID": "5fd536a47ef24a45b409508cb5040b79",
                "wType": "Image"
            },
            "src": "sorting.png"
        },
        "imgamountmod": {
            "__events__": {},
            "__info__": {
                "kuid": "fc952ee5075349a6a5c544c56630a378",
                "srcKUID": "e6a6fefc9ce243e9b802061be5df1025",
                "wType": "Label"
            },
            "i18n_text": "i18n.billPay.Status",
            "left": {},
            "responsiveData": {
                "b1": {
                    "left": {
                        "type": "string",
                        "value": "11dp"
                    }
                },
                "b5": {
                    "left": {
                        "type": "string",
                        "value": "6%"
                    }
                }
            }
        },
        "imgamountmodified": {
            "__events__": {},
            "__info__": {
                "kuid": "bba634c098004448aacd5f260e61b0a0",
                "srcKUID": "jc5410829804476dac6bf028bd39f076",
                "wType": "Image"
            },
            "src": "sorting.png"
        },
        "lblAccountHolder": {
            "__events__": {},
            "__info__": {
                "kuid": "cc32ea59460f49ed95a63426b6a64808",
                "srcKUID": "d8df8be387ad423c85661365025dde82",
                "wType": "Label"
            },
            "i18n_text": "i18n.AdithyaChelukuri",
            "responsiveData": {
                "b3": {
                    "top": {
                        "type": "string",
                        "value": "5dp"
                    }
                }
            },
            "top": {}
        },
        "lblAccountName": {
            "__events__": {},
            "__info__": {
                "kuid": "bc32990fbffa433bbf2ed344dfeb773c",
                "srcKUID": "f1f5228c63b749e59cf4a3f1a6a6e0a6",
                "wType": "Label"
            },
            "i18n_text": "i18n.Transfers.PersonalChecking6534",
            "responsiveData": {
                "b3": {
                    "isVisible": false
                }
            }
        },
        "lblAmount": {
            "__events__": {},
            "__info__": {
                "kuid": "e125b2718e324255afa8fa54eb1befc5",
                "srcKUID": "e57e80d319fd4a918659092930c8a721",
                "wType": "Label"
            },
            "i18n_text": "i18n.transfers.amountlabel"
        },
        "lblAmountDeducted": {
            "__events__": {},
            "__info__": {
                "kuid": "b3e507733ce14df6bca854cf59680475",
                "srcKUID": "97d5e3376a374d9191fa69063d9d8bfb",
                "wType": "Label"
            },
            "centerY": {
                "Default": {
                    "type": "string",
                    "value": "50%"
                }
            },
            "left": {
                "Default": {
                    "type": "string",
                    "value": ""
                }
            },
            "responsiveData": {
                "b1": {
                    "centerY": {
                        "type": "string",
                        "value": ""
                    },
                    "left": {
                        "type": "string",
                        "value": "21dp"
                    },
                    "right": {
                        "type": "string",
                        "value": ""
                    },
                    "top": {
                        "type": "string",
                        "value": "13dp"
                    }
                },
                "b3": {
                    "centerY": {
                        "type": "string",
                        "value": ""
                    },
                    "left": {
                        "type": "string",
                        "value": "10dp"
                    },
                    "top": {
                        "type": "string",
                        "value": "2dp"
                    }
                },
                "b4": {
                    "centerY": {
                        "type": "string",
                        "value": ""
                    },
                    "left": {
                        "type": "string",
                        "value": "21dp"
                    },
                    "right": {
                        "type": "string",
                        "value": ""
                    },
                    "top": {
                        "type": "string",
                        "value": "13dp"
                    }
                }
            },
            "right": {
                "Default": {
                    "type": "string",
                    "value": "10dp"
                }
            },
            "top": {
                "Default": {
                    "type": "string",
                    "value": ""
                }
            }
        },
        "lblAmountDeductedTitle": {
            "__events__": {},
            "__info__": {
                "kuid": "a11ad26a339448ecb7ec9447873f366f",
                "srcKUID": "47534592a1d246b0a5e19a52f34531eb",
                "wType": "Label"
            },
            "centerY": {
                "Default": {
                    "type": "string",
                    "value": "50%"
                }
            },
            "i18n_text": "i18n.Transfers.AmountDeductedtillDate",
            "left": {
                "Default": {
                    "type": "string",
                    "value": "10dp"
                }
            },
            "responsiveData": {
                "b1": {
                    "centerY": {
                        "type": "string",
                        "value": ""
                    },
                    "left": {
                        "type": "string",
                        "value": "21dp"
                    },
                    "top": {
                        "type": "string",
                        "value": "17dp"
                    }
                },
                "b3": {
                    "centerY": {
                        "type": "string",
                        "value": ""
                    },
                    "top": {
                        "type": "string",
                        "value": ""
                    }
                },
                "b4": {
                    "centerY": {
                        "type": "string",
                        "value": ""
                    },
                    "left": {
                        "type": "string",
                        "value": "21dp"
                    },
                    "top": {
                        "type": "string",
                        "value": "17dp"
                    }
                }
            },
            "top": {
                "Default": {
                    "type": "string",
                    "value": ""
                }
            }
        },
        "lblDate": {
            "__events__": {},
            "__info__": {
                "kuid": "f21ebd89aae24b6ba6d715aa09e8103e",
                "srcKUID": "f53bf36916b74cb197d9e0c6b379b047",
                "wType": "Label"
            },
            "i18n_text": "i18n.Transfers.PaidDate"
        },
        "lblFrom": {
            "__events__": {},
            "__info__": {
                "kuid": "cb52561665684e0b90e95d49dfd3ecf2",
                "srcKUID": "c755ee0724b244099b116a95bba19f21",
                "wType": "Label"
            },
            "i18n_text": "i18n.billPay.labelBillDate"
        },
        "lblFromTitle": {
            "__events__": {},
            "__info__": {
                "kuid": "ee79cede707549b2857c2cb800b9e999",
                "srcKUID": "4e7290eb598442fa8feca7cbb45f024d",
                "wType": "Label"
            },
            "i18n_text": "i18n.transfers.lblFrom",
            "responsiveData": {
                "b3": {
                    "top": {
                        "type": "string",
                        "value": "17dp"
                    }
                }
            },
            "top": {}
        },
        "lblHeader": {
            "__events__": {},
            "__info__": {
                "kuid": "d71451f491b24162a523e89171d6cd17",
                "srcKUID": "127b7fc45c9c48aa99b290673a2e6e33",
                "wType": "Label"
            },
            "i18n_text": "i18n.Transfers.TRANSFERACTIVITY"
        },
        "lblStatus": {
            "__events__": {},
            "__info__": {
                "kuid": "h50060434e244d0c81bcdd81c3454492",
                "srcKUID": "ae5a19a0b7b84f37afa4a1b239532596",
                "wType": "Label"
            },
            "i18n_text": "i18n.billPay.Status"
        },
        "rtxNoRecords": {
            "__events__": {},
            "__info__": {
                "kuid": "b975fd83154f49889a8cbe34ebdb690d",
                "srcKUID": "d66dda4855614dddaa03378356093bed",
                "wType": "RichText"
            },
            "i18n_text": "i18n.PayAPerson.NoRecords",
            "left": {},
            "responsiveData": {
                "b1": {
                    "left": {
                        "type": "string",
                        "value": "80dp"
                    }
                },
                "b3": {
                    "left": {
                        "type": "string",
                        "value": "60dp"
                    }
                },
                "b4": {
                    "left": {
                        "type": "string",
                        "value": "80dp"
                    }
                },
                "b5": {
                    "left": {
                        "type": "string",
                        "value": "80dp"
                    }
                }
            }
        },
        "segBillPayActivity": {
            "__events__": {},
            "__info__": {
                "kuid": "b3904f96ff8d4943ad2650a8f55feb49",
                "srcKUID": "e0e977b35cf04f62a744a4e1f2ccacb7",
                "wType": "Segment"
            },
            "bottom": {
                "Default": {
                    "type": "string",
                    "value": "0dp"
                }
            },
            "minHeight": {
                "Default": {
                    "type": "string",
                    "value": "440dp"
                }
            }
        },
        "segTransferActivity": {
            "__events__": {},
            "__info__": {
                "kuid": "f239a07b951a4ec6ada9e56abf277c21",
                "srcKUID": "171be426dfb84b6892adb0d9e1aba6c2",
                "wType": "Segment"
            },
            "bottom": {
                "Default": {
                    "type": "string",
                    "value": ""
                }
            },
            "data": {
                "desktop": [
                    {
                        "lblAmount": {
                            "@class": "com.viz.ide.model.segment.SimpleTextSegmentData",
                            "text": "$21.3"
                        },
                        "lblFrom": {
                            "@class": "com.viz.ide.model.segment.SimpleTextSegmentData",
                            "text": "My Savings Account…8765"
                        },
                        "lblStatus": {
                            "@class": "com.viz.ide.model.segment.SimpleTextSegmentData",
                            "text": "Pending"
                        },
                        "lblpaiddate": {
                            "@class": "com.viz.ide.model.segment.SimpleTextSegmentData",
                            "text": "15-Oct-2017"
                        }
                    },
                    {
                        "lblAmount": {
                            "@class": "com.viz.ide.model.segment.SimpleTextSegmentData",
                            "text": "$21.3"
                        },
                        "lblFrom": {
                            "@class": "com.viz.ide.model.segment.SimpleTextSegmentData",
                            "text": "My Savings Account…8765"
                        },
                        "lblStatus": {
                            "@class": "com.viz.ide.model.segment.SimpleTextSegmentData",
                            "text": "Pending"
                        },
                        "lblpaiddate": {
                            "@class": "com.viz.ide.model.segment.SimpleTextSegmentData",
                            "text": "15-Oct-2017"
                        }
                    },
                    {
                        "lblAmount": {
                            "@class": "com.viz.ide.model.segment.SimpleTextSegmentData",
                            "text": "$21.3"
                        },
                        "lblFrom": {
                            "@class": "com.viz.ide.model.segment.SimpleTextSegmentData",
                            "text": "My Savings Account…8765"
                        },
                        "lblStatus": {
                            "@class": "com.viz.ide.model.segment.SimpleTextSegmentData",
                            "text": "Pending"
                        },
                        "lblpaiddate": {
                            "@class": "com.viz.ide.model.segment.SimpleTextSegmentData",
                            "text": "15-Oct-2017"
                        }
                    },
                    {
                        "lblAmount": {
                            "@class": "com.viz.ide.model.segment.SimpleTextSegmentData",
                            "text": "$21.3"
                        },
                        "lblFrom": {
                            "@class": "com.viz.ide.model.segment.SimpleTextSegmentData",
                            "text": "My Savings Account…8765"
                        },
                        "lblStatus": {
                            "@class": "com.viz.ide.model.segment.SimpleTextSegmentData",
                            "text": "Pending"
                        },
                        "lblpaiddate": {
                            "@class": "com.viz.ide.model.segment.SimpleTextSegmentData",
                            "text": "15-Oct-2017"
                        }
                    },
                    {
                        "lblAmount": {
                            "@class": "com.viz.ide.model.segment.SimpleTextSegmentData",
                            "text": "$21.3"
                        },
                        "lblFrom": {
                            "@class": "com.viz.ide.model.segment.SimpleTextSegmentData",
                            "text": "My Savings Account…8765"
                        },
                        "lblStatus": {
                            "@class": "com.viz.ide.model.segment.SimpleTextSegmentData",
                            "text": "Pending"
                        },
                        "lblpaiddate": {
                            "@class": "com.viz.ide.model.segment.SimpleTextSegmentData",
                            "text": "15-Oct-2017"
                        }
                    },
                    {
                        "lblAmount": {
                            "@class": "com.viz.ide.model.segment.SimpleTextSegmentData",
                            "text": "$21.3"
                        },
                        "lblFrom": {
                            "@class": "com.viz.ide.model.segment.SimpleTextSegmentData",
                            "text": "My Savings Account…8765"
                        },
                        "lblStatus": {
                            "@class": "com.viz.ide.model.segment.SimpleTextSegmentData",
                            "text": "Pending"
                        },
                        "lblpaiddate": {
                            "@class": "com.viz.ide.model.segment.SimpleTextSegmentData",
                            "text": "15-Oct-2017"
                        }
                    },
                    {
                        "lblAmount": {
                            "@class": "com.viz.ide.model.segment.SimpleTextSegmentData",
                            "text": "$21.3"
                        },
                        "lblFrom": {
                            "@class": "com.viz.ide.model.segment.SimpleTextSegmentData",
                            "text": "My Savings Account…8765"
                        },
                        "lblStatus": {
                            "@class": "com.viz.ide.model.segment.SimpleTextSegmentData",
                            "text": "Pending"
                        },
                        "lblpaiddate": {
                            "@class": "com.viz.ide.model.segment.SimpleTextSegmentData",
                            "text": "15-Oct-2017"
                        }
                    },
                    {
                        "lblAmount": {
                            "@class": "com.viz.ide.model.segment.SimpleTextSegmentData",
                            "text": "$21.3"
                        },
                        "lblFrom": {
                            "@class": "com.viz.ide.model.segment.SimpleTextSegmentData",
                            "text": "My Savings Account…8765"
                        },
                        "lblStatus": {
                            "@class": "com.viz.ide.model.segment.SimpleTextSegmentData",
                            "text": "Pending"
                        },
                        "lblpaiddate": {
                            "@class": "com.viz.ide.model.segment.SimpleTextSegmentData",
                            "text": "15-Oct-2017"
                        }
                    }
                ]
            },
            "minHeight": {
                "Default": {
                    "type": "string",
                    "value": "440dp"
                }
            }
        },
        "tablePagination": {
            "__events__": {},
            "__info__": {
                "kuid": "eb0226798665409685b4b7632b6ff3d5",
                "srcKUID": "a8f275a7c41b4e94a735221d3aeeeb31",
                "wType": "UserWidgetInstance"
            }
        },
        "tablePagination.flxPagination": {
            "__events__": {},
            "__info__": {
                "kuid": "c66544fb21244922b7ff76673a0feb62",
                "srcKUID": "ab2e6b368d5445c4837cd5801c833e4b",
                "wType": "FlexContainer"
            }
        },
        "tablePagination.flxPaginationFirst": {
            "__events__": {},
            "__info__": {
                "kuid": "f33a2e9ad4094e3db9dfd067636240a2",
                "srcKUID": "f6433cbf18814195948149d6e7c0713c",
                "wType": "FlexContainer"
            }
        },
        "tablePagination.flxPaginationLast": {
            "__events__": {},
            "__info__": {
                "kuid": "f8fc55e72b30440a9c3d11b8acc9744a",
                "srcKUID": "jcedfdcb677b4de094831ea2d3cc5e52",
                "wType": "FlexContainer"
            }
        },
        "tablePagination.flxPaginationNext": {
            "__events__": {},
            "__info__": {
                "kuid": "e3676905d48f4bd588633367d1054c0c",
                "srcKUID": "fd260ec61db641509a9eb4886da6efbc",
                "wType": "FlexContainer"
            }
        },
        "tablePagination.flxPaginationPrevious": {
            "__events__": {},
            "__info__": {
                "kuid": "a8419db0a5984c61abb8e4aaff16f560",
                "srcKUID": "a78b7f69e4fe43c4868d98d169bf7fd6",
                "wType": "FlexContainer"
            }
        },
        "tablePagination.flxPaginationWrapper": {
            "__events__": {},
            "__info__": {
                "kuid": "fde35a074e56465dba55b3e732650b7b",
                "srcKUID": "fbf093587b364aa8919185cdac2fad4d",
                "wType": "FlexContainer"
            }
        },
        "tablePagination.imgPaginationFirst": {
            "__events__": {},
            "__info__": {
                "kuid": "ad8880432e1d4a47a54bb393a6260832",
                "srcKUID": "cbfa0585bdd344bc85382f243d594666",
                "wType": "Image"
            }
        },
        "tablePagination.imgPaginationLast": {
            "__events__": {},
            "__info__": {
                "kuid": "dd11b9b3aa154563b8f0555e3f38583b",
                "srcKUID": "g20d3a76092b451eb5e19c00bf13e71c",
                "wType": "Image"
            }
        },
        "tablePagination.imgPaginationNext": {
            "__events__": {},
            "__info__": {
                "kuid": "a2054e1f46eb4818ad75555fc0de5603",
                "srcKUID": "a5ca61b94e3640cd8f90cbf31890cd66",
                "wType": "Image"
            }
        },
        "tablePagination.imgPaginationPrevious": {
            "__events__": {},
            "__info__": {
                "kuid": "c64ba9d2eea64c7ab35ee214aba2c1d0",
                "srcKUID": "d9f0daab2424452280843464cdfa4c02",
                "wType": "Image"
            }
        },
        "tablePagination.lblPagination": {
            "__events__": {},
            "__info__": {
                "kuid": "b3092525e8174eda8279c7a4676938f3",
                "srcKUID": "a754d0b2077b4b749083edcf51a7187b",
                "wType": "Label"
            }
        },
        "tablePaginationBillpay": {
            "__events__": {},
            "__info__": {
                "kuid": "dd8d2a84df374c9cbd2072dc1bb8df44",
                "srcKUID": "d9422f5538cb488aa48ea21c88cc3aac",
                "wType": "UserWidgetInstance"
            }
        },
        "tablePaginationBillpay.flxPagination": {
            "__events__": {},
            "__info__": {
                "kuid": "f8866c98b6714ae8af94624efada56f6",
                "srcKUID": "b240347af1274b2d8c10d0c132c7d612",
                "wType": "FlexContainer"
            }
        },
        "tablePaginationBillpay.flxPaginationFirst": {
            "__events__": {},
            "__info__": {
                "kuid": "bb12816d7422410bbcd9abed858b30e7",
                "srcKUID": "ac24680a2ea94df38223553c7a30dd2a",
                "wType": "FlexContainer"
            }
        },
        "tablePaginationBillpay.flxPaginationLast": {
            "__events__": {},
            "__info__": {
                "kuid": "ia6700118bc64a0fa33cb116f95d7b23",
                "srcKUID": "e956a98d910e4395bafc9dbfcbc09cfa",
                "wType": "FlexContainer"
            }
        },
        "tablePaginationBillpay.flxPaginationNext": {
            "__events__": {},
            "__info__": {
                "kuid": "f015cf59f3ea40359733dd7635e34724",
                "srcKUID": "c71361e5f71b472caa301aa535ef55e6",
                "wType": "FlexContainer"
            }
        },
        "tablePaginationBillpay.flxPaginationPrevious": {
            "__events__": {},
            "__info__": {
                "kuid": "bd319b34a7ce493fb2de5585a9dcbd9a",
                "srcKUID": "gc4866150e0a4b8c99a88118fac1bab8",
                "wType": "FlexContainer"
            }
        },
        "tablePaginationBillpay.flxPaginationWrapper": {
            "__events__": {},
            "__info__": {
                "kuid": "aee10aa8cecd4365bf9ca85bfa658b93",
                "srcKUID": "e48b7280ef13446fb2389c3eeabce416",
                "wType": "FlexContainer"
            }
        },
        "tablePaginationBillpay.imgPaginationFirst": {
            "__events__": {},
            "__info__": {
                "kuid": "c06e52d2382f43549dc266b20a132c28",
                "srcKUID": "a2a422d030b144f283872340cfc3bea7",
                "wType": "Image"
            }
        },
        "tablePaginationBillpay.imgPaginationLast": {
            "__events__": {},
            "__info__": {
                "kuid": "e16e764f28fb4612a5fee0130ab3c36d",
                "srcKUID": "ead634bda98d4755b2029d3ddd362ee2",
                "wType": "Image"
            }
        },
        "tablePaginationBillpay.imgPaginationNext": {
            "__events__": {},
            "__info__": {
                "kuid": "e22cea1ad8744486b2b3f145d259b94f",
                "srcKUID": "d71d914e0f5c44d8b520e39ad222739e",
                "wType": "Image"
            }
        },
        "tablePaginationBillpay.imgPaginationPrevious": {
            "__events__": {},
            "__info__": {
                "kuid": "e28c2046d4eb4881b135fe7b528004dc",
                "srcKUID": "eab8a4fce00b48ecbf01e2e687985d20",
                "wType": "Image"
            }
        },
        "tablePaginationBillpay.lblPagination": {
            "__events__": {},
            "__info__": {
                "kuid": "g588331b78e04fb096ea721c19411e3f",
                "srcKUID": "d3e9e14b025b414287e92de665d07886",
                "wType": "Label"
            }
        },
        "transferActivitymod": {
            "__events__": {},
            "__info__": {
                "isRoot": true,
                "kuid": "fc920def6c1d436788149009b3a4b146",
                "srcKUID": "4eeb3d54fb254c6fa2d671179c3bce19",
                "wType": "FlexContainer"
            }
        }
    },
    "id": "transferActivitymod",
    "info": null,
    "isdatareferenced": false,
    "issegmentchild": false,
    "isvisible": true,
    "kuid": "fc920def6c1d436788149009b3a4b146",
    "layouttype": 4,
    "masterType": 0,
    "name": "kony.ui.UserWidgetInstance",
    "parent": "transferactivity",
    "pf": "frmTransfers",
    "snaptogrid": true,
    "sourceUserWidget": "4eeb3d54fb254c6fa2d671179c3bce19",
    "vizprops": {
        "hidewidgethierarchy": false
    },
    "wType": "UserWidgetInstance"
}