{
    "DNDConfig": null,
    "__parentReadjusting__": false,
    "_height_": {
        "type": "ref",
        "value": "preferred"
    },
    "_left_": {
        "type": "string",
        "value": "0dp"
    },
    "_margin_": [
        0,
        0,
        0,
        0
    ],
    "_orientation_": 6,
    "_padding_": [
        0,
        0,
        0,
        0
    ],
    "_percent_": true,
    "_skin_": "sc681e20fcca47828a35daf1b6ea5496",
    "_top_": {
        "type": "string",
        "value": "0px"
    },
    "_width_": {
        "type": "string",
        "value": "100%"
    },
    "allboxes": [],
    "autogrowmode": 1,
    "canUpdateUI": true,
    "children": [
        "lblWarning",
        "flxDowntimeWarning",
        "flxSearchPayee",
        "flxDetails",
        "flxHorizantalLineKA",
        "flxAddOrCancelKA"
    ],
    "clipbounds": false,
    "containerweight": 100,
    "enablescrolling": true,
    "id": "flxDomesticDetailsKA",
    "info": null,
    "isvisible": true,
    "kuid": "10ad3bc2ddf543d4832177ab691acd47",
    "layouttype": 4,
    "name": "kony.ui.FlexContainer",
    "parent": "flxMainDesktopKA",
    "pf": "userwidgetmodel",
    "snapgridsize": 10,
    "snaptogrid": true,
    "wType": "FlexContainer",
    "widgetalignment": 1,
    "zindex": 1
}