{
	 "@class": "com.kony.gen.viz.model.component.KVizImage2",
	 "DNDConfig": null,
	 "__parentReadjusting__": false,
	 "_base64_": null,
	 "_height_": {
		 "type": "string",
		 "value": "24dp"
	},
	 "_margin_": [
		 0,
		 0,
		 0,
		 0
	],
	 "_padding_": [
		 0,
		 0,
		 0,
		 0
	],
	 "_skin_": "s78a5f26c9f14cec9ebed1bb46098f80",
	 "_src_": "pagination_next_active.png",
	 "_width_": {
		 "type": "string",
		 "value": "24dp"
	},
	 "accessibilityconfig": {
		 "a11yLabel": "Pagination Right",
		 "a11yValue": ""
	},
	 "canUpdateUI": true,
	 "centerx": {
		 "type": "string",
		 "value": "50%"
	},
	 "centery": {
		 "type": "string",
		 "value": "50%"
	},
	 "containerweight": 100,
	 "context": {
		 "channel": "desktop",
		 "formID": "uw188d39742fa641e3aea24186146b4b85",
		 "platform": "desktopweb",
		 "templateType": "userwidgets",
		 "topLevelBox": null
	},
	 "id": "imgPaginationNext",
	 "imagescalemode": 1,
	 "imagewhiledownloading": "img_transparent.png",
	 "info": null,
	 "isvisible": true,
	 "kuid": "d4c380255f7c454887f26f8dd1bca8eb",
	 "name": "kony.ui.Image2",
	 "parent": "flxPaginationNext",
	 "pf": "userwidgetmodel",
	 "srcType": 1,
	 "tooltip": "Next",
	 "wType": "Image",
	 "widgetalignment": 5,
	 "zindex": 1
}