{
    "@class": "com.kony.gen.viz.model.component.KVizImage2",
    "DNDConfig": null,
    "__parentReadjusting__": false,
    "_base64_": null,
    "_height_": {
        "type": "string",
        "value": "14dp"
    },
    "_left_": {
        "type": "string",
        "value": "12dp"
    },
    "_margin_": [
        0,
        0,
        0,
        0
    ],
    "_padding_": [
        0,
        0,
        0,
        0
    ],
    "_skin_": "s78a5f26c9f14cec9ebed1bb46098f80",
    "_src_": "bbtransmitteddate.png",
    "_width_": {
        "type": "string",
        "value": "14dp"
    },
    "canUpdateUI": true,
    "centery": {
        "type": "string",
        "value": "50%"
    },
    "containerId": true,
    "containerweight": 100,
    "id": "imgSortRecpName",
    "imagescalemode": 1,
    "imagewhenfailed": "bbtransmitteddate.png",
    "imagewhiledownloading": "bbtransmitteddate.png",
    "info": null,
    "invokedProperty": "imageWhenFailed",
    "iscustomlayout": false,
    "isvisible": true,
    "kuid": "id49e98da5e941b49e2bed2f2c56ddc2",
    "name": "kony.ui.Image2",
    "parent": "flxRecipientName",
    "pf": "segBulkPayementHeader",
    "retaincontentalignment": false,
    "retainflexpositionproperties": false,
    "srcType": 1,
    "wType": "Image",
    "widgetalignment": 5,
    "zindex": 1
}