{
    "@class": "com.kony.gen.viz.model.component.KVizButton",
    "DNDConfig": null,
    "__parentReadjusting__": false,
    "_height_": {
        "type": "ref",
        "value": "preferred"
    },
    "_margin_": [
        6,
        6,
        6,
        6
    ],
    "_padding_": [
        0,
        0,
        0,
        0
    ],
    "_skin_": "s11500b7e365426abf410569d0884580",
    "_text_": "DONE",
    "_top_": {
        "type": "string",
        "value": "6dp"
    },
    "_width_": {
        "type": "ref",
        "value": "preferred"
    },
    "accessibilityconfig": {
        "a11yLabel": "DONE"
    },
    "canUpdateUI": true,
    "centerx": {
        "type": "string",
        "value": "50%"
    },
    "containerweight": 100,
    "contentalignment": 5,
    "desktopweb": {
        "psp": {
            "hoverSkin": "s264339940904f6b9d3e47b6fdc9e327"
        }
    },
    "disabledSkins": {
        "focusSkin": "sefaec1c283048808788386f6160e4d0"
    },
    "displaytext": true,
    "focusskin": null,
    "id": "btnLoginLater",
    "info": null,
    "isvisible": true,
    "kuid": "f67f79b8a9a1476f88559884650ee91b",
    "name": "kony.ui.Button",
    "parent": "flxBottom",
    "pf": "userwidgetmodel",
    "tooltip": "Do it later using Security Settings",
    "wType": "Button",
    "zindex": 1
}