{
    "BusinessControllerConfig": {
        "CommandHandler": [],
        "BusinessControllerClass": "SavingsPotManager/BusinessControllers/BusinessController"
    },
    "PresentationControllerConfig": {
        "Default": {
            "PresentationExtensions": [],
            "PresentationControllerClass": "SavingsPotManager/PresentationControllers/PresentationController"
        }
    },
    "Forms": {},
    "ModuleName": "SavingsPotManager"
}