{
    "@class": "com.kony.gen.viz.model.component.KVizButton",
    "DNDConfig": null,
    "__parentReadjusting__": false,
    "_height_": {
        "type": "ref",
        "value": "preferred"
    },
    "_margin_": [
        6,
        6,
        6,
        6
    ],
    "_padding_": [
        0,
        0,
        0,
        0
    ],
    "_right_": {
        "type": "string",
        "value": "18.18%"
    },
    "_skin_": "s963768c82394bc78c43038f558413f9",
    "_text_": "View Details",
    "_top_": {
        "type": "string",
        "value": "50dp"
    },
    "_width_": {
        "type": "ref",
        "value": "preferred"
    },
    "canUpdateUI": true,
    "containerId": true,
    "containerweight": 100,
    "contentalignment": 6,
    "disabledSkins": {
        "focusSkin": "sf44d06ca8224832827ea7fdff757013"
    },
    "displaytext": true,
    "id": "btnViewDetailsOfUser",
    "info": null,
    "iscustomlayout": false,
    "isvisible": true,
    "kuid": "de1709c1e2bd41efaf44b8ca5795a072",
    "name": "kony.ui.Button",
    "parent": "flxActionsApprovals",
    "pf": "segBBAllUsersRowTemplateMobileSelected",
    "retaincontentalignment": false,
    "retainflexpositionproperties": false,
    "texti18n": "i18n.konybb.Common.ViewDetails",
    "wType": "Button",
    "zindex": 1
}