{
    "@class": "com.kony.gen.viz.model.container.KVizScrollFlexForm",
    "DNDConfig": null,
    "_margin_": [
        0,
        0,
        0,
        0
    ],
    "_orientation_": 1,
    "_padding_": [
        0,
        0,
        0,
        0
    ],
    "_percent_": true,
    "_skin_": "s2f58a140c5647b8a643edf5a6309600",
    "_title_": null,
    "addWidgetsdone": false,
    "allboxes": [],
    "android": {
        "psp": {
            "windowSoftInputMode": 2
        }
    },
    "breakpointInfo": {
        "b1": {
            "width": 1366
        },
        "b2": {
            "width": 1024
        },
        "b3": {
            "width": 640
        },
        "b4": {
            "width": 1380
        }
    },
    "canUpdateUI": true,
    "canvasWidth": 2000,
    "children": [
        "flxFromCustomViews",
        "flxLogout",
        "flxDelete"
    ],
    "containerweight": 100,
    "controllerInfo": {
        "default": {
            "channel": "desktop",
            "name": "frmCustomViewsController"
        }
    },
    "currentBreakpoint": {
        "kuid": "b4",
        "width": 1380
    },
    "currentLocale": "default",
    "desktopweb": {
        "ide_onBreakpointChange": "AS_Form_b11bb57ff53a40dc9eda290ecf13139d",
        "needAppMenu": false
    },
    "device": "desktopweb",
    "displayorientation": 1,
    "enabledforidletimeout": true,
    "friendlyName": "frmCustomViews",
    "id": "frmCustomViews",
    "ide_init": "AS_Form_b8ffb19db7b34c69a7100497900a39f5",
    "ide_onDeviceBack": "AS_Form_d6d14b7d90ac42359ca1b54b4ec66343",
    "ide_onTouchEnd": "AS_Form_h269d1b058734236b3e770e1298f0644",
    "ide_postShow": "AS_Form_b02a19b40b304f36b28d55c110e4410e",
    "ide_preShow": "AS_Form_a200d61062584e018259e9afb4d8db97",
    "info": null,
    "initdone": false,
    "inputaccessoryviewtype": 4,
    "ipad": {
        "psp": {
            "inputAccessoryViewType": 4
        }
    },
    "iphone": {
        "psp": {
            "inputAccessoryViewType": 4
        }
    },
    "isvisible": true,
    "kuid": "f89b2010ac74486b8167a011dc779258",
    "layouttype": 2,
    "name": "kony.ui.Form2",
    "needappmenu": true,
    "paddinginpixel": false,
    "platform": "desktopweb",
    "prevDevice": "desktopweb",
    "prevPlatform": "desktopweb",
    "retainscrollposition": true,
    "shellCSS": "desktop",
    "snapgridsize": 10,
    "snaptogrid": true,
    "titleBarSkin": "s2e24ee0a8ca46b089d8a5bea8a1a32e",
    "titlebar": true,
    "type": 3,
    "vizProps": {
        "globalRespDesignEnabled": false
    },
    "wType": "Form"
}