{
    "DNDConfig": null,
    "_height_": {
        "type": "string",
        "value": "65dp"
    },
    "_left_": {
        "type": "string",
        "value": "0dp"
    },
    "_margin_": [
        0,
        0,
        0,
        0
    ],
    "_orientation_": 6,
    "_padding_": [
        0,
        0,
        0,
        0
    ],
    "_percent_": true,
    "_skin_": "s24c92fc23b14f5484b693ee9b8a9b35",
    "_top_": {
        "type": "string",
        "value": "15dp"
    },
    "_width_": {
        "type": "string",
        "value": "100%"
    },
    "allboxes": [],
    "canUpdateUI": true,
    "children": [
        "lblFrequency",
        "lbxFrequency",
        "lblForHowLong",
        "lbxRecurrences"
    ],
    "clipbounds": true,
    "containerweight": 100,
    "enablescrolling": true,
    "id": "flxContainer1",
    "info": null,
    "iscustomlayout": false,
    "isvisible": true,
    "kuid": "d6b92170298f4d5995204585b6819261",
    "layouttype": 2,
    "name": "kony.ui.FlexContainer",
    "parent": "flxSendMoneyFields",
    "pf": "frmP2PSendMoney",
    "responsiveData": {
        "b2": {
            "height": {
                "type": "string",
                "value": "145dp"
            }
        },
        "b3": {
            "height": {
                "type": "string",
                "value": "145dp"
            },
            "left": {
                "type": "string",
                "value": "3%"
            },
            "width": {
                "type": "string",
                "value": "94%"
            }
        }
    },
    "retaincontentalignment": false,
    "retainflexpositionproperties": false,
    "retainflowhorizontalalignment": false,
    "snapgridsize": 10,
    "snaptogrid": true,
    "wType": "FlexContainer",
    "widgetalignment": 1,
    "zindex": 1
}