{
    "@class": "com.kony.gen.viz.model.component.KVizRichText",
    "DNDConfig": null,
    "__parentReadjusting__": false,
    "_height_": {
        "type": "ref",
        "value": "preferred"
    },
    "_left_": {
        "type": "string",
        "value": "85dp"
    },
    "_margin_": [
        0,
        0,
        0,
        0
    ],
    "_padding_": [
        0,
        0,
        0,
        0
    ],
    "_skin_": "s54053171dc84722aadd410cfc137838",
    "_text_": "No Records found so far.\n",
    "_top_": {
        "type": "string",
        "value": "35dp"
    },
    "_width_": {
        "type": "string",
        "value": "100%"
    },
    "_wrapping_": 2,
    "accessibilityconfig": {
        "a11yLabel": "No Records found so far.\n"
    },
    "canUpdateUI": true,
    "containerweight": 100,
    "contentalignment": 4,
    "id": "rtxNoRecords",
    "info": null,
    "isvisible": true,
    "kuid": "a7538451df224ee1acc3a15ba101a48d",
    "name": "kony.ui.RichText",
    "parent": "flxNoRecords",
    "pf": "frmPaymentActivity",
    "wType": "RichText",
    "widgetalignment": 5,
    "zindex": 1
}