{
    "DNDConfig": null,
    "__parentReadjusting__": false,
    "_height_": {
        "type": "string",
        "value": "1dp"
    },
    "_left_": {
        "type": "string",
        "value": "0dp"
    },
    "_margin_": [
        0,
        0,
        0,
        0
    ],
    "_orientation_": 6,
    "_padding_": [
        0,
        0,
        0,
        0
    ],
    "_percent_": true,
    "_skin_": "s3d1afa09bdc40fcb2aecb8c341aad1a",
    "_top_": {
        "type": "string",
        "value": "0dp"
    },
    "_width_": {
        "type": "string",
        "value": "100%"
    },
    "allboxes": [],
    "canUpdateUI": true,
    "children": [],
    "clipbounds": true,
    "containerweight": 100,
    "enablescrolling": true,
    "id": "flxSeparatorSort",
    "info": null,
    "isvisible": true,
    "kuid": "deffe2df200c4bfca85028d88aec3fce",
    "layouttype": 2,
    "name": "kony.ui.FlexContainer",
    "parent": "flxtransferActivityWrapper",
    "pf": "frmEditTempSelectRecipients",
    "responsiveData": {
        "b4": {
            "height": {
                "type": "string",
                "value": "0dp"
            },
            "isVisible": false,
            "width": {
                "type": "string",
                "value": "0%"
            }
        }
    },
    "snapgridsize": 10,
    "snaptogrid": true,
    "wType": "FlexContainer",
    "widgetalignment": 1,
    "zindex": 1
}