{
    "DNDConfig": null,
    "__parentReadjusting__": false,
    "_height_": {
        "type": "string",
        "value": "30dp"
    },
    "_left_": {
        "type": "string",
        "value": "1dp"
    },
    "_margin_": [
        0,
        0,
        0,
        0
    ],
    "_orientation_": 6,
    "_padding_": [
        0,
        0,
        0,
        0
    ],
    "_percent_": true,
    "_skin_": "s24c92fc23b14f5484b693ee9b8a9b35",
    "_top_": {
        "type": "string",
        "value": "15dp"
    },
    "_width_": {
        "type": "string",
        "value": "100%"
    },
    "allboxes": [],
    "canUpdateUI": true,
    "children": [
        "lblIAccept",
        "flxTCContentsCheckbox"
    ],
    "clipbounds": true,
    "containerweight": 100,
    "enablescrolling": true,
    "id": "flxTCCheckBox",
    "info": null,
    "isvisible": true,
    "kuid": "h502efd77e6842ff859f115e8b37be8b",
    "layouttype": 2,
    "name": "kony.ui.FlexContainer",
    "parent": "flxTC",
    "pf": "frmWireTransferAddKonyAccountStep2",
    "responsiveData": {
        "b1": {
            "height": {
                "type": "string",
                "value": "30dp"
            },
            "isVisible": false
        },
        "b2": {
            "height": {
                "type": "string",
                "value": "30dp"
            },
            "isVisible": false
        },
        "b3": {
            "height": {
                "type": "string",
                "value": "30dp"
            },
            "isVisible": false
        },
        "b4": {
            "height": {
                "type": "string",
                "value": "30dp"
            },
            "isVisible": false
        }
    },
    "snapgridsize": 10,
    "snaptogrid": true,
    "wType": "FlexContainer",
    "widgetalignment": 1,
    "zindex": 1
}