{
    "DNDConfig": null,
    "_height_": {
        "type": "string",
        "value": "44dp"
    },
    "_margin_": [
        0,
        0,
        0,
        0
    ],
    "_orientation_": 6,
    "_padding_": [
        0,
        0,
        0,
        0
    ],
    "_percent_": true,
    "_right_": {
        "type": "string",
        "value": "155dp"
    },
    "_skin_": "sc0dea09ed144cb08ae038da5e206ec9",
    "_top_": {
        "type": "string",
        "value": "0dp"
    },
    "_width_": {
        "type": "string",
        "value": "44dp"
    },
    "allboxes": [],
    "autogrowmode": 0,
    "canUpdateUI": true,
    "centery": {
        "type": "string",
        "value": "50%"
    },
    "children": [
        "imgNotifications",
        "lblNewNotifications"
    ],
    "clipbounds": true,
    "containerweight": 100,
    "desktopweb": {
        "psp": {
            "hoverSkin": "sc0dea09ed144cb08ae038da5e206ec9"
        }
    },
    "enablescrolling": true,
    "id": "flxNotifications",
    "info": null,
    "isvisible": true,
    "kuid": "b957e06250dd45ac951449c7bdd6ff51",
    "layouttype": 2,
    "name": "kony.ui.FlexContainer",
    "parent": "flxActionsMenu",
    "pf": "userwidgetmodel",
    "snapgridsize": 10,
    "snaptogrid": true,
    "wType": "FlexContainer",
    "widgetalignment": 1,
    "zindex": 1
}