{
    "@class": "com.kony.gen.viz.model.container.KVizSegment2",
    "DNDConfig": null,
    "__parentReadjusting__": false,
    "_data_": [],
    "_height_": {
        "type": "ref",
        "value": "preferred"
    },
    "_indicator_": "none",
    "_margin_": [
        0,
        0,
        0,
        0
    ],
    "_orientation_": 2,
    "_padding_": [
        0,
        0,
        0,
        0
    ],
    "_top_": {
        "type": "string",
        "value": "0dp"
    },
    "_width_": {
        "type": "string",
        "value": "88%"
    },
    "autogrowmode": 1,
    "canUpdateUI": true,
    "centerx": {
        "type": "string",
        "value": "50%"
    },
    "containerweight": 100,
    "counter": "02",
    "focusedindex": null,
    "focuseditem": null,
    "groupcells": false,
    "hasSections": false,
    "id": "segBill",
    "info": null,
    "ipad": {
        "psp": {
            "indicator": "rowselect"
        }
    },
    "iphone": {
        "psp": {
            "indicator": "rowselect"
        }
    },
    "isvisible": true,
    "kuid": "c9f96627a30646f8a3add5b8f3fb4eec",
    "masterdata": {},
    "name": "kony.ui.SegmentedUI2",
    "needpageindicator": true,
    "pageoffdotimage": "pageoffdot.png",
    "pageondotimage": "pageondot.png",
    "paginationconfig": {
        "position": "bottom"
    },
    "parent": "flxBulkPayContainer",
    "pf": "frmAcknowledgement",
    "responsiveData": {
        "b1": {
            "width": {
                "type": "string",
                "value": "100%"
            }
        },
        "b2": {
            "width": {
                "type": "string",
                "value": "100%"
            }
        },
        "b4": {
            "width": {
                "type": "string",
                "value": "100%"
            }
        }
    },
    "retainselection": false,
    "rowTemplateId": "bcc168402ae04ddfaa75772812ff96f8",
    "rowcounter": 2,
    "rowfocusskin": "s971af14e3cc4643bed5bb37c330e87a",
    "rowskin": "saf48a54e26b47cb883cedc832d03473",
    "rowtemplate": "flxHeader",
    "screenlevelwidget": false,
    "seccounter": 0,
    "sectionHeaderTemplateId": null,
    "sectionheaderskin": "sdc4ff4ed1584272be2ae69045dfb29d",
    "selectedRows": null,
    "selectedState": false,
    "selectedindex": null,
    "selectedindices": null,
    "selecteditems": null,
    "selectedsectionindex": 0,
    "selectionbehavior": "default",
    "separatorcolor": "d3d3d300",
    "separatorrequired": true,
    "separatorthickness": 1,
    "showscrollbars": false,
    "viewtype": "tableview",
    "vizProps": {},
    "wType": "Segment",
    "widgetalignment": 5,
    "widgetdatamap": {
        "flxHeader": "flxHeader",
        "imgAcknowledgement": "imgAcknowledgement",
        "lblAction": "lblAction",
        "lblAmount": "lblAmount",
        "lblDeliverBy": "lblDeliverBy",
        "lblEndingBalanceAccount": "lblEndingBalanceAccount",
        "lblPayee": "lblPayee",
        "lblPayeeAddress": "lblPayeeAddress",
        "lblPaymentAccount": "lblPaymentAccount",
        "lblRefernceNumber": "lblRefernceNumber",
        "lblSendOn": "lblSendOn"
    },
    "zindex": 5
}