{
    "@class": "com.kony.gen.viz.model.component.KVizButton",
    "DNDConfig": null,
    "_height_": {
        "type": "string",
        "value": "50dp"
    },
    "_left_": {
        "type": "string",
        "value": "30dp"
    },
    "_margin_": [
        6,
        6,
        6,
        6
    ],
    "_padding_": [
        0,
        0,
        0,
        0
    ],
    "_skin_": "se4cbdf6e51f48eda9966caa941c6a19",
    "_text_": "ADD RECIPIENT",
    "_top_": {
        "type": "string",
        "value": "0dp"
    },
    "_width_": {
        "type": "string",
        "value": "90%"
    },
    "accessibilityconfig": {
        "a11yLabel": "Add Recipient"
    },
    "canUpdateUI": true,
    "containerweight": 100,
    "contentalignment": 4,
    "desktopweb": {
        "psp": {
            "hoverSkin": "sb13d7d59686429aa4fbca8527b63942"
        }
    },
    "displaytext": true,
    "focusskin": "s7fc7a5968394a5882dc2758c71a59a3",
    "id": "btnAddRecipient",
    "ide_onClick": "AS_Button_efef58950b734e4b97d8a32e2ede4f40",
    "info": null,
    "isvisible": true,
    "kuid": "b7ef4d12862c44c59e90aad8df01de1f",
    "name": "kony.ui.Button",
    "parent": "flxAddRecipientButton",
    "pf": "frmP2PManageRecipientsTab",
    "texti18n": "i18n.PayAPerson.AddRecipient",
    "tooltip": "Add Recipient",
    "wType": "Button",
    "zindex": 1
}