{
    "@class": "com.kony.gen.viz.model.container.KVizSegment2",
    "DNDConfig": null,
    "_bottom_": {
        "type": "string",
        "value": "5dp"
    },
    "_data_": [
        {
            "btnDelete": {
                "@class": "com.viz.ide.model.segment.SimpleTextSegmentData",
                "i18nkey": "i18n.PayAPerson.Delete",
                "text": "DELETE"
            },
            "btnEdit": {
                "@class": "com.viz.ide.model.segment.SimpleTextSegmentData",
                "i18nkey": "i18n.billPay.Edit",
                "text": "EDIT"
            },
            "imgDropdown": {
                "@class": "com.viz.ide.model.segment.ImageSegmentData",
                "src": "arrow_down.png"
            },
            "lblName": {
                "@class": "com.viz.ide.model.segment.SimpleTextSegmentData",
                "text": "Linda"
            },
            "lblPrimaryContact": {
                "@class": "com.viz.ide.model.segment.SimpleTextSegmentData",
                "text": "+1 900937465"
            },
            "lblSeparator": {
                "@class": "com.viz.ide.model.segment.SimpleTextSegmentData",
                "text": ""
            }
        },
        {
            "btnDelete": {
                "@class": "com.viz.ide.model.segment.SimpleTextSegmentData",
                "i18nkey": "i18n.PayAPerson.Delete",
                "text": "DELETE"
            },
            "btnEdit": {
                "@class": "com.viz.ide.model.segment.SimpleTextSegmentData",
                "i18nkey": "i18n.billPay.Edit",
                "text": "EDIT"
            },
            "imgDropdown": {
                "@class": "com.viz.ide.model.segment.ImageSegmentData",
                "src": "arrow_down.png"
            },
            "lblName": {
                "@class": "com.viz.ide.model.segment.SimpleTextSegmentData",
                "text": "Linda"
            },
            "lblPrimaryContact": {
                "@class": "com.viz.ide.model.segment.SimpleTextSegmentData",
                "text": "+1 900937465"
            },
            "lblSeparator": {
                "@class": "com.viz.ide.model.segment.SimpleTextSegmentData",
                "text": ""
            }
        },
        {
            "btnDelete": {
                "@class": "com.viz.ide.model.segment.SimpleTextSegmentData",
                "i18nkey": "i18n.PayAPerson.Delete",
                "text": "DELETE"
            },
            "btnEdit": {
                "@class": "com.viz.ide.model.segment.SimpleTextSegmentData",
                "i18nkey": "i18n.billPay.Edit",
                "text": "EDIT"
            },
            "imgDropdown": {
                "@class": "com.viz.ide.model.segment.ImageSegmentData",
                "src": "arrow_down.png"
            },
            "lblName": {
                "@class": "com.viz.ide.model.segment.SimpleTextSegmentData",
                "text": "Linda"
            },
            "lblPrimaryContact": {
                "@class": "com.viz.ide.model.segment.SimpleTextSegmentData",
                "text": "+1 900937465"
            },
            "lblSeparator": {
                "@class": "com.viz.ide.model.segment.SimpleTextSegmentData",
                "text": ""
            }
        },
        {
            "btnDelete": {
                "@class": "com.viz.ide.model.segment.SimpleTextSegmentData",
                "i18nkey": "i18n.PayAPerson.Delete",
                "text": "DELETE"
            },
            "btnEdit": {
                "@class": "com.viz.ide.model.segment.SimpleTextSegmentData",
                "i18nkey": "i18n.billPay.Edit",
                "text": "EDIT"
            },
            "imgDropdown": {
                "@class": "com.viz.ide.model.segment.ImageSegmentData",
                "src": "arrow_down.png"
            },
            "lblName": {
                "@class": "com.viz.ide.model.segment.SimpleTextSegmentData",
                "text": "Linda"
            },
            "lblPrimaryContact": {
                "@class": "com.viz.ide.model.segment.SimpleTextSegmentData",
                "text": "+1 900937465"
            },
            "lblSeparator": {
                "@class": "com.viz.ide.model.segment.SimpleTextSegmentData",
                "text": ""
            }
        },
        {
            "btnDelete": {
                "@class": "com.viz.ide.model.segment.SimpleTextSegmentData",
                "i18nkey": "i18n.PayAPerson.Delete",
                "text": "DELETE"
            },
            "btnEdit": {
                "@class": "com.viz.ide.model.segment.SimpleTextSegmentData",
                "i18nkey": "i18n.billPay.Edit",
                "text": "EDIT"
            },
            "imgDropdown": {
                "@class": "com.viz.ide.model.segment.ImageSegmentData",
                "src": "arrow_down.png"
            },
            "lblName": {
                "@class": "com.viz.ide.model.segment.SimpleTextSegmentData",
                "text": "Linda"
            },
            "lblPrimaryContact": {
                "@class": "com.viz.ide.model.segment.SimpleTextSegmentData",
                "text": "+1 900937465"
            },
            "lblSeparator": {
                "@class": "com.viz.ide.model.segment.SimpleTextSegmentData",
                "text": ""
            }
        },
        {
            "btnDelete": {
                "@class": "com.viz.ide.model.segment.SimpleTextSegmentData",
                "i18nkey": "i18n.PayAPerson.Delete",
                "text": "DELETE"
            },
            "btnEdit": {
                "@class": "com.viz.ide.model.segment.SimpleTextSegmentData",
                "i18nkey": "i18n.billPay.Edit",
                "text": "EDIT"
            },
            "imgDropdown": {
                "@class": "com.viz.ide.model.segment.ImageSegmentData",
                "src": "arrow_down.png"
            },
            "lblName": {
                "@class": "com.viz.ide.model.segment.SimpleTextSegmentData",
                "text": "Linda"
            },
            "lblPrimaryContact": {
                "@class": "com.viz.ide.model.segment.SimpleTextSegmentData",
                "text": "+1 900937465"
            },
            "lblSeparator": {
                "@class": "com.viz.ide.model.segment.SimpleTextSegmentData",
                "text": ""
            }
        },
        {
            "btnDelete": {
                "@class": "com.viz.ide.model.segment.SimpleTextSegmentData",
                "i18nkey": "i18n.PayAPerson.Delete",
                "text": "DELETE"
            },
            "btnEdit": {
                "@class": "com.viz.ide.model.segment.SimpleTextSegmentData",
                "i18nkey": "i18n.billPay.Edit",
                "text": "EDIT"
            },
            "imgDropdown": {
                "@class": "com.viz.ide.model.segment.ImageSegmentData",
                "src": "arrow_down.png"
            },
            "lblName": {
                "@class": "com.viz.ide.model.segment.SimpleTextSegmentData",
                "text": "Linda"
            },
            "lblPrimaryContact": {
                "@class": "com.viz.ide.model.segment.SimpleTextSegmentData",
                "text": "+1 900937465"
            },
            "lblSeparator": {
                "@class": "com.viz.ide.model.segment.SimpleTextSegmentData",
                "text": ""
            }
        }
    ],
    "_height_": {
        "type": "ref",
        "value": "preferred"
    },
    "_indicator_": "none",
    "_left_": {
        "type": "string",
        "value": "0dp"
    },
    "_margin_": [
        0,
        0,
        0,
        0
    ],
    "_orientation_": 2,
    "_padding_": [
        0,
        0,
        0,
        0
    ],
    "_top_": {
        "type": "string",
        "value": "0dp"
    },
    "_width_": {
        "type": "string",
        "value": "100%"
    },
    "autogrowmode": 1,
    "canUpdateUI": true,
    "containerweight": 100,
    "counter": "06",
    "focusedindex": null,
    "focuseditem": null,
    "groupcells": false,
    "hasSections": false,
    "id": "segRecipients",
    "info": null,
    "ipad": {
        "psp": {
            "indicator": "rowselect"
        }
    },
    "iphone": {
        "psp": {
            "indicator": "rowselect"
        }
    },
    "iscustomlayout": false,
    "isvisible": true,
    "kuid": "a5b32971e83e4d41bd5d659092684cba",
    "masterdata": {},
    "name": "kony.ui.SegmentedUI2",
    "needpageindicator": true,
    "pageoffdotimage": "pageoffdot.png",
    "pageondotimage": "pageondot.png",
    "paginationconfig": {
        "position": "bottom"
    },
    "parent": "flxTabContent",
    "pf": "frmP2PManageRecipientsTab",
    "retaincontentalignment": false,
    "retainflexpositionproperties": false,
    "retainselection": false,
    "rowTemplateId": "d8f2cd36f49949499a3a80117b8836e1",
    "rowcounter": 6,
    "rowfocusskin": "s0f9bf3c1b3e4a7bb6bf9fd18b0211f2",
    "rowskin": "scf5f90f6ac04976ab88b2a4f7153285",
    "rowtemplate": "flxManageRecipientP2P",
    "screenlevelwidget": false,
    "seccounter": 0,
    "sectionheaderskin": "sdc4ff4ed1584272be2ae69045dfb29d",
    "selectedRows": null,
    "selectedState": false,
    "selectedindex": null,
    "selectedindices": null,
    "selecteditems": null,
    "selectedsectionindex": 0,
    "selectionbehavior": "default",
    "separatorrequired": false,
    "showscrollbars": false,
    "viewtype": "tableview",
    "vizProps": {},
    "wType": "Segment",
    "widgetalignment": 5,
    "widgetdatamap": {
        "btnDelete": "btnDelete",
        "btnEdit": "btnEdit",
        "flxDeleteAction": "flxDeleteAction",
        "flxDropdown": "flxDropdown",
        "flxEditAction": "flxEditAction",
        "flxManageRecipientP2P": "flxManageRecipientP2P",
        "flxName": "flxName",
        "flxPrimaryContact": "flxPrimaryContact",
        "flxRow": "flxRow",
        "imgDropdown": "imgDropdown",
        "lblName": "lblName",
        "lblPrimaryContact": "lblPrimaryContact",
        "lblSeparator": "lblSeparator"
    },
    "zindex": 1
}