{
    "@class": "com.kony.gen.viz.model.component.KVizButton",
    "DNDConfig": null,
    "__parentReadjusting__": false,
    "_bottom_": {
        "type": "number",
        "value": ""
    },
    "_height_": {
        "type": "string",
        "value": "40px"
    },
    "_left_": {
        "type": "string",
        "value": "950px"
    },
    "_margin_": [
        6,
        6,
        6,
        6
    ],
    "_padding_": [
        0,
        0,
        0,
        0
    ],
    "_right_": {
        "type": "number",
        "value": ""
    },
    "_skin_": "s4fe0674a3c84b76a21524a90bad4282",
    "_text_": "Button",
    "_top_": {
        "type": "string",
        "value": "20dp"
    },
    "_width_": {
        "type": "string",
        "value": "250px"
    },
    "accessibilityconfig": {
        "a11yLabel": "New Transfer"
    },
    "canUpdateUI": true,
    "centerx": {
        "type": "number",
        "value": ""
    },
    "containerweight": 100,
    "contentalignment": 5,
    "desktopweb": {
        "psp": {
            "hoverSkin": "s7ab6326aaf94c28b90b61fcb1b54547"
        }
    },
    "disabledSkins": {},
    "displaytext": true,
    "focusskin": "sfd0ce0d7f454c9f83c7e815a90a8a55",
    "hoverskin": "",
    "id": "btnViewPaymentActivity",
    "info": null,
    "iscustomlayout": false,
    "isvisible": true,
    "kuid": "g88c063ceef647578900b953eb7209b9",
    "name": "kony.ui.Button",
    "parent": "flxButtons",
    "pf": "frmPayBillAcknowledgement",
    "responsiveData": {
        "b1": {
            "left": {
                "type": "string",
                "value": ""
            },
            "right": {
                "type": "string",
                "value": "6.14%"
            },
            "top": {
                "type": "string",
                "value": "30px"
            },
            "width": {
                "type": "string",
                "value": "16.84%"
            }
        },
        "b2": {
            "left": {
                "type": "string",
                "value": ""
            },
            "right": {
                "type": "string",
                "value": "2.50%"
            },
            "top": {
                "type": "string",
                "value": "30px"
            },
            "width": {
                "type": "string",
                "value": "22%"
            }
        },
        "b3": {
            "bottom": {
                "type": "string",
                "value": ""
            },
            "centerX": {
                "type": "string",
                "value": ""
            },
            "left": {
                "type": "string",
                "value": "2%"
            },
            "right": {
                "type": "string",
                "value": "2%"
            },
            "width": {
                "type": "string",
                "value": "96%"
            }
        },
        "b4": {
            "left": {
                "type": "string",
                "value": ""
            },
            "right": {
                "type": "string",
                "value": "6.14%"
            },
            "top": {
                "type": "string",
                "value": "30px"
            },
            "width": {
                "type": "string",
                "value": "16.84%"
            }
        }
    },
    "retaincontentalignment": false,
    "retainflexpositionproperties": false,
    "texti18n": "i18n.billPay.ViewPaymentActivity",
    "wType": "Button",
    "zindex": 1
}