{
    "@class": "com.kony.gen.viz.model.component.KVizLabel",
    "DNDConfig": null,
    "__parentReadjusting__": false,
    "_height_": {
        "type": "ref",
        "value": "preferred"
    },
    "_left_": {
        "type": "string",
        "value": "0dp"
    },
    "_margin_": [
        1,
        1,
        1,
        1
    ],
    "_padding_": [
        0,
        0,
        0,
        0
    ],
    "_skin_": "s8cf4c07b30047f9810c9b13d56cd9db",
    "_text_": "My Savings Account",
    "_top_": {
        "type": "string",
        "value": "0dp"
    },
    "_width_": {
        "type": "string",
        "value": "50%"
    },
    "_wrapping_": 2,
    "accessibilityconfig": {
        "a11yLabel": "My Savings Account"
    },
    "android": {
        "textStyle": {
            "letterSpacing": 0,
            "strikeThrough": false
        }
    },
    "canUpdateUI": true,
    "containerweight": 100,
    "contentalignment": 4,
    "id": "lblSavingsAccount",
    "info": null,
    "ipad": {
        "psp": {
            "wrapping": 2
        }
    },
    "iphone": {
        "psp": {
            "wrapping": 2
        }
    },
    "isvisible": true,
    "kuid": "ffc376bd56ca4cacab362ee6a34e4342",
    "name": "kony.ui.Label",
    "parent": "flxSavings",
    "pf": "frmPayBillAcknowledgement",
    "responsiveData": {
        "b2": {
            "text": "My Savings Account",
            "width": {
                "type": "string",
                "value": "95%"
            }
        },
        "b3": {
            "text": "My Savings Account",
            "width": {
                "type": "string",
                "value": "80%"
            }
        }
    },
    "tooltip": "",
    "wType": "Label",
    "zindex": 1
}