{
    "DNDConfig": null,
    "__parentReadjusting__": false,
    "_height_": {
        "type": "string",
        "value": "120dp"
    },
    "_left_": {
        "type": "string",
        "value": "20dp"
    },
    "_margin_": [
        0,
        0,
        0,
        0
    ],
    "_orientation_": 6,
    "_padding_": [
        0,
        0,
        0,
        0
    ],
    "_percent_": true,
    "_skin_": "s2f1930e68bc4b258cfe821e7f0122cd",
    "_top_": {
        "type": "string",
        "value": "10dp"
    },
    "_width_": {
        "type": "string",
        "value": "96%"
    },
    "allboxes": [],
    "canUpdateUI": true,
    "children": [
        "flxImportantHeader",
        "rtxImportantInfo"
    ],
    "clipbounds": true,
    "containerweight": 100,
    "enablescrolling": true,
    "id": "flxImportantInfo",
    "info": null,
    "iscustomlayout": false,
    "isvisible": true,
    "kuid": "g1f35c9c907c473dbdc96acf8af4c081",
    "layouttype": 4,
    "name": "kony.ui.FlexContainer",
    "parent": "flxUserTransactionDetails",
    "pf": "frmUserManagement",
    "responsiveData": {
        "b2": {
            "height": {
                "type": "string",
                "value": "108px"
            }
        }
    },
    "retaincontentalignment": false,
    "retainflexpositionproperties": false,
    "retainflowhorizontalalignment": false,
    "snapgridsize": 10,
    "snaptogrid": true,
    "wType": "FlexContainer",
    "widgetalignment": 1
}