{
    "@class": "com.kony.gen.viz.model.component.KVizTextBox2",
    "DNDConfig": null,
    "__parentReadjusting__": false,
    "_height_": {
        "type": "string",
        "value": "100%"
    },
    "_left_": {
        "type": "string",
        "value": "0.00%"
    },
    "_margin_": [
        0,
        0,
        0,
        0
    ],
    "_padding_": [
        4,
        0,
        2,
        0
    ],
    "_placeholder_": "Enter Last Name",
    "_right_": {
        "type": "string",
        "value": "0%"
    },
    "_skin_": "s5fed1fa92e846d2b43ab73b00b33247",
    "_text_": "",
    "_width_": {
        "type": "string",
        "value": "100%"
    },
    "autocapitalize": "none",
    "autocomplete": false,
    "autocorrect": false,
    "autofilter": false,
    "canUpdateUI": true,
    "centery": {
        "type": "string",
        "value": "50.00%"
    },
    "containerheight": "",
    "containerheightmode": 1,
    "containerweight": 100,
    "contentalignment": 4,
    "desktopweb": {
        "placeholderSkin": "se881b7b34eb4e1bb82decfab9c35cfb"
    },
    "disabledSkins": {
        "focusSkin": "s227f630b9654ae58fba655b8d7722fb"
    },
    "id": "tbLastName",
    "info": null,
    "isvisible": true,
    "keyboardtype": "A",
    "kuid": "beab517910594b89be6111692a45f4d4",
    "maxtextlength": "",
    "mode": "A",
    "name": "kony.ui.TextBox2",
    "paddinginpixel": false,
    "parent": "flxLastName",
    "pf": "frmUserManagement",
    "placeholderi18n": "i18n.Enroll.EnterLastNameBB",
    "placeholderskin": "se881b7b34eb4e1bb82decfab9c35cfb",
    "securetextentry": false,
    "textinputmode": "A",
    "viewtype": "default",
    "wType": "TextField",
    "zindex": 1
}