{
    "@class": "com.kony.gen.viz.model.component.KVizButton",
    "DNDConfig": null,
    "_height_": {
        "type": "string",
        "value": "40dp"
    },
    "_left_": {
        "type": "number",
        "value": ""
    },
    "_margin_": [
        6,
        6,
        6,
        6
    ],
    "_padding_": [
        0,
        0,
        0,
        0
    ],
    "_right_": {
        "type": "string",
        "value": "6.07%"
    },
    "_skin_": "s4fe0674a3c84b76a21524a90bad4282",
    "_text_": "VIEW ALL PAYEES",
    "_top_": {
        "type": "string",
        "value": "20dp"
    },
    "_width_": {
        "type": "string",
        "value": "20.60%"
    },
    "accessibilityconfig": {
        "a11yLabel": "View all Payees"
    },
    "canUpdateUI": true,
    "containerweight": 100,
    "contentalignment": 5,
    "desktopweb": {
        "psp": {
            "hoverSkin": "s81054b5e2b74f17a5261991df565427"
        }
    },
    "displaytext": true,
    "focusskin": "s5a4f67acd3e47b9be6d6910a7a6686f",
    "id": "btnSavePayee",
    "ide_onClick": "AS_Button_df95889595f3499dbf1b509aeb48861e",
    "info": null,
    "isvisible": true,
    "kuid": "fc4fb6ffaac449c7a3debe2315654c75",
    "name": "kony.ui.Button",
    "parent": "flxButtons",
    "pf": "frmOneTimePaymentAcknowledgement",
    "responsiveData": {
        "b1": {
            "right": {
                "type": "string",
                "value": "44.82%"
            },
            "top": {
                "type": "string",
                "value": "30dp"
            },
            "width": {
                "type": "string",
                "value": "16.84%"
            }
        },
        "b2": {
            "left": {
                "type": "string",
                "value": ""
            },
            "right": {
                "type": "string",
                "value": "51%"
            },
            "width": {
                "type": "string",
                "value": "22%"
            }
        },
        "b3": {
            "left": {
                "type": "string",
                "value": "2%"
            },
            "right": {
                "type": "string",
                "value": ""
            },
            "width": {
                "type": "string",
                "value": "96%"
            }
        },
        "b4": {
            "right": {
                "type": "string",
                "value": "44.82%"
            },
            "top": {
                "type": "string",
                "value": "10dp"
            },
            "width": {
                "type": "string",
                "value": "16.84%"
            }
        }
    },
    "texti18n": "i18n.billpay.savePayee",
    "tooltip": "Save Payee",
    "wType": "Button",
    "zindex": 1
}