{
    "DNDConfig": null,
    "_bottom_": {
        "type": "number",
        "value": ""
    },
    "_height_": {
        "type": "ref",
        "value": "preferred"
    },
    "_left_": {
        "type": "string",
        "value": "7dp"
    },
    "_margin_": [
        0,
        0,
        0,
        0
    ],
    "_orientation_": 6,
    "_padding_": [
        0,
        0,
        0,
        0
    ],
    "_percent_": true,
    "_skin_": "s24c92fc23b14f5484b693ee9b8a9b35",
    "_top_": {
        "type": "string",
        "value": "846dp"
    },
    "_width_": {
        "type": "string",
        "value": "100%"
    },
    "allboxes": [],
    "autogrowmode": 0,
    "canUpdateUI": true,
    "centerx": {
        "type": "string",
        "value": "50%"
    },
    "children": [
        "flxPleaseNoteTheFollowingPoints"
    ],
    "clipbounds": true,
    "containerweight": 100,
    "enablescrolling": true,
    "id": "flxPleaseNoteWrapper",
    "info": null,
    "iscustomlayout": false,
    "isvisible": true,
    "kuid": "j1dca0f5946c484caf30a7eb653d9d4c",
    "layouttype": 2,
    "name": "kony.ui.FlexContainer",
    "parent": "flxSelectProducts",
    "pf": "frmNAO",
    "responsiveData": {
        "b1": {
            "bottom": {
                "type": "string",
                "value": "20dp"
            },
            "height": {
                "type": "string",
                "value": "200dp"
            },
            "left": {
                "type": "string",
                "value": ""
            },
            "top": {
                "type": "string",
                "value": "20dp"
            }
        },
        "b2": {
            "bottom": {
                "type": "string",
                "value": "20dp"
            },
            "height": {
                "type": "string",
                "value": "200dp"
            },
            "left": {
                "type": "string",
                "value": "0dp"
            },
            "top": {
                "type": "string",
                "value": "20dp"
            }
        },
        "b3": {
            "bottom": {
                "type": "string",
                "value": "20dp"
            },
            "layoutType": 4,
            "left": {
                "type": "string",
                "value": "0dp"
            },
            "top": {
                "type": "string",
                "value": "20dp"
            }
        },
        "b4": {
            "bottom": {
                "type": "string",
                "value": "20dp"
            },
            "left": {
                "type": "string",
                "value": "0dp"
            },
            "top": {
                "type": "string",
                "value": "20dp"
            }
        }
    },
    "retaincontentalignment": false,
    "retainflexpositionproperties": false,
    "snapgridsize": 10,
    "snaptogrid": true,
    "wType": "FlexContainer",
    "widgetalignment": 1,
    "zindex": 1
}