{
    "@class": "com.kony.gen.viz.model.component.KVizRichText",
    "DNDConfig": null,
    "_height_": {
        "type": "ref",
        "value": "preferred"
    },
    "_left_": {
        "type": "string",
        "value": "20dp"
    },
    "_margin_": [
        0,
        0,
        0,
        0
    ],
    "_padding_": [
        0,
        0,
        0,
        0
    ],
    "_right_": {
        "type": "number",
        "value": ""
    },
    "_skin_": "sf9eda51ff18423180d6643f182ca4b3",
    "_text_": "There is some error in the server.</br>\nWe could not complete your request of adding the account.",
    "_width_": {
        "type": "string",
        "value": "85%"
    },
    "_wrapping_": 2,
    "accessibilityconfig": {
        "a11yLabel": "There is some error in the server.</br>\nWe could not complete your request of adding the account."
    },
    "canUpdateUI": true,
    "centery": {
        "type": "string",
        "value": "50%"
    },
    "containerweight": 100,
    "contentalignment": 4,
    "id": "rtxDowntimeWarning",
    "info": null,
    "isvisible": true,
    "kuid": "jf054caca63e41b39d72e8897dcd79f9",
    "name": "kony.ui.RichText",
    "paddinginpixel": false,
    "parent": "flxDownTimeWarning",
    "pf": "frmNAO",
    "responsiveData": {
        "b3": {
            "height": {
                "type": "ref",
                "value": "preferred"
            },
            "left": {
                "type": "string",
                "value": "80dp"
            },
            "padding": [
                0,
                0,
                0,
                0
            ],
            "right": {
                "type": "string",
                "value": ""
            },
            "text": "There is some error in the server.We could not complete your request of adding the account.We could not complete your request of adding the account.There is some error in the server."
        }
    },
    "wType": "RichText",
    "widgetalignment": 5,
    "zindex": 1
}