{
    "DNDConfig": null,
    "_height_": {
        "type": "string",
        "value": "72dp"
    },
    "_left_": {
        "type": "string",
        "value": "25%"
    },
    "_margin_": [
        0,
        0,
        0,
        0
    ],
    "_orientation_": 6,
    "_padding_": [
        0,
        0,
        0,
        0
    ],
    "_percent_": true,
    "_skin_": "s576844bc0e148a9a02e6171eac305ac",
    "_top_": {
        "type": "string",
        "value": "0dp"
    },
    "_width_": {
        "type": "string",
        "value": "100%"
    },
    "allboxes": [],
    "autogrowmode": 0,
    "canUpdateUI": true,
    "centerx": {
        "type": "string",
        "value": "50%"
    },
    "children": [
        "flxPayeeDetails",
        "flxPaymentDetails",
        "lblSendOn",
        "lblDeliverBy",
        "lblAmount",
        "imgDropdown",
        "btnEdit"
    ],
    "clipbounds": true,
    "containerId": true,
    "containerweight": 100,
    "controllerInfo": {
        "default": {
            "channel": "desktop",
            "name": "flxSubHeaderController"
        }
    },
    "enablescrolling": true,
    "id": "flxSubHeader",
    "info": null,
    "isTemplate": true,
    "isvisible": true,
    "kuid": "f9546c60068444a7ab7579fb4ec66ecc",
    "layouttype": 2,
    "name": "kony.ui.FlexContainer",
    "parent": "segConfirmBulkPay",
    "pf": "segConfirmBulkPay",
    "snapgridsize": 10,
    "snaptogrid": true,
    "wType": "FlexContainer",
    "widgetalignment": 1,
    "zindex": 1
}