{
    "@class": "com.kony.gen.viz.model.component.KVizLabel",
    "DNDConfig": null,
    "_height_": {
        "type": "ref",
        "value": "preferred"
    },
    "_left_": {
        "type": "string",
        "value": "0dp"
    },
    "_margin_": [
        1,
        1,
        1,
        1
    ],
    "_padding_": [
        0,
        0,
        2,
        0
    ],
    "_skin_": "se56454286124fef97a46e7249497088",
    "_text_": "Club Savings Account ....9606 (Available:$102.90)",
    "_top_": {
        "type": "string",
        "value": "0dp"
    },
    "_width_": {
        "type": "string",
        "value": "25%"
    },
    "_wrapping_": 2,
    "accessibilityconfig": {
        "a11yLabel": "Club Savings Account ....9606 (Available:$102.90)"
    },
    "android": {
        "textStyle": {
            "letterSpacing": 0,
            "strikeThrough": false
        }
    },
    "canUpdateUI": true,
    "containerId": true,
    "containerweight": 100,
    "contentalignment": 1,
    "id": "lblPaymentAccount",
    "info": null,
    "ipad": {
        "psp": {
            "wrapping": 2
        }
    },
    "iphone": {
        "psp": {
            "wrapping": 2
        }
    },
    "isvisible": true,
    "kuid": "a90f5287c2684f7ca4e4651853480866",
    "name": "kony.ui.Label",
    "paddinginpixel": false,
    "parent": "flxPaymentBalance",
    "pf": "segConfirmBulkPay",
    "tooltip": "",
    "wType": "Label",
    "zindex": 1
}