{
    "DNDConfig": null,
    "__parentReadjusting__": false,
    "_height_": {
        "type": "string",
        "value": "100%"
    },
    "_left_": {
        "type": "string",
        "value": "0dp"
    },
    "_margin_": [
        0,
        0,
        0,
        0
    ],
    "_orientation_": 6,
    "_padding_": [
        0,
        0,
        0,
        0
    ],
    "_percent_": true,
    "_skin_": "s24c92fc23b14f5484b693ee9b8a9b35",
    "_top_": {
        "type": "string",
        "value": "0dp"
    },
    "_width_": {
        "type": "string",
        "value": "100%"
    },
    "allboxes": [],
    "canUpdateUI": true,
    "children": [
        "flxAccountDetails"
    ],
    "clipbounds": true,
    "containerweight": 100,
    "enablescrolling": true,
    "id": "flxAccountUserDetails",
    "info": null,
    "iscustomlayout": false,
    "isvisible": true,
    "kuid": "ad40f1a3218a4cb5966241d9fc6e0f6b",
    "layouttype": 4,
    "name": "kony.ui.FlexContainer",
    "parent": "flxLeft",
    "pf": "frmWireTransferViewActivity",
    "responsiveData": {
        "b1": {
            "height": {
                "type": "ref",
                "value": "preferred"
            },
            "layoutType": 3,
            "width": {
                "type": "ref",
                "value": "preferred"
            }
        },
        "b2": {
            "height": {
                "type": "ref",
                "value": "preferred"
            },
            "layoutType": 3,
            "width": {
                "type": "ref",
                "value": "preferred"
            }
        },
        "b3": {
            "layoutType": 3
        }
    },
    "retaincontentalignment": false,
    "retainflexpositionproperties": false,
    "retainflowhorizontalalignment": false,
    "snapgridsize": 10,
    "snaptogrid": true,
    "wType": "FlexContainer",
    "widgetalignment": 1
}