{
	 "@class": "com.kony.gen.viz.model.component.KVizLabel",
	 "DNDConfig": null,
	 "__markedForDelete__": true,
	 "__parentReadjusting__": false,
	 "_height_": {
		 "type": "string",
		 "value": "28dp"
	},
	 "_left_": {
		 "type": "string",
		 "value": "0dp"
	},
	 "_margin_": [
		 0,
		 0,
		 0,
		 0
	],
	 "_padding_": [
		 0,
		 0,
		 0,
		 0
	],
	 "_skin_": "s712e57945314490ad76a113a230c419",
	 "_text_": "C",
	 "_top_": {
		 "type": "string",
		 "value": "0dp"
	},
	 "_width_": {
		 "type": "string",
		 "value": "28dp"
	},
	 "_wrapping_": 2,
	 "android": {
		 "textStyle": {
			 "letterSpacing": 0,
			 "strikeThrough": false
		}
	},
	 "canUpdateUI": true,
	 "centerx": {
		 "type": "string",
		 "value": "54%"
	},
	 "containerId": true,
	 "containerweight": 100,
	 "contentalignment": 4,
	 "id": "imgCheckimage",
	 "info": null,
	 "ipad": {
		 "psp": {
			 "wrapping": 2
		}
	},
	 "iphone": {
		 "psp": {
			 "wrapping": 2
		}
	},
	 "isvisible": true,
	 "kuid": "d652458d0f8e42748a24567921604dad",
	 "name": "kony.ui.Label",
	 "parent": "flxCheckImage",
	 "pf": "segCheckImageUnSelected",
	 "tooltip": "",
	 "wType": "Label",
	 "zindex": 1,
	 "accessibilityconfig": {
		 "a11yLabel": "C",
		 "a11yHidden": true,
		 "a11yARIA": {
			 "tabindex": -1
		}
	}
}