{
    "DNDConfig": null,
    "__parentReadjusting__": false,
    "_height_": {
        "type": "string",
        "value": "100%"
    },
    "_left_": {
        "type": "string",
        "value": "0dp"
    },
    "_margin_": [
        0,
        0,
        0,
        0
    ],
    "_orientation_": 6,
    "_padding_": [
        0,
        0,
        0,
        0
    ],
    "_percent_": true,
    "_skin_": "s24c92fc23b14f5484b693ee9b8a9b35",
    "_top_": {
        "type": "string",
        "value": "0dp"
    },
    "_width_": {
        "type": "string",
        "value": "100%"
    },
    "allboxes": [],
    "canUpdateUI": true,
    "children": [
        "lblTransactions",
        "flxSeparator3",
        "flxImgCancel"
    ],
    "clipbounds": true,
    "containerweight": 100,
    "enablescrolling": true,
    "id": "flxTitle",
    "info": null,
    "iscustomlayout": false,
    "isvisible": true,
    "kuid": "f2799aaf1238471a87d02f60e36db3c4",
    "layouttype": 2,
    "name": "kony.ui.FlexContainer",
    "parent": "flxViewEbillContainer",
    "pf": "frmPayABill",
    "responsiveData": {
        "b1": {
            "height": {
                "type": "string",
                "value": "55dp"
            }
        },
        "b2": {
            "height": {
                "type": "string",
                "value": "55dp"
            }
        },
        "b3": {
            "height": {
                "type": "string",
                "value": "54dp"
            }
        },
        "b4": {
            "height": {
                "type": "string",
                "value": "55dp"
            }
        }
    },
    "retaincontentalignment": false,
    "retainflexpositionproperties": false,
    "retainflowhorizontalalignment": false,
    "snapgridsize": 10,
    "snaptogrid": true,
    "wType": "FlexContainer",
    "widgetalignment": 1
}