{
    "@class": "com.kony.gen.viz.model.component.KVizTextBox2",
    "DNDConfig": null,
    "__parentReadjusting__": false,
    "_height_": {
        "type": "string",
        "value": "100%"
    },
    "_left_": {
        "type": "string",
        "value": "0%"
    },
    "_margin_": [
        0,
        0,
        0,
        0
    ],
    "_padding_": [
        4,
        0,
        0,
        0
    ],
    "_placeholder_": "Optional",
    "_skin_": "see5cceb37bc48a1a30aced8b8753dd0",
    "_text_": "",
    "_top_": {
        "type": "string",
        "value": "0dp"
    },
    "_width_": {
        "type": "string",
        "value": "100%"
    },
    "accessibilityconfig": {
        "a11yLabel": "Optional"
    },
    "autocapitalize": "none",
    "autocomplete": false,
    "autocorrect": false,
    "autofilter": false,
    "canUpdateUI": true,
    "containerId": true,
    "containerheight": "",
    "containerheightmode": 1,
    "containerweight": 100,
    "contentalignment": 4,
    "id": "txtNotes",
    "info": null,
    "isvisible": true,
    "keyboardtype": "A",
    "kiosk": {
        "render": false
    },
    "kuid": "cdc4f461b4664755a1440d186b6a9d64",
    "maxtextlength": 150,
    "mode": "A",
    "name": "kony.ui.TextBox2",
    "parent": "flxNotesValue",
    "pf": "segBeneficiariesSelected",
    "placeholderi18n": "i18n.transfers.optional",
    "securetextentry": false,
    "textinputmode": "A",
    "viewtype": "default",
    "wType": "TextField",
    "watchos": {
        "render": false
    },
    "windows10": {
        "render": false
    },
    "winphone10": {
        "render": false
    },
    "zindex": 1,
    "focusskin": "s2faf9c2766d4142ab33d0bf97445ae0"
}