{
    "@class": "com.kony.gen.viz.model.component.KVizUserWidget",
    "DNDConfig": null,
    "__parentReadjusting__": false,
    "_android_": {},
    "_androidwearos_": {},
    "_children_": [],
    "_desktopweb_": {},
    "_height_": {
        "type": "string",
        "value": "80dp"
    },
    "_ipad_": {},
    "_iphone_": {},
    "_kiosk_": {},
    "_left_": {
        "type": "number",
        "value": "0"
    },
    "_margin_": [
        0,
        0,
        0,
        0
    ],
    "_orientation_": 1,
    "_padding_": [
        0,
        0,
        0,
        0
    ],
    "_percent_": true,
    "_skin_": "s24c92fc23b14f5484b693ee9b8a9b35",
    "_spa_": {},
    "_spaan_": {},
    "_spaandroidtablet_": {},
    "_spabb_": {},
    "_spaip_": {},
    "_spaipad_": {},
    "_spamobile_": {},
    "_spatablet_": {},
    "_spawindowstablet_": {},
    "_spawinphone8_": {},
    "_tabrcandroid_": {},
    "_top_": {
        "type": "number",
        "value": "0"
    },
    "_vizProps_": {
        "hidewidgethierarchy": false
    },
    "_width_": {
        "type": "string",
        "value": "100%"
    },
    "_windows10_": {},
    "_windows8_": {},
    "_winphone10_": {},
    "_winphone8_": {},
    "areflexpropsreferenced": false,
    "autogrowmode": 0,
    "canUpdateUI": true,
    "centerx": {
        "type": "string",
        "value": "50%"
    },
    "clipbounds": true,
    "containerweight": 0,
    "dataDiffs": {
        "RadioButtonGroup0e9b89fa4f5e74c": {
            "__events__": {},
            "__info__": {
                "kuid": "u9cfa69ce1dd438aa24aa4938cc697aa",
                "srcKUID": "u15bc8eb448e47738986582f3cb5a580",
                "wType": "RadioButtonGroup"
            }
        },
        "TabSearchBarNew": {
            "__events__": {},
            "__info__": {
                "isRoot": true,
                "kuid": "u737d53cc245452cb3befe6ab16f444f",
                "srcKUID": "u4663f4f2a6a4d5eafc3b3eb3f12bcac",
                "wType": "FlexContainer"
            }
        },
        "btnAdvancedSearch": {
            "__events__": {},
            "__info__": {
                "kuid": "u7e67c204a3b4064950faf4fdab61fc3",
                "srcKUID": "u9fb23a7164b4175a63e7c27b88908d5",
                "wType": "Button"
            }
        },
        "flxBoxSearch": {
            "__events__": {},
            "__info__": {
                "kuid": "u9e3fdf3b8ac45da9173cab84e700e8a",
                "srcKUID": "u4e482b666f64e759326377be61d45e2",
                "wType": "FlexContainer"
            }
        },
        "flxClose": {
            "__events__": {},
            "__info__": {
                "kuid": "efea90afb1844846a4a24b1b6281c805",
                "srcKUID": "b40d4ef3973c49ec92290b2f51b4e74b",
                "wType": "FlexContainer"
            }
        },
        "flxDropDown": {
            "__events__": {},
            "__info__": {
                "kuid": "u45dcf23249549fc972317a302fff461",
                "srcKUID": "u815dff36cf14af6b490a77245f1da9f",
                "wType": "FlexContainer"
            }
        },
        "flxNoSearchResult": {
            "__events__": {},
            "__info__": {
                "kuid": "fb5795d424de4d91a571dc9ae1733d40",
                "srcKUID": "i060b64b6aa54d98b7e3043946086428",
                "wType": "FlexContainer"
            }
        },
        "flxOptions": {
            "__events__": {},
            "__info__": {
                "kuid": "u1a02dcfbbe442f099c0fe1f9d020d45",
                "srcKUID": "uc22a326a7034c59bb84c542f6c649a0",
                "wType": "FlexContainer"
            }
        },
        "flxSearch": {
            "__events__": {},
            "__info__": {
                "kuid": "u0e1861f25e5454fbf0cc57a40c1392b",
                "srcKUID": "u0172aa5ee1b4a60b3d85b11767c243e",
                "wType": "FlexContainer"
            }
        },
        "flxSearchimg": {
            "__events__": {},
            "__info__": {
                "kuid": "ca1f0b4985e2450c9822b7078d5c4cb1",
                "srcKUID": "bea45ecccc6d4f509feb2fa848b0388a",
                "wType": "FlexContainer"
            },
            "left": {
                "Default": {
                    "type": "string",
                    "value": "15px"
                }
            },
            "width": {
                "Default": {
                    "type": "string",
                    "value": "17px"
                }
            }
        },
        "flxToggleOptions": {
            "__events__": {},
            "__info__": {
                "kuid": "ua8c0853e30b49448daadfb98c5d54c3",
                "srcKUID": "ue080e62130548328cab44dbcbfcdcd1",
                "wType": "FlexContainer"
            }
        },
        "imgClose": {
            "__events__": {},
            "__info__": {
                "kuid": "d085b7a7b0384e5ba321fe2977743066",
                "srcKUID": "d679563cd4e34691b3ee2b368a29f270",
                "wType": "Image"
            }
        },
        "imgInfo": {
            "__events__": {},
            "__info__": {
                "kuid": "fb2db83c102249bf9588800dc3a8b089",
                "srcKUID": "c9f7e158902a44f2a9c1819964a571ce",
                "wType": "Image"
            }
        },
        "imgOption0": {
            "__events__": {},
            "__info__": {
                "kuid": "u70a245cbe4a4ad9bc866a7f45961502",
                "srcKUID": "ua533c4dcf924327b46b2889ea3b80be",
                "wType": "Image"
            }
        },
        "imgOption1": {
            "__events__": {},
            "__info__": {
                "kuid": "u00a2f6c7a214daa81c8d37cc6773579",
                "srcKUID": "u62ca82861b3432d8506aa25d522c4ba",
                "wType": "Image"
            }
        },
        "imgSearch": {
            "__events__": {},
            "__info__": {
                "kuid": "e8800214d2d74fc5b75ba908ede8817b",
                "srcKUID": "h80e4b2655544245af4e8111f98f5b18",
                "wType": "Image"
            }
        },
        "lblOption0": {
            "__events__": {},
            "__info__": {
                "kuid": "ud372a5965244f81864f785ef4b5b5c0",
                "srcKUID": "u48696db56dd471e828f695598cb21f6",
                "wType": "Label"
            }
        },
        "lblOption1": {
            "__events__": {},
            "__info__": {
                "kuid": "uc5f1d7f823d4362a4eb1bb27f2ee261",
                "srcKUID": "u5cf4704949d44788f9138a293f6f53a",
                "wType": "Label"
            }
        },
        "lblView": {
            "__events__": {},
            "__info__": {
                "kuid": "u228f2be9e184cb9ad794cfe120d09d1",
                "srcKUID": "u9579ef8c69c440b927e3ae98d256d6e",
                "wType": "Label"
            }
        },
        "listBoxViewType": {
            "__events__": {},
            "__info__": {
                "kuid": "ufb1110a41e7452b9b9deb3dc4473314",
                "srcKUID": "uedfa184938047dcb228ec37b1bee504",
                "wType": "ListBox"
            }
        },
        "rtxNoSearchResults": {
            "__events__": {},
            "__info__": {
                "kuid": "b847997146674340adb148ff774580be",
                "srcKUID": "cd630ea81e6b41e38eb8f734dc6e9ba3",
                "wType": "RichText"
            }
        },
        "tbxSearch": {
            "__events__": {},
            "__info__": {
                "kuid": "ua5edea764144284a22600723013a6c1",
                "srcKUID": "uac2948605884f3192bcbfff8a66b4ee",
                "wType": "TextField"
            }
        }
    },
    "enablescrolling": true,
    "id": "TabSearchBarNew",
    "info": null,
    "iscustomlayout": false,
    "isdatareferenced": false,
    "issegmentchild": false,
    "isvisible": true,
    "kuid": "u737d53cc245452cb3befe6ab16f444f",
    "layouttype": 3,
    "masterType": 0,
    "name": "kony.ui.UserWidgetInstance",
    "parent": "TabPaneNewCopy",
    "pf": "userwidgetmodel",
    "retaincontentalignment": false,
    "retainflexpositionproperties": false,
    "snapgridsize": 10,
    "snaptogrid": true,
    "sourceUserWidget": "u4663f4f2a6a4d5eafc3b3eb3f12bcac",
    "wType": "UserWidgetInstance",
    "zindex": 1
}