{
    "@class": "com.kony.gen.viz.model.component.KVizButton",
    "DNDConfig": null,
    "_height_": {
        "type": "string",
        "value": "50dp"
    },
    "_left_": {
        "type": "string",
        "value": "20dp"
    },
    "_margin_": [
        6,
        6,
        6,
        6
    ],
    "_padding_": [
        7,
        0,
        7,
        0
    ],
    "_skin_": "s364791b23424563b19f89706acedb03",
    "_text_": "Send Money",
    "_top_": {
        "type": "string",
        "value": "0dp"
    },
    "_width_": {
        "type": "ref",
        "value": "preferred"
    },
    "canUpdateUI": true,
    "containerweight": 100,
    "contentalignment": 5,
    "desktopweb": {
        "padding": [
            7,
            0,
            7,
            0
        ],
        "paddingInPixel": true
    },
    "displaytext": true,
    "focusskin": "s364791b23424563b19f89706acedb03",
    "id": "btnSendMoneyTab",
    "info": null,
    "iscustomlayout": false,
    "isvisible": true,
    "kuid": "e1e3f01d32e84a7d8af18e083052dcea",
    "name": "kony.ui.Button",
    "paddingLocked": false,
    "paddinginpixel": false,
    "parent": "flxTabs",
    "pf": "frmP2PSendMoneyTab",
    "responsiveData": {
        "b1": {}
    },
    "retaincontentalignment": false,
    "retainflexpositionproperties": false,
    "texti18n": "i18n.PayAPerson.sendRequest",
    "wType": "Button",
    "zindex": 1
}