{
    "DNDConfig": null,
    "_height_": {
        "type": "string",
        "value": "100%"
    },
    "_left_": {
        "type": "string",
        "value": "8.18%"
    },
    "_margin_": [
        0,
        0,
        0,
        0
    ],
    "_orientation_": 6,
    "_padding_": [
        0,
        0,
        0,
        0
    ],
    "_percent_": true,
    "_skin_": "s24c92fc23b14f5484b693ee9b8a9b35",
    "_top_": {
        "type": "string",
        "value": "0dp"
    },
    "_width_": {
        "type": "string",
        "value": "27.96%"
    },
    "allboxes": [],
    "autogrowmode": 0,
    "canUpdateUI": true,
    "children": [
        "lblRecipientName",
        "flxSortRecipient"
    ],
    "clipbounds": true,
    "containerweight": 100,
    "enablescrolling": true,
    "id": "flxRecipientName",
    "info": null,
    "iscustomlayout": false,
    "isvisible": true,
    "kuid": "d904f3159dc84e27af7b2356cd5e549e",
    "layouttype": 3,
    "name": "kony.ui.FlexContainer",
    "parent": "flxSegHeader",
    "pf": "frmP2PSendMoneyTab",
    "responsiveData": {
        "b1": {
            "width": {
                "type": "string",
                "value": "27.96%"
            }
        },
        "b2": {
            "width": {
                "type": "string",
                "value": "27.96%"
            }
        }
    },
    "retaincontentalignment": false,
    "retainflexpositionproperties": false,
    "retainflowhorizontalalignment": false,
    "snapgridsize": 10,
    "snaptogrid": true,
    "wType": "FlexContainer",
    "widgetalignment": 1
}