{
    "@class": "com.kony.gen.viz.model.component.KVizListBox",
    "DNDConfig": null,
    "__parentReadjusting__": false,
    "_height_": {
        "type": "string",
        "value": "100%"
    },
    "_left_": {
        "type": "string",
        "value": "0dp"
    },
    "_margin_": [
        0,
        0,
        0,
        0
    ],
    "_padding_": [
        2,
        0,
        1,
        0
    ],
    "_placeholder_": "Please Select",
    "_skin_": "s67028ba4fed4f2287f6b20aadfaa3ba",
    "_top_": {
        "type": "string",
        "value": "0dp"
    },
    "_width_": {
        "type": "string",
        "value": "100%"
    },
    "canUpdateUI": true,
    "containerweight": 100,
    "contentalignment": 4,
    "focusskin": "s67028ba4fed4f2287f6b20aadfaa3ba",
    "groupcells": false,
    "id": "lstbAccount",
    "info": null,
    "iscustomlayout": false,
    "isvisible": true,
    "kiosk": {
        "psp": {
            "placeholder": "Select"
        }
    },
    "kuid": "i0fdf396e689461f9bc2746b251c4e9a",
    "masterdata": [
        [
            "lblSelect",
            "Select"
        ],
        [
            "lblx7690",
            "Progress Business Checking - X7690"
        ],
        [
            "lblx4710",
            "Pro Business Checking - X4710"
        ]
    ],
    "name": "kony.ui.ListBox",
    "paddinginpixel": false,
    "parent": "flxPaymentType",
    "pf": "frmACHDashboard",
    "responsiveData": {
        "b1": {
            "padding": [
                3,
                0,
                1,
                0
            ]
        },
        "b2": {
            "padding": [
                2,
                0,
                1,
                0
            ]
        },
        "b3": {
            "padding": [
                2,
                0,
                1,
                0
            ]
        },
        "b4": {
            "padding": [
                2,
                0,
                1,
                0
            ]
        }
    },
    "retaincontentalignment": false,
    "retainflexpositionproperties": false,
    "selectedkey": "lblSelect",
    "selectedkeys": null,
    "selectedkeyvalue": [
        "lblSelect",
        "Select"
    ],
    "selectedkeyvalues": null,
    "size": 18,
    "viewconfig": {
        "toggleViewConfig": {
            "viewStyle": 0
        }
    },
    "viewtype": 0,
    "wType": "ListBox",
    "zindex": 1
}