{
    "@class": "com.kony.gen.viz.model.component.KVizUserWidget",
    "DNDConfig": null,
    "__parentReadjusting__": false,
    "_android_": {},
    "_androidwearos_": {},
    "_children_": [],
    "_desktopweb_": {},
    "_height_": {
        "type": "ref",
        "value": "preferred"
    },
    "_ipad_": {},
    "_iphone_": {},
    "_kiosk_": {},
    "_left_": {
        "type": "string",
        "value": "0"
    },
    "_margin_": [
        0,
        0,
        0,
        0
    ],
    "_orientation_": 1,
    "_padding_": [
        0,
        0,
        0,
        0
    ],
    "_percent_": true,
    "_responsiveData_": {},
    "_skin_": "s58e4d1a4efc4b1987e922f602b19995",
    "_spa_": {},
    "_spaan_": {},
    "_spaandroidtablet_": {},
    "_spabb_": {},
    "_spaip_": {},
    "_spaipad_": {},
    "_spamobile_": {},
    "_spatablet_": {},
    "_spawindowstablet_": {},
    "_spawinphone8_": {},
    "_tabrcandroid_": {},
    "_top_": {
        "type": "string",
        "value": "0dp"
    },
    "_vizProps_": {
        "hidewidgethierarchy": false
    },
    "_width_": {
        "type": "string",
        "value": "100%"
    },
    "_windows10_": {},
    "_windows8_": {},
    "_winphone10_": {},
    "_winphone8_": {},
    "areflexpropsreferenced": false,
    "autogrowmode": 1,
    "canUpdateUI": true,
    "clipbounds": true,
    "containerweight": 0,
    "dataDiffs": {
        "flxContainerAuthenticate": {
            "__events__": {},
            "__info__": {
                "kuid": "d57a9b81134b40a499e69607487442f7",
                "srcKUID": "fce6fbb5640146d2b655a1bbce31bcc8",
                "wType": "FlexContainer"
            }
        },
        "flxContainerSecureCode": {
            "__events__": {},
            "__info__": {
                "kuid": "e54ba478ed0244e4a9d715d659c679d8",
                "srcKUID": "c31dc9c5d6b84619a8a6db863b719378",
                "wType": "FlexContainer"
            },
            "responsiveData": {
                "b3": {
                    "isVisible": false
                }
            }
        },
        "secureAccessChannelsNew": {
            "__events__": {},
            "__info__": {
                "kuid": "bb2fe205187142b8ad3964f50490a852",
                "srcKUID": "a87da2ab5e1d45829ad047d71917f2d9",
                "wType": "UserWidgetInstance"
            }
        },
        "secureAccessChannelsNew.btnCancel": {
            "__events__": {},
            "__info__": {
                "kuid": "f2ee892698ff48158d0825e4eb747f16",
                "srcKUID": "f586cf0b39884a36933a5d609ee2e125",
                "wType": "Button"
            },
            "bottom": {},
            "height": {},
            "left": {},
            "responsiveData": {
                "b3": {
                    "bottom": {
                        "type": "string",
                        "value": ""
                    },
                    "height": {
                        "type": "string",
                        "value": "40dp"
                    },
                    "left": {
                        "type": "string",
                        "value": "20dp"
                    },
                    "right": {
                        "type": "string",
                        "value": "20dp"
                    },
                    "top": {
                        "type": "string",
                        "value": "80dp"
                    },
                    "width": {
                        "type": "string",
                        "value": ""
                    }
                }
            },
            "right": {},
            "top": {},
            "width": {}
        },
        "secureAccessChannelsNew.btnProceed": {
            "__events__": {},
            "__info__": {
                "kuid": "a8c50dab489945a5b676df5ae9cba9b6",
                "srcKUID": "a4c73b50cca2491fb60b3e8d87c8cbca",
                "wType": "Button"
            },
            "bottom": {},
            "height": {},
            "left": {},
            "responsiveData": {
                "b3": {
                    "bottom": {
                        "type": "string",
                        "value": ""
                    },
                    "height": {
                        "type": "string",
                        "value": "40dp"
                    },
                    "left": {
                        "type": "string",
                        "value": "20dp"
                    },
                    "right": {
                        "type": "string",
                        "value": "20dp"
                    },
                    "top": {
                        "type": "string",
                        "value": "20dp"
                    },
                    "width": {
                        "type": "string",
                        "value": ""
                    }
                }
            },
            "right": {},
            "top": {},
            "width": {}
        },
        "secureAccessChannelsNew.btnProfileSetting": {
            "__events__": {},
            "__info__": {
                "kuid": "dd74b8e74f5d4c81ae0b7ac011136e49",
                "srcKUID": "fe257e60e87a419e9185a49b528b8c77",
                "wType": "Button"
            }
        },
        "secureAccessChannelsNew.flxActions": {
            "__events__": {},
            "__info__": {
                "kuid": "aa7878c941424bc6b2511d049cbde06e",
                "srcKUID": "i733027813bd49d1b4bdaa0bdc7a1660",
                "wType": "FlexContainer"
            },
            "autogrowMode": {
                "Default": 0
            },
            "height": {},
            "responsiveData": {
                "b3": {
                    "height": {
                        "type": "string",
                        "value": "140dp"
                    }
                }
            }
        },
        "secureAccessChannelsNew.flxCheckBoxPhoneNo": {
            "__events__": {},
            "__info__": {
                "kuid": "c504bdf37d3646d893459d5f776843d8",
                "srcKUID": "b4096edb61e04ddea7b6df5b81e46fc4",
                "wType": "FlexContainer"
            }
        },
        "secureAccessChannelsNew.flxCheckboxEmailId": {
            "__events__": {},
            "__info__": {
                "kuid": "d0e2407db1334242b9545768b87e53b3",
                "srcKUID": "c92a98a90f804256b2d018ef12c73fc4",
                "wType": "FlexContainer"
            }
        },
        "secureAccessChannelsNew.flxDetails": {
            "__events__": {},
            "__info__": {
                "kuid": "b356ef38fa254026823874eb6ca52425",
                "srcKUID": "a62d6dea4e21413ea3752b36688e73cc",
                "wType": "FlexContainer"
            }
        },
        "secureAccessChannelsNew.flxHeader": {
            "__events__": {},
            "__info__": {
                "kuid": "de90f834e55043a1bab2e987e099b611",
                "srcKUID": "j641bb538f4b49cc8f0f5ab33d14e937",
                "wType": "FlexContainer"
            }
        },
        "secureAccessChannelsNew.flxProfileSetting": {
            "__events__": {},
            "__info__": {
                "kuid": "caf78480d6c24fe89ce6f0f440b1d7c5",
                "srcKUID": "hc8420b9c1cf4426b42a1377045f7c8a",
                "wType": "FlexContainer"
            }
        },
        "secureAccessChannelsNew.flxRegisteredEmailId": {
            "__events__": {},
            "__info__": {
                "kuid": "ab788a769b9a4fbf9d90fdbc4a3c8352",
                "srcKUID": "d12294d9a58d4a78a722936bf00bda33",
                "wType": "FlexContainer"
            }
        },
        "secureAccessChannelsNew.flxRegisteredPhoneNo": {
            "__events__": {},
            "__info__": {
                "kuid": "j6869ae0c90142249480cd5d76c127fb",
                "srcKUID": "c50a11ca337c4afe90f53e4cb5ea715d",
                "wType": "FlexContainer"
            }
        },
        "secureAccessChannelsNew.flxSeparator": {
            "__events__": {},
            "__info__": {
                "kuid": "c13d3e7e939e443294eb7fa455037f4c",
                "srcKUID": "h887fcef2bf048cfaf816007f9fe4623",
                "wType": "FlexContainer"
            }
        },
        "secureAccessChannelsNew.flxSeparator2": {
            "__events__": {},
            "__info__": {
                "kuid": "c38e53129529404e93967502f3e3b7f1",
                "srcKUID": "i40a577c7c4f4e70b301bf35d4908faf",
                "wType": "FlexContainer"
            }
        },
        "secureAccessChannelsNew.flxWarning": {
            "__events__": {},
            "__info__": {
                "kuid": "f8022a90dd67428c9ab4abeac307977b",
                "srcKUID": "db578e29fefb4cfb871859c57e81f16a",
                "wType": "FlexContainer"
            }
        },
        "secureAccessChannelsNew.imgCheckBoxPhoneNo": {
            "__events__": {},
            "__info__": {
                "kuid": "c4a43048d1af40d7a0c593d8e5852757",
                "srcKUID": "e01329c8c3bf467a8a738c06c192bb6c",
                "wType": "Image"
            },
            "src": "checkedboxbb.png"
        },
        "secureAccessChannelsNew.imgCheckboxEmailId": {
            "__events__": {},
            "__info__": {
                "kuid": "a86f83b2d9074a1881f5ce1b85f0cb99",
                "srcKUID": "f490b6357e72429d9ec00957e5161da4",
                "wType": "Image"
            },
            "src": "checkedboxbb.png"
        },
        "secureAccessChannelsNew.imgWarning": {
            "__events__": {},
            "__info__": {
                "kuid": "f0d4bde937bf4e19a66a7faee633ba04",
                "srcKUID": "cbb8498a930e4852861b9b1c24b71b69",
                "wType": "Image"
            }
        },
        "secureAccessChannelsNew.lblChangeReceivingMedium": {
            "__events__": {},
            "__info__": {
                "kuid": "f7e67c1d2ad941c0894db12e8c08f1ad",
                "srcKUID": "dad6d85337884953b79510882aa1024b",
                "wType": "Label"
            },
            "i18n_text": "i18n.konybb.ach.secureCodeReceivingMedium",
            "responsiveData": {},
            "text": ""
        },
        "secureAccessChannelsNew.lblCloseBrace": {
            "__events__": {},
            "__info__": {
                "kuid": "ce6162fa2ad64466b29e69d9cd3df6d2",
                "srcKUID": "ja74be65a5c44b229026736916908266",
                "wType": "Label"
            }
        },
        "secureAccessChannelsNew.lblCloseBracePhoneNo": {
            "__events__": {},
            "__info__": {
                "kuid": "h68f0e07733247d1aba4f5cfbbb2e4ef",
                "srcKUID": "h225636880024f2d9bbdedf17e0b99f8",
                "wType": "Label"
            }
        },
        "secureAccessChannelsNew.lblHeader": {
            "__events__": {},
            "__info__": {
                "kuid": "a7fae643a0ee4ea3b0d966aaff6e2d41",
                "srcKUID": "e7b3dde25d344b9089cd863ec90ee3cf",
                "wType": "Label"
            },
            "i18n_text": "i18n.MFA.ChooseAnOptionToReceiveAccessCode",
            "responsiveData": {},
            "text": ""
        },
        "secureAccessChannelsNew.lblHeading1": {
            "__events__": {},
            "__info__": {
                "kuid": "a4459c7943e342579efce58e81f37dcc",
                "srcKUID": "g38c90fae8464185b0b560cc2075035b",
                "wType": "Label"
            },
            "i18n_text": "i18n.konybb.ach.authenticationHeading",
            "responsiveData": {},
            "text": ""
        },
        "secureAccessChannelsNew.lblHeading2": {
            "__events__": {},
            "__info__": {
                "kuid": "g6d3bdbaa07741fb86efb2a440da0914",
                "srcKUID": "e2dbd0d1a98e4d50921fb72027bf9eea",
                "wType": "Label"
            },
            "i18n_text": "i18n.konybb.secure.WeHaveSentYouTheSecureAccessCodeOnYour",
            "responsiveData": {},
            "text": ""
        },
        "secureAccessChannelsNew.lblNoteSecureAccessCode": {
            "__events__": {},
            "__info__": {
                "kuid": "e3622afad02d480a98d93c1fea331736",
                "srcKUID": "ddbe912e126640b4a494ba1df44a4326",
                "wType": "Label"
            },
            "responsiveData": {},
            "text": ""
        },
        "secureAccessChannelsNew.lblOpenBrace": {
            "__events__": {},
            "__info__": {
                "kuid": "ac071a87cf6a4a39b94e7057766d4e52",
                "srcKUID": "ee43b0ba689c40b2bfa2cf197352468a",
                "wType": "Label"
            }
        },
        "secureAccessChannelsNew.lblOpenBracePhoneNo": {
            "__events__": {},
            "__info__": {
                "kuid": "j6ba2c1e199548939456727621127f77",
                "srcKUID": "h7f10712f5994b55b72d89ab2d5b3cfd",
                "wType": "Label"
            }
        },
        "secureAccessChannelsNew.lblPhoneNo": {
            "__events__": {},
            "__info__": {
                "kuid": "ba388023b4084b38b781d1d4272cd05a",
                "srcKUID": "b835cdb90950477fa99c6138261939a0",
                "wType": "Label"
            }
        },
        "secureAccessChannelsNew.lblRegisteredEmailIDs": {
            "__events__": {},
            "__info__": {
                "kuid": "j4210b9cdf704beb9dbffff4a78fed85",
                "srcKUID": "c790206b284641ffbc8befa3416fdb9d",
                "wType": "Label"
            },
            "responsiveData": {
                "b3": {
                    "width": {
                        "type": "string",
                        "value": "40%"
                    }
                }
            },
            "width": {}
        },
        "secureAccessChannelsNew.lblRegisteredEmailId": {
            "__events__": {},
            "__info__": {
                "kuid": "d1fb4171a7d243f0bfad009ca50875c4",
                "srcKUID": "d0a36e9c93424b438fe6d55ef3696967",
                "wType": "Label"
            }
        },
        "secureAccessChannelsNew.lblRegisteredPhoneNo": {
            "__events__": {},
            "__info__": {
                "kuid": "a01cf78761f946a796bcb2e4a764b89c",
                "srcKUID": "fe48c9b44eff41dc96d6e80f9257abbe",
                "wType": "Label"
            },
            "responsiveData": {
                "b3": {
                    "width": {
                        "type": "string",
                        "value": "40%"
                    }
                }
            },
            "width": {}
        },
        "secureAccessChannelsNew.lblWarning": {
            "__events__": {},
            "__info__": {
                "kuid": "j62358b696c54d63979870701aebc160",
                "srcKUID": "dc6d3a1f13eb44b1a8003ede8a825c4b",
                "wType": "Label"
            }
        },
        "secureAccessCodeNew": {
            "__events__": {},
            "__info__": {
                "kuid": "i6ede26e30f44e5f80ac0e100bd812c5",
                "srcKUID": "e1958c1a335f47d7b1e9003a814ac6b8",
                "wType": "UserWidgetInstance"
            }
        },
        "secureAccessCodeNew.btnCancel": {
            "__events__": {},
            "__info__": {
                "kuid": "cbdef1dbd24f4cdc8e1aece543a4bf91",
                "srcKUID": "i05e7a336ade467cabd7594818976f25",
                "wType": "Button"
            },
            "bottom": {},
            "height": {},
            "left": {},
            "responsiveData": {
                "b3": {
                    "bottom": {
                        "type": "string",
                        "value": ""
                    },
                    "height": {
                        "type": "string",
                        "value": "40dp"
                    },
                    "left": {
                        "type": "string",
                        "value": "20dp"
                    },
                    "right": {
                        "type": "string",
                        "value": "20dp"
                    },
                    "top": {
                        "type": "string",
                        "value": "80dp"
                    },
                    "width": {
                        "type": "string",
                        "value": ""
                    }
                }
            },
            "right": {},
            "top": {},
            "width": {}
        },
        "secureAccessCodeNew.btnProceed": {
            "__events__": {},
            "__info__": {
                "kuid": "fdf8aacd849a400ba9a148f941a65d1b",
                "srcKUID": "f56acc0410494b769f33b599fcb77eeb",
                "wType": "Button"
            },
            "bottom": {},
            "height": {},
            "left": {},
            "responsiveData": {
                "b3": {
                    "bottom": {
                        "type": "string",
                        "value": ""
                    },
                    "height": {
                        "type": "string",
                        "value": "40dp"
                    },
                    "left": {
                        "type": "string",
                        "value": "20dp"
                    },
                    "right": {
                        "type": "string",
                        "value": "20dp"
                    },
                    "top": {
                        "type": "string",
                        "value": "20dp"
                    },
                    "width": {
                        "type": "string",
                        "value": ""
                    }
                }
            },
            "right": {},
            "top": {},
            "width": {}
        },
        "secureAccessCodeNew.flxActions": {
            "__events__": {},
            "__info__": {
                "kuid": "a47fc23500f540dabeab1dd075b10b58",
                "srcKUID": "ab1b0da8963440368edcbbbea1bef1c9",
                "wType": "FlexContainer"
            },
            "autogrowMode": {
                "Default": 0
            },
            "height": {},
            "responsiveData": {
                "b3": {
                    "height": {
                        "type": "string",
                        "value": "140dp"
                    }
                }
            }
        },
        "secureAccessCodeNew.flxEnterCVVCodes": {
            "__events__": {},
            "__info__": {
                "kuid": "c57943fc3ed440f9adfeefc40bdffb01",
                "srcKUID": "fc6feaf103d4475b98e479f3ed03abb7",
                "wType": "FlexContainer"
            }
        },
        "secureAccessCodeNew.flxEnterSecureAccessCode": {
            "__events__": {},
            "__info__": {
                "kuid": "b52e3f0f2a064c55adb7d70c572a063a",
                "srcKUID": "i9cd7f5a7891411cadf71aa3e0df3e41",
                "wType": "FlexContainer"
            }
        },
        "secureAccessCodeNew.flxHeader": {
            "__events__": {},
            "__info__": {
                "kuid": "j23a2e2d359a4c918783991f65f3e251",
                "srcKUID": "f92df97b881b4448a4e2261098311ce5",
                "wType": "FlexContainer"
            }
        },
        "secureAccessCodeNew.flxResendOption": {
            "__events__": {},
            "__info__": {
                "kuid": "bec27df92b62409ba0a9080cb6d50bf6",
                "srcKUID": "cf9bade51dcd4108859d03652f330d7f",
                "wType": "FlexContainer"
            }
        },
        "secureAccessCodeNew.flxSecureAccessCodetxtBox": {
            "__events__": {},
            "__info__": {
                "kuid": "b8ef74b0f56f4aa093a830c43f7ee301",
                "srcKUID": "i221f71a976e4c799cb7697b0fc33554",
                "wType": "FlexContainer"
            }
        },
        "secureAccessCodeNew.flxSeparator": {
            "__events__": {},
            "__info__": {
                "kuid": "f82af40f379c4036b2ceb5033a5e02bc",
                "srcKUID": "e1f96b6667224c4eb7ce5b61c6ac1069",
                "wType": "FlexContainer"
            }
        },
        "secureAccessCodeNew.flxSeparator2": {
            "__events__": {},
            "__info__": {
                "kuid": "c8429590da7d4c79bd94129b4ba36b33",
                "srcKUID": "ecaca1f662044ff197e349f729086383",
                "wType": "FlexContainer"
            }
        },
        "secureAccessCodeNew.flxWarning": {
            "__events__": {},
            "__info__": {
                "kuid": "a88ed94b7c9a42f18c4d7b53e50646d9",
                "srcKUID": "c8c2fe2da42443c882687a038dd5a8ea",
                "wType": "FlexContainer"
            }
        },
        "secureAccessCodeNew.imgViewCVVCode": {
            "__events__": {},
            "__info__": {
                "kuid": "c8bc0ebce70d47ebba44a3e325b09369",
                "srcKUID": "a07e759d591649a08271c3290fda2a93",
                "wType": "Image"
            },
            "src": "view.png"
        },
        "secureAccessCodeNew.imgWarning": {
            "__events__": {},
            "__info__": {
                "kuid": "a1d33dd4655443c5905f4092b44a27f6",
                "srcKUID": "df21cab2012942398449b4704868dfd9",
                "wType": "Image"
            },
            "src": "error_yellow.png"
        },
        "secureAccessCodeNew.lblEnterSecureAccessCode": {
            "__events__": {},
            "__info__": {
                "kuid": "icde5fe85a914cd4b9c2e3e1535c7ffb",
                "srcKUID": "e978b95c2bc04a559188cb956d5df618",
                "wType": "Label"
            },
            "i18n_text": "i18n.konybb.transfers.enterPassCodeNote",
            "responsiveData": {},
            "text": ""
        },
        "secureAccessCodeNew.lblHeader": {
            "__events__": {},
            "__info__": {
                "kuid": "e10791f70e194bbd89aa6b59ba1a2145",
                "srcKUID": "a27c6d52a64840858bcf287a760f3a6e",
                "wType": "Label"
            },
            "i18n_text": "i18n.MFA.EnterSecureAccessCode",
            "responsiveData": {},
            "text": ""
        },
        "secureAccessCodeNew.lblNote": {
            "__events__": {},
            "__info__": {
                "kuid": "ecbea0f7a69f4fffb9f5c94f415db72a",
                "srcKUID": "f8b33f75f5be459d8b9f4ecc08a8670e",
                "wType": "Label"
            },
            "i18n_text": "i18n.MFA.NoteYourSecureAccessCodeIsConfidential",
            "responsiveData": {},
            "text": ""
        },
        "secureAccessCodeNew.lblResendOption1": {
            "__events__": {},
            "__info__": {
                "kuid": "e9d0422aca42421ca21d72b10db1e5cc",
                "srcKUID": "j0cc4f73a79c4e65ae72c95086d01cec",
                "wType": "Label"
            }
        },
        "secureAccessCodeNew.lblResendOption2": {
            "__events__": {},
            "__info__": {
                "kuid": "af88c5c5e92949589142a3e49382dd0e",
                "srcKUID": "f9802d0367884b6db1461432f0f0b288",
                "wType": "Button"
            }
        },
        "secureAccessCodeNew.lblResendOption3": {
            "__events__": {},
            "__info__": {
                "kuid": "fa2725c64f9d4001b52a75821e1a7ac6",
                "srcKUID": "c0a678ba18f940c2b165651ad4adb154",
                "wType": "Label"
            },
            "i18n_text": null,
            "responsiveData": {}
        },
        "secureAccessCodeNew.lblSecureAccessCode": {
            "__events__": {},
            "__info__": {
                "kuid": "eaf24dd063ca4a7ab29d708dee11abf8",
                "srcKUID": "d18a9f4578d147f2b10f4d18474ce1a3",
                "wType": "Label"
            },
            "i18n_text": "i18n.ProfileManagement.SecureAccessCode",
            "responsiveData": {
                "b3": {
                    "width": {
                        "type": "string",
                        "value": "40%"
                    }
                }
            },
            "text": "",
            "width": {}
        },
        "secureAccessCodeNew.lblWarning": {
            "__events__": {},
            "__info__": {
                "kuid": "ded486fc2b6844eea5c8ad3ef26ed940",
                "srcKUID": "e55cf672c49e43c3aaf3304ab45908dc",
                "wType": "Label"
            }
        },
        "secureAccessCodeNew.tbxEnterCVVCode": {
            "__events__": {},
            "__info__": {
                "kuid": "bb2e728038544c8a8133aa26613c3b23",
                "srcKUID": "ce0ad1d0c7d241c1974c596e087afedf",
                "wType": "TextField"
            },
            "i18n_placeholder": "i18n.MFA.EnterSecureAccessCode"
        },
        "singleAuthenticatorNew": {
            "__events__": {},
            "__info__": {
                "isRoot": true,
                "kuid": "ie64172fcaa24acab6c2e3f3dca9a6f5",
                "srcKUID": "e78b78c3d25b4517aaf4b84aced30101",
                "wType": "FlexContainer"
            }
        }
    },
    "enablescrolling": true,
    "id": "singleAuthenticatorNew",
    "info": null,
    "iscustomlayout": false,
    "isdatareferenced": false,
    "isvisible": true,
    "kuid": "ie64172fcaa24acab6c2e3f3dca9a6f5",
    "layouttype": 4,
    "masterType": 0,
    "name": "kony.ui.UserWidgetInstance",
    "parent": "flxAuthenticator",
    "pf": "frmACHDashboard",
    "retaincontentalignment": false,
    "retainflexpositionproperties": false,
    "snapgridsize": 10,
    "snaptogrid": true,
    "sourceUserWidget": "e78b78c3d25b4517aaf4b84aced30101",
    "wType": "UserWidgetInstance",
    "zindex": 1
}