{
    "@class": "com.kony.gen.viz.model.component.KVizUserWidget",
    "DNDConfig": null,
    "__parentReadjusting__": false,
    "_children_": [],
    "_height_": {
        "type": "ref",
        "value": "preferred"
    },
    "_left_": {
        "type": "string",
        "value": "0dp"
    },
    "_margin_": [
        0,
        0,
        0,
        0
    ],
    "_orientation_": 1,
    "_padding_": [
        0,
        0,
        0,
        0
    ],
    "_percent_": true,
    "_skin_": "s24c92fc23b14f5484b693ee9b8a9b35",
    "_top_": {
        "type": "string",
        "value": "0dp"
    },
    "_width_": {
        "type": "string",
        "value": "100%"
    },
    "areflexpropsreferenced": false,
    "autogrowmode": 1,
    "canUpdateUI": true,
    "clipbounds": true,
    "containerweight": 0,
    "dataDiffs": {
        "TabBodyNew": {
            "__events__": {},
            "__info__": {
                "kuid": "ia5fa3c9e81e4806b1b22a257e342421",
                "srcKUID": "a57a5a9f2cef4290b999ca6f11f53fde",
                "wType": "UserWidgetInstance"
            }
        },
        "TabBodyNew.segTemplates": {
            "__events__": {},
            "__info__": {
                "kuid": "a8e284dd14324b60a40c22cc834cc2f0",
                "srcKUID": "ca1180212c234eb8ae340f60710040e3",
                "wType": "Segment"
            },
            "left": {
                "Default": {
                    "type": "string",
                    "value": "0dp"
                }
            },
            "responsiveData": {
                "b2": {
                    "left": {
                        "type": "string",
                        "value": ""
                    }
                }
            }
        },
        "TemplateRecordsNew": {
            "__events__": {},
            "__info__": {
                "isRoot": true,
                "kuid": "a4693eb80f304e17b7c64fa438006b45",
                "srcKUID": "g9c64e13ff2e4816a8e01d0df5b30976",
                "wType": "FlexContainer"
            }
        },
        "btnAddAdditionalDetailsRow": {
            "__events__": {},
            "__info__": {
                "kuid": "j957a523c9bc488fa8fddd5aaf624130",
                "srcKUID": "e6d6edd1b5ba4602aa32debee9c1ca69",
                "wType": "Button"
            },
            "isVisible": false,
            "responsiveData": {}
        },
        "btnUpdate": {
            "__events__": {},
            "__info__": {
                "kuid": "e2510272ab98432e910abd6f1244038e",
                "srcKUID": "b6ab3a375a3d47e8865f25215a752635",
                "wType": "Button"
            },
            "centerY": {
                "Default": {
                    "type": "string",
                    "value": "50%"
                }
            },
            "left": {
                "Default": {
                    "type": "string",
                    "value": "0.93%"
                }
            },
            "responsiveData": {
                "b2": {
                    "left": {
                        "type": "string",
                        "value": ""
                    }
                },
                "b4": {
                    "left": {
                        "type": "string",
                        "value": ""
                    }
                }
            },
            "right": {
                "Default": {
                    "type": "string",
                    "value": "3%"
                }
            },
            "top": {
                "Default": {
                    "type": "string",
                    "value": ""
                }
            }
        },
        "flxAddAdditionalDetailsRow": {
            "__events__": {},
            "__info__": {
                "kuid": "d44a64d7fd7e49169441c6b7904a6cff",
                "srcKUID": "b7f53a9a8aa74014a92cffa822bf3b3f",
                "wType": "FlexContainer"
            }
        },
        "flxSeparator": {
            "__events__": {},
            "__info__": {
                "kuid": "c6be27df9dac48d095c28d7b68e16365",
                "srcKUID": "hb2c7678f96c445bb95c98bec427f4c5",
                "wType": "FlexContainer"
            },
            "responsiveData": {},
            "width": {
                "Default": {
                    "type": "string",
                    "value": "100%"
                }
            }
        },
        "flxSeperator1": {
            "__events__": {},
            "__info__": {
                "kuid": "i7b858a9cdf1424ba7cab0d17fc902d4",
                "srcKUID": "e86d45f4d39c4e7dad9e4fc6001ffd56",
                "wType": "FlexContainer"
            }
        },
        "flxTemplateRecordDefaultValue": {
            "__events__": {},
            "__info__": {
                "kuid": "ea7d32fa92004390810e5de78073c52b",
                "srcKUID": "e626bd8428ba430cb6a7dc12b3c347b8",
                "wType": "FlexContainer"
            }
        },
        "flxTotalAmount": {
            "__events__": {},
            "__info__": {
                "kuid": "f40149de1bb9470385f6091a4cc75426",
                "srcKUID": "f5bdf89ec9704905b1ad69476f24b282",
                "wType": "FlexContainer"
            },
            "left": {
                "Default": {
                    "type": "string",
                    "value": "79%"
                }
            },
            "responsiveData": {
                "b1": {
                    "left": {
                        "type": "string",
                        "value": "79%"
                    }
                },
                "b2": {
                    "isVisible": true,
                    "left": {
                        "type": "string",
                        "value": "79%"
                    }
                },
                "b3": {
                    "left": {
                        "type": "string",
                        "value": ""
                    },
                    "right": {
                        "type": "string",
                        "value": "5%"
                    },
                    "width": {
                        "type": "string",
                        "value": "50%"
                    }
                }
            },
            "right": {},
            "width": {}
        },
        "flxTotalAmountCreate": {
            "__events__": {},
            "__info__": {
                "kuid": "aa35f05c6d084dd9ad345af7b8b2bb40",
                "srcKUID": "bdf286428f53439b868c75af34d69822",
                "wType": "FlexContainer"
            },
            "left": {},
            "responsiveData": {
                "b2": {
                    "left": {
                        "type": "string",
                        "value": "76%"
                    }
                }
            }
        },
        "flxUpdateAmount": {
            "__events__": {},
            "__info__": {
                "kuid": "h7df15316a7d49c7b824210d2f76f976",
                "srcKUID": "bb3f0b83109a405abe06b084e95299b8",
                "wType": "FlexContainer"
            }
        },
        "imgSample": {
            "__events__": {},
            "__info__": {
                "kuid": "b98a37e237514766a2ca03d448afdf5a",
                "srcKUID": "cdfc494e38ae4e93b86626f875b55de1",
                "wType": "Image"
            }
        },
        "lblAmountColon": {
            "__events__": {},
            "__info__": {
                "kuid": "ce9dc04748ed4424870c18c294248c4e",
                "srcKUID": "gbbe0a90573c47ee800228825b02f06b",
                "wType": "Label"
            },
            "left": {},
            "responsiveData": {
                "b1": {
                    "left": {
                        "type": "string",
                        "value": "77.50%"
                    }
                },
                "b2": {
                    "left": {
                        "type": "string",
                        "value": "77.50%"
                    }
                },
                "b4": {
                    "left": {
                        "type": "string",
                        "value": "77.50%"
                    }
                }
            }
        },
        "lblColon": {
            "__events__": {},
            "__info__": {
                "kuid": "b7102fc84a8147859d6d8b80b1cb2b5e",
                "srcKUID": "h65ae9fd50c54f75b543bacdfc30771f",
                "wType": "Label"
            },
            "i18n_text": null,
            "isVisible": true,
            "left": {},
            "responsiveData": {
                "b2": {
                    "left": {
                        "type": "string",
                        "value": "0dp"
                    }
                }
            }
        },
        "lblCurrSymbol": {
            "__events__": {},
            "__info__": {
                "kuid": "c672410b8cb44a40b5ce253aaac580a9",
                "srcKUID": "c7b362ef65b54e0c94667938cba5593e",
                "wType": "Label"
            },
            "left": {
                "Default": {
                    "type": "string",
                    "value": "7%"
                }
            },
            "responsiveData": {
                "b2": {}
            }
        },
        "lblTotalAmmount": {
            "__events__": {},
            "__info__": {
                "kuid": "ea9d04bc8c904db68970948116d6ddda",
                "srcKUID": "d932eba0a1cd4d1bbdd93482586212a7",
                "wType": "Label"
            },
            "left": {},
            "responsiveData": {
                "b1": {
                    "left": {
                        "type": "string",
                        "value": ""
                    },
                    "right": {
                        "type": "string",
                        "value": "23%"
                    }
                },
                "b2": {
                    "left": {
                        "type": "string",
                        "value": ""
                    },
                    "right": {
                        "type": "string",
                        "value": "26%"
                    }
                },
                "b3": {
                    "left": {
                        "type": "string",
                        "value": "10dp"
                    },
                    "right": {
                        "type": "string",
                        "value": ""
                    }
                },
                "b4": {
                    "left": {
                        "type": "string",
                        "value": ""
                    },
                    "right": {
                        "type": "string",
                        "value": "23%"
                    }
                }
            },
            "right": {}
        },
        "lblTotalAmount": {
            "__events__": {},
            "__info__": {
                "kuid": "ed21636ff040438188cf7642b9459cf6",
                "srcKUID": "b0a90bfd09894ab5bf24fa412582c76f",
                "wType": "Label"
            },
            "left": {
                "Default": {
                    "type": "string",
                    "value": ""
                }
            },
            "responsiveData": {
                "b2": {
                    "left": {
                        "type": "string",
                        "value": "1%"
                    }
                },
                "b3": {
                    "left": {
                        "type": "string",
                        "value": ""
                    },
                    "right": {
                        "type": "string",
                        "value": "0%"
                    }
                }
            },
            "right": {}
        },
        "lblTotalAmountCreate": {
            "__events__": {},
            "__info__": {
                "kuid": "bfeffe73a81d4cbeac382f7f6cd71476",
                "srcKUID": "fa4b3008e813442faf3e0993387de7a5",
                "wType": "Label"
            },
            "left": {
                "Default": {
                    "type": "string",
                    "value": "13%"
                }
            },
            "responsiveData": {
                "b1": {
                    "left": {
                        "type": "string",
                        "value": ""
                    },
                    "right": {
                        "type": "string",
                        "value": "2%"
                    },
                    "width": {
                        "type": "string",
                        "value": "80%"
                    }
                },
                "b2": {
                    "left": {
                        "type": "string",
                        "value": ""
                    },
                    "right": {
                        "type": "string",
                        "value": "2%"
                    },
                    "width": {
                        "type": "string",
                        "value": "80%"
                    }
                },
                "b4": {
                    "left": {
                        "type": "string",
                        "value": ""
                    },
                    "right": {
                        "type": "string",
                        "value": "2%"
                    },
                    "width": {
                        "type": "string",
                        "value": "80%"
                    }
                }
            },
            "right": {},
            "width": {}
        },
        "lblUpdateDefaultAmount": {
            "__events__": {},
            "__info__": {
                "kuid": "a3240354daca4dbebe285574c7289d47",
                "srcKUID": "b12bf69ff7014fdcaef0b688da9c3058",
                "wType": "Label"
            },
            "left": {},
            "responsiveData": {
                "b2": {
                    "left": {
                        "type": "string",
                        "value": ""
                    },
                    "right": {
                        "type": "string",
                        "value": "2.50%"
                    }
                },
                "b3": {
                    "left": {
                        "type": "string",
                        "value": "18%"
                    }
                }
            },
            "right": {}
        },
        "tbxTotalAmount": {
            "__events__": {},
            "__info__": {
                "kuid": "afed1fbef81647269b9cc7a83538b51a",
                "srcKUID": "c3fae0e6aa944d7cb4dd8eb3e3f7ada9",
                "wType": "TextField"
            },
            "left": {
                "Default": {
                    "type": "string",
                    "value": "77%"
                }
            },
            "responsiveData": {
                "b3": {
                    "left": {
                        "type": "string",
                        "value": "82%"
                    }
                }
            }
        },
        "tbxUpdateDefaultAmount": {
            "__events__": {},
            "__info__": {
                "kuid": "c35811c7f7a14a3c8ab7541751e27e79",
                "srcKUID": "c90aac5d59cc41fbb099a046c494ba5d",
                "wType": "TextField"
            },
            "responsiveData": {
                "b2": {
                    "right": {
                        "type": "string",
                        "value": "2.50%"
                    },
                    "width": {
                        "type": "string",
                        "value": "14.90%"
                    }
                }
            },
            "right": {},
            "width": {}
        }
    },
    "enablescrolling": true,
    "id": "TemplateRecordsNew",
    "info": null,
    "iscustomlayout": false,
    "isdatareferenced": false,
    "isvisible": true,
    "kuid": "a4693eb80f304e17b7c64fa438006b45",
    "layouttype": 4,
    "masterType": 0,
    "name": "kony.ui.UserWidgetInstance",
    "parent": "flxTransactionDetails",
    "pf": "frmACHDashboard",
    "retaincontentalignment": false,
    "retainflexpositionproperties": false,
    "snapgridsize": 10,
    "snaptogrid": true,
    "sourceUserWidget": "g9c64e13ff2e4816a8e01d0df5b30976",
    "wType": "UserWidgetInstance"
}