{
	 "@class": "com.kony.gen.viz.model.component.KVizLabel",
	 "DNDConfig": null,
	 "__parentReadjusting__": false,
	 "_height_": {
		 "type": "string",
		 "value": "30dp"
	},
	 "_left_": {
		 "type": "string",
		 "value": "0dp"
	},
	 "_margin_": [
		 1,
		 1,
		 1,
		 1
	],
	 "_padding_": [
		 0,
		 0,
		 0,
		 0
	],
	 "_skin_": "sbdeeab4f7084696b39041ac38df96c2",
	 "_text_": "....a",
	 "_width_": {
		 "type": "string",
		 "value": "2dp"
	},
	 "_wrapping_": 2,
	 "accessibilityconfig": {
		 "a11yLabel": "....a",
		 "a11yHidden": true,
		 "a11yARIA": {
			 "tabindex": -1
		}
	},
	 "android": {
		 "textStyle": {
			 "letterSpacing": 0,
			 "strikeThrough": false
		}
	},
	 "canUpdateUI": true,
	 "centery": {
		 "type": "string",
		 "value": "50%"
	},
	 "containerweight": 100,
	 "contentalignment": 4,
	 "id": "lblSeparatorLineAction3",
	 "info": null,
	 "ipad": {
		 "psp": {
			 "wrapping": 2
		}
	},
	 "iphone": {
		 "psp": {
			 "wrapping": 2
		}
	},
	 "isvisible": true,
	 "kuid": "e847cbd7c20d4fd1acbf8a5307dd23f9",
	 "name": "kony.ui.Label",
	 "parent": "flxActions",
	 "pf": "segFastTransfersRecipientsSelectedMobile",
	 "tooltip": "",
	 "wType": "Label",
	 "zindex": 1
}