{
    "DNDConfig": null,
    "__parentReadjusting__": false,
    "_height_": {
        "type": "string",
        "value": "543dp"
    },
    "_left_": {
        "type": "string",
        "value": "0dp"
    },
    "_margin_": [
        0,
        0,
        0,
        0
    ],
    "_orientation_": 6,
    "_padding_": [
        0,
        0,
        0,
        0
    ],
    "_percent_": true,
    "_skin_": "s24c92fc23b14f5484b693ee9b8a9b35",
    "_top_": {
        "type": "string",
        "value": "0dp"
    },
    "_width_": {
        "type": "string",
        "value": "100%"
    },
    "allboxes": [],
    "autogrowmode": 0,
    "canUpdateUI": true,
    "children": [
        "flxHeaderNoRecipients",
        "flxSeperator",
        "flxDetails",
        "flxSeperatorNoRecipients",
        "flxButtons"
    ],
    "clipbounds": true,
    "containerweight": 100,
    "enablescrolling": true,
    "id": "flxMainNoRecipients",
    "info": null,
    "isvisible": true,
    "kuid": "df484f055a324fc3abea966389e93947",
    "layouttype": 4,
    "name": "kony.ui.FlexContainer",
    "parent": "flxNoRecipientsWindow",
    "pf": "frmWireTransfersWindow",
    "responsiveData": {
        "b4": {
            "height": {
                "type": "string",
                "value": "583dp"
            }
        }
    },
    "snapgridsize": 10,
    "snaptogrid": true,
    "wType": "FlexContainer",
    "widgetalignment": 1,
    "zindex": 1
}