{
    "DNDConfig": null,
    "__parentReadjusting__": false,
    "_height_": {
        "type": "string",
        "value": "100%"
    },
    "_left_": {
        "type": "string",
        "value": "6.50%"
    },
    "_margin_": [
        0,
        0,
        0,
        0
    ],
    "_orientation_": 6,
    "_padding_": [
        0,
        0,
        0,
        0
    ],
    "_percent_": true,
    "_skin_": "s24c92fc23b14f5484b693ee9b8a9b35",
    "_top_": {
        "type": "string",
        "value": "0dp"
    },
    "_width_": {
        "type": "string",
        "value": "5%"
    },
    "allboxes": [],
    "autogrowmode": 0,
    "canUpdateUI": true,
    "children": [
        "imgDropdown"
    ],
    "clipbounds": true,
    "containerweight": 100,
    "desktopweb": {
        "psp": {
            "hoverSkin": "sab5a81a675240c791d2c0dbce368d6b"
        }
    },
    "enablescrolling": true,
    "id": "flxDropdown",
    "ide_onClick": "AS_FlexContainer_gb2ce9fd6cc4456488671e9661f270d8",
    "info": null,
    "isvisible": true,
    "kuid": "ddd1be4c1897418fb3f76f46942db0cb",
    "layouttype": 3,
    "name": "kony.ui.FlexContainer",
    "parent": "flxSegDisputedTransactionRowWrapper",
    "pf": "segBulkUpdatePFMTransactionsSelectedMobile",
    "snapgridsize": 10,
    "snaptogrid": true,
    "wType": "FlexContainer",
    "widgetalignment": 1,
    "zindex": 1
}