{
    "@class": "com.kony.gen.viz.model.component.KVizButton",
    "DNDConfig": null,
    "__parentReadjusting__": false,
    "_height_": {
        "type": "ref",
        "value": "preferred"
    },
    "_left_": {
        "type": "string",
        "value": "0dp"
    },
    "_margin_": [
        6,
        6,
        6,
        6
    ],
    "_padding_": [
        0,
        0,
        0,
        0
    ],
    "_skin_": "s611bd2c5d324490aa9f7ed9d412984f",
    "_text_": "View Activity",
    "_width_": {
        "type": "string",
        "value": "30%"
    },
    "accessibilityconfig": {
        "a11yLabel": "View Activity"
    },
    "canUpdateUI": true,
    "centery": {
        "type": "string",
        "value": "50%"
    },
    "containerId": true,
    "containerweight": 100,
    "contentalignment": 5,
    "desktopweb": {
        "psp": {
            "hoverSkin": "s611bd2c5d324490aa9f7ed9d412984f"
        }
    },
    "disabledSkins": {
        "focusSkin": "sf44d06ca8224832827ea7fdff757013"
    },
    "displaytext": true,
    "id": "btnViewActivity",
    "ide_onClick": "AS_Button_e9b62a6813074fb9b9cf1b09a8d14f62",
    "info": null,
    "isvisible": true,
    "kuid": "b49861bf65b04ffa9556da3363613ffd",
    "name": "kony.ui.Button",
    "parent": "flxActions",
    "pf": "segExternalAccountSelected",
    "tooltip": "VIEW ACTIVITY",
    "wType": "Button",
    "zindex": 1
}