{
    "@class": "com.kony.gen.viz.model.component.KVizButton",
    "DNDConfig": null,
    "__parentReadjusting__": false,
    "_bottom_": {
        "type": "string",
        "value": "20dp"
    },
    "_height_": {
        "type": "string",
        "value": "40dp"
    },
    "_margin_": [
        6,
        6,
        6,
        6
    ],
    "_padding_": [
        0,
        0,
        0,
        0
    ],
    "_right_": {
        "type": "string",
        "value": "38%"
    },
    "_skin_": "sa611611b2f24e93bcfd09e1606c0d86",
    "_text_": "",
    "_width_": {
        "type": "string",
        "value": "30%"
    },
    "accessibilityconfig": {
        "a11yLabel": "No"
    },
    "canUpdateUI": true,
    "containerweight": 100,
    "contentalignment": 5,
    "desktopweb": {
        "psp": {
            "hoverSkin": "s83729feaa224e359d660d5af05c4bac"
        }
    },
    "displaytext": true,
    "focusskin": "s434743e49c446699565893e4974ec52",
    "id": "btnNo",
    "info": null,
    "isvisible": true,
    "kuid": "h61577b4448c4e22a2636221e8fe0d6d",
    "name": "kony.ui.Button",
    "parent": "CustomPopup",
    "pf": "userwidgetmodel",
    "texti18n": "i18n.common.no",
    "tooltip": "No",
    "wType": "Button",
    "zindex": 1
}