{
    "DNDConfig": null,
    "__parentReadjusting__": false,
    "_height_": {
        "type": "string",
        "value": "50dp"
    },
    "_left_": {
        "type": "string",
        "value": "25%"
    },
    "_margin_": [
        0,
        0,
        0,
        0
    ],
    "_orientation_": 6,
    "_padding_": [
        0,
        0,
        0,
        0
    ],
    "_percent_": true,
    "_skin_": "s5d9f8372cac47e0ac08730929001e89",
    "_top_": {
        "type": "string",
        "value": "0dp"
    },
    "_width_": {
        "type": "string",
        "value": "88%"
    },
    "allboxes": [],
    "autogrowmode": 0,
    "canUpdateUI": true,
    "centerx": {
        "type": "string",
        "value": "50%"
    },
    "children": [
        "CopylblPayee0c25e79c2245546",
        "CopylblPaymentAccount0gdfc55e92e1140",
        "CopylblSendOn0ef452faf7aae48",
        "CopylblDeliverBy0g589ce171f8942",
        "CopylblAmount0j19cfcdf7f294a",
        "CopylblAction0dbf513fb21434f"
    ],
    "clipbounds": true,
    "containerweight": 100,
    "enablescrolling": true,
    "id": "flxSubHeader",
    "info": null,
    "isvisible": true,
    "kuid": "da00f88ecce14601b4d19611c3dd53b7",
    "layouttype": 2,
    "name": "kony.ui.FlexContainer",
    "parent": "flxBulkPayContainer",
    "pf": "frmPaymentDueAcknowledgement",
    "responsiveData": {
        "b1": {
            "width": {
                "type": "string",
                "value": "100%"
            }
        },
        "b2": {
            "width": {
                "type": "string",
                "value": "100%"
            }
        },
        "b4": {
            "width": {
                "type": "string",
                "value": "100%"
            }
        }
    },
    "snapgridsize": 10,
    "snaptogrid": true,
    "wType": "FlexContainer",
    "widgetalignment": 1,
    "zindex": 1
}