{
    "@class": "com.kony.gen.viz.model.component.KVizLabel",
    "DNDConfig": null,
    "__parentReadjusting__": false,
    "_height_": {
        "type": "ref",
        "value": "preferred"
    },
    "_left_": {
        "type": "string",
        "value": "46dp"
    },
    "_margin_": [
        1,
        1,
        1,
        1
    ],
    "_padding_": [
        0,
        0,
        0,
        0
    ],
    "_skin_": "s74394b79b8040d780c3e1c1d5a14165",
    "_text_": "Intrest Rate will change based on the duration of the loan",
    "_top_": {
        "type": "string",
        "value": "7dp"
    },
    "_width_": {
        "type": "string",
        "value": "80%"
    },
    "_wrapping_": 2,
    "accessibilityconfig": {
        "a11yLabel": "This request will be processed within 12 hours"
    },
    "android": {
        "textStyle": {
            "letterSpacing": 0,
            "strikeThrough": false
        }
    },
    "canUpdateUI": true,
    "containerweight": 100,
    "contentalignment": 4,
    "id": "lblInfoMessage2",
    "info": null,
    "ipad": {
        "psp": {
            "wrapping": 2
        }
    },
    "iphone": {
        "psp": {
            "wrapping": 2
        }
    },
    "isvisible": false,
    "kuid": "b37c2407afea43d7956b1b5a63cf80ab",
    "name": "kony.ui.Label",
    "parent": "flxPleaseNoteTheFollowingPoints",
    "pf": "userwidgetmodel",
    "texti18n": "i18n.StopcheckPayments.ThisRequestWillbeProcessedWithin12hrs",
    "tooltip": "",
    "wType": "Label",
    "zindex": 1
}