{
    "@class": "com.kony.gen.viz.model.component.KVizButton",
    "DNDConfig": null,
    "__parentReadjusting__": false,
    "_height_": {
        "type": "string",
        "value": "40dp"
    },
    "_left_": {
        "type": "number",
        "value": ""
    },
    "_margin_": [
        6,
        6,
        6,
        6
    ],
    "_padding_": [
        0,
        0,
        0,
        0
    ],
    "_right_": {
        "type": "string",
        "value": "0%"
    },
    "_skin_": "s4fe0674a3c84b76a21524a90bad4282",
    "_text_": "CONFIRM",
    "_top_": {
        "type": "number",
        "value": ""
    },
    "_width_": {
        "type": "string",
        "value": "48.20%"
    },
    "accessibilityconfig": {
        "a11yLabel": "Add Another Account"
    },
    "canUpdateUI": true,
    "centery": {
        "type": "string",
        "value": "50%"
    },
    "containerweight": 100,
    "contentalignment": 5,
    "desktopweb": {
        "psp": {
            "hoverSkin": "s81054b5e2b74f17a5261991df565427"
        }
    },
    "displaytext": true,
    "focusskin": "s5a4f67acd3e47b9be6d6910a7a6686f",
    "id": "btnAddAnotherAccount",
    "ide_onClick": "AS_Button_h74a797605f348ac987d3c3291395f9e",
    "info": null,
    "isvisible": true,
    "kuid": "c5663ef11acc4767b50d7b6ee9dd28e4",
    "name": "kony.ui.Button",
    "parent": "flxAcknowledgeActions",
    "pf": "frmVerifyAccount",
    "responsiveData": {
        "b2": {
            "width": {
                "type": "string",
                "value": "27.60%"
            }
        },
        "b3": {
            "centerY": {
                "type": "string",
                "value": ""
            },
            "left": {
                "type": "string",
                "value": "0%"
            },
            "right": {
                "type": "string",
                "value": "44.20%"
            },
            "top": {
                "type": "string",
                "value": "20dp"
            },
            "width": {
                "type": "string",
                "value": "100%"
            },
            "zIndex": 4
        }
    },
    "texti18n": "i18n.billPay.BillPayAddAnotherAccount",
    "tooltip": "ADD ANOTHER ACCOUNT",
    "wType": "Button",
    "zindex": 1
}