{
    "@class": "com.kony.gen.viz.model.component.KVizButton",
    "DNDConfig": null,
    "__parentReadjusting__": false,
    "_height_": {
        "type": "string",
        "value": "40dp"
    },
    "_left_": {
        "type": "number",
        "value": "0"
    },
    "_margin_": [
        6,
        6,
        6,
        6
    ],
    "_padding_": [
        0,
        0,
        0,
        0
    ],
    "_right_": {
        "type": "string",
        "value": "44.20%"
    },
    "_skin_": "sa611611b2f24e93bcfd09e1606c0d86",
    "_text_": "",
    "_width_": {
        "type": "string",
        "value": "48.20%"
    },
    "accessibilityconfig": {
        "a11yHint": "Click Cancel to cancel this transaction",
        "a11yLabel": "Cancel"
    },
    "canUpdateUI": true,
    "centery": {
        "type": "string",
        "value": "50%"
    },
    "containerweight": 100,
    "contentalignment": 5,
    "desktopweb": {
        "psp": {
            "hoverSkin": "s83729feaa224e359d660d5af05c4bac"
        }
    },
    "displaytext": true,
    "focusskin": "sb23593b913b4005add4a246020aa1cc",
    "hoverskin": "",
    "id": "btnCancel",
    "ide_onClick": "AS_Button_b98010e2b91e413f93439aee295a3cfc",
    "info": null,
    "isvisible": true,
    "kuid": "a28618c917dc4100abd51f105432458a",
    "name": "kony.ui.Button",
    "parent": "flxVerifyActions",
    "pf": "frmVerifyAccount",
    "responsiveData": {
        "b1": {
            "left": {
                "type": "string",
                "value": ""
            },
            "right": {
                "type": "string",
                "value": "1%"
            },
            "width": {
                "type": "string",
                "value": "48.20%"
            }
        },
        "b2": {
            "centerY": {
                "type": "string",
                "value": "51%"
            },
            "height": {
                "type": "string",
                "value": "40dp"
            },
            "left": {
                "type": "string",
                "value": ""
            },
            "right": {
                "type": "string",
                "value": "0.10%"
            },
            "width": {
                "type": "string",
                "value": "27.60%"
            }
        },
        "b3": {
            "centerY": {
                "type": "string",
                "value": ""
            },
            "left": {
                "type": "string",
                "value": "0%"
            },
            "top": {
                "type": "string",
                "value": "20dp"
            },
            "width": {
                "type": "string",
                "value": "100%"
            }
        },
        "b4": {
            "desktopweb": {
                "psp": {}
            },
            "focusSkin": "s434743e49c446699565893e4974ec52",
            "left": {
                "type": "string",
                "value": ""
            },
            "right": {
                "type": "string",
                "value": "0%"
            },
            "skin": "sa611611b2f24e93bcfd09e1606c0d86"
        }
    },
    "texti18n": "i18n.transfers.Cancel",
    "tooltip": "Cancel",
    "wType": "Button",
    "zindex": 1
}