{
	"DNDConfig": null,
	"__parentReadjusting__": false,
	"_height_": {
		"type": "ref",
		"value": "preferred"
	},
	"_left_": {
		"type": "string",
		"value": "0dp"
	},
	"_margin_": [
		0,
		0,
		0,
		0
	],
	"_orientation_": 6,
	"_padding_": [
		0,
		0,
		0,
		0
	],
	"_percent_": true,
	"_skin_": "sb75f187c17c456fb0450d66550451bb",
	"_top_": {
		"type": "string",
		"value": "120dp"
	},
	"_width_": {
		"type": "string",
		"value": "100%"
	},
	"allboxes": [],
	"autogrowmode": 1,
	"canUpdateUI": true,
	"children": [
		"breadcrumb",
		"flxMainContainer",
		"flxBottom"
	],
	"clipbounds": false,
	"containerweight": 100,
	"enablescrolling": true,
	"id": "flxContainer",
	"info": null,
	"isvisible": true,
	"kuid": "bc9f14a5ebb84e4d9f1888c50cbbf9d1",
	"layouttype": 4,
	"name": "kony.ui.FlexContainer",
	"parent": "frmNotificationsAndMessages",
	"pf": "frmNotificationsAndMessages",
	"responsiveData": {
		"b3": {
			"isVisible": true,
			"top": {
				"type": "string",
				"value": "50dp"
			},
			"width": {
				"type": "string",
				"value": "100%"
			}
		}
	},
	"snapgridsize": 10,
	"snaptogrid": true,
	"wType": "FlexContainer",
	"widgetalignment": 1,
	"zindex": 1
}