{
    "@class": "com.kony.gen.viz.model.component.KVizUserWidget",
    "DNDConfig": null,
    "__parentReadjusting__": false,
    "_android_": {},
    "_androidwearos_": {},
    "_children_": [],
    "_desktopweb_": {},
    "_height_": {
        "type": "ref",
        "value": "preferred"
    },
    "_ipad_": {},
    "_iphone_": {},
    "_kiosk_": {},
    "_left_": {
        "type": "string",
        "value": "10.60%"
    },
    "_margin_": [
        0,
        0,
        0,
        0
    ],
    "_orientation_": 1,
    "_padding_": [
        0,
        0,
        0,
        0
    ],
    "_percent_": true,
    "_render_": true,
    "_responsiveData_": {
        "b1": {
            "isVisible": false,
            "left": {
                "type": "string",
                "value": "111dp"
            },
            "top": {
                "type": "string",
                "value": "355dp"
            }
        },
        "b2": {
            "isVisible": false,
            "left": {
                "type": "string",
                "value": "111dp"
            },
            "top": {
                "type": "string",
                "value": "355dp"
            }
        },
        "b3": {
            "isVisible": false,
            "left": {
                "type": "string",
                "value": "92dp"
            },
            "top": {
                "type": "string",
                "value": "395dp"
            }
        },
        "b4": {
            "isVisible": false,
            "left": {
                "type": "string",
                "value": "100dp"
            },
            "top": {
                "type": "string",
                "value": "367dp"
            }
        }
    },
    "_skin_": "scbd4cac3526468089bf3013adff0549",
    "_spa_": {},
    "_spaan_": {},
    "_spaandroidtablet_": {},
    "_spabb_": {},
    "_spaip_": {},
    "_spaipad_": {},
    "_spamobile_": {},
    "_spatablet_": {},
    "_spawindowstablet_": {},
    "_spawinphone8_": {},
    "_tabrcandroid_": {},
    "_top_": {
        "type": "string",
        "value": "360dp"
    },
    "_vizProps_": {
        "hidewidgethierarchy": false
    },
    "_width_": {
        "type": "string",
        "value": "270dp"
    },
    "_windows10_": {},
    "_windows8_": {},
    "_winphone10_": {},
    "_winphone8_": {},
    "areflexpropsreferenced": false,
    "autogrowmode": 1,
    "canUpdateUI": true,
    "clipbounds": false,
    "containerweight": 0,
    "dataDiffs": {
        "AllForms": {
            "__events__": {},
            "__info__": {
                "isRoot": true,
                "kuid": "def320d1657e4e618ddc21cb1dea1cf8",
                "srcKUID": "aef6ac17436948abacbe12ea5a1d5e5b",
                "wType": "FlexContainer"
            },
            "isVisible": false,
            "left": {
                "Default": {
                    "type": "string",
                    "value": "10.60%"
                }
            },
            "responsiveData": {
                "b1": {
                    "isVisible": false,
                    "left": {
                        "type": "string",
                        "value": "111dp"
                    },
                    "top": {
                        "type": "string",
                        "value": "355dp"
                    }
                },
                "b2": {
                    "isVisible": false,
                    "left": {
                        "type": "string",
                        "value": "111dp"
                    },
                    "top": {
                        "type": "string",
                        "value": "355dp"
                    }
                },
                "b3": {
                    "isVisible": false,
                    "left": {
                        "type": "string",
                        "value": "92dp"
                    },
                    "top": {
                        "type": "string",
                        "value": "395dp"
                    }
                },
                "b4": {
                    "isVisible": false,
                    "left": {
                        "type": "string",
                        "value": "100dp"
                    },
                    "top": {
                        "type": "string",
                        "value": "367dp"
                    }
                }
            },
            "top": {
                "Default": {
                    "type": "string",
                    "value": "360dp"
                }
            },
            "width": {
                "Default": {
                    "type": "string",
                    "value": "270dp"
                }
            },
            "zIndex": {
                "Default": 20
            }
        },
        "RichTextInfo": {
            "__events__": {},
            "__info__": {
                "kuid": "b13955f6aaee4bcd92df9ea5870e6791",
                "srcKUID": "i86f020750564f6ba173ce46ea601ab5",
                "wType": "RichText"
            },
            "i18n_text": "i18n.BillPay.msgInfo",
            "text": "Please specify if the payee account you are adding is a Savings or Checking Account.",
            "width": {
                "Default": {
                    "type": "string",
                    "value": "83%"
                }
            }
        },
        "flxAccountType": {
            "__events__": {},
            "__info__": {
                "kuid": "f9d7628b62ba4ffea9029c3f06886cd0",
                "srcKUID": "ed52287fd449401ba9a5f005c99e3f35",
                "wType": "FlexContainer"
            }
        },
        "flxCross": {
            "__events__": {},
            "__info__": {
                "kuid": "ebeed762b8f0476eb25c532c7edcfcb9",
                "srcKUID": "d452c358ed1445a58e5fdff55685498f",
                "wType": "FlexContainer"
            }
        },
        "flxInformation": {
            "__events__": {},
            "__info__": {
                "kuid": "b4216f07257e4e498bac7c84aaacdd70",
                "srcKUID": "be414255ea60408894eb2a9b719b864e",
                "wType": "FlexContainer"
            }
        },
        "flxInformationText": {
            "__events__": {},
            "__info__": {
                "kuid": "c377c6d458aa4dae80cf95344b8dce34",
                "srcKUID": "fa4dbab87ecf4647a21060118b02bd03",
                "wType": "FlexContainer"
            }
        },
        "imgCross": {
            "__events__": {},
            "__info__": {
                "kuid": "feb4b871adcc41cdaf1c9568ef8a0192",
                "srcKUID": "d86a08cea857467eae13f42ed033a771",
                "wType": "Image"
            },
            "src": "icon_close_grey.png"
        },
        "imgToolTip": {
            "__events__": {},
            "__info__": {
                "kuid": "aaf99cd45a8b48c282df330f49d2e0f4",
                "srcKUID": "f9274528aa6b41bfb057f17c510b73b5",
                "wType": "Image"
            },
            "left": {
                "Default": {
                    "type": "string",
                    "value": "44%"
                }
            },
            "src": "tool_tip.png"
        },
        "lblInfo": {
            "__events__": {},
            "__info__": {
                "kuid": "ec710ca1f440454581c8df9932b8bdba",
                "srcKUID": "c6ecc9c129c943b396152e99a30763f6",
                "wType": "Label"
            },
            "i18n_text": "i18n.WireTransfers.Information"
        },
        "lblSeperator": {
            "__events__": {},
            "__info__": {
                "kuid": "e4cf779dfd2545e5a82c32e620dcb56e",
                "srcKUID": "f142d5aa44384a3fb94504a874cbbb95",
                "wType": "Label"
            }
        }
    },
    "id": "AllForms",
    "info": null,
    "isdatareferenced": false,
    "isvisible": false,
    "kuid": "d30d8b96e1714745a7153105d45bf923",
    "layouttype": 4,
    "masterType": 0,
    "name": "kony.ui.UserWidgetInstance",
    "parent": "flxActivatebillpays",
    "pf": "frmBillPay",
    "snaptogrid": true,
    "sourceUserWidget": "aef6ac17436948abacbe12ea5a1d5e5b",
    "vizprops": {
        "hidewidgethierarchy": false
    },
    "wType": "UserWidgetInstance",
    "zindex": 20
}