{
    "@class": "com.kony.gen.viz.model.component.KVizButton",
    "DNDConfig": null,
    "__parentReadjusting__": false,
    "_height_": {
        "type": "string",
        "value": "40dp"
    },
    "_left_": {
        "type": "string",
        "value": "45.50%"
    },
    "_margin_": [
        6,
        6,
        6,
        6
    ],
    "_padding_": [
        0,
        0,
        0,
        0
    ],
    "_right_": {
        "type": "number",
        "value": ""
    },
    "_skin_": "s4fe0674a3c84b76a21524a90bad4282",
    "_text_": "",
    "_top_": {
        "type": "string",
        "value": "30px"
    },
    "_width_": {
        "type": "string",
        "value": "256dp"
    },
    "accessibilityconfig": {
        "a11yLabel": "Continue"
    },
    "canUpdateUI": true,
    "containerweight": 100,
    "contentalignment": 5,
    "desktopweb": {
        "psp": {
            "hoverSkin": "s81054b5e2b74f17a5261991df565427"
        }
    },
    "disabledSkins": {},
    "displaytext": true,
    "focusskin": "s5a4f67acd3e47b9be6d6910a7a6686f",
    "hoverskin": "",
    "id": "btnConfirm1",
    "ide_onClick": "AS_Button_bb6353e767814b70abc23342b0e1ff52",
    "info": null,
    "isvisible": false,
    "kuid": "a3e0cb9d998443a0802f35a41b7f878e",
    "name": "kony.ui.Button",
    "parent": "flxBottom",
    "pf": "frmBillPay",
    "responsiveData": {
        "b2": {
            "width": {
                "type": "string",
                "value": "18.70%"
            }
        },
        "b3": {
            "isVisible": false
        },
        "b4": {
            "isVisible": false,
            "desktopweb": {
                "psp": {
                    "hoverSkin": "s81054b5e2b74f17a5261991df565427"
                }
            },
            "left": {
                "type": "string",
                "value": ""
            },
            "right": {
                "type": "string",
                "value": "3%"
            },
            "skin": "s4fe0674a3c84b76a21524a90bad4282",
            "width": {
                "type": "string",
                "value": "30%"
            }
        }
    },
    "texti18n": "i18n.common.proceed",
    "tooltip": "Continue",
    "wType": "Button",
    "zindex": 1
}