{
    "@class": "com.kony.gen.viz.model.component.KVizButton",
    "DNDConfig": null,
    "__parentReadjusting__": false,
    "_height_": {
        "type": "ref",
        "value": "preferred"
    },
    "_left_": {
        "type": "string",
        "value": "30dp"
    },
    "_margin_": [
        6,
        6,
        6,
        6
    ],
    "_padding_": [
        0,
        0,
        0,
        0
    ],
    "_skin_": "se4cbdf6e51f48eda9966caa941c6a19",
    "_text_": "MAKE ONE TIME PAYMENT",
    "_width_": {
        "type": "ref",
        "value": "preferred"
    },
    "accessibilityconfig": {
        "a11yLabel": "Make One Time Payment"
    },
    "canUpdateUI": true,
    "centery": {
        "type": "string",
        "value": "50%"
    },
    "containerweight": 100,
    "contentalignment": 5,
    "desktopweb": {
        "psp": {
            "hoverSkin": "sb13d7d59686429aa4fbca8527b63942"
        }
    },
    "displaytext": true,
    "focusskin": "s7fc7a5968394a5882dc2758c71a59a3",
    "id": "btnMakeonetimepayment",
    "ide_onClick": "AS_Button_dbcd53667c564882ac9cb2335eb54444",
    "info": null,
    "isvisible": true,
    "kuid": "de2f0ed5da6a45fc8c0607d498017ddb",
    "name": "kony.ui.Button",
    "parent": "flxmakeonetimepayment",
    "pf": "frmBillPay",
    "responsiveData": {
        "b3": {}
    },
    "texti18n": "i18n.BillPay.MAKEONETIMEPAYMENT",
    "tooltip": "Make One Time Payment",
    "wType": "Button",
    "zindex": 1
}