{
    "@class": "com.kony.gen.viz.model.component.KVizUserWidget",
    "DNDConfig": null,
    "__parentReadjusting__": false,
    "_children_": [],
    "_height_": {
        "type": "string",
        "value": "268px"
    },
    "_left_": {
        "type": "string",
        "value": "0dp"
    },
    "_margin_": [
        0,
        0,
        0,
        0
    ],
    "_orientation_": 1,
    "_padding_": [
        0,
        0,
        0,
        0
    ],
    "_percent_": true,
    "_render_": true,
    "_skin_": "s701065f11074080832b59947e731160",
    "_top_": {
        "type": "string",
        "value": "300dp"
    },
    "_width_": {
        "type": "string",
        "value": "44.30%"
    },
    "areflexpropsreferenced": false,
    "canUpdateUI": true,
    "centerx": {
        "type": "string",
        "value": "50.00%"
    },
    "centery": {
        "type": "string",
        "value": ""
    },
    "clipbounds": false,
    "containerweight": 0,
    "dataDiffs": {
        "CustomPopup": {
            "__events__": {},
            "__info__": {
                "isRoot": true,
                "kuid": "j50909146a574b9fb75ee30016305649",
                "srcKUID": "eb2d311dcb4744a7b05aa4f5428a6c53",
                "wType": "FlexContainer"
            },
            "centerX": {
                "Default": {
                    "type": "string",
                    "value": "50.00%"
                }
            },
            "centerY": {
                "Default": {
                    "type": "string",
                    "value": ""
                }
            },
            "responsiveData": {
                "b3": {
                    "width": {
                        "type": "string",
                        "value": "75%"
                    }
                },
                "b4": {
                    "width": {
                        "type": "string",
                        "value": "75%"
                    }
                }
            },
            "top": {
                "Default": {
                    "type": "string",
                    "value": "300dp"
                }
            },
            "width": {
                "Default": {
                    "type": "string",
                    "value": "44.30%"
                }
            },
            "zIndex": {
                "Default": 1100
            }
        },
        "btnNo": {
            "__events__": {},
            "__info__": {
                "kuid": "g111627ceee14df287a10700e8296bc5",
                "srcKUID": "h61577b4448c4e22a2636221e8fe0d6d",
                "wType": "Button"
            },
            "responsiveData": {
                "b3": {
                    "right": {
                        "type": "string",
                        "value": "160dp"
                    },
                    "width": {
                        "type": "string",
                        "value": "120dp"
                    }
                }
            },
            "right": {
                "Default": {
                    "type": "string",
                    "value": "190dp"
                }
            },
            "width": {
                "Default": {
                    "type": "string",
                    "value": "150dp"
                }
            }
        },
        "btnYes": {
            "__events__": {},
            "__info__": {
                "kuid": "bc8283d4e23c41f39d00bd468ef9c1b8",
                "srcKUID": "e1c11d09edb846848d4aaf921cb1e5a0",
                "wType": "Button"
            },
            "responsiveData": {
                "b3": {
                    "width": {
                        "type": "string",
                        "value": "120dp"
                    }
                }
            },
            "right": {
                "Default": {
                    "type": "string",
                    "value": "20dp"
                }
            },
            "width": {
                "Default": {
                    "type": "string",
                    "value": "150dp"
                }
            }
        },
        "flxCross": {
            "__events__": {},
            "__info__": {
                "kuid": "b72327fa344f45df97a82b8f8c5c9563",
                "srcKUID": "e896a8d6e1244397be41e1011101c6ec",
                "wType": "FlexContainer"
            },
            "responsiveData": {},
            "right": {
                "Default": {
                    "type": "string",
                    "value": "13dp"
                }
            }
        },
        "flxHeader": {
            "__events__": {},
            "__info__": {
                "kuid": "b134375ff12a47c0abb1a796418ead2c",
                "srcKUID": "b6d465d7232a428eba11c466c6843856",
                "wType": "FlexContainer"
            }
        },
        "flxSeperator": {
            "__events__": {},
            "__info__": {
                "kuid": "g9044cc89526431ebe257c3a8a2b7699",
                "srcKUID": "b469cc45156e429d8fa47b9786168d10",
                "wType": "FlexContainer"
            }
        },
        "flxSeperator2": {
            "__events__": {},
            "__info__": {
                "kuid": "bcb014726be64617b154c21f633f0adc",
                "srcKUID": "e909e4e4b4a145b1aa92b22ece7050d3",
                "wType": "FlexContainer"
            }
        },
        "imgCross": {
            "__events__": {},
            "__info__": {
                "kuid": "ef2b47a5daad419e98a00f5b2f8350c2",
                "srcKUID": "ja13bba308404016b1cd223dbcdf01ae",
                "wType": "Image"
            },
            "height": {
                "Default": {
                    "type": "string",
                    "value": "15dp"
                }
            },
            "src": "icon_close_grey.png"
        },
        "lblHeading": {
            "__events__": {},
            "__info__": {
                "kuid": "f0c25c80d808454da39ab8eccaf4146c",
                "srcKUID": "f97c1408984847af9f3cd9984a260c74",
                "wType": "Label"
            },
            "i18n_text": "i18n.billPay.QuitBillPay"
        },
        "lblPopupMessage": {
            "__events__": {},
            "__info__": {
                "kuid": "f45a0bee21e4463480148cfa8cd995f4",
                "srcKUID": "f7c7509dccf24b88aeb13dc3d34fcc6b",
                "wType": "Label"
            },
            "i18n_text": "i18n.Transfers.Areyousureyouwanttocancelthistransaction"
        },
        "lblcross": {
            "__events__": {},
            "__info__": {
                "kuid": "h1edc750f7b14502bb717b3214fceca2",
                "srcKUID": "fd30aa3a9d8f4077b98f3053f04a091b",
                "wType": "Label"
            }
        }
    },
    "id": "CustomPopup",
    "info": null,
    "isdatareferenced": false,
    "isvisible": true,
    "kuid": "af61486f600c4f979ae073745c694e90",
    "layouttype": 2,
    "masterType": 0,
    "name": "kony.ui.UserWidgetInstance",
    "parent": "flxLogout",
    "pf": "frmBillPay",
    "snaptogrid": true,
    "sourceUserWidget": "eb2d311dcb4744a7b05aa4f5428a6c53",
    "vizprops": {
        "hidewidgethierarchy": false
    },
    "wType": "UserWidgetInstance",
    "zindex": 1100
}