{
    "@class": "com.kony.gen.viz.model.component.KVizUserWidget",
    "DNDConfig": null,
    "__parentReadjusting__": false,
    "_android_": {},
    "_androidwearos_": {},
    "_children_": [],
    "_desktopweb_": {},
    "_height_": {
        "type": "ref",
        "value": "preferred"
    },
    "_ipad_": {},
    "_iphone_": {},
    "_kiosk_": {},
    "_left_": {
        "type": "string",
        "value": "1dp"
    },
    "_margin_": [
        0,
        0,
        0,
        0
    ],
    "_orientation_": 1,
    "_padding_": [
        0,
        0,
        0,
        0
    ],
    "_percent_": true,
    "_render_": true,
    "_responsiveData_": {},
    "_skin_": "sdc143f0e5b64ae3a3f155f691c73fa7",
    "_spa_": {},
    "_spaan_": {},
    "_spaandroidtablet_": {},
    "_spabb_": {},
    "_spaip_": {},
    "_spaipad_": {},
    "_spamobile_": {},
    "_spatablet_": {},
    "_spawindowstablet_": {},
    "_spawinphone8_": {},
    "_tabrcandroid_": {},
    "_top_": "0dp",
    "_vizProps_": {
        "hidewidgethierarchy": false
    },
    "_width_": {
        "type": "string",
        "value": "100%"
    },
    "_windows10_": {},
    "_windows8_": {},
    "_winphone10_": {},
    "_winphone8_": {},
    "areflexpropsreferenced": false,
    "autogrowmode": 1,
    "canUpdateUI": true,
    "clipbounds": false,
    "containerweight": 0,
    "dataDiffs": {
        "SecureAccessCode": {
            "__events__": {},
            "__info__": {
                "isRoot": true,
                "kuid": "c007a6efb0bc410f81298b3eb9d646bf",
                "srcKUID": "e57a71fe56cc4843ade92e1104e82be3",
                "wType": "FlexContainer"
            }
        },
        "btnCancel": {
            "__events__": {},
            "__info__": {
                "kuid": "d997ebe3bbb848f287d22a45ea4d377b",
                "srcKUID": "bbbc810c9730470281ed8394dc66bfa0",
                "wType": "Button"
            },
            "i18n_text": "i18n.transfers.Cancel"
        },
        "btnProceed": {
            "__events__": {},
            "__info__": {
                "kuid": "ia10f40a267e4cffbef5bfbd63155032",
                "srcKUID": "h0da13dbbb5144998518840309f16adb",
                "wType": "Button"
            },
            "i18n_text": "i18n.common.proceed",
            "left": {
                "Default": {
                    "type": "string",
                    "value": "76.8%"
                }
            }
        },
        "flxActions": {
            "__events__": {},
            "__info__": {
                "kuid": "i5f644613f2543a8b1dd7b88c5802e67",
                "srcKUID": "aa52270f822941fb9eabd0f02225e8bc",
                "wType": "FlexContainer"
            },
            "left": {
                "Default": {
                    "type": "string",
                    "value": "0dp"
                }
            },
            "top": {
                "Default": {
                    "type": "string",
                    "value": "0dp"
                }
            }
        },
        "flxEnterCVVCodes": {
            "__events__": {},
            "__info__": {
                "kuid": "i475c5df92c34da78ead8c0e42b821b1",
                "srcKUID": "afb17049605e44809aab00724f7186ff",
                "wType": "FlexContainer"
            }
        },
        "flxEnterSecureAccessCode": {
            "__events__": {},
            "__info__": {
                "kuid": "id222c0dd9ee4606be7c45829b149012",
                "srcKUID": "d839e4dd276d4ba6a562ef68e608970c",
                "wType": "FlexContainer"
            }
        },
        "flxHeader": {
            "__events__": {},
            "__info__": {
                "kuid": "dfd57d0648874d5c9a72ad0011658e24",
                "srcKUID": "g760abb2fbb64defaeb716fc5de0fe81",
                "wType": "FlexContainer"
            }
        },
        "flxResendOption": {
            "__events__": {},
            "__info__": {
                "kuid": "cf4aad5369884dbfa0140e592d23cf90",
                "srcKUID": "eaf65b895555460ba2edea44b3c35c6c",
                "wType": "FlexContainer"
            }
        },
        "flxSecureAccessCodetxtBox": {
            "__events__": {},
            "__info__": {
                "kuid": "c5af954083db4693866bbfb7bf116989",
                "srcKUID": "ac7491ba8caa4231809d11c8e9f77180",
                "wType": "FlexContainer"
            }
        },
        "flxSeparator": {
            "__events__": {},
            "__info__": {
                "kuid": "b031d661b9b3435e8939d811b87c4e29",
                "srcKUID": "aa0c801e88d7481b93f33b7f4c9cbec4",
                "wType": "FlexContainer"
            }
        },
        "flxSeparator2": {
            "__events__": {},
            "__info__": {
                "kuid": "h1013ef76a724b709076fc9007c61976",
                "srcKUID": "dc64ce5be74e4138aa41c6a341a457de",
                "wType": "FlexContainer"
            }
        },
        "flxWarning": {
            "__events__": {},
            "__info__": {
                "kuid": "d77d105acc8e474a884f1a49e5d8fb11",
                "srcKUID": "b566062d906e41b497706b3484d5a444",
                "wType": "FlexContainer"
            }
        },
        "imgViewCVVCode": {
            "__events__": {},
            "__info__": {
                "kuid": "a04488aad58f4749aea0ab536e663d5c",
                "srcKUID": "bf95e2a71dbc42cfac18b4f2507d1aea",
                "wType": "Image"
            },
            "src": "view.png"
        },
        "imgWarning": {
            "__events__": {},
            "__info__": {
                "kuid": "g05a271f9d6c4e3e87af2c3be83c44e6",
                "srcKUID": "d61284d86ad141aa8ccce87c7af4b27c",
                "wType": "Image"
            },
            "src": "error_yellow.png"
        },
        "lblEnterSecureAccessCode": {
            "__events__": {},
            "__info__": {
                "kuid": "j74ae93915c14630ab972071a76e7668",
                "srcKUID": "c141b60e41464542bb9e25822d52941d",
                "wType": "Label"
            }
        },
        "lblHeader": {
            "__events__": {},
            "__info__": {
                "kuid": "ib6a9219ac5443a99044b157ca629726",
                "srcKUID": "ae777de92e3b4ff0808b6bd3f5ad8cdd",
                "wType": "Label"
            }
        },
        "lblNote": {
            "__events__": {},
            "__info__": {
                "kuid": "j270af855cd24fe58c301b4ca51215e2",
                "srcKUID": "d7eb5cffcd7742b7aa65d8a09f852589",
                "wType": "Label"
            }
        },
        "lblResendOption1": {
            "__events__": {},
            "__info__": {
                "kuid": "bbc8bb56c17b42beaff7d005276bfa26",
                "srcKUID": "a43988ade9704601852e66121f0b0aef",
                "wType": "Label"
            }
        },
        "lblResendOption2": {
            "__events__": {},
            "__info__": {
                "kuid": "db4677e2f0e84f2f8aaecafd55f05e70",
                "srcKUID": "aae47f080b8f4be59bf67fba572ab2d7",
                "wType": "Button"
            },
            "left": {
                "Default": {
                    "type": "string",
                    "value": "0.70%"
                }
            },
            "top": {
                "Default": {
                    "type": "string",
                    "value": "16dp"
                }
            }
        },
        "lblResendOption3": {
            "__events__": {},
            "__info__": {
                "kuid": "i9d9bb231e7b4637b0ad3eeb265b981f",
                "srcKUID": "g809a735e379418caa9c68a937dddcb2",
                "wType": "Label"
            },
            "left": {
                "Default": {
                    "type": "string",
                    "value": "0.80%"
                }
            }
        },
        "lblSecureAccessCode": {
            "__events__": {},
            "__info__": {
                "kuid": "j09244728936420a92e1f86335f02cd5",
                "srcKUID": "e85fa78d777f415cbebb4e9b9d5bc2b0",
                "wType": "Label"
            },
            "top": {
                "Default": {
                    "type": "number",
                    "value": "20"
                }
            }
        },
        "lblWarning": {
            "__events__": {},
            "__info__": {
                "kuid": "e17e6fbdf7614a8091f0bb6166b5ca72",
                "srcKUID": "b91be20640bf4509ab6cabdfd8b9e83e",
                "wType": "Label"
            }
        },
        "tbxEnterCVVCode": {
            "__events__": {},
            "__info__": {
                "kuid": "dd0103e7c6f048609d86747f0c841b57",
                "srcKUID": "cb9766c1c3f04360a92ceff47354243a",
                "wType": "TextField"
            }
        }
    },
    "id": "SecureAccessCode",
    "info": null,
    "isdatareferenced": false,
    "isvisible": true,
    "kuid": "ac68a1da0d2b4f16b4a4fe91f6508559",
    "layouttype": 4,
    "masterType": 0,
    "name": "kony.ui.UserWidgetInstance",
    "parent": "flxSecureAccessCode",
    "pf": "frmBillPay",
    "snapgridsize": 10,
    "snaptogrid": true,
    "sourceUserWidget": "e57a71fe56cc4843ade92e1104e82be3",
    "vizprops": {
        "hidewidgethierarchy": false
    },
    "wType": "UserWidgetInstance"
}