{
    "DNDConfig": null,
    "__parentReadjusting__": false,
    "_height_": {
        "type": "string",
        "value": "100%"
    },
    "_left_": {
        "type": "string",
        "value": "34.84%"
    },
    "_margin_": [
        0,
        0,
        0,
        0
    ],
    "_orientation_": 6,
    "_padding_": [
        0,
        0,
        0,
        0
    ],
    "_percent_": true,
    "_skin_": "s24c92fc23b14f5484b693ee9b8a9b35",
    "_top_": {
        "type": "string",
        "value": "0dp"
    },
    "_width_": {
        "type": "string",
        "value": "28.29%"
    },
    "allboxes": [],
    "autogrowmode": 0,
    "canUpdateUI": true,
    "children": [
        "lblAddedBy",
        "imgSortAddedBy"
    ],
    "clipbounds": true,
    "containerweight": 100,
    "enablescrolling": true,
    "id": "flxAddedBy",
    "info": null,
    "isvisible": true,
    "kuid": "bc28542d5d6d4a609cdf4fed064be9ef",
    "layouttype": 3,
    "name": "kony.ui.FlexContainer",
    "parent": "flxSortMakeTransfers",
    "pf": "frmBulkTransferFiles",
    "responsiveData": {
        "b1": {
            "width": {
                "type": "string",
                "value": "25%"
            }
        },
        "b3": {
            "width": {
                "type": "string",
                "value": "25%"
            }
        }
    },
    "snapgridsize": 10,
    "snaptogrid": true,
    "wType": "FlexContainer",
    "widgetalignment": 1,
    "zindex": 1
}