{
    "DNDConfig": null,
    "_height_": {
        "type": "string",
        "value": "74dp"
    },
    "_left_": {
        "type": "string",
        "value": "0dp"
    },
    "_margin_": [
        0,
        0,
        0,
        0
    ],
    "_orientation_": 6,
    "_padding_": [
        0,
        0,
        0,
        0
    ],
    "_percent_": true,
    "_skin_": "s24c92fc23b14f5484b693ee9b8a9b35",
    "_top_": {
        "type": "string",
        "value": "16dp"
    },
    "_width_": {
        "type": "string",
        "value": "100%"
    },
    "allboxes": [],
    "canUpdateUI": true,
    "children": [
        "flxSearchItems",
        "flxSearchItemsMobile",
        "flxSearchResultActions"
    ],
    "clipbounds": true,
    "containerweight": 100,
    "enablescrolling": true,
    "id": "flxWrapper",
    "info": null,
    "isvisible": true,
    "kuid": "u7b2874be4ce4154aba865cd6c1171c9",
    "layouttype": 2,
    "name": "kony.ui.FlexContainer",
    "parent": "flxSearchResults",
    "pf": "userwidgetmodel",
    "responsiveData": {
        "b1": {
            "height": {
                "type": "string",
                "value": "90dp"
            }
        },
        "b3": {
            "height": {
                "type": "string",
                "value": "197dp"
            },
            "layoutType": 4,
            "top": {
                "type": "string",
                "value": "0dp"
            }
        }
    },
    "snapgridsize": 10,
    "snaptogrid": true,
    "wType": "FlexContainer",
    "widgetalignment": 1,
    "zindex": 1
}