{
    "@class": "com.kony.gen.viz.model.component.KVizImage2",
    "DNDConfig": null,
    "_base64_": null,
    "_height_": {
        "type": "string",
        "value": "16dp"
    },
    "_left_": {
        "type": "string",
        "value": "0dp"
    },
    "_margin_": [
        0,
        0,
        0,
        0
    ],
    "_padding_": [
        0,
        0,
        0,
        0
    ],
    "_skin_": "s78a5f26c9f14cec9ebed1bb46098f80",
    "_src_": "search_close.png",
    "_top_": {
        "type": "string",
        "value": "0dp"
    },
    "_width_": {
        "type": "string",
        "value": "16dp"
    },
    "accessibilityconfig": {
        "a11yLabel": "Close",
        "a11yValue": ""
    },
    "canUpdateUI": true,
    "centery": {
        "type": "string",
        "value": "43%"
    },
    "containerweight": 100,
    "id": "imgBFCancelM",
    "imagescalemode": 1,
    "imagewhiledownloading": "img_transparent_4_1_1.png",
    "info": null,
    "invokedProperty": "src",
    "isvisible": true,
    "kuid": "a48a68daaf904cb8a1481ce45e9c9fd8",
    "name": "kony.ui.Image2",
    "parent": "flxBFCancelKeywordM",
    "pf": "userwidgetmodel",
    "srcType": 1,
    "wType": "Image",
    "widgetalignment": 5,
    "zindex": 1
}