{
    "@class": "com.kony.gen.viz.model.component.KVizDateField",
    "DNDConfig": null,
    "Image": "calendar.png",
    "__parentReadjusting__": false,
    "_data_": null,
    "_date_": [
        1,
        12,
        2017
    ],
    "_height_": {
        "type": "string",
        "value": "40dp"
    },
    "_left_": {
        "type": "string",
        "value": "0dp"
    },
    "_margin_": [
        0,
        0,
        0,
        0
    ],
    "_padding_": [
        3,
        0,
        0,
        0
    ],
    "_skin_": "s4edc97d2a814f43b38f77b1f77c1588",
    "_width_": {
        "type": "string",
        "value": "300dp"
    },
    "advview": "default",
    "calendaricon": "calbtn.png",
    "canUpdateUI": true,
    "centery": {
        "type": "string",
        "value": "50%"
    },
    "containerweight": 100,
    "contentalignment": 4,
    "datecomponents": [
        1,
        12,
        2017
    ],
    "dateeditable": true,
    "dateformat": "dd/MM/yyyy",
    "day": 1,
    "daytextalignmentincell": 5,
    "desktopweb": {
        "calendarIcon": "calendar.png"
    },
    "entereddate": "01/12/2017",
    "format": "dd/MM/yyyy",
    "formatteddate": "01/12/2017",
    "hidedaysheader": false,
    "hidemonthsheader": false,
    "hour": 0,
    "id": "clndrEndingOn",
    "info": null,
    "isvisible": true,
    "kuid": "e572b50612e041f396b3c0474cbd9936",
    "luadate": [
        1,
        12,
        2017
    ],
    "minutes": 0,
    "month": 12,
    "name": "kony.ui.Calendar",
    "noofmonths": 1,
    "pagedate": "/2017",
    "parent": "flxCalenderEndingOn",
    "pf": "userwidgetmodel",
    "seconds": 0,
    "selectdate": "//2017",
    "viewtype": "default",
    "wType": "Calendar",
    "widgetalignment": 5,
    "year": 2017,
    "zindex": 1
}