{
    "@class": "com.kony.gen.viz.model.component.KVizLabel",
    "DNDConfig": null,
    "__parentReadjusting__": false,
    "_height_": {
        "type": "ref",
        "value": "preferred"
    },
    "_left_": {
        "type": "string",
        "value": "65%"
    },
    "_margin_": [
        1,
        1,
        1,
        1
    ],
    "_padding_": [
        0,
        0,
        0,
        0
    ],
    "_skin_": "s8e46f2a16b74bc4bc77363f8ccf9f01",
    "_text_": "Balance Limit for this month:",
    "_top_": {
        "type": "string",
        "value": "-20dp"
    },
    "_width_": {
        "type": "string",
        "value": "24.50%"
    },
    "_wrapping_": 2,
    "accessibilityconfig": {
        "a11yLabel": "Balance Limit for this month:"
    },
    "android": {
        "textStyle": {
            "letterSpacing": 0,
            "strikeThrough": false
        }
    },
    "canUpdateUI": true,
    "containerweight": 100,
    "contentalignment": 4,
    "id": "lblFromValue",
    "info": null,
    "ipad": {
        "psp": {
            "wrapping": 2
        }
    },
    "iphone": {
        "psp": {
            "wrapping": 2
        }
    },
    "isvisible": false,
    "kuid": "d56920711b8d438092969b906c4fa300",
    "name": "kony.ui.Label",
    "parent": "flxFrom",
    "pf": "userwidgetmodel",
    "tooltip": "",
    "wType": "Label",
    "zindex": 1
}