{
    "@class": "com.kony.gen.viz.model.component.KVizButton",
    "DNDConfig": null,
    "__parentReadjusting__": false,
    "_height_": {
        "type": "string",
        "value": "40px"
    },
    "_left_": {
        "type": "string",
        "value": "83%"
    },
    "_margin_": [
        6,
        6,
        6,
        6
    ],
    "_padding_": [
        0,
        0,
        0,
        0
    ],
    "_right_": {
        "type": "number",
        "value": ""
    },
    "_skin_": "s3681a7211a345fba79d7013af78ba93",
    "_text_": "ADD ACCOUNT",
    "_top_": {
        "type": "string",
        "value": "0px"
    },
    "_width_": {
        "type": "string",
        "value": "15%"
    },
    "accessibilityconfig": {
        "a11yLabel": "Save"
    },
    "canUpdateUI": true,
    "containerweight": 100,
    "contentalignment": 5,
    "desktopweb": {
        "psp": {
            "hoverSkin": "s7ab6326aaf94c28b90b61fcb1b54547"
        }
    },
    "displaytext": true,
    "focusskin": "sfd0ce0d7f454c9f83c7e815a90a8a55",
    "id": "btnSave",
    "ide_onClick": "AS_Button_dba98b463a74428e89d0249d7933c697",
    "info": null,
    "isvisible": true,
    "kuid": "fa6ab78654c34a248471de0f17ab276c",
    "name": "kony.ui.Button",
    "parent": "flxSaveOrCancelKA",
    "pf": "frmFastAddExternalAccount",
    "responsiveData": {
        "b1": {
            "left": {
                "type": "string",
                "value": ""
            },
            "right": {
                "type": "string",
                "value": "30dp"
            },
            "width": {
                "type": "string",
                "value": "150dp"
            }
        },
        "b2": {
            "left": {
                "type": "string",
                "value": ""
            },
            "right": {
                "type": "string",
                "value": "2.50%"
            },
            "width": {
                "type": "string",
                "value": "22%"
            }
        },
        "b3": {
            "left": {
                "type": "string",
                "value": "2%"
            },
            "width": {
                "type": "string",
                "value": "96%"
            }
        }
    },
    "texti18n": "i18n.ProfileManagement.Save",
    "tooltip": "",
    "wType": "Button",
    "zindex": 1
}