{
    "@class": "com.kony.gen.viz.model.component.KVizLabel",
    "DNDConfig": null,
    "__parentReadjusting__": false,
    "_height_": {
        "type": "ref",
        "value": "preferred"
    },
    "_margin_": [
        1,
        1,
        1,
        1
    ],
    "_padding_": [
        0,
        0,
        0,
        0
    ],
    "_right_": {
        "type": "string",
        "value": "10%"
    },
    "_skin_": "s7facb3c022b4bb38d1e831ad35515b6",
    "_text_": "5% Discount on our Credit cards",
    "_top_": {
        "type": "string",
        "value": "91dp"
    },
    "_width_": {
        "type": "string",
        "value": "60%"
    },
    "_wrapping_": 2,
    "accessibilityconfig": {
        "a11yLabel": "Ready for what comes next?"
    },
    "android": {
        "textStyle": {
            "letterSpacing": 0,
            "strikeThrough": false
        }
    },
    "canUpdateUI": true,
    "containerweight": 100,
    "contentalignment": 4,
    "id": "lblReadyForWhatComesNext",
    "info": null,
    "ipad": {
        "psp": {
            "wrapping": 2
        }
    },
    "iphone": {
        "psp": {
            "wrapping": 2
        }
    },
    "isvisible": false,
    "kuid": "fd4b54be64cb4cd698c539f7074abd8b",
    "name": "kony.ui.Label",
    "parent": "flxLeft",
    "pf": "userwidgetmodel",
    "texti18n": "i18n.NUO.ReadyForWhatComesNext",
    "tooltip": "",
    "wType": "Label",
    "zindex": 1
}