{
    "@class": "com.kony.gen.viz.model.component.KVizLabel",
    "DNDConfig": null,
    "__parentReadjusting__": false,
    "_height_": {
        "type": "ref",
        "value": "preferred"
    },
    "_margin_": [
        1,
        1,
        1,
        1
    ],
    "_padding_": [
        0,
        0,
        0,
        0
    ],
    "_right_": {
        "type": "string",
        "value": "20%"
    },
    "_skin_": "sc30b371f40d4cd2979dfbd67c441409",
    "_text_": "You can get",
    "_top_": {
        "type": "string",
        "value": "135dp"
    },
    "_width_": {
        "type": "string",
        "value": "50%"
    },
    "_wrapping_": 2,
    "accessibilityconfig": {
        "a11yLabel": "A savings account makes it easy to save using automatic transfers from your account."
    },
    "android": {
        "textStyle": {
            "letterSpacing": 0,
            "strikeThrough": false
        }
    },
    "canUpdateUI": true,
    "containerweight": 100,
    "contentalignment": 4,
    "id": "lblSavingsAccountsMakesItEasy",
    "info": null,
    "ipad": {
        "psp": {
            "wrapping": 2
        }
    },
    "iphone": {
        "psp": {
            "wrapping": 2
        }
    },
    "isvisible": false,
    "kuid": "cb1a3e3e074d4fd895b542139231ec31",
    "name": "kony.ui.Label",
    "parent": "flxLeft",
    "pf": "userwidgetmodel",
    "texti18n": "i18n.NUO.SavingsAccountMakesItEasy",
    "tooltip": "",
    "wType": "Label",
    "zindex": 1
}