{
    "@class": "com.kony.gen.viz.model.component.KVizRichText",
    "DNDConfig": null,
    "__parentReadjusting__": false,
    "_height_": {
        "type": "ref",
        "value": "preferred"
    },
    "_left_": {
        "type": "string",
        "value": "76dp"
    },
    "_margin_": [
        0,
        0,
        0,
        0
    ],
    "_padding_": [
        0,
        0,
        0,
        0
    ],
    "_right_": {
        "type": "number",
        "value": ""
    },
    "_skin_": "sa7875ee0d0f446987db74d1dc49550e",
    "_text_": "We couldn't find an exact match.Please enter your payee information as it appears on your bill.",
    "_width_": {
        "type": "string",
        "value": "100%"
    },
    "_wrapping_": 2,
    "accessibilityconfig": {
        "a11yLabel": "We could not find an exact match. Please enter your payee information as it appears on your bill."
    },
    "canUpdateUI": true,
    "centerx": {
        "type": "number",
        "value": ""
    },
    "centery": {
        "type": "string",
        "value": "50%"
    },
    "containerweight": 100,
    "contentalignment": 4,
    "id": "rtxError",
    "info": null,
    "isvisible": true,
    "kuid": "i6b82f7dc15441018d876f3175a0a658",
    "name": "kony.ui.RichText",
    "parent": "flxMakeTransferError",
    "pf": "frmCreateGoalAck",
    "responsiveData": {
        "b3": {
            "centerX": {
                "type": "string",
                "value": ""
            },
            "left": {
                "type": "string",
                "value": "12%"
            },
            "right": {
                "type": "string",
                "value": "2%"
            },
            "text": "We couldn't find an exact match.Please enter your payee information as it appears on your bill.",
            "width": {
                "type": "string",
                "value": ""
            }
        }
    },
    "texti18n": "i18n.Transfers.WecouldntfindanexactmatchPleaseenteryourpayeeinformationasitappearsonyourbill",
    "wType": "RichText",
    "widgetalignment": 5,
    "zindex": 1
}