{
	 "@class": "com.kony.gen.viz.model.component.KVizImage2",
	 "DNDConfig": null,
	 "__parentReadjusting__": false,
	 "_base64_": null,
	 "_height_": {
		 "type": "string",
		 "value": "16dp"
	},
	 "_margin_": [
		 0,
		 0,
		 0,
		 0
	],
	 "_padding_": [
		 0,
		 0,
		 0,
		 0
	],
	 "_right_": {
		 "type": "string",
		 "value": "6%"
	},
	 "_skin_": "s78a5f26c9f14cec9ebed1bb46098f80",
	 "_src_": "view.png",
	 "_width_": {
		 "type": "string",
		 "value": "22dp"
	},
	 "canUpdateUI": true,
	 "centery": {
		 "type": "string",
		 "value": "50%"
	},
	 "containerweight": 100,
	 "context": {
		 "channel": "desktop",
		 "formID": "uwua287fd9cb7e478d8feeeacbc75284f3",
		 "platform": "desktopweb",
		 "templateType": "userwidgets",
		 "topLevelBox": null
	},
	 "id": "imgViewCVV",
	 "imagescalemode": 1,
	 "imagewhiledownloading": "img_transparent.png",
	 "info": null,
	 "isvisible": false,
	 "kuid": "hc75addcc56a41a9940094cb5e8a96ef",
	 "name": "kony.ui.Image2",
	 "parent": "flxCVV",
	 "pf": "userwidgetmodel",
	 "srcType": 1,
	 "wType": "Image",
	 "widgetalignment": 5,
	 "zindex": 20,
	 "accessibilityconfig": {
		 "a11yLabel": "View",
		 "a11yValue": ""
	}
}