{
    "@class": "com.kony.gen.viz.model.component.KVizRichText",
    "DNDConfig": null,
    "__parentReadjusting__": false,
    "_height_": {
        "type": "ref",
        "value": "preferred"
    },
    "_margin_": [
        0,
        0,
        0,
        0
    ],
    "_padding_": [
        0,
        0,
        0,
        0
    ],
    "_skin_": "seffa83c16094f9585ed7086b5631829",
    "_text_": "",
    "_top_": {
        "type": "string",
        "value": "41dp"
    },
    "_width_": {
        "type": "ref",
        "value": "preferred"
    },
    "_wrapping_": 2,
    "accessibilityconfig": {
        "a11yLabel": "We sent you a code. Enter it now."
    },
    "canUpdateUI": true,
    "centerx": {
        "type": "string",
        "value": "50%"
    },
    "containerweight": 100,
    "contentalignment": 4,
    "id": "rtxEnterCVVCode",
    "info": null,
    "isvisible": true,
    "kuid": "h96d1265e8824b3f92f601991d530f5a",
    "name": "kony.ui.RichText",
    "parent": "flxImgTxt",
    "pf": "userwidgetmodel",
    "texti18n": "i18n.common.EnterOTP",
    "wType": "RichText",
    "widgetalignment": 5,
    "zindex": 1
}