{
    "@class": "com.kony.gen.viz.model.component.KVizButton",
    "DNDConfig": null,
    "__parentReadjusting__": false,
    "_height_": {
        "type": "string",
        "value": "25dp"
    },
    "_left_": {
        "type": "string",
        "value": "0px"
    },
    "_margin_": [
        6,
        6,
        6,
        6
    ],
    "_padding_": [
        0,
        0,
        0,
        0
    ],
    "_skin_": "se4cbdf6e51f48eda9966caa941c6a19",
    "_text_": "DELETE",
    "_top_": {
        "type": "string",
        "value": "13dp"
    },
    "_width_": {
        "type": "ref",
        "value": "preferred"
    },
    "accessibilityconfig": {
        "a11yLabel": "DELETE"
    },
    "canUpdateUI": true,
    "containerId": true,
    "containerweight": 100,
    "contentalignment": 5,
    "desktopweb": {
        "psp": {
            "hoverSkin": "sd36babbd8f6461f8b492698ab830d13"
        }
    },
    "disabledSkins": {
        "focusSkin": "sf44d06ca8224832827ea7fdff757013"
    },
    "displaytext": true,
    "id": "btnDelete",
    "ide_onClick": "AS_Button_e5b8f3262a4b4a80b62198115cfbcec8",
    "info": null,
    "isvisible": true,
    "kuid": "dd9e0811bc554d43b3aa5b4dd48dda41",
    "name": "kony.ui.Button",
    "parent": "flxDeleteAction",
    "pf": "segManageRecipientSelected",
    "wType": "Button",
    "zindex": 1
}