{
    "BusinessControllerConfig": {
        "CommandHandler": [],
        "BusinessControllerClass": "ACHManager/BusinessControllers/BusinessController"
    },
    "PresentationControllerConfig": {
        "Default": {
            "PresentationExtensions": [],
            "PresentationControllerClass": "ACHManager/PresentationControllers/PresentationController"
        }
    },
    "Forms": {},
    "ModuleName": "ACHManager"
}