{
  "background_color": "f8f7f8ff",
  "bg_type": "one",
  "border_color": "000000ff",
  "border_style": "plain",
  "border_type": 0,
  "border_width": 0,
  "isDefaultSkin": false,
  "kuid": "scf14515e2d444a590ca002fed32ff6d",
  "wType": "FlexContainer"
}