{
    "background_color": "e3e3e3ff",
    "bg_type": "one",
    "border_color": "000000ff",
    "border_style": "plain",
    "border_type": 0,
    "border_width": 0,
    "isDefaultSkin": false,
    "kuid": "sf40eb6a70bc431cb01e1cbd3357db02",
    "wType": "FlexContainer"
}