{
    "background_color": "eeeeeeff",
    "bg_type": "one",
    "border_color": "000000ff",
    "border_style": "plain",
    "border_type": 0,
    "border_width": 0,
    "isDefaultSkin": false,
    "kuid": "s05a4e35ea434e8d84a9a7f4f73d059a",
    "wType": "FlexContainer"
}