{
    "background_color": "00000000",
    "bg_type": "one",
    "border_color": "545454ff",
    "border_radius": 100,
    "border_style": "custom",
    "border_type": 0,
    "border_width": 2,
    "isDefaultSkin": false,
    "kuid": "sfa2aec2b1d9457b8ff2023acbdfb6ce",
    "wType": "FlexContainer"
}