{
    "background_color": "00000000",
    "bg_type": "one",
    "border_color": "4a90e2ff",
    "border_radius": 3,
    "border_style": "custom",
    "border_type": 0,
    "border_width": 1,
    "desktopweb": {
        "bottom_left_border_color": "4a90e2ff",
        "bottom_left_border_style": "plain",
        "bottom_left_border_width": 1,
        "bottom_right_border_color": "4a90e2ff",
        "bottom_right_border_style": "plain",
        "bottom_right_border_width": 1,
        "isForked": true,
        "top_left_border_color": "4a90e2ff",
        "top_left_border_style": "plain",
        "top_left_border_width": 1,
        "top_right_border_color": "4a90e2ff",
        "top_right_border_style": "plain",
        "top_right_border_width": 1
    },
    "isDefaultSkin": false,
    "kuid": "sdf430a2aee248ffb14d05f27fbfccf4",
    "wType": "FlexContainer"
}