{
    "android": {
        "font_size": 108,
        "isForked": false
    },
    "androidwearos": {
        "font_size": 108,
        "isForked": false
    },
    "background_color": "00000000",
    "bg_type": "one",
    "border_color": "424242ff",
    "border_style": "plain",
    "border_type": 0,
    "border_width": 0,
    "desktopweb": {
        "font_name": "SourceSansPro-Regular",
        "font_size": 108,
        "isForked": false
    },
    "fontSizeInPx": false,
    "font_color": "a0a0a0ff",
    "font_name": "Helvetica",
    "font_size": 108,
    "font_style": "normal",
    "font_weight": "normal",
    "ipad": {
        "font_size": 108,
        "isForked": false
    },
    "iphone": {
        "font_size": 108,
        "isForked": false
    },
    "isDefaultSkin": false,
    "kiosk": {
        "font_size": 108,
        "isForked": false
    },
    "kuid": "s54707d6e0cc4b0ca5af3e50697124db",
    "spaan": {
        "font_size": 108,
        "isForked": false
    },
    "spaandroidtablet": {
        "font_size": 108,
        "isForked": false
    },
    "spaip": {
        "font_size": 108,
        "isForked": false
    },
    "spaipad": {
        "font_size": 108,
        "isForked": false
    },
    "spawindowstablet": {
        "font_size": 108,
        "isForked": false
    },
    "spawinphone8": {
        "font_size": 108,
        "isForked": false
    },
    "tabrcandroid": {
        "font_size": 108,
        "isForked": false
    },
    "wType": "Label",
    "watchos": {
        "font_size": 108,
        "isForked": false
    },
    "windows8": {
        "font_size": 108,
        "isForked": false
    },
    "winphone8": {
        "font_size": 108,
        "isForked": false
    }
}