{
    "background_color": "f9f9f9ff",
    "bg_type": "one",
    "border_color": "000000ff",
    "border_style": "plain",
    "border_type": 0,
    "border_width": 0,
    "isDefaultSkin": false,
    "kuid": "sb4c674cc00f4a07b297ed765a065c6a",
    "wType": "FlexContainer"
}