{
    "background_color": "ffffffff",
    "bg_type": "one",
    "border_color": "ffffffff",
    "border_style": "plain",
    "border_type": 0,
    "border_width": 0,
    "isDefaultSkin": false,
    "kuid": "sfc58a625c444db8829d062e76bf476e",
    "wType": "FlexContainer"
}