{
    "background_color": "f8f7f8ff",
    "bg_type": "one",
    "border_color": "000000ff",
    "border_style": "plain",
    "border_type": 0,
    "border_width": 0,
    "isDefaultSkin": false,
    "kuid": "s6b9ddba945f4146919c1b3220ae1a49",
    "wType": "FlexContainer"
}