{
    "background_color": "f9f9f9ff",
    "bg_type": "one",
    "border_color": "000000ff",
    "border_style": "plain",
    "border_type": 0,
    "border_width": 0,
    "isDefaultSkin": false,
    "kuid": "sc016440b1c742688ff913db146e41a1",
    "wType": "FlexContainer"
}