{
  "background_color": "e3e3e300",
  "bg_type": "one",
  "border_color": "e3e3e3ff",
  "border_style": "plain",
  "border_type": 0,
  "border_width": 0,
  "isDefaultSkin": false,
  "kuid": "s44ed4e91f634af69bece269662906ee",
  "wType": "FlexContainer"
}