{
    "background_color": "e3e3e3ff",
    "bg_type": "one",
    "border_color": "000000ff",
    "border_style": "plain",
    "border_type": 0,
    "border_width": 0,
    "isDefaultSkin": false,
    "kuid": "sf2c61b874e74d3b976df7cad8fee883",
    "wType": "FlexContainer"
}