{
  "background_color": "00000066",
  "bg_type": "one",
  "border_color": "000000ff",
  "border_style": "plain",
  "border_type": 0,
  "border_width": 0,
  "isDefaultSkin": false,
  "kuid": "s28bdc02f7fd412c8cd204eeffa7fd13",
  "wType": "FlexContainer"
}