{
  "background_color": "e3e3e3ff",
  "bg_type": "one",
  "border_color": "000000ff",
  "border_style": "plain",
  "border_type": 0,
  "border_width": 0,
  "isDefaultSkin": false,
  "kuid": "sba50675a571438abe9f291ced3a128a",
  "wType": "FlexContainer"
}