{
  "background_color": "cc08ccff",
  "bg_type": "one",
  "border_color": "00000000",
  "border_radius": 100,
  "border_style": "custom",
  "border_type": 0,
  "border_width": 1,
  "isDefaultSkin": false,
  "kuid": "s0a6f7f2fbd44c9cae75e46eb31568e6",
  "wType": "FlexContainer"
}