{
    "android": {
        "background_color": "ffffffff",
        "bg_type": "one",
        "font_name": "Helvetica",
        "font_size": 36,
        "isForked": true
    },
    "background_color": "ffffffff",
    "bg_type": "one",
    "border_color": "336591ff",
    "border_radius": 2,
    "border_style": "custom",
    "border_type": 0,
    "border_width": 1,
    "desktopweb": {
        "background_color": "ffffffff",
        "bg_type": "one",
        "bottom_left_border_radius": "2",
        "bottom_left_border_style": "rc",
        "bottom_left_border_width": "1",
        "bottom_right_border_radius": "2",
        "bottom_right_border_style": "rc",
        "bottom_right_border_width": "1",
        "font_name": "SourceSansPro-Regular",
        "font_size": 125,
        "isForked": true,
        "top_left_border_radius": "2",
        "top_left_border_style": "rc",
        "top_left_border_width": "1",
        "top_right_border_radius": "2",
        "top_right_border_style": "rc",
        "top_right_border_width": "1"
    },
    "fontSizeInPx": true,
    "font_color": "336591ff",
    "font_name": "Helvetica",
    "font_size": 125,
    "font_style": "normal",
    "font_weight": "normal",
    "ipad": {
        "background_color": "ffffffff",
        "bg_type": "one",
        "font_name": "Helvetica",
        "font_size": 54,
        "isForked": true
    },
    "iphone": {
        "background_color": "ffffffff",
        "bg_type": "one",
        "font_name": "Helvetica",
        "font_size": 54,
        "isForked": true
    },
    "isDefaultSkin": false,
    "kiosk": {
        "background_color": "ffffffff",
        "bg_type": "one",
        "font_name": "GenericMonospace",
        "font_size": 94,
        "isForked": true
    },
    "kuid": "s1f8024e78cb40ff8c9569d6c33b94c9",
    "spaan": {
        "background_color": "ffffffff",
        "bg_type": "one",
        "bottom_left_border_radius": "2",
        "bottom_left_border_style": "rc",
        "bottom_left_border_width": "1",
        "bottom_right_border_radius": "2",
        "bottom_right_border_style": "rc",
        "bottom_right_border_width": "1",
        "font_name": "SourceSansPro-Regular",
        "font_size": 125,
        "isForked": true,
        "top_left_border_radius": "2",
        "top_left_border_style": "rc",
        "top_left_border_width": "1",
        "top_right_border_radius": "2",
        "top_right_border_style": "rc",
        "top_right_border_width": "1"
    },
    "spaandroidtablet": {
        "background_color": "ffffffff",
        "bg_type": "one",
        "bottom_left_border_radius": "2",
        "bottom_left_border_style": "rc",
        "bottom_left_border_width": "1",
        "bottom_right_border_radius": "2",
        "bottom_right_border_style": "rc",
        "bottom_right_border_width": "1",
        "font_name": "SourceSansPro-Regular",
        "font_size": 125,
        "isForked": true,
        "top_left_border_radius": "2",
        "top_left_border_style": "rc",
        "top_left_border_width": "1",
        "top_right_border_radius": "2",
        "top_right_border_style": "rc",
        "top_right_border_width": "1"
    },
    "spaip": {
        "background_color": "ffffffff",
        "bg_type": "one",
        "bottom_left_border_radius": "2",
        "bottom_left_border_style": "rc",
        "bottom_left_border_width": "1",
        "bottom_right_border_radius": "2",
        "bottom_right_border_style": "rc",
        "bottom_right_border_width": "1",
        "font_name": "SourceSansPro-Regular",
        "font_size": 125,
        "isForked": true,
        "top_left_border_radius": "2",
        "top_left_border_style": "rc",
        "top_left_border_width": "1",
        "top_right_border_radius": "2",
        "top_right_border_style": "rc",
        "top_right_border_width": "1"
    },
    "spaipad": {
        "background_color": "ffffffff",
        "bg_type": "one",
        "bottom_left_border_radius": "2",
        "bottom_left_border_style": "rc",
        "bottom_left_border_width": "1",
        "bottom_right_border_radius": "2",
        "bottom_right_border_style": "rc",
        "bottom_right_border_width": "1",
        "font_name": "SourceSansPro-Regular",
        "font_size": 125,
        "isForked": true,
        "top_left_border_radius": "2",
        "top_left_border_style": "rc",
        "top_left_border_width": "1",
        "top_right_border_radius": "2",
        "top_right_border_style": "rc",
        "top_right_border_width": "1"
    },
    "spawindowstablet": {
        "background_color": "ffffffff",
        "bg_type": "one",
        "bottom_left_border_radius": "2",
        "bottom_left_border_style": "rc",
        "bottom_left_border_width": "1",
        "bottom_right_border_radius": "2",
        "bottom_right_border_style": "rc",
        "bottom_right_border_width": "1",
        "font_name": "Helvetica",
        "font_size": 125,
        "isForked": true,
        "top_left_border_radius": "2",
        "top_left_border_style": "rc",
        "top_left_border_width": "1",
        "top_right_border_radius": "2",
        "top_right_border_style": "rc",
        "top_right_border_width": "1"
    },
    "spawinphone8": {
        "background_color": "ffffffff",
        "bg_type": "one",
        "bottom_left_border_radius": "2",
        "bottom_left_border_style": "rc",
        "bottom_left_border_width": "1",
        "bottom_right_border_radius": "2",
        "bottom_right_border_style": "rc",
        "bottom_right_border_width": "1",
        "font_name": "Helvetica",
        "font_size": 125,
        "isForked": true,
        "top_left_border_radius": "2",
        "top_left_border_style": "rc",
        "top_left_border_width": "1",
        "top_right_border_radius": "2",
        "top_right_border_style": "rc",
        "top_right_border_width": "1"
    },
    "tabrcandroid": {
        "background_color": "ffffffff",
        "bg_type": "one",
        "font_name": "Helvetica",
        "font_size": 89,
        "isForked": true
    },
    "wType": "Button",
    "watchos": {
        "background_color": "ffffffff",
        "bg_type": "one",
        "font_name": "Helvetica",
        "font_size": 54,
        "isForked": true
    },
    "windows8": {
        "background_color": "ffffffff",
        "bg_type": "one",
        "font_name": "GenericMonospace",
        "font_size": 37,
        "isForked": true
    },
    "winphone8": {
        "background_color": "ffffffff",
        "bg_type": "one",
        "font_name": "GenericMonospace",
        "font_size": 50,
        "isForked": true
    }
}