{
  "background_color": "e3e3e3ff",
  "bg_type": "one",
  "border_color": "000000ff",
  "border_style": "plain",
  "border_type": 0,
  "border_width": 0,
  "isDefaultSkin": false,
  "kuid": "saef3d543ed147b4944b3ba66ff1b880",
  "wType": "FlexContainer"
}