{
    "background_color": "f9f9f9ff",
    "bg_type": "one",
    "border_color": "000000ff",
    "border_style": "plain",
    "border_type": 0,
    "border_width": 0,
    "isDefaultSkin": false,
    "kuid": "s97b28b1ba1f473e988cd5d4a47ff90d",
    "wType": "FlexContainer"
}