{
  "background_color": "f8f7f8ff",
  "bg_type": "one",
  "border_color": "ffffffff",
  "border_style": "plain",
  "border_type": 0,
  "border_width": 0,
  "isDefaultSkin": false,
  "kuid": "sefda3987cda44e4b9df8fdce98bad27",
  "wType": "FlexContainer"
}