{
  "background_color": "4176a4ff",
  "bg_type": "one",
  "border_color": "000000ff",
  "border_style": "plain",
  "border_type": 0,
  "border_width": 0,
  "isDefaultSkin": false,
  "kuid": "s9e645b3eb3d43f496f7d82d13cb0cbf",
  "wType": "FlexContainer"
}