{
  "android": {
    "font_name": "Helvetica",
    "font_size": 56,
    "isForked": false
  },
  "androidwearos": {
    "font_name": "Helvetica",
    "font_size": 71,
    "isForked": false
  },
  "background_color": "42424200",
  "bg_type": "one",
  "border_color": "424242ff",
  "border_style": "plain",
  "border_type": 0,
  "border_width": 0,
  "delinkedPltfrms": {
    "desktop": [
      "desktopweb"
    ],
    "mobile": [],
    "tablet": [
      "spaipad"
    ],
    "watch": []
  },
  "desktopweb": {
    "font_name": "OLB_font_icons",
    "font_size": 167,
    "isForked": false
  },
  "fontSizeInPx": true,
  "font_color": "003e75ff",
  "font_name": "Helvetica",
  "font_size": 69,
  "font_style": "normal",
  "font_weight": "normal",
  "ipad": {
    "font_name": "Helvetica",
    "font_size": 71,
    "isForked": false
  },
  "iphone": {
    "font_name": "Helvetica",
    "font_size": 69,
    "isForked": false
  },
  "isDefaultSkin": false,
  "kiosk": {
    "font_name": "GenericMonospace",
    "font_size": 125,
    "isForked": false
  },
  "kuid": "se4186555df441e1835daf8083ee76a0",
  "spaan": {
    "font_name": "Helvetica",
    "font_size": 56,
    "isForked": false
  },
  "spaandroidtablet": {
    "font_name": "Helvetica",
    "font_size": 56,
    "isForked": false
  },
  "spaip": {
    "font_name": "Helvetica",
    "font_size": 43,
    "isForked": false
  },
  "spaipad": {
    "font_name": "Helvetica",
    "font_size": 100,
    "isForked": true
  },
  "spawindowstablet": {
    "font_name": "Helvetica",
    "font_size": 56,
    "isForked": false
  },
  "spawinphone8": {
    "font_name": "Helvetica",
    "font_size": 56,
    "isForked": false
  },
  "tabrcandroid": {
    "font_name": "Helvetica",
    "font_size": 119,
    "isForked": false
  },
  "wType": "Label",
  "watchos": {
    "font_name": "Helvetica",
    "font_size": 71,
    "isForked": false
  },
  "windows8": {
    "font_name": "GenericMonospace",
    "font_size": 49,
    "isForked": false
  },
  "winphone8": {
    "font_name": "GenericMonospace",
    "font_size": 67,
    "isForked": false
  }
}