{
  "android": {
    "font_name": "Helvetica",
    "font_size": 33,
    "isForked": false
  },
  "androidwearos": {
    "font_name": "Helvetica",
    "font_size": 43,
    "isForked": false
  },
  "background_color": "00000000",
  "bg_type": "one",
  "border_color": "e3e3e3ff",
  "border_radius": 4,
  "border_style": "custom",
  "border_type": 0,
  "border_width": 1,
  "desktopweb": {
    "font_name": "OLB_font_icons",
    "font_size": 100,
    "isForked": false
  },
  "fontSizeInPx": true,
  "font_color": "003e75ff",
  "font_name": "Helvetica",
  "font_size": 41,
  "font_style": "normal",
  "font_weight": "normal",
  "ipad": {
    "font_name": "Helvetica",
    "font_size": 43,
    "isForked": false
  },
  "iphone": {
    "font_name": "Helvetica",
    "font_size": 41,
    "isForked": false
  },
  "isDefaultSkin": false,
  "kiosk": {
    "font_name": "None",
    "font_size": 75,
    "isForked": false
  },
  "kuid": "s099ef7f06a448f4829720e965b61e70",
  "spaan": {
    "font_name": "Helvetica",
    "font_size": 33,
    "isForked": false
  },
  "spaandroidtablet": {
    "font_name": "Helvetica",
    "font_size": 33,
    "isForked": false
  },
  "spaip": {
    "font_name": "Helvetica",
    "font_size": 26,
    "isForked": false
  },
  "spaipad": {
    "font_name": "Helvetica",
    "font_size": 33,
    "isForked": false
  },
  "spawindowstablet": {
    "font_name": "Helvetica",
    "font_size": 33,
    "isForked": false
  },
  "spawinphone8": {
    "font_name": "Helvetica",
    "font_size": 33,
    "isForked": false
  },
  "tabrcandroid": {
    "font_name": "Helvetica",
    "font_size": 71,
    "isForked": false
  },
  "wType": "Label",
  "watchos": {
    "font_name": "Helvetica",
    "font_size": 43,
    "isForked": false
  },
  "windows8": {
    "font_name": "None",
    "font_size": 29,
    "isForked": false
  },
  "winphone8": {
    "font_name": "None",
    "font_size": 40,
    "isForked": false
  }
}