{
  "android": {
    "font_size": 6,
    "isForked": false
  },
  "androidwearos": {
    "font_size": 7,
    "isForked": false
  },
  "background_color": "00000000",
  "bg_type": "one",
  "border_color": "e3e3e3ff",
  "border_radius": 5,
  "border_style": "custom",
  "border_type": 0,
  "border_width": 1,
  "desktopweb": {
    "font_name": "OLB_font_icons",
    "font_size": 108,
    "isForked": false
  },
  "fontSizeInPx": true,
  "font_color": "003e75ff",
  "font_name": "Helvetica",
  "font_size": 17,
  "font_style": "normal",
  "font_weight": "normal",
  "ipad": {
    "font_size": 7,
    "isForked": false
  },
  "iphone": {
    "font_size": 7,
    "isForked": false
  },
  "isDefaultSkin": false,
  "kiosk": {
    "font_size": 13,
    "isForked": false
  },
  "kuid": "s2d787c8f74841d29280e4649f239724",
  "spaan": {
    "font_size": 17,
    "isForked": false
  },
  "spaandroidtablet": {
    "font_size": 17,
    "isForked": false
  },
  "spaip": {
    "font_size": 13,
    "isForked": false
  },
  "spaipad": {
    "font_size": 17,
    "isForked": false
  },
  "spawindowstablet": {
    "font_size": 17,
    "isForked": false
  },
  "spawinphone8": {
    "font_size": 17,
    "isForked": false
  },
  "tabrcandroid": {
    "font_size": 12,
    "isForked": false
  },
  "wType": "Label",
  "watchos": {
    "font_size": 7,
    "isForked": false
  },
  "windows8": {
    "font_size": 5,
    "isForked": false
  },
  "winphone8": {
    "font_size": 7,
    "isForked": false
  }
}