{
  "android": {
    "background_right_color": "ffffff80",
    "bg_type": "one",
    "font_name": "default",
    "isForked": true,
    "thumb_color": "ffffff"
  },
  "androidwearos": {
    "background_right_color": "ffffff80",
    "bg_type": "one",
    "font_name": "default",
    "isForked": true,
    "thumb_color": "ffffff"
  },
  "background_left_color": "48d874ff",
  "background_right_color": "ffffff00",
  "bg_type": "one",
  "border_color": "000000ff",
  "border_style": "plain",
  "border_type": 0,
  "border_width": 0,
  "desktopweb": {
    "bottom_left_border_color": "000000ff",
    "bottom_left_border_style": "plain",
    "bottom_left_border_width": 0,
    "bottom_right_border_color": "000000ff",
    "bottom_right_border_style": "plain",
    "bottom_right_border_width": 0,
    "customCSS": "div[kw=\"Switch\"] > div[kr=\"switch\"],\ndiv[kw=\"Switch\"] > div[kr=\"holder\"] {\n    position: absolute !important;\n    top: 50% !important;\n    left: 50% !important;\n    transform: translate(-50%, -50%) !important;\n}\ndiv[kw=\"Switch\"] > div[kr=\"switch\"] {\n    overflow-x: hidden !important;\n    overflow-y: hidden !important;\n}\ndiv[kw=\"Switch\"] > div[kr=\"holder\"] {\n    display: flex !important;\n    background-image: none !important;\n    background-color: transparent !important;\n}\ndiv[kw=\"Switch\"] div[kr=\"left\"],\ndiv[kw=\"Switch\"] div[kr=\"right\"],\ndiv[kw=\"Switch\"] div[kr=\"thumb\"] {\n    transition: transform 0.125s ease-in-out 0s;\n}\ndiv[kw=\"Switch\"] div[kr=\"left\"],\ndiv[kw=\"Switch\"] div[kr=\"right\"] {\n    position: absolute !important;\n    top: 0% !important;\n    width: 40px !important;\n    height: 20px !important;\n    border: 1px solid #d4d5dd !important;\n    left: 100% !important;\n    border-radius: 30px !important;\n}\ndiv[kw=\"Switch\"] div[kr=\"left\"] {\n    left: 0% !important;\n}\ndiv[kw=\"Switch\"] div[kr=\"left\"] > label,\ndiv[kw=\"Switch\"] div[kr=\"right\"] > label {\n    position: absolute !important;\n    top: 0% !important;\n    display: flex !important;\n    justify-content: center !important;\n    align-items: center !important;\n    height: 100% !important;\n    right: 0% !important;\n    width: 100%; /* Must not be !important */\n}\ndiv[kw=\"Switch\"] div[kr=\"left\"] > label {\n    left: 0% !important;\n}\ndiv[kw=\"Switch\"] div[kr=\"thumb\"] {\n    display: flex !important;\n    justify-content: center !important;\n    align-items: center !important;\n    flex-direction: row !important;\n    align-self: center !important;\n    position: absolute !important;\n    right: 0% !important;\n    top: auto !important;\n    bottom: auto !important;\n}\ndiv[kw=\"Switch\"][kt=\"ios-gt6\"] div[kr=\"left\"],\ndiv[kw=\"Switch\"][kt=\"ios-gt6\"] div[kr=\"right\"],\ndiv[kw=\"Switch\"][kt=\"ios-gt6\"] div[kr=\"thumb\"] {\n    transition: transform 0.4s ease-in-out 0s;\n}\ndiv[kw=\"Switch\"][kt=\"ios-gt6\"] > div[kr=\"switch\"],\ndiv[kw=\"Switch\"][kt=\"ios-gt6\"] > div[kr=\"holder\"] {\n    height: 20px !important;\n    width:40px !important;\n    \n}\ndiv[kw=\"Switch\"][kt=\"ios-gt6\"] > div[kr=\"switch\"] {\n    border-radius: 30px !important;\n}\ndiv[kw=\"Switch\"][kt=\"ios-gt6\"] div[kr=\"thumb\"] {\n    border: 1px solid #d4d5dd !important;\n    border-radius: 30px !important;\n    height: 20px !important;\n    width: 20px !important;\n    background: #fff !important;\n    margin-right: -2px;\n}\ndiv[kw=\"Switch\"][kt=\"ios-gt6\"] div[kr=\"left\"] > label,\ndiv[kw=\"Switch\"][kt=\"ios-gt6\"] div[kr=\"right\"] > label {\n    width: calc(100% - 50%);\n}\ndiv[kw=\"Switch\"][kt=\"ios-gt6\"] div[kr=\"left\"] {\n    background-color: #003e75;\n}\ndiv[kw=\"Switch\"][kt=\"ios-gt6\"] div[kr=\"right\"] {\n    background-color: #aaaaaa\n}\ndiv[kw=\"Switch\"][kt=\"ios-gt6\"] div[kr=\"left\"] > label,\ndiv[kw=\"Switch\"][kt=\"ios-gt6\"] div[kr=\"right\"] > label {\n    font-size: 0px;\n}\ndiv[kw=\"Switch\"][kt=\"non-ios-gt6\"] div[kr=\"left\"],\ndiv[kw=\"Switch\"][kt=\"non-ios-gt6\"] div[kr=\"right\"],\ndiv[kw=\"Switch\"][kt=\"non-ios-gt6\"] div[kr=\"thumb\"] {\n    transition: transform 0.125s ease-in-out 0s;\n}\ndiv[kw=\"Switch\"][kt=\"non-ios-gt6\"] > div[kr=\"switch\"],\ndiv[kw=\"Switch\"][kt=\"non-ios-gt6\"] > div[kr=\"holder\"] {\n    height: 20px !important;\n    width:40px !important;\n    \n}\ndiv[kw=\"Switch\"][kt=\"non-ios-gt6\"] > div[kr=\"switch\"] {\n    border-radius: 30px !important;\n}\ndiv[kw=\"Switch\"][kt=\"non-ios-gt6\"] div[kr=\"thumb\"] {\n    border: 1px solid #d4d5dd !important;\n    border-radius: 30px !important;\n    height: 20px !important;\n    width: 20px !important;\n    background: #fff !important;\n    margin-right: -2px;\n}\ndiv[kw=\"Switch\"][kt=\"non-ios-gt6\"] div[kr=\"left\"] > label,\ndiv[kw=\"Switch\"][kt=\"non-ios-gt6\"] div[kr=\"right\"] > label {\n    width: calc(100% - 50%);\n}\n/* TODO:: START - This will go to konydesktop.css */\ndiv[kw=\"Switch\"][kt=\"non-ios-gt6\"] div[kr=\"left\"] {\n    background-color: #003e75;\n}\ndiv[kw=\"Switch\"][kt=\"non-ios-gt6\"] div[kr=\"right\"] {\n    background-color: #aaaaaa\n}\ndiv[kw=\"Switch\"][kt=\"non-ios-gt6\"] div[kr=\"left\"] > label,\ndiv[kw=\"Switch\"][kt=\"non-ios-gt6\"] div[kr=\"right\"] > label {\n    font-size: 0px;\n}",
    "font_name": "Helvetica",
    "isCustomCSSEnabled": true,
    "isForked": true,
    "top_left_border_color": "000000ff",
    "top_left_border_style": "plain",
    "top_left_border_width": 0,
    "top_right_border_color": "000000ff",
    "top_right_border_style": "plain",
    "top_right_border_width": 0
  },
  "font_size": 156,
  "font_style": "normal",
  "font_weight": "normal",
  "ipad": {
    "font_name": "System",
    "thumb_color": "ffffff",
    "tint_color": "e8e8e8"
  },
  "iphone": {
    "font_name": "System",
    "thumb_color": "ffffff",
    "tint_color": "e8e8e8"
  },
  "isDefaultSkin": false,
  "kiosk": {
    "font_name": "None"
  },
  "kuid": "s38e7f4ca16d438ba82a390452127c07",
  "left_font_color": "333333ff",
  "right_font_color": "333333ff",
  "spaan": {
    "bottom_left_border_color": "000000ff",
    "bottom_left_border_style": "plain",
    "bottom_left_border_width": 0,
    "bottom_right_border_color": "000000ff",
    "bottom_right_border_style": "plain",
    "bottom_right_border_width": 0,
    "customCSS": "div[kw=\"Switch\"] > div[kr=\"switch\"],\ndiv[kw=\"Switch\"] > div[kr=\"holder\"] {\n    position: absolute !important;\n    top: 50% !important;\n    left: 50% !important;\n    transform: translate(-50%, -50%) !important;\n}\ndiv[kw=\"Switch\"] > div[kr=\"switch\"] {\n    overflow-x: hidden !important;\n    overflow-y: hidden !important;\n}\ndiv[kw=\"Switch\"] > div[kr=\"holder\"] {\n    display: flex !important;\n    background-image: none !important;\n    background-color: transparent !important;\n}\ndiv[kw=\"Switch\"] div[kr=\"left\"],\ndiv[kw=\"Switch\"] div[kr=\"right\"],\ndiv[kw=\"Switch\"] div[kr=\"thumb\"] {\n    transition: transform 0.125s ease-in-out 0s;\n}\ndiv[kw=\"Switch\"] div[kr=\"left\"],\ndiv[kw=\"Switch\"] div[kr=\"right\"] {\n    position: absolute !important;\n    top: 0% !important;\n    width: 40px !important;\n    height: 20px !important;\n    border: 1px solid #d4d5dd !important;\n    left: 100% !important;\n    border-radius: 30px !important;\n}\ndiv[kw=\"Switch\"] div[kr=\"left\"] {\n    left: 0% !important;\n}\ndiv[kw=\"Switch\"] div[kr=\"left\"] > label,\ndiv[kw=\"Switch\"] div[kr=\"right\"] > label {\n    position: absolute !important;\n    top: 0% !important;\n    display: flex !important;\n    justify-content: center !important;\n    align-items: center !important;\n    height: 100% !important;\n    right: 0% !important;\n    width: 100%; /* Must not be !important */\n}\ndiv[kw=\"Switch\"] div[kr=\"left\"] > label {\n    left: 0% !important;\n}\ndiv[kw=\"Switch\"] div[kr=\"thumb\"] {\n    display: flex !important;\n    justify-content: center !important;\n    align-items: center !important;\n    flex-direction: row !important;\n    align-self: center !important;\n    position: absolute !important;\n    right: 0% !important;\n    top: auto !important;\n    bottom: auto !important;\n}\ndiv[kw=\"Switch\"][kt=\"ios-gt6\"] div[kr=\"left\"],\ndiv[kw=\"Switch\"][kt=\"ios-gt6\"] div[kr=\"right\"],\ndiv[kw=\"Switch\"][kt=\"ios-gt6\"] div[kr=\"thumb\"] {\n    transition: transform 0.4s ease-in-out 0s;\n}\ndiv[kw=\"Switch\"][kt=\"ios-gt6\"] > div[kr=\"switch\"],\ndiv[kw=\"Switch\"][kt=\"ios-gt6\"] > div[kr=\"holder\"] {\n    height: 20px !important;\n    width:40px !important;\n    \n}\ndiv[kw=\"Switch\"][kt=\"ios-gt6\"] > div[kr=\"switch\"] {\n    border-radius: 30px !important;\n}\ndiv[kw=\"Switch\"][kt=\"ios-gt6\"] div[kr=\"thumb\"] {\n    border: 1px solid #d4d5dd !important;\n    border-radius: 30px !important;\n    height: 20px !important;\n    width: 20px !important;\n    background: #fff !important;\n    margin-right: -2px;\n}\ndiv[kw=\"Switch\"][kt=\"ios-gt6\"] div[kr=\"left\"] > label,\ndiv[kw=\"Switch\"][kt=\"ios-gt6\"] div[kr=\"right\"] > label {\n    width: calc(100% - 50%);\n}\ndiv[kw=\"Switch\"][kt=\"ios-gt6\"] div[kr=\"left\"] {\n    background-color: #003e75;\n}\ndiv[kw=\"Switch\"][kt=\"ios-gt6\"] div[kr=\"right\"] {\n    background-color: #aaaaaa\n}\ndiv[kw=\"Switch\"][kt=\"ios-gt6\"] div[kr=\"left\"] > label,\ndiv[kw=\"Switch\"][kt=\"ios-gt6\"] div[kr=\"right\"] > label {\n    font-size: 0px;\n}\ndiv[kw=\"Switch\"][kt=\"non-ios-gt6\"] div[kr=\"left\"],\ndiv[kw=\"Switch\"][kt=\"non-ios-gt6\"] div[kr=\"right\"],\ndiv[kw=\"Switch\"][kt=\"non-ios-gt6\"] div[kr=\"thumb\"] {\n    transition: transform 0.125s ease-in-out 0s;\n}\ndiv[kw=\"Switch\"][kt=\"non-ios-gt6\"] > div[kr=\"switch\"],\ndiv[kw=\"Switch\"][kt=\"non-ios-gt6\"] > div[kr=\"holder\"] {\n    height: 20px !important;\n    width:40px !important;\n    \n}\ndiv[kw=\"Switch\"][kt=\"non-ios-gt6\"] > div[kr=\"switch\"] {\n    border-radius: 30px !important;\n}\ndiv[kw=\"Switch\"][kt=\"non-ios-gt6\"] div[kr=\"thumb\"] {\n    border: 1px solid #d4d5dd !important;\n    border-radius: 30px !important;\n    height: 20px !important;\n    width: 20px !important;\n    background: #fff !important;\n    margin-right: -2px;\n}\ndiv[kw=\"Switch\"][kt=\"non-ios-gt6\"] div[kr=\"left\"] > label,\ndiv[kw=\"Switch\"][kt=\"non-ios-gt6\"] div[kr=\"right\"] > label {\n    width: calc(100% - 50%);\n}\n/* TODO:: START - This will go to konydesktop.css */\ndiv[kw=\"Switch\"][kt=\"non-ios-gt6\"] div[kr=\"left\"] {\n    background-color: #003e75;\n}\ndiv[kw=\"Switch\"][kt=\"non-ios-gt6\"] div[kr=\"right\"] {\n    background-color: #aaaaaa\n}\ndiv[kw=\"Switch\"][kt=\"non-ios-gt6\"] div[kr=\"left\"] > label,\ndiv[kw=\"Switch\"][kt=\"non-ios-gt6\"] div[kr=\"right\"] > label {\n    font-size: 0px;\n}",
    "font_name": "Helvetica",
    "isCustomCSSEnabled": true,
    "isForked": true,
    "top_left_border_color": "000000ff",
    "top_left_border_style": "plain",
    "top_left_border_width": 0,
    "top_right_border_color": "000000ff",
    "top_right_border_style": "plain",
    "top_right_border_width": 0
  },
  "spaandroidtablet": {
    "bottom_left_border_color": "000000ff",
    "bottom_left_border_style": "plain",
    "bottom_left_border_width": 0,
    "bottom_right_border_color": "000000ff",
    "bottom_right_border_style": "plain",
    "bottom_right_border_width": 0,
    "customCSS": "div[kw=\"Switch\"] > div[kr=\"switch\"],\ndiv[kw=\"Switch\"] > div[kr=\"holder\"] {\n    position: absolute !important;\n    top: 50% !important;\n    left: 50% !important;\n    transform: translate(-50%, -50%) !important;\n}\ndiv[kw=\"Switch\"] > div[kr=\"switch\"] {\n    overflow-x: hidden !important;\n    overflow-y: hidden !important;\n}\ndiv[kw=\"Switch\"] > div[kr=\"holder\"] {\n    display: flex !important;\n    background-image: none !important;\n    background-color: transparent !important;\n}\ndiv[kw=\"Switch\"] div[kr=\"left\"],\ndiv[kw=\"Switch\"] div[kr=\"right\"],\ndiv[kw=\"Switch\"] div[kr=\"thumb\"] {\n    transition: transform 0.125s ease-in-out 0s;\n}\ndiv[kw=\"Switch\"] div[kr=\"left\"],\ndiv[kw=\"Switch\"] div[kr=\"right\"] {\n    position: absolute !important;\n    top: 0% !important;\n    width: 40px !important;\n    height: 20px !important;\n    border: 1px solid #d4d5dd !important;\n    left: 100% !important;\n    border-radius: 30px !important;\n}\ndiv[kw=\"Switch\"] div[kr=\"left\"] {\n    left: 0% !important;\n}\ndiv[kw=\"Switch\"] div[kr=\"left\"] > label,\ndiv[kw=\"Switch\"] div[kr=\"right\"] > label {\n    position: absolute !important;\n    top: 0% !important;\n    display: flex !important;\n    justify-content: center !important;\n    align-items: center !important;\n    height: 100% !important;\n    right: 0% !important;\n    width: 100%; /* Must not be !important */\n}\ndiv[kw=\"Switch\"] div[kr=\"left\"] > label {\n    left: 0% !important;\n}\ndiv[kw=\"Switch\"] div[kr=\"thumb\"] {\n    display: flex !important;\n    justify-content: center !important;\n    align-items: center !important;\n    flex-direction: row !important;\n    align-self: center !important;\n    position: absolute !important;\n    right: 0% !important;\n    top: auto !important;\n    bottom: auto !important;\n}\ndiv[kw=\"Switch\"][kt=\"ios-gt6\"] div[kr=\"left\"],\ndiv[kw=\"Switch\"][kt=\"ios-gt6\"] div[kr=\"right\"],\ndiv[kw=\"Switch\"][kt=\"ios-gt6\"] div[kr=\"thumb\"] {\n    transition: transform 0.4s ease-in-out 0s;\n}\ndiv[kw=\"Switch\"][kt=\"ios-gt6\"] > div[kr=\"switch\"],\ndiv[kw=\"Switch\"][kt=\"ios-gt6\"] > div[kr=\"holder\"] {\n    height: 20px !important;\n    width:40px !important;\n    \n}\ndiv[kw=\"Switch\"][kt=\"ios-gt6\"] > div[kr=\"switch\"] {\n    border-radius: 30px !important;\n}\ndiv[kw=\"Switch\"][kt=\"ios-gt6\"] div[kr=\"thumb\"] {\n    border: 1px solid #d4d5dd !important;\n    border-radius: 30px !important;\n    height: 20px !important;\n    width: 20px !important;\n    background: #fff !important;\n    margin-right: -2px;\n}\ndiv[kw=\"Switch\"][kt=\"ios-gt6\"] div[kr=\"left\"] > label,\ndiv[kw=\"Switch\"][kt=\"ios-gt6\"] div[kr=\"right\"] > label {\n    width: calc(100% - 50%);\n}\ndiv[kw=\"Switch\"][kt=\"ios-gt6\"] div[kr=\"left\"] {\n    background-color: #003e75;\n}\ndiv[kw=\"Switch\"][kt=\"ios-gt6\"] div[kr=\"right\"] {\n    background-color: #aaaaaa\n}\ndiv[kw=\"Switch\"][kt=\"ios-gt6\"] div[kr=\"left\"] > label,\ndiv[kw=\"Switch\"][kt=\"ios-gt6\"] div[kr=\"right\"] > label {\n    font-size: 0px;\n}\ndiv[kw=\"Switch\"][kt=\"non-ios-gt6\"] div[kr=\"left\"],\ndiv[kw=\"Switch\"][kt=\"non-ios-gt6\"] div[kr=\"right\"],\ndiv[kw=\"Switch\"][kt=\"non-ios-gt6\"] div[kr=\"thumb\"] {\n    transition: transform 0.125s ease-in-out 0s;\n}\ndiv[kw=\"Switch\"][kt=\"non-ios-gt6\"] > div[kr=\"switch\"],\ndiv[kw=\"Switch\"][kt=\"non-ios-gt6\"] > div[kr=\"holder\"] {\n    height: 20px !important;\n    width:40px !important;\n    \n}\ndiv[kw=\"Switch\"][kt=\"non-ios-gt6\"] > div[kr=\"switch\"] {\n    border-radius: 30px !important;\n}\ndiv[kw=\"Switch\"][kt=\"non-ios-gt6\"] div[kr=\"thumb\"] {\n    border: 1px solid #d4d5dd !important;\n    border-radius: 30px !important;\n    height: 20px !important;\n    width: 20px !important;\n    background: #fff !important;\n    margin-right: -2px;\n}\ndiv[kw=\"Switch\"][kt=\"non-ios-gt6\"] div[kr=\"left\"] > label,\ndiv[kw=\"Switch\"][kt=\"non-ios-gt6\"] div[kr=\"right\"] > label {\n    width: calc(100% - 50%);\n}\n/* TODO:: START - This will go to konydesktop.css */\ndiv[kw=\"Switch\"][kt=\"non-ios-gt6\"] div[kr=\"left\"] {\n    background-color: #003e75;\n}\ndiv[kw=\"Switch\"][kt=\"non-ios-gt6\"] div[kr=\"right\"] {\n    background-color: #aaaaaa\n}\ndiv[kw=\"Switch\"][kt=\"non-ios-gt6\"] div[kr=\"left\"] > label,\ndiv[kw=\"Switch\"][kt=\"non-ios-gt6\"] div[kr=\"right\"] > label {\n    font-size: 0px;\n}",
    "font_name": "Helvetica",
    "isCustomCSSEnabled": true,
    "isForked": true,
    "top_left_border_color": "000000ff",
    "top_left_border_style": "plain",
    "top_left_border_width": 0,
    "top_right_border_color": "000000ff",
    "top_right_border_style": "plain",
    "top_right_border_width": 0
  },
  "spaip": {
    "bottom_left_border_color": "000000ff",
    "bottom_left_border_style": "plain",
    "bottom_left_border_width": 0,
    "bottom_right_border_color": "000000ff",
    "bottom_right_border_style": "plain",
    "bottom_right_border_width": 0,
    "customCSS": "div[kw=\"Switch\"] > div[kr=\"switch\"],\ndiv[kw=\"Switch\"] > div[kr=\"holder\"] {\n    position: absolute !important;\n    top: 50% !important;\n    left: 50% !important;\n    transform: translate(-50%, -50%) !important;\n}\ndiv[kw=\"Switch\"] > div[kr=\"switch\"] {\n    overflow-x: hidden !important;\n    overflow-y: hidden !important;\n}\ndiv[kw=\"Switch\"] > div[kr=\"holder\"] {\n    display: flex !important;\n    background-image: none !important;\n    background-color: transparent !important;\n}\ndiv[kw=\"Switch\"] div[kr=\"left\"],\ndiv[kw=\"Switch\"] div[kr=\"right\"],\ndiv[kw=\"Switch\"] div[kr=\"thumb\"] {\n    transition: transform 0.125s ease-in-out 0s;\n}\ndiv[kw=\"Switch\"] div[kr=\"left\"],\ndiv[kw=\"Switch\"] div[kr=\"right\"] {\n    position: absolute !important;\n    top: 0% !important;\n    width: 40px !important;\n    height: 20px !important;\n    border: 1px solid #d4d5dd !important;\n    left: 100% !important;\n    border-radius: 30px !important;\n}\ndiv[kw=\"Switch\"] div[kr=\"left\"] {\n    left: 0% !important;\n}\ndiv[kw=\"Switch\"] div[kr=\"left\"] > label,\ndiv[kw=\"Switch\"] div[kr=\"right\"] > label {\n    position: absolute !important;\n    top: 0% !important;\n    display: flex !important;\n    justify-content: center !important;\n    align-items: center !important;\n    height: 100% !important;\n    right: 0% !important;\n    width: 100%; /* Must not be !important */\n}\ndiv[kw=\"Switch\"] div[kr=\"left\"] > label {\n    left: 0% !important;\n}\ndiv[kw=\"Switch\"] div[kr=\"thumb\"] {\n    display: flex !important;\n    justify-content: center !important;\n    align-items: center !important;\n    flex-direction: row !important;\n    align-self: center !important;\n    position: absolute !important;\n    right: 0% !important;\n    top: auto !important;\n    bottom: auto !important;\n}\ndiv[kw=\"Switch\"][kt=\"ios-gt6\"] div[kr=\"left\"],\ndiv[kw=\"Switch\"][kt=\"ios-gt6\"] div[kr=\"right\"],\ndiv[kw=\"Switch\"][kt=\"ios-gt6\"] div[kr=\"thumb\"] {\n    transition: transform 0.4s ease-in-out 0s;\n}\ndiv[kw=\"Switch\"][kt=\"ios-gt6\"] > div[kr=\"switch\"],\ndiv[kw=\"Switch\"][kt=\"ios-gt6\"] > div[kr=\"holder\"] {\n    height: 20px !important;\n    width:40px !important;\n    \n}\ndiv[kw=\"Switch\"][kt=\"ios-gt6\"] > div[kr=\"switch\"] {\n    border-radius: 30px !important;\n}\ndiv[kw=\"Switch\"][kt=\"ios-gt6\"] div[kr=\"thumb\"] {\n    border: 1px solid #d4d5dd !important;\n    border-radius: 30px !important;\n    height: 20px !important;\n    width: 20px !important;\n    background: #fff !important;\n    margin-right: -2px;\n}\ndiv[kw=\"Switch\"][kt=\"ios-gt6\"] div[kr=\"left\"] > label,\ndiv[kw=\"Switch\"][kt=\"ios-gt6\"] div[kr=\"right\"] > label {\n    width: calc(100% - 50%);\n}\ndiv[kw=\"Switch\"][kt=\"ios-gt6\"] div[kr=\"left\"] {\n    background-color: #003e75;\n}\ndiv[kw=\"Switch\"][kt=\"ios-gt6\"] div[kr=\"right\"] {\n    background-color: #aaaaaa\n}\ndiv[kw=\"Switch\"][kt=\"ios-gt6\"] div[kr=\"left\"] > label,\ndiv[kw=\"Switch\"][kt=\"ios-gt6\"] div[kr=\"right\"] > label {\n    font-size: 0px;\n}\ndiv[kw=\"Switch\"][kt=\"non-ios-gt6\"] div[kr=\"left\"],\ndiv[kw=\"Switch\"][kt=\"non-ios-gt6\"] div[kr=\"right\"],\ndiv[kw=\"Switch\"][kt=\"non-ios-gt6\"] div[kr=\"thumb\"] {\n    transition: transform 0.125s ease-in-out 0s;\n}\ndiv[kw=\"Switch\"][kt=\"non-ios-gt6\"] > div[kr=\"switch\"],\ndiv[kw=\"Switch\"][kt=\"non-ios-gt6\"] > div[kr=\"holder\"] {\n    height: 20px !important;\n    width:40px !important;\n    \n}\ndiv[kw=\"Switch\"][kt=\"non-ios-gt6\"] > div[kr=\"switch\"] {\n    border-radius: 30px !important;\n}\ndiv[kw=\"Switch\"][kt=\"non-ios-gt6\"] div[kr=\"thumb\"] {\n    border: 1px solid #d4d5dd !important;\n    border-radius: 30px !important;\n    height: 20px !important;\n    width: 20px !important;\n    background: #fff !important;\n    margin-right: -2px;\n}\ndiv[kw=\"Switch\"][kt=\"non-ios-gt6\"] div[kr=\"left\"] > label,\ndiv[kw=\"Switch\"][kt=\"non-ios-gt6\"] div[kr=\"right\"] > label {\n    width: calc(100% - 50%);\n}\n/* TODO:: START - This will go to konydesktop.css */\ndiv[kw=\"Switch\"][kt=\"non-ios-gt6\"] div[kr=\"left\"] {\n    background-color: #003e75;\n}\ndiv[kw=\"Switch\"][kt=\"non-ios-gt6\"] div[kr=\"right\"] {\n    background-color: #aaaaaa\n}\ndiv[kw=\"Switch\"][kt=\"non-ios-gt6\"] div[kr=\"left\"] > label,\ndiv[kw=\"Switch\"][kt=\"non-ios-gt6\"] div[kr=\"right\"] > label {\n    font-size: 0px;\n}",
    "font_name": "Helvetica",
    "isCustomCSSEnabled": true,
    "isForked": true,
    "top_left_border_color": "000000ff",
    "top_left_border_style": "plain",
    "top_left_border_width": 0,
    "top_right_border_color": "000000ff",
    "top_right_border_style": "plain",
    "top_right_border_width": 0
  },
  "spaipad": {
    "bottom_left_border_color": "000000ff",
    "bottom_left_border_style": "plain",
    "bottom_left_border_width": 0,
    "bottom_right_border_color": "000000ff",
    "bottom_right_border_style": "plain",
    "bottom_right_border_width": 0,
    "customCSS": "div[kw=\"Switch\"] > div[kr=\"switch\"],\ndiv[kw=\"Switch\"] > div[kr=\"holder\"] {\n    position: absolute !important;\n    top: 50% !important;\n    left: 50% !important;\n    transform: translate(-50%, -50%) !important;\n}\ndiv[kw=\"Switch\"] > div[kr=\"switch\"] {\n    overflow-x: hidden !important;\n    overflow-y: hidden !important;\n}\ndiv[kw=\"Switch\"] > div[kr=\"holder\"] {\n    display: flex !important;\n    background-image: none !important;\n    background-color: transparent !important;\n}\ndiv[kw=\"Switch\"] div[kr=\"left\"],\ndiv[kw=\"Switch\"] div[kr=\"right\"],\ndiv[kw=\"Switch\"] div[kr=\"thumb\"] {\n    transition: transform 0.125s ease-in-out 0s;\n}\ndiv[kw=\"Switch\"] div[kr=\"left\"],\ndiv[kw=\"Switch\"] div[kr=\"right\"] {\n    position: absolute !important;\n    top: 0% !important;\n    width: 40px !important;\n    height: 20px !important;\n    border: 1px solid #d4d5dd !important;\n    left: 100% !important;\n    border-radius: 30px !important;\n}\ndiv[kw=\"Switch\"] div[kr=\"left\"] {\n    left: 0% !important;\n}\ndiv[kw=\"Switch\"] div[kr=\"left\"] > label,\ndiv[kw=\"Switch\"] div[kr=\"right\"] > label {\n    position: absolute !important;\n    top: 0% !important;\n    display: flex !important;\n    justify-content: center !important;\n    align-items: center !important;\n    height: 100% !important;\n    right: 0% !important;\n    width: 100%; /* Must not be !important */\n}\ndiv[kw=\"Switch\"] div[kr=\"left\"] > label {\n    left: 0% !important;\n}\ndiv[kw=\"Switch\"] div[kr=\"thumb\"] {\n    display: flex !important;\n    justify-content: center !important;\n    align-items: center !important;\n    flex-direction: row !important;\n    align-self: center !important;\n    position: absolute !important;\n    right: 0% !important;\n    top: auto !important;\n    bottom: auto !important;\n}\ndiv[kw=\"Switch\"][kt=\"ios-gt6\"] div[kr=\"left\"],\ndiv[kw=\"Switch\"][kt=\"ios-gt6\"] div[kr=\"right\"],\ndiv[kw=\"Switch\"][kt=\"ios-gt6\"] div[kr=\"thumb\"] {\n    transition: transform 0.4s ease-in-out 0s;\n}\ndiv[kw=\"Switch\"][kt=\"ios-gt6\"] > div[kr=\"switch\"],\ndiv[kw=\"Switch\"][kt=\"ios-gt6\"] > div[kr=\"holder\"] {\n    height: 20px !important;\n    width:40px !important;\n    \n}\ndiv[kw=\"Switch\"][kt=\"ios-gt6\"] > div[kr=\"switch\"] {\n    border-radius: 30px !important;\n}\ndiv[kw=\"Switch\"][kt=\"ios-gt6\"] div[kr=\"thumb\"] {\n    border: 1px solid #d4d5dd !important;\n    border-radius: 30px !important;\n    height: 20px !important;\n    width: 20px !important;\n    background: #fff !important;\n    margin-right: -2px;\n}\ndiv[kw=\"Switch\"][kt=\"ios-gt6\"] div[kr=\"left\"] > label,\ndiv[kw=\"Switch\"][kt=\"ios-gt6\"] div[kr=\"right\"] > label {\n    width: calc(100% - 50%);\n}\ndiv[kw=\"Switch\"][kt=\"ios-gt6\"] div[kr=\"left\"] {\n    background-color: #003e75;\n}\ndiv[kw=\"Switch\"][kt=\"ios-gt6\"] div[kr=\"right\"] {\n    background-color: #aaaaaa\n}\ndiv[kw=\"Switch\"][kt=\"ios-gt6\"] div[kr=\"left\"] > label,\ndiv[kw=\"Switch\"][kt=\"ios-gt6\"] div[kr=\"right\"] > label {\n    font-size: 0px;\n}\ndiv[kw=\"Switch\"][kt=\"non-ios-gt6\"] div[kr=\"left\"],\ndiv[kw=\"Switch\"][kt=\"non-ios-gt6\"] div[kr=\"right\"],\ndiv[kw=\"Switch\"][kt=\"non-ios-gt6\"] div[kr=\"thumb\"] {\n    transition: transform 0.125s ease-in-out 0s;\n}\ndiv[kw=\"Switch\"][kt=\"non-ios-gt6\"] > div[kr=\"switch\"],\ndiv[kw=\"Switch\"][kt=\"non-ios-gt6\"] > div[kr=\"holder\"] {\n    height: 20px !important;\n    width:40px !important;\n    \n}\ndiv[kw=\"Switch\"][kt=\"non-ios-gt6\"] > div[kr=\"switch\"] {\n    border-radius: 30px !important;\n}\ndiv[kw=\"Switch\"][kt=\"non-ios-gt6\"] div[kr=\"thumb\"] {\n    border: 1px solid #d4d5dd !important;\n    border-radius: 30px !important;\n    height: 20px !important;\n    width: 20px !important;\n    background: #fff !important;\n    margin-right: -2px;\n}\ndiv[kw=\"Switch\"][kt=\"non-ios-gt6\"] div[kr=\"left\"] > label,\ndiv[kw=\"Switch\"][kt=\"non-ios-gt6\"] div[kr=\"right\"] > label {\n    width: calc(100% - 50%);\n}\n/* TODO:: START - This will go to konydesktop.css */\ndiv[kw=\"Switch\"][kt=\"non-ios-gt6\"] div[kr=\"left\"] {\n    background-color: #003e75;\n}\ndiv[kw=\"Switch\"][kt=\"non-ios-gt6\"] div[kr=\"right\"] {\n    background-color: #aaaaaa\n}\ndiv[kw=\"Switch\"][kt=\"non-ios-gt6\"] div[kr=\"left\"] > label,\ndiv[kw=\"Switch\"][kt=\"non-ios-gt6\"] div[kr=\"right\"] > label {\n    font-size: 0px;\n}",
    "font_name": "Helvetica",
    "isCustomCSSEnabled": true,
    "isForked": true,
    "top_left_border_color": "000000ff",
    "top_left_border_style": "plain",
    "top_left_border_width": 0,
    "top_right_border_color": "000000ff",
    "top_right_border_style": "plain",
    "top_right_border_width": 0
  },
  "spawindowstablet": {
    "bottom_left_border_color": "000000ff",
    "bottom_left_border_style": "plain",
    "bottom_left_border_width": 0,
    "bottom_right_border_color": "000000ff",
    "bottom_right_border_style": "plain",
    "bottom_right_border_width": 0,
    "customCSS": "div[kw=\"Switch\"] > div[kr=\"switch\"],\ndiv[kw=\"Switch\"] > div[kr=\"holder\"] {\n    position: absolute !important;\n    top: 50% !important;\n    left: 50% !important;\n    transform: translate(-50%, -50%) !important;\n}\ndiv[kw=\"Switch\"] > div[kr=\"switch\"] {\n    overflow-x: hidden !important;\n    overflow-y: hidden !important;\n}\ndiv[kw=\"Switch\"] > div[kr=\"holder\"] {\n    display: flex !important;\n    background-image: none !important;\n    background-color: transparent !important;\n}\ndiv[kw=\"Switch\"] div[kr=\"left\"],\ndiv[kw=\"Switch\"] div[kr=\"right\"],\ndiv[kw=\"Switch\"] div[kr=\"thumb\"] {\n    transition: transform 0.125s ease-in-out 0s;\n}\ndiv[kw=\"Switch\"] div[kr=\"left\"],\ndiv[kw=\"Switch\"] div[kr=\"right\"] {\n    position: absolute !important;\n    top: 0% !important;\n    width: 40px !important;\n    height: 20px !important;\n    border: 1px solid #d4d5dd !important;\n    left: 100% !important;\n    border-radius: 30px !important;\n}\ndiv[kw=\"Switch\"] div[kr=\"left\"] {\n    left: 0% !important;\n}\ndiv[kw=\"Switch\"] div[kr=\"left\"] > label,\ndiv[kw=\"Switch\"] div[kr=\"right\"] > label {\n    position: absolute !important;\n    top: 0% !important;\n    display: flex !important;\n    justify-content: center !important;\n    align-items: center !important;\n    height: 100% !important;\n    right: 0% !important;\n    width: 100%; /* Must not be !important */\n}\ndiv[kw=\"Switch\"] div[kr=\"left\"] > label {\n    left: 0% !important;\n}\ndiv[kw=\"Switch\"] div[kr=\"thumb\"] {\n    display: flex !important;\n    justify-content: center !important;\n    align-items: center !important;\n    flex-direction: row !important;\n    align-self: center !important;\n    position: absolute !important;\n    right: 0% !important;\n    top: auto !important;\n    bottom: auto !important;\n}\ndiv[kw=\"Switch\"][kt=\"ios-gt6\"] div[kr=\"left\"],\ndiv[kw=\"Switch\"][kt=\"ios-gt6\"] div[kr=\"right\"],\ndiv[kw=\"Switch\"][kt=\"ios-gt6\"] div[kr=\"thumb\"] {\n    transition: transform 0.4s ease-in-out 0s;\n}\ndiv[kw=\"Switch\"][kt=\"ios-gt6\"] > div[kr=\"switch\"],\ndiv[kw=\"Switch\"][kt=\"ios-gt6\"] > div[kr=\"holder\"] {\n    height: 20px !important;\n    width:40px !important;\n    \n}\ndiv[kw=\"Switch\"][kt=\"ios-gt6\"] > div[kr=\"switch\"] {\n    border-radius: 30px !important;\n}\ndiv[kw=\"Switch\"][kt=\"ios-gt6\"] div[kr=\"thumb\"] {\n    border: 1px solid #d4d5dd !important;\n    border-radius: 30px !important;\n    height: 20px !important;\n    width: 20px !important;\n    background: #fff !important;\n    margin-right: -2px;\n}\ndiv[kw=\"Switch\"][kt=\"ios-gt6\"] div[kr=\"left\"] > label,\ndiv[kw=\"Switch\"][kt=\"ios-gt6\"] div[kr=\"right\"] > label {\n    width: calc(100% - 50%);\n}\ndiv[kw=\"Switch\"][kt=\"ios-gt6\"] div[kr=\"left\"] {\n    background-color: #003e75;\n}\ndiv[kw=\"Switch\"][kt=\"ios-gt6\"] div[kr=\"right\"] {\n    background-color: #aaaaaa\n}\ndiv[kw=\"Switch\"][kt=\"ios-gt6\"] div[kr=\"left\"] > label,\ndiv[kw=\"Switch\"][kt=\"ios-gt6\"] div[kr=\"right\"] > label {\n    font-size: 0px;\n}\ndiv[kw=\"Switch\"][kt=\"non-ios-gt6\"] div[kr=\"left\"],\ndiv[kw=\"Switch\"][kt=\"non-ios-gt6\"] div[kr=\"right\"],\ndiv[kw=\"Switch\"][kt=\"non-ios-gt6\"] div[kr=\"thumb\"] {\n    transition: transform 0.125s ease-in-out 0s;\n}\ndiv[kw=\"Switch\"][kt=\"non-ios-gt6\"] > div[kr=\"switch\"],\ndiv[kw=\"Switch\"][kt=\"non-ios-gt6\"] > div[kr=\"holder\"] {\n    height: 20px !important;\n    width:40px !important;\n    \n}\ndiv[kw=\"Switch\"][kt=\"non-ios-gt6\"] > div[kr=\"switch\"] {\n    border-radius: 30px !important;\n}\ndiv[kw=\"Switch\"][kt=\"non-ios-gt6\"] div[kr=\"thumb\"] {\n    border: 1px solid #d4d5dd !important;\n    border-radius: 30px !important;\n    height: 20px !important;\n    width: 20px !important;\n    background: #fff !important;\n    margin-right: -2px;\n}\ndiv[kw=\"Switch\"][kt=\"non-ios-gt6\"] div[kr=\"left\"] > label,\ndiv[kw=\"Switch\"][kt=\"non-ios-gt6\"] div[kr=\"right\"] > label {\n    width: calc(100% - 50%);\n}\n/* TODO:: START - This will go to konydesktop.css */\ndiv[kw=\"Switch\"][kt=\"non-ios-gt6\"] div[kr=\"left\"] {\n    background-color: #003e75;\n}\ndiv[kw=\"Switch\"][kt=\"non-ios-gt6\"] div[kr=\"right\"] {\n    background-color: #aaaaaa\n}\ndiv[kw=\"Switch\"][kt=\"non-ios-gt6\"] div[kr=\"left\"] > label,\ndiv[kw=\"Switch\"][kt=\"non-ios-gt6\"] div[kr=\"right\"] > label {\n    font-size: 0px;\n}",
    "font_name": "Helvetica",
    "isCustomCSSEnabled": true,
    "isForked": true,
    "top_left_border_color": "000000ff",
    "top_left_border_style": "plain",
    "top_left_border_width": 0,
    "top_right_border_color": "000000ff",
    "top_right_border_style": "plain",
    "top_right_border_width": 0
  },
  "spawinphone8": {
    "bottom_left_border_color": "000000ff",
    "bottom_left_border_style": "plain",
    "bottom_left_border_width": 0,
    "bottom_right_border_color": "000000ff",
    "bottom_right_border_style": "plain",
    "bottom_right_border_width": 0,
    "customCSS": "div[kw=\"Switch\"] > div[kr=\"switch\"],\ndiv[kw=\"Switch\"] > div[kr=\"holder\"] {\n    position: absolute !important;\n    top: 50% !important;\n    left: 50% !important;\n    transform: translate(-50%, -50%) !important;\n}\ndiv[kw=\"Switch\"] > div[kr=\"switch\"] {\n    overflow-x: hidden !important;\n    overflow-y: hidden !important;\n}\ndiv[kw=\"Switch\"] > div[kr=\"holder\"] {\n    display: flex !important;\n    background-image: none !important;\n    background-color: transparent !important;\n}\ndiv[kw=\"Switch\"] div[kr=\"left\"],\ndiv[kw=\"Switch\"] div[kr=\"right\"],\ndiv[kw=\"Switch\"] div[kr=\"thumb\"] {\n    transition: transform 0.125s ease-in-out 0s;\n}\ndiv[kw=\"Switch\"] div[kr=\"left\"],\ndiv[kw=\"Switch\"] div[kr=\"right\"] {\n    position: absolute !important;\n    top: 0% !important;\n    width: 40px !important;\n    height: 20px !important;\n    border: 1px solid #d4d5dd !important;\n    left: 100% !important;\n    border-radius: 30px !important;\n}\ndiv[kw=\"Switch\"] div[kr=\"left\"] {\n    left: 0% !important;\n}\ndiv[kw=\"Switch\"] div[kr=\"left\"] > label,\ndiv[kw=\"Switch\"] div[kr=\"right\"] > label {\n    position: absolute !important;\n    top: 0% !important;\n    display: flex !important;\n    justify-content: center !important;\n    align-items: center !important;\n    height: 100% !important;\n    right: 0% !important;\n    width: 100%; /* Must not be !important */\n}\ndiv[kw=\"Switch\"] div[kr=\"left\"] > label {\n    left: 0% !important;\n}\ndiv[kw=\"Switch\"] div[kr=\"thumb\"] {\n    display: flex !important;\n    justify-content: center !important;\n    align-items: center !important;\n    flex-direction: row !important;\n    align-self: center !important;\n    position: absolute !important;\n    right: 0% !important;\n    top: auto !important;\n    bottom: auto !important;\n}\ndiv[kw=\"Switch\"][kt=\"ios-gt6\"] div[kr=\"left\"],\ndiv[kw=\"Switch\"][kt=\"ios-gt6\"] div[kr=\"right\"],\ndiv[kw=\"Switch\"][kt=\"ios-gt6\"] div[kr=\"thumb\"] {\n    transition: transform 0.4s ease-in-out 0s;\n}\ndiv[kw=\"Switch\"][kt=\"ios-gt6\"] > div[kr=\"switch\"],\ndiv[kw=\"Switch\"][kt=\"ios-gt6\"] > div[kr=\"holder\"] {\n    height: 20px !important;\n    width:40px !important;\n    \n}\ndiv[kw=\"Switch\"][kt=\"ios-gt6\"] > div[kr=\"switch\"] {\n    border-radius: 30px !important;\n}\ndiv[kw=\"Switch\"][kt=\"ios-gt6\"] div[kr=\"thumb\"] {\n    border: 1px solid #d4d5dd !important;\n    border-radius: 30px !important;\n    height: 20px !important;\n    width: 20px !important;\n    background: #fff !important;\n    margin-right: -2px;\n}\ndiv[kw=\"Switch\"][kt=\"ios-gt6\"] div[kr=\"left\"] > label,\ndiv[kw=\"Switch\"][kt=\"ios-gt6\"] div[kr=\"right\"] > label {\n    width: calc(100% - 50%);\n}\ndiv[kw=\"Switch\"][kt=\"ios-gt6\"] div[kr=\"left\"] {\n    background-color: #003e75;\n}\ndiv[kw=\"Switch\"][kt=\"ios-gt6\"] div[kr=\"right\"] {\n    background-color: #aaaaaa\n}\ndiv[kw=\"Switch\"][kt=\"ios-gt6\"] div[kr=\"left\"] > label,\ndiv[kw=\"Switch\"][kt=\"ios-gt6\"] div[kr=\"right\"] > label {\n    font-size: 0px;\n}\ndiv[kw=\"Switch\"][kt=\"non-ios-gt6\"] div[kr=\"left\"],\ndiv[kw=\"Switch\"][kt=\"non-ios-gt6\"] div[kr=\"right\"],\ndiv[kw=\"Switch\"][kt=\"non-ios-gt6\"] div[kr=\"thumb\"] {\n    transition: transform 0.125s ease-in-out 0s;\n}\ndiv[kw=\"Switch\"][kt=\"non-ios-gt6\"] > div[kr=\"switch\"],\ndiv[kw=\"Switch\"][kt=\"non-ios-gt6\"] > div[kr=\"holder\"] {\n    height: 20px !important;\n    width:40px !important;\n    \n}\ndiv[kw=\"Switch\"][kt=\"non-ios-gt6\"] > div[kr=\"switch\"] {\n    border-radius: 30px !important;\n}\ndiv[kw=\"Switch\"][kt=\"non-ios-gt6\"] div[kr=\"thumb\"] {\n    border: 1px solid #d4d5dd !important;\n    border-radius: 30px !important;\n    height: 20px !important;\n    width: 20px !important;\n    background: #fff !important;\n    margin-right: -2px;\n}\ndiv[kw=\"Switch\"][kt=\"non-ios-gt6\"] div[kr=\"left\"] > label,\ndiv[kw=\"Switch\"][kt=\"non-ios-gt6\"] div[kr=\"right\"] > label {\n    width: calc(100% - 50%);\n}\n/* TODO:: START - This will go to konydesktop.css */\ndiv[kw=\"Switch\"][kt=\"non-ios-gt6\"] div[kr=\"left\"] {\n    background-color: #003e75;\n}\ndiv[kw=\"Switch\"][kt=\"non-ios-gt6\"] div[kr=\"right\"] {\n    background-color: #aaaaaa\n}\ndiv[kw=\"Switch\"][kt=\"non-ios-gt6\"] div[kr=\"left\"] > label,\ndiv[kw=\"Switch\"][kt=\"non-ios-gt6\"] div[kr=\"right\"] > label {\n    font-size: 0px;\n}",
    "font_name": "Helvetica",
    "isCustomCSSEnabled": true,
    "isForked": true,
    "top_left_border_color": "000000ff",
    "top_left_border_style": "plain",
    "top_left_border_width": 0,
    "top_right_border_color": "000000ff",
    "top_right_border_style": "plain",
    "top_right_border_width": 0
  },
  "tabrcandroid": {
    "background_right_color": "ffffff80",
    "bg_type": "one",
    "font_name": "default",
    "isForked": true,
    "thumb_color": "ffffff"
  },
  "wType": "Switch",
  "watchos": {
    "font_name": "System",
    "isForked": true
  },
  "windows8": {
    "font_name": "None"
  },
  "winphone8": {
    "font_name": "None"
  }
}