{
  "android": {
    "font_name": "Helvetica",
    "font_size": 33,
    "isForked": false
  },
  "androidwearos": {
    "font_size": 43,
    "isForked": false
  },
  "background_color": "00000000",
  "bg_type": "one",
  "border_color": "424242ff",
  "border_style": "plain",
  "border_type": 0,
  "border_width": 0,
  "desktopweb": {
    "font_name": "SourceSansPro-Regular",
    "font_size": 100,
    "isForked": false
  },
  "fontSizeInPx": true,
  "font_color": "727272ff",
  "font_name": "Helvetica",
  "font_size": 100,
  "font_style": "normal",
  "font_weight": "normal",
  "ipad": {
    "font_name": "Helvetica",
    "font_size": 43,
    "isForked": false
  },
  "iphone": {
    "font_name": "STHeitiSC-Medium",
    "font_size": 41,
    "isForked": false
  },
  "isDefaultSkin": false,
  "kiosk": {
    "font_name": "GenericMonospace",
    "font_size": 75,
    "isForked": false
  },
  "kuid": "s4c5b88617b8412bbbceb9ba724acd33",
  "spaan": {
    "font_name": "SourceSansPro-Regular",
    "font_size": 100,
    "isForked": false
  },
  "spaandroidtablet": {
    "font_name": "SourceSansPro-Regular",
    "font_size": 100,
    "isForked": false
  },
  "spaip": {
    "font_name": "SourceSansPro-Regular",
    "font_size": 77,
    "isForked": false
  },
  "spaipad": {
    "font_name": "SourceSansPro-Regular",
    "font_size": 100,
    "isForked": false
  },
  "spawindowstablet": {
    "font_name": "Helvetica",
    "font_size": 100,
    "isForked": false
  },
  "spawinphone8": {
    "font_name": "Helvetica",
    "font_size": 100,
    "isForked": false
  },
  "tabrcandroid": {
    "font_name": "Helvetica",
    "font_size": 71,
    "isForked": false
  },
  "wType": "Label",
  "watchos": {
    "font_name": "Helvetica",
    "font_size": 43,
    "isForked": false
  },
  "windows8": {
    "font_name": "GenericMonospace",
    "font_size": 29,
    "isForked": false
  },
  "winphone8": {
    "font_name": "GenericMonospace",
    "font_size": 40,
    "isForked": false
  }
}