{
  "android": {
    "font_name": "default"
  },
  "androidwearos": {
    "font_name": "default"
  },
  "background_color": "003e75ff",
  "bg_type": "one",
  "border_color": "b3b3b3ff",
  "border_radius": 100,
  "border_style": "custom",
  "border_type": 0,
  "border_width": 1,
  "desktopweb": {
    "border_type": 0,
    "bottom_left_border_color": "c3c3c3ff",
    "bottom_left_border_radius": 100,
    "bottom_left_border_style": "rc",
    "bottom_left_border_width": "1",
    "bottom_right_border_color": "c3c3c3ff",
    "bottom_right_border_radius": 100,
    "bottom_right_border_style": "rc",
    "bottom_right_border_width": "1",
    "font_name": "Helvetica",
    "isForked": true,
    "shadow": {
      "br": 0,
      "color": "ffffffff",
      "inner": false,
      "nm": 0,
      "x": 0,
      "y": 0
    },
    "top_left_border_color": "c3c3c3ff",
    "top_left_border_radius": 100,
    "top_left_border_style": "rc",
    "top_left_border_width": "1",
    "top_right_border_color": "c3c3c3ff",
    "top_right_border_radius": 100,
    "top_right_border_style": "rc",
    "top_right_border_width": "1"
  },
  "font_color": "ffffffff",
  "font_name": "Helvetica",
  "font_size": 118,
  "font_style": "normal",
  "font_weight": "normal",
  "ipad": {
    "font_name": "System",
    "isForked": true,
    "shadow": {
      "br": 0,
      "color": "ffffffff",
      "inner": false,
      "nm": 0,
      "x": 0,
      "y": 0
    }
  },
  "iphone": {
    "font_name": "System",
    "isForked": true,
    "shadow": {
      "br": 0,
      "color": "ffffffff",
      "inner": false,
      "nm": 0,
      "x": 0,
      "y": 0
    }
  },
  "isDefaultSkin": false,
  "kiosk": {
    "font_name": "None"
  },
  "kuid": "s74985e5df374323a02b9a5c3fd61db2",
  "spaan": {
    "border_type": 0,
    "bottom_left_border_color": "c3c3c3ff",
    "bottom_left_border_radius": 100,
    "bottom_left_border_style": "rc",
    "bottom_left_border_width": "1",
    "bottom_right_border_color": "c3c3c3ff",
    "bottom_right_border_radius": 100,
    "bottom_right_border_style": "rc",
    "bottom_right_border_width": "1",
    "font_name": "Helvetica",
    "isForked": true,
    "shadow": {
      "br": 0,
      "color": "ffffffff",
      "inner": false,
      "nm": 0,
      "x": 0,
      "y": 0
    },
    "top_left_border_color": "c3c3c3ff",
    "top_left_border_radius": 100,
    "top_left_border_style": "rc",
    "top_left_border_width": "1",
    "top_right_border_color": "c3c3c3ff",
    "top_right_border_radius": 100,
    "top_right_border_style": "rc",
    "top_right_border_width": "1"
  },
  "spaandroidtablet": {
    "border_type": 0,
    "bottom_left_border_color": "c3c3c3ff",
    "bottom_left_border_radius": 100,
    "bottom_left_border_style": "rc",
    "bottom_left_border_width": "1",
    "bottom_right_border_color": "c3c3c3ff",
    "bottom_right_border_radius": 100,
    "bottom_right_border_style": "rc",
    "bottom_right_border_width": "1",
    "font_name": "Helvetica",
    "isForked": true,
    "top_left_border_color": "c3c3c3ff",
    "top_left_border_radius": 100,
    "top_left_border_style": "rc",
    "top_left_border_width": "1",
    "top_right_border_color": "c3c3c3ff",
    "top_right_border_radius": 100,
    "top_right_border_style": "rc",
    "top_right_border_width": "1"
  },
  "spaip": {
    "border_type": 0,
    "bottom_left_border_color": "c3c3c3ff",
    "bottom_left_border_radius": 100,
    "bottom_left_border_style": "rc",
    "bottom_left_border_width": "1",
    "bottom_right_border_color": "c3c3c3ff",
    "bottom_right_border_radius": 100,
    "bottom_right_border_style": "rc",
    "bottom_right_border_width": "1",
    "font_name": "Helvetica",
    "isForked": true,
    "shadow": {
      "br": 0,
      "color": "ffffffff",
      "inner": false,
      "nm": 0,
      "x": 0,
      "y": 0
    },
    "top_left_border_color": "c3c3c3ff",
    "top_left_border_radius": 100,
    "top_left_border_style": "rc",
    "top_left_border_width": "1",
    "top_right_border_color": "c3c3c3ff",
    "top_right_border_radius": 100,
    "top_right_border_style": "rc",
    "top_right_border_width": "1"
  },
  "spaipad": {
    "border_type": 0,
    "bottom_left_border_color": "c3c3c3ff",
    "bottom_left_border_radius": 100,
    "bottom_left_border_style": "rc",
    "bottom_left_border_width": "1",
    "bottom_right_border_color": "c3c3c3ff",
    "bottom_right_border_radius": 100,
    "bottom_right_border_style": "rc",
    "bottom_right_border_width": "1",
    "font_name": "Helvetica",
    "isForked": true,
    "top_left_border_color": "c3c3c3ff",
    "top_left_border_radius": 100,
    "top_left_border_style": "rc",
    "top_left_border_width": "1",
    "top_right_border_color": "c3c3c3ff",
    "top_right_border_radius": 100,
    "top_right_border_style": "rc",
    "top_right_border_width": "1"
  },
  "spawindowstablet": {
    "border_type": 0,
    "bottom_left_border_color": "c3c3c3ff",
    "bottom_left_border_radius": 100,
    "bottom_left_border_style": "rc",
    "bottom_left_border_width": "1",
    "bottom_right_border_color": "c3c3c3ff",
    "bottom_right_border_radius": 100,
    "bottom_right_border_style": "rc",
    "bottom_right_border_width": "1",
    "font_name": "Helvetica",
    "isForked": true,
    "shadow": {
      "br": 0,
      "color": "ffffffff",
      "inner": false,
      "nm": 0,
      "x": 0,
      "y": 0
    },
    "top_left_border_color": "c3c3c3ff",
    "top_left_border_radius": 100,
    "top_left_border_style": "rc",
    "top_left_border_width": "1",
    "top_right_border_color": "c3c3c3ff",
    "top_right_border_radius": 100,
    "top_right_border_style": "rc",
    "top_right_border_width": "1"
  },
  "spawinphone8": {
    "border_type": 0,
    "bottom_left_border_color": "c3c3c3ff",
    "bottom_left_border_radius": 100,
    "bottom_left_border_style": "rc",
    "bottom_left_border_width": "1",
    "bottom_right_border_color": "c3c3c3ff",
    "bottom_right_border_radius": 100,
    "bottom_right_border_style": "rc",
    "bottom_right_border_width": "1",
    "font_name": "Helvetica",
    "isForked": true,
    "shadow": {
      "br": 0,
      "color": "ffffffff",
      "inner": false,
      "nm": 0,
      "x": 0,
      "y": 0
    },
    "top_left_border_color": "c3c3c3ff",
    "top_left_border_radius": 100,
    "top_left_border_style": "rc",
    "top_left_border_width": "1",
    "top_right_border_color": "c3c3c3ff",
    "top_right_border_radius": 100,
    "top_right_border_style": "rc",
    "top_right_border_width": "1"
  },
  "tabrcandroid": {
    "font_name": "default"
  },
  "wType": "Slider",
  "watchos": {
    "font_name": "System"
  },
  "windows8": {
    "font_name": "None"
  },
  "winphone8": {
    "font_name": "None"
  }
}