{
    "android": {
        "font_color": "000000ff",
        "font_name": "Helvetica",
        "font_size": 32,
        "isForked": true
    },
    "androidwearos": {
        "font_color": "000000ff",
        "font_size": 64,
        "isForked": true
    },
    "background_color": "ffffffff",
    "bg_type": "one",
    "border_color": "72727233",
    "border_style": "plain",
    "border_type": 0,
    "border_width": 0,
    "desktopweb": {
        "customCSS": "}\n\n.sknTbxSSPsemiBold33333330PxKA input:enabled {\n  font: normal normal 30px SourceSansPro-SemiBold;  \n  color: #333333;\n  display: block;\n  -moz-appearance: textfield;\n}\n\n.sknTbxSSPsemiBold33333330PxKA input::-webkit-outer-spin-button,\n.sknTbxSSPsemiBold33333330PxKA input::-webkit-inner-spin-button {\n  appearance: none;\n  -webkit-appearance: none;\n  -moz-appearance: none;\n  margin: 0;\n}\n\n.sknTbxSSPsemiBold33333330PxKA input:disabled {\n  background: transparent;\n  border: none;\n  color: #333333;\n}",
        "font_color": "000000ff",
        "font_name": "SourceSansPro-SemiBold",
        "font_size": 113,
        "isCustomCSSEnabled": true,
        "isForked": true
    },
    "fontSizeInPx": true,
    "font_color": "424242ff",
    "font_name": "Helvetica",
    "font_size": 94,
    "font_style": "normal",
    "font_weight": "normal",
    "ipad": {
        "font_color": "000000ff",
        "font_name": "Helvetica",
        "font_size": 64,
        "isForked": true
    },
    "iphone": {
        "font_color": "000000ff",
        "font_name": "Helvetica",
        "font_size": 43,
        "isForked": true
    },
    "isDefaultSkin": false,
    "kiosk": {
        "font_color": "000000ff",
        "font_name": "GenericMonospace",
        "font_size": 113,
        "isForked": true
    },
    "kuid": "sd43605e104f49faa09a989634ca3d69",
    "spaan": {
        "customCSS": "}\n\n.sknTbxSSPsemiBold33333330PxKA input:enabled {\n  font: normal normal 30px SourceSansPro-SemiBold;  \n  color: #333333;\n  display: block;\n  -moz-appearance: textfield;\n}\n\n.sknTbxSSPsemiBold33333330PxKA input::-webkit-outer-spin-button,\n.sknTbxSSPsemiBold33333330PxKA input::-webkit-inner-spin-button {\n  appearance: none;\n  -webkit-appearance: none;\n  -moz-appearance: none;\n  margin: 0;\n}\n\n.sknTbxSSPsemiBold33333330PxKA input:disabled {\n  background: transparent;\n  border: none;\n  color: #333333;\n}",
        "font_color": "000000ff",
        "font_name": "Lato-Regular",
        "font_size": 120,
        "isCustomCSSEnabled": true,
        "isForked": true
    },
    "spaandroidtablet": {
        "customCSS": "}\n\n.sknTbxSSPsemiBold33333330PxKA input:enabled {\n  font: normal normal 30px SourceSansPro-SemiBold;  \n  color: #333333;\n  display: block;\n  -moz-appearance: textfield;\n}\n\n.sknTbxSSPsemiBold33333330PxKA input::-webkit-outer-spin-button,\n.sknTbxSSPsemiBold33333330PxKA input::-webkit-inner-spin-button {\n  appearance: none;\n  -webkit-appearance: none;\n  -moz-appearance: none;\n  margin: 0;\n}\n\n.sknTbxSSPsemiBold33333330PxKA input:disabled {\n  background: transparent;\n  border: none;\n  color: #333333;\n}",
        "font_color": "000000ff",
        "font_name": "Lato-Regular",
        "font_size": 100,
        "isCustomCSSEnabled": true,
        "isForked": true
    },
    "spaip": {
        "customCSS": "}\n\n.sknTbxSSPsemiBold33333330PxKA input:enabled {\n  font: normal normal 30px SourceSansPro-SemiBold;  \n  color: #333333;\n  display: block;\n  -moz-appearance: textfield;\n}\n\n.sknTbxSSPsemiBold33333330PxKA input::-webkit-outer-spin-button,\n.sknTbxSSPsemiBold33333330PxKA input::-webkit-inner-spin-button {\n  appearance: none;\n  -webkit-appearance: none;\n  -moz-appearance: none;\n  margin: 0;\n}\n\n.sknTbxSSPsemiBold33333330PxKA input:disabled {\n  background: transparent;\n  border: none;\n  color: #333333;\n}",
        "font_color": "000000ff",
        "font_name": "Lato-Regular",
        "font_size": 150,
        "isCustomCSSEnabled": true,
        "isForked": true
    },
    "spaipad": {
        "customCSS": "}\n\n.sknTbxSSPsemiBold33333330PxKA input:enabled {\n  font: normal normal 30px SourceSansPro-SemiBold;  \n  color: #333333;\n  display: block;\n  -moz-appearance: textfield;\n}\n\n.sknTbxSSPsemiBold33333330PxKA input::-webkit-outer-spin-button,\n.sknTbxSSPsemiBold33333330PxKA input::-webkit-inner-spin-button {\n  appearance: none;\n  -webkit-appearance: none;\n  -moz-appearance: none;\n  margin: 0;\n}\n\n.sknTbxSSPsemiBold33333330PxKA input:disabled {\n  background: transparent;\n  border: none;\n  color: #333333;\n}",
        "font_color": "000000ff",
        "font_name": "Lato-Regular",
        "font_size": 106,
        "isCustomCSSEnabled": true,
        "isForked": true
    },
    "spawindowstablet": {
        "customCSS": "}\n\n.sknTbxSSPsemiBold33333330PxKA input:enabled {\n  font: normal normal 30px SourceSansPro-SemiBold;  \n  color: #333333;\n  display: block;\n  -moz-appearance: textfield;\n}\n\n.sknTbxSSPsemiBold33333330PxKA input::-webkit-outer-spin-button,\n.sknTbxSSPsemiBold33333330PxKA input::-webkit-inner-spin-button {\n  appearance: none;\n  -webkit-appearance: none;\n  -moz-appearance: none;\n  margin: 0;\n}\n\n.sknTbxSSPsemiBold33333330PxKA input:disabled {\n  background: transparent;\n  border: none;\n  color: #333333;\n}",
        "font_color": "000000ff",
        "font_name": "Helvetica",
        "font_size": 106,
        "isCustomCSSEnabled": true,
        "isForked": true
    },
    "spawinphone8": {
        "customCSS": "}\n\n.sknTbxSSPsemiBold33333330PxKA input:enabled {\n  font: normal normal 30px SourceSansPro-SemiBold;  \n  color: #333333;\n  display: block;\n  -moz-appearance: textfield;\n}\n\n.sknTbxSSPsemiBold33333330PxKA input::-webkit-outer-spin-button,\n.sknTbxSSPsemiBold33333330PxKA input::-webkit-inner-spin-button {\n  appearance: none;\n  -webkit-appearance: none;\n  -moz-appearance: none;\n  margin: 0;\n}\n\n.sknTbxSSPsemiBold33333330PxKA input:disabled {\n  background: transparent;\n  border: none;\n  color: #333333;\n}",
        "font_color": "000000ff",
        "font_name": "Helvetica",
        "font_size": 150,
        "isCustomCSSEnabled": true,
        "isForked": true
    },
    "tabrcandroid": {
        "font_color": "000000ff",
        "font_name": "Helvetica",
        "font_size": 107,
        "isForked": true
    },
    "wType": "TextField",
    "watchos": {
        "font_name": "Helvetica",
        "font_size": 54,
        "isForked": false
    },
    "windows8": {
        "font_color": "000000ff",
        "font_name": "GenericMonospace",
        "font_size": 44,
        "isForked": true
    },
    "winphone8": {
        "font_color": "000000ff",
        "font_name": "GenericMonospace",
        "font_size": 60,
        "isForked": true
    }
}