{
  "background_color": "fbfbfb00",
  "bg_type": "one",
  "border_color": "000000ff",
  "border_style": "plain",
  "border_type": 0,
  "border_width": 0,
  "isDefaultSkin": false,
  "kuid": "s6d762622eaa492eb4d7e4ed5ae66b0f",
  "wType": "FlexContainer"
}