{
    "@class": "com.kony.gen.viz.model.component.KVizButton",
    "DNDConfig": null,
    "__parentReadjusting__": false,
    "_bottom_": {
        "type": "number",
        "value": "20"
    },
    "_height_": {
        "type": "string",
        "value": "40dp"
    },
    "_left_": {
        "type": "string",
        "value": "51.58%"
    },
    "_margin_": [
        6,
        6,
        6,
        6
    ],
    "_padding_": [
        0,
        0,
        0,
        0
    ],
    "_skin_": "sea1525e3fa24829a889b1fd650f3f24",
    "_text_": "APPLY",
    "_width_": {
        "type": "string",
        "value": "44.47%"
    },
    "accessibilityconfig": {
        "a11yLabel": "APPLY"
    },
    "canUpdateUI": true,
    "containerweight": 100,
    "contentalignment": 5,
    "desktopweb": {
        "blockedUISkin": "s6296ebeb163492d973121eb1c4b9727",
        "psp": {
            "hoverSkin": "s7ab6326aaf94c28b90b61fcb1b54547"
        }
    },
    "disabledSkins": {},
    "displaytext": true,
    "focusskin": "sfd0ce0d7f454c9f83c7e815a90a8a55",
    "id": "btnApplyFilters",
    "info": null,
    "isvisible": true,
    "kuid": "g54c1fd90973419b8dbb642312aeb3ec",
    "name": "kony.ui.Button",
    "parent": "flxViewsAndFiltersButtons",
    "pf": "userwidgetmodel",
    "tooltip": "Apply",
    "wType": "Button",
    "zindex": 1
}