{
    "@class": "com.kony.gen.viz.model.component.KVizButton",
    "DNDConfig": null,
    "__parentReadjusting__": false,
    "_bottom_": {
        "type": "number",
        "value": "20"
    },
    "_height_": {
        "type": "string",
        "value": "40dp"
    },
    "_left_": {
        "type": "string",
        "value": "51.58%"
    },
    "_margin_": [
        6,
        6,
        6,
        6
    ],
    "_padding_": [
        0,
        0,
        0,
        0
    ],
    "_skin_": "sea1525e3fa24829a889b1fd650f3f24",
    "_text_": "BACK TO SEARCH",
    "_width_": {
        "type": "string",
        "value": "44.47%"
    },
    "accessibilityconfig": {
        "a11yLabel": "BACK TO SEARCH"
    },
    "canUpdateUI": true,
    "containerweight": 100,
    "contentalignment": 5,
    "desktopweb": {
        "psp": {
            "hoverSkin": "s21d5793ed074877ad7484bdabb3dd43"
        }
    },
    "disabledSkins": {
        "focusSkin": "sf44d06ca8224832827ea7fdff757013"
    },
    "displaytext": true,
    "id": "btnBackToSearch",
    "info": null,
    "isvisible": true,
    "kuid": "e7a48115027c4998be1272668a54637c",
    "name": "kony.ui.Button",
    "parent": "flxDirectionsButtons",
    "pf": "userwidgetmodel",
    "tooltip": "Back To Search",
    "wType": "Button",
    "zindex": 1
}