{
    "@class": "com.kony.gen.viz.model.component.KVizButton",
    "DNDConfig": null,
    "__parentReadjusting__": false,
    "_height_": {
        "type": "string",
        "value": "40px"
    },
    "_left_": {
        "type": "number",
        "value": ""
    },
    "_margin_": [
        6,
        6,
        6,
        6
    ],
    "_padding_": [
        0,
        0,
        0,
        0
    ],
    "_right_": {
        "type": "string",
        "value": "250dp"
    },
    "_skin_": "sa611611b2f24e93bcfd09e1606c0d86",
    "_text_": "Make Another Bulk Payment",
    "_top_": {
        "type": "string",
        "value": "0dp"
    },
    "_width_": {
        "type": "string",
        "value": "230dp"
    },
    "accessibilityconfig": {
        "a11yLabel": "Add Another Recipient"
    },
    "canUpdateUI": true,
    "centerx": {
        "type": "number",
        "value": ""
    },
    "containerweight": 100,
    "contentalignment": 5,
    "desktopweb": {
        "psp": {
            "hoverSkin": "s83729feaa224e359d660d5af05c4bac"
        }
    },
    "disabledSkins": {},
    "displaytext": true,
    "focusskin": "sfd0ce0d7f454c9f83c7e815a90a8a55",
    "id": "btnCancel",
    "info": null,
    "iscustomlayout": false,
    "isvisible": true,
    "kuid": "a32edc1cb2d24e15b3f062561b62b23a",
    "name": "kony.ui.Button",
    "parent": "flxAckButtons",
    "pf": "frmBulkWireConfirmTransfer",
    "responsiveData": {
        "b1": {
            "height": {
                "type": "string",
                "value": "39px"
            },
            "right": {
                "type": "string",
                "value": "500dp"
            },
            "skin": "sa611611b2f24e93bcfd09e1606c0d86",
            "text": "Cancel",
            "width": {
                "type": "string",
                "value": "19%"
            }
        },
        "b2": {
            "centerX": {
                "type": "string",
                "value": ""
            },
            "right": {
                "type": "string",
                "value": "340dp"
            },
            "skin": "sa611611b2f24e93bcfd09e1606c0d86",
            "text": "Cancel",
            "width": {
                "type": "string",
                "value": "150dp"
            }
        },
        "b3": {
            "left": {
                "type": "string",
                "value": "0dp"
            }
        },
        "b4": {
            "right": {
                "type": "string",
                "value": "500dp"
            },
            "skin": "sa611611b2f24e93bcfd09e1606c0d86",
            "text": "Cancel"
        }
    },
    "retaincontentalignment": false,
    "retainflexpositionproperties": false,
    "texti18n": "i18n.transfers.Cancel",
    "tooltip": "Cancel",
    "wType": "Button",
    "zindex": 1
}