{
    "@class": "com.kony.gen.viz.model.component.KVizLabel",
    "DNDConfig": null,
    "__parentReadjusting__": false,
    "_bottom_": {
        "type": "string",
        "value": ""
    },
    "_height_": {
        "type": "ref",
        "value": "preferred"
    },
    "_left_": {
        "type": "string",
        "value": "20dp"
    },
    "_margin_": [
        1,
        1,
        1,
        1
    ],
    "_padding_": [
        0,
        0,
        2,
        0
    ],
    "_skin_": "saba7a95163a455f8f2f131435e16122",
    "_text_": "Wire Transfer - Bulk Wires",
    "_top_": {
        "type": "string",
        "value": "50dp"
    },
    "_width_": {
        "type": "string",
        "value": "500dp"
    },
    "_wrapping_": 2,
    "accessibilityconfig": {
        "a11yLabel": "Transfers"
    },
    "android": {
        "textStyle": {
            "letterSpacing": 0,
            "strikeThrough": false
        }
    },
    "canUpdateUI": true,
    "centerx": {
        "type": "number",
        "value": ""
    },
    "centery": {
        "type": "string",
        "value": "50%"
    },
    "containerweight": 100,
    "contentalignment": 1,
    "id": "lblVerifyRecipients",
    "info": null,
    "ipad": {
        "psp": {
            "wrapping": 2
        }
    },
    "iphone": {
        "psp": {
            "wrapping": 2
        }
    },
    "isvisible": true,
    "kuid": "gbaab080e2204db2aabf5e7b277af443",
    "name": "kony.ui.Label",
    "paddinginpixel": false,
    "parent": "flxEditorViewRecipient",
    "pf": "frmBulkWireConfirmTransfer",
    "responsiveData": {
        "b1": {
            "left": {
                "type": "string",
                "value": "2%"
            },
            "skin": "se56454286124fef97a46e7249497088",
            "text": "Verify the recipients before initiating the transfer",
            "width": {
                "type": "string",
                "value": "50%"
            }
        },
        "b2": {
            "centerX": {
                "type": "string",
                "value": ""
            },
            "centerY": {
                "type": "string",
                "value": "50%"
            },
            "contentAlignment": 1,
            "left": {
                "type": "string",
                "value": "20dp"
            },
            "skin": "saba7a95163a455f8f2f131435e16122",
            "text": "Verify the recipients before initiating the transfer",
            "top": {
                "type": "string",
                "value": ""
            },
            "width": {
                "type": "string",
                "value": "60%"
            }
        },
        "b3": {
            "height": {
                "type": "string",
                "value": "0dp"
            },
            "isVisible": false
        },
        "b4": {
            "skin": "saba7a95163a455f8f2f131435e16122",
            "text": "Verify below recipients before initating transfer"
        }
    },
    "texti18n": "i18n.bulkwires.verifyrecipients",
    "tooltip": "",
    "wType": "Label",
    "zindex": 1
}