{
    "@class": "com.kony.gen.viz.model.component.KVizButton",
    "DNDConfig": null,
    "__parentReadjusting__": false,
    "_height_": {
        "type": "string",
        "value": "100%"
    },
    "_left_": {
        "type": "string",
        "value": "20px"
    },
    "_margin_": [
        6,
        6,
        6,
        6
    ],
    "_padding_": [
        1,
        0,
        1,
        0
    ],
    "_skin_": "s7c03a67da7f437395974eb07e972971",
    "_text_": "Past Transactions",
    "_width_": {
        "type": "ref",
        "value": "preferred"
    },
    "accessibilityconfig": {
        "a11yLabel": "Past Transactions"
    },
    "canUpdateUI": true,
    "centery": {
        "type": "string",
        "value": "50%"
    },
    "containerweight": 100,
    "contentalignment": 5,
    "desktopweb": {
        "psp": {
            "hoverSkin": "sc75516ecef241ffa1ec2e9f996b0d60"
        }
    },
    "disabledSkins": {
        "focusSkin": "s6cc32f783a048e98fcfb83f1b046c84"
    },
    "displaytext": true,
    "focusskin": null,
    "id": "btnPastPayments",
    "info": null,
    "isvisible": true,
    "kuid": "e7cebf55ea2e4ebe92c73b4be685d6ef",
    "name": "kony.ui.Button",
    "paddinginpixel": false,
    "parent": "flxTabs",
    "pf": "frmScheduledPaymentsEur",
    "responsiveData": {
        "b3": {
            "left": {
                "type": "string",
                "value": "0px"
            },
            "width": {
                "type": "string",
                "value": "50%"
            }
        }
    },
    "texti18n": "i18n.TransfersEur.PastTransactions",
    "tooltip": "Past Transactions",
    "wType": "Button",
    "zindex": 1
}