{
	 "@class": "com.kony.gen.viz.model.component.KVizLabel",
	 "DNDConfig": null,
	 "__parentReadjusting__": false,
	 "_height_": {
		 "type": "ref",
		 "value": "preferred"
	},
	 "_left_": {
		 "type": "string",
		 "value": "18dp"
	},
	 "_margin_": [
		 1,
		 1,
		 1,
		 1
	],
	 "_padding_": [
		 6,
		 0,
		 6,
		 0
	],
	 "_skin_": "s28248328ffc4aa09b6dc2f9f1cb7e22",
	 "_text_": "V",
	 "_top_": {
		 "type": "string",
		 "value": "16dp"
	},
	 "_width_": {
		 "type": "ref",
		 "value": "preferred"
	},
	 "_wrapping_": 2,
	 "accessibilityconfig": {
		 "a11yLabel": "L",
		 "a11yHidden": true,
		 "a11yARIA": {
			 "tabindex": -1
		}
	},
	 "android": {
		 "textStyle": {
			 "letterSpacing": 0,
			 "strikeThrough": false
		}
	},
	 "canUpdateUI": true,
	 "containerweight": 100,
	 "contentalignment": 5,
	 "id": "fontIconOption",
	 "info": null,
	 "ipad": {
		 "psp": {
			 "wrapping": 2
		}
	},
	 "iphone": {
		 "psp": {
			 "wrapping": 2
		}
	},
	 "iscustomlayout": false,
	 "isvisible": true,
	 "kuid": "ca39e4c59b8c42d9a5bc72d83c9a2ff8",
	 "name": "kony.ui.Label",
	 "parent": "flxImgMain",
	 "pf": "userwidgetmodel",
	 "retaincontentalignment": false,
	 "retainflexpositionproperties": false,
	 "tooltip": "",
	 "wType": "Label",
	 "zindex": 1
}