{
    "@class": "com.kony.gen.viz.model.component.KVizButton",
    "DNDConfig": null,
    "__parentReadjusting__": false,
    "_height_": {
        "type": "string",
        "value": "100%"
    },
    "_left_": {
        "type": "string",
        "value": "10dp"
    },
    "_margin_": [
        6,
        6,
        6,
        6
    ],
    "_padding_": [
        2,
        0,
        2,
        0
    ],
    "_skin_": "s7c03a67da7f437395974eb07e972971",
    "_text_": "",
    "_width_": {
        "type": "ref",
        "value": "preferred"
    },
    "accessibilityconfig": {
        "a11yLabel": "All Payees"
    },
    "canUpdateUI": true,
    "centery": {
        "type": "string",
        "value": "50%"
    },
    "containerweight": 100,
    "contentalignment": 5,
    "desktopweb": {
        "psp": {
            "hoverSkin": "sc75516ecef241ffa1ec2e9f996b0d60"
        }
    },
    "disabledSkins": {
        "focusSkin": "sf44d06ca8224832827ea7fdff757013"
    },
    "displaytext": true,
    "id": "btnAllPayees",
    "info": null,
    "isvisible": true,
    "kuid": "a08b2daabe9a46b09ee8643b794d1cdf",
    "name": "kony.ui.Button",
    "paddingLocked": false,
    "paddinginpixel": false,
    "parent": "flxTabsChecking",
    "pf": "frmBillPayHistory",
    "texti18n": "i18n.billPay.AllPayees",
    "tooltip": "All Payees",
    "wType": "Button",
    "zindex": 1
}