{
    "DNDConfig": null,
    "__parentReadjusting__": false,
    "_height_": {
        "type": "ref",
        "value": "preferred"
    },
    "_left_": {
        "type": "string",
        "value": "72%"
    },
    "_margin_": [
        0,
        0,
        0,
        0
    ],
    "_orientation_": 6,
    "_padding_": [
        0,
        0,
        0,
        0
    ],
    "_percent_": true,
    "_right_": {
        "type": "string",
        "value": "271px"
    },
    "_skin_": "s24c92fc23b14f5484b693ee9b8a9b35",
    "_top_": {
        "type": "string",
        "value": "30dp"
    },
    "_width_": {
        "type": "string",
        "value": "200px"
    },
    "allboxes": [],
    "autogrowmode": 1,
    "canUpdateUI": true,
    "children": [
        "flxFiltersWrapper",
        "lstBoxFilters",
        "accountTypesBillPayHistory"
    ],
    "clipbounds": true,
    "containerweight": 100,
    "enablescrolling": true,
    "id": "flxFiltersList",
    "info": null,
    "iscustomlayout": false,
    "isvisible": true,
    "kuid": "he8842c5b9294b1a9c350cd0667c3e0b",
    "layouttype": 4,
    "name": "kony.ui.FlexContainer",
    "parent": "flxSearch",
    "pf": "frmBillPayHistory",
    "responsiveData": {
        "b1": {
            "right": {
                "type": "string",
                "value": "3%"
            },
            "width": {
                "type": "ref",
                "value": "preferred"
            }
        },
        "b2": {
            "right": {
                "type": "string",
                "value": "3%"
            },
            "width": {
                "type": "ref",
                "value": "preferred"
            }
        },
        "b3": {
            "isVisible": false
        },
        "b4": {
            "right": {
                "type": "string",
                "value": "3%"
            },
            "width": {
                "type": "ref",
                "value": "preferred"
            }
        }
    },
    "retaincontentalignment": false,
    "retainflexpositionproperties": false,
    "retainflowhorizontalalignment": false,
    "snapgridsize": 10,
    "snaptogrid": true,
    "wType": "FlexContainer",
    "widgetalignment": 1,
    "zindex": 5
}