{
	"DNDConfig": null,
	"__parentReadjusting__": false,
	"_height_": {
		"type": "string",
		"value": "150dp"
	},
	"_left_": {
		"type": "string",
		"value": "0dp"
	},
	"_margin_": [
		0,
		0,
		0,
		0
	],
	"_orientation_": 6,
	"_padding_": [
		0,
		0,
		0,
		0
	],
	"_percent_": true,
	"_skin_": "s24c92fc23b14f5484b693ee9b8a9b35",
	"_top_": {
		"type": "string",
		"value": "0dp"
	},
	"_width_": {
		"type": "string",
		"value": "100%"
	},
	"allboxes": [],
	"autogrowmode": 0,
	"canUpdateUI": true,
	"children": [
		"CustomFooterMain",
		"Copyflxleftcontainer0c2717d3a13cb45",
		"Copyflxrightcontainer0c249a43c08314b"
	],
	"clipbounds": false,
	"containerweight": 100,
	"enablescrolling": true,
	"id": "flxFooter",
	"info": null,
	"isvisible": true,
	"kuid": "e6125048148f4f03a04143315fac54db",
	"layouttype": 2,
	"name": "kony.ui.FlexContainer",
	"parent": "frmConfirmAccountEur",
	"pf": "frmConfirmAccountEur",
	"snapgridsize": 10,
	"snaptogrid": true,
	"wType": "FlexContainer",
	"widgetalignment": 1,
	"zindex": 1
}