{
    "@class": "com.kony.gen.viz.model.component.KVizButton",
    "DNDConfig": null,
    "__parentReadjusting__": false,
    "_height_": {
        "type": "string",
        "value": "100%"
    },
    "_left_": {
        "type": "string",
        "value": "0dp"
    },
    "_margin_": [
        6,
        6,
        6,
        6
    ],
    "_padding_": [
        2,
        0,
        2,
        0
    ],
    "_skin_": "s7c03a67da7f437395974eb07e972971",
    "_text_": "PURCHASES",
    "_top_": {
        "type": "number",
        "value": "-1"
    },
    "_width_": {
        "type": "ref",
        "value": "preferred"
    },
    "accessibilityconfig": {
        "a11yLabel": "PURCHASES"
    },
    "canUpdateUI": true,
    "containerweight": 100,
    "contentalignment": 5,
    "desktopweb": {
        "psp": {}
    },
    "disabledSkins": {
        "focusSkin": "sf44d06ca8224832827ea7fdff757013",
        "hoverSkin": "sd5fb4525cc9414e911580d4f0b6f580"
    },
    "displaytext": true,
    "id": "btnPurchasesCredit",
    "info": null,
    "isvisible": true,
    "kuid": "gbee2192aa5d4bd499ca4124a32e19ee",
    "name": "kony.ui.Button",
    "paddinginpixel": false,
    "parent": "flxTabsCredit",
    "pf": "userwidgetmodel",
    "tooltip": "Purchases",
    "wType": "Button",
    "zindex": 1
}