{
    "DNDConfig": null,
    "__parentReadjusting__": false,
    "_height_": {
        "type": "string",
        "value": "60dp"
    },
    "_left_": {
        "type": "string",
        "value": "0dp"
    },
    "_margin_": [
        0,
        0,
        0,
        0
    ],
    "_orientation_": 6,
    "_padding_": [
        0,
        0,
        0,
        0
    ],
    "_percent_": true,
    "_skin_": "s24c92fc23b14f5484b693ee9b8a9b35",
    "_top_": {
        "type": "string",
        "value": "0dp"
    },
    "_width_": {
        "type": "string",
        "value": "100%"
    },
    "allboxes": [],
    "autogrowmode": 0,
    "canUpdateUI": true,
    "children": [
        "flxReferenceNumberTitle",
        "flxFromAccountTitle",
        "flxStatusTitle",
        "btnDownloadReport",
        "flxActions",
        "btnRepeat"
    ],
    "clipbounds": true,
    "containerId": true,
    "containerweight": 100,
    "enablescrolling": true,
    "id": "flxRowOne",
    "info": null,
    "isTemplate": true,
    "isvisible": true,
    "kuid": "fb26b937948045f5992897fee37e9f1e",
    "layouttype": 3,
    "name": "kony.ui.FlexContainer",
    "parent": "flxDetail",
    "pf": "segRecentTransfersNewSelected",
    "snapgridsize": 10,
    "snaptogrid": true,
    "wType": "FlexContainer",
    "widgetalignment": 1,
    "zindex": 2
}