{
    "@class": "com.kony.gen.viz.model.component.KVizLabel",
    "DNDConfig": null,
    "__parentReadjusting__": false,
    "_height_": {
        "type": "ref",
        "value": "preferred"
    },
    "_margin_": [
        1,
        1,
        1,
        1
    ],
    "_padding_": [
        0,
        0,
        0,
        0
    ],
    "_skin_": "sb9d854fd980440db10390b679a4e43f",
    "_text_": "e",
    "_width_": {
        "type": "ref",
        "value": "preferred"
    },
    "_wrapping_": 2,
    "accessibilityconfig": {
        "a11yLabel": "Search "
    },
    "android": {
        "textStyle": {
            "letterSpacing": 0,
            "strikeThrough": false
        }
    },
    "canUpdateUI": true,
    "centerx": {
        "type": "string",
        "value": "50%"
    },
    "centery": {
        "type": "string",
        "value": "50%"
    },
    "containerweight": 100,
    "contentalignment": 4,
    "id": "lblSearch",
    "info": null,
    "ipad": {
        "psp": {
            "wrapping": 2
        }
    },
    "iphone": {
        "psp": {
            "wrapping": 2
        }
    },
    "isvisible": true,
    "kuid": "j330457a2e5146cf91d25089e26d8141",
    "name": "kony.ui.Label",
    "parent": "btnConfirm",
    "pf": "frmManageBeneficiaries",
    "responsiveData": {
        "b1": {
            "centerY": {
                "type": "string",
                "value": "55%"
            }
        },
        "b3": {
            "centerY": {
                "type": "string",
                "value": "55%"
            }
        }
    },
    "tooltip": "",
    "wType": "Label",
    "zindex": 1
}