{
    "@class": "com.kony.gen.viz.model.component.KVizButton",
    "DNDConfig": null,
    "_height_": {
        "type": "string",
        "value": "40dp"
    },
    "_left_": {
        "type": "number",
        "value": ""
    },
    "_margin_": [
        6,
        6,
        6,
        6
    ],
    "_padding_": [
        0,
        0,
        0,
        0
    ],
    "_right_": {
        "type": "string",
        "value": "16.67%"
    },
    "_skin_": "s16dc473e859400eb75be214065cb713",
    "_text_": "",
    "_top_": {
        "type": "number",
        "value": ""
    },
    "_width_": {
        "type": "string",
        "value": "12.50%"
    },
    "accessibilityconfig": {
        "a11yLabel": "Modify"
    },
    "canUpdateUI": true,
    "centery": {
        "type": "string",
        "value": "50%"
    },
    "containerweight": 100,
    "contentalignment": 5,
    "desktopweb": {
        "psp": {
            "hoverSkin": "sfb9c9fc82fd416ea6db6260c318f7ce"
        }
    },
    "disabledSkins": {},
    "displaytext": true,
    "focusskin": "s8cc1f41434c49d0a6d02844b879466b",
    "id": "btnModify",
    "info": null,
    "isvisible": true,
    "kuid": "a60f24d6164448b1b55f2e456c1a15c4",
    "name": "kony.ui.Button",
    "parent": "flxButtons",
    "pf": "userwidgetmodel",
    "responsiveData": {
        "b1": {
            "focusSkin": "sfeafe8ea7084c5482895eec761a1632",
            "skin": "sd9c177cfda446bca40a6cd40dec110f",
            "text": "Modify"
        },
        "b2": {
            "right": {
                "type": "string",
                "value": "26.50%"
            },
            "width": {
                "type": "string",
                "value": "22%"
            }
        },
        "b3": {
            "centerY": {
                "type": "string",
                "value": ""
            },
            "left": {
                "type": "string",
                "value": "2%"
            },
            "right": {
                "type": "string",
                "value": "2%"
            },
            "top": {
                "type": "string",
                "value": "80dp"
            },
            "width": {
                "type": "string",
                "value": "96%"
            }
        }
    },
    "texti18n": "i18n.transfers.Modify",
    "tooltip": "Modify",
    "wType": "Button",
    "zindex": 1
}