{
    "DNDConfig": null,
    "_height_": {
        "type": "string",
        "value": "1dp"
    },
    "_left_": {
        "type": "string",
        "value": "20dp"
    },
    "_margin_": [
        0,
        0,
        0,
        0
    ],
    "_orientation_": 6,
    "_padding_": [
        0,
        0,
        0,
        0
    ],
    "_percent_": true,
    "_right_": {
        "type": "string",
        "value": "20dp"
    },
    "_skin_": "s879aa556e3d4c72967b922f9d06cb42",
    "_top_": {
        "type": "string",
        "value": "59px"
    },
    "allboxes": [],
    "autogrowmode": 0,
    "canUpdateUI": true,
    "children": [],
    "clipbounds": true,
    "containerweight": 100,
    "enablescrolling": true,
    "id": "lblSeparator1",
    "info": null,
    "isvisible": true,
    "kuid": "g7b9d921b0404eef82c78f9696009a64",
    "layouttype": 2,
    "name": "kony.ui.FlexContainer",
    "parent": "flxTabs",
    "pf": "userwidgetmodel",
    "responsiveData": {
        "b2": {
            "left": {
                "type": "string",
                "value": "2.50%"
            },
            "right": {
                "type": "string",
                "value": "2.50%"
            }
        },
        "b3": {
            "left": {
                "type": "string",
                "value": "2%"
            },
            "right": {
                "type": "string",
                "value": "2%"
            }
        },
        "b4": {
            "left": {
                "type": "string",
                "value": "3%"
            },
            "right": {
                "type": "string",
                "value": "3%"
            },
            "top": {
                "type": "string",
                "value": "50px"
            }
        }
    },
    "snapgridsize": 10,
    "snaptogrid": true,
    "wType": "FlexContainer",
    "widgetalignment": 1,
    "zindex": 1
}