{
    "DNDConfig": null,
    "__parentReadjusting__": false,
    "_height_": {
        "type": "string",
        "value": "50dp"
    },
    "_left_": {
        "type": "number",
        "value": ""
    },
    "_margin_": [
        0,
        0,
        0,
        0
    ],
    "_orientation_": 6,
    "_padding_": [
        0,
        0,
        0,
        0
    ],
    "_percent_": true,
    "_right_": {
        "type": "number",
        "value": ""
    },
    "_skin_": "s24c92fc23b14f5484b693ee9b8a9b35",
    "_top_": {
        "type": "string",
        "value": "20dp"
    },
    "_width_": {
        "type": "string",
        "value": "68%"
    },
    "allboxes": [],
    "canUpdateUI": true,
    "centerx": {
        "type": "string",
        "value": "36.31%"
    },
    "children": [
        "lblFavoriteEmailCheckBoxMain",
        "lblIAcceptMain",
        "btnTandC"
    ],
    "clipbounds": true,
    "containerweight": 100,
    "enablescrolling": true,
    "id": "flxAgree",
    "info": null,
    "iscustomlayout": false,
    "isvisible": false,
    "kuid": "b4eea237f2774d0cbffb15dbae9ac9ca",
    "layouttype": 3,
    "name": "kony.ui.FlexContainer",
    "parent": "flxConfirmDetailsMain",
    "pf": "frmConfirmDetails",
    "responsiveData": {
        "b1": {
            "height": {
                "type": "string",
                "value": "25dp"
            },
            "isVisible": true,
            "top": {
                "type": "string",
                "value": "0dp"
            }
        },
        "b2": {
            "isVisible": true
        },
        "b3": {
            "isVisible": false,
            "left": {
                "type": "string",
                "value": "30dp"
            },
            "right": {
                "type": "string",
                "value": ""
            },
            "width": {
                "type": "string",
                "value": "66%"
            }
        }
    },
    "retaincontentalignment": false,
    "retainflexpositionproperties": false,
    "retainflowhorizontalalignment": false,
    "snapgridsize": 10,
    "snaptogrid": true,
    "wType": "FlexContainer",
    "widgetalignment": 1,
    "zindex": 1
}