{
    "BusinessControllerConfig": {
        "CommandHandler": [],
        "BusinessControllerClass": "DisputeTransactionModule/BusinessControllers/BusinessController"
    },
    "PresentationControllerConfig": {
        "Default": {
            "PresentationExtensions": [],
            "PresentationControllerClass": "DisputeTransactionModule/PresentationControllers/PresentationController"
        }
    },
    "Forms": {
        "desktop": {
            "frmConfirmDisputeTransaction": {
                "ControllerExtensions": [],
                "FormController": "kony.mvc.MDAFormController",
                "Controller": "DisputeTransactionModule/frmConfirmDisputeTransactionController",
                "FormName": "DisputeTransactionModule/frmConfirmDisputeTransaction",
                "friendlyName": "frmConfirmDisputeTransaction"
            },
            "frmDisputedTransactionsList": {
                "ControllerExtensions": [],
                "FormController": "kony.mvc.MDAFormController",
                "Controller": "DisputeTransactionModule/frmDisputedTransactionsListController",
                "FormName": "DisputeTransactionModule/frmDisputedTransactionsList",
                "friendlyName": "frmDisputedTransactionsList"
            },
            "frmDisputeTransactionAcknowledgement": {
                "ControllerExtensions": [],
                "FormController": "kony.mvc.MDAFormController",
                "Controller": "DisputeTransactionModule/frmDisputeTransactionAcknowledgementController",
                "FormName": "DisputeTransactionModule/frmDisputeTransactionAcknowledgement",
                "friendlyName": "frmDisputeTransactionAcknowledgement"
            },
            "frmDisputeTransactionDetail": {
                "ControllerExtensions": [],
                "FormController": "kony.mvc.MDAFormController",
                "Controller": "DisputeTransactionModule/frmDisputeTransactionDetailController",
                "FormName": "DisputeTransactionModule/frmDisputeTransactionDetail",
                "friendlyName": "frmDisputeTransactionDetail"
            }
        }
    },
    "ModuleName": "DisputeTransactionModule"
}