{
    "@class": "com.kony.gen.viz.model.component.KVizButton",
    "DNDConfig": null,
    "__parentReadjusting__": false,
    "_height_": {
        "type": "string",
        "value": "60dp"
    },
    "_left_": {
        "type": "string",
        "value": "10dp"
    },
    "_margin_": [
        6,
        6,
        6,
        6
    ],
    "_padding_": [
        2,
        0,
        2,
        0
    ],
    "_skin_": "s5dd5bb2b8874529bd590fd8525a7fd5",
    "_text_": "DOMESTIC ACCOUNT",
    "_top_": {
        "type": "number",
        "value": "-1"
    },
    "_width_": {
        "type": "ref",
        "value": "preferred"
    },
    "accessibilityconfig": {
        "a11yLabel": "DOMESTIC ACCOUNT"
    },
    "canUpdateUI": true,
    "containerweight": 100,
    "contentalignment": 5,
    "desktopweb": {
        "psp": {
            "hoverSkin": "sc81e19f9198454c82d4f148a92a2561"
        }
    },
    "disabledSkins": {
        "focusSkin": "sf44d06ca8224832827ea7fdff757013"
    },
    "displaytext": true,
    "id": "btnDomesticAccountKA",
    "info": null,
    "isvisible": true,
    "kuid": "a47cf942fbf04568b4743747d62655f6",
    "name": "kony.ui.Button",
    "paddingLocked": false,
    "paddinginpixel": false,
    "parent": "flxTabsKA",
    "pf": "userwidgetmodel",
    "tooltip": "DOMESTIC ACCOUNT",
    "wType": "Button",
    "zindex": 2
}