{
	 "@class": "com.kony.gen.viz.model.component.KVizImage2",
	 "DNDConfig": null,
	 "__parentReadjusting__": false,
	 "_base64_": null,
	 "_height_": {
		 "type": "string",
		 "value": "16dp"
	},
	 "_left_": {
		 "type": "string",
		 "value": "1%"
	},
	 "_margin_": [
		 0,
		 0,
		 0,
		 0
	],
	 "_padding_": [
		 0,
		 0,
		 0,
		 0
	],
	 "_skin_": "s2f6e58e8de34220ac2050921dbdfc20",
	 "_src_": "info_grey.png",
	 "_top_": {
		 "type": "string",
		 "value": "3px"
	},
	 "_width_": {
		 "type": "string",
		 "value": "16dp"
	},
	 "canUpdateUI": true,
	 "containerweight": 100,
	 "context": {
		 "channel": "desktop",
		 "formID": "uwu2b1d798d4594f63837ed9524b560443",
		 "platform": "desktopweb",
		 "templateType": "userwidgets",
		 "topLevelBox": null
	},
	 "id": "imgIntInfoKA",
	 "imagescalemode": 1,
	 "imagewhiledownloading": "img_transparent.png",
	 "info": null,
	 "invokedProperty": "src",
	 "isvisible": true,
	 "kuid": "ha16c42568ac46db941a41e7b8913bba",
	 "name": "kony.ui.Image2",
	 "paddinginpixel": false,
	 "parent": "flxIntInfoKA",
	 "pf": "userwidgetmodel",
	 "srcType": 1,
	 "wType": "Image",
	 "widgetalignment": 5,
	 "zindex": 1,
	 "accessibilityconfig": {
		 "a11yLabel": "Info",
		 "a11yValue": ""
	}
}