{
    "@class": "com.kony.gen.viz.model.component.KVizLabel",
    "DNDConfig": null,
    "__parentReadjusting__": false,
    "_height_": {
        "type": "ref",
        "value": "preferred"
    },
    "_margin_": [
        1,
        1,
        1,
        1
    ],
    "_padding_": [
        0,
        0,
        0,
        0
    ],
    "_right_": {
        "type": "string",
        "value": "30dp"
    },
    "_skin_": "s5c846d545014fb0891c57a80f2b684d",
    "_text_": "$23,400.56",
    "_width_": {
        "type": "ref",
        "value": "preferred"
    },
    "_wrapping_": 2,
    "accessibilityconfig": {
        "a11yLabel": "$23,400.56"
    },
    "android": {
        "textStyle": {
            "letterSpacing": 0,
            "strikeThrough": false
        }
    },
    "canUpdateUI": true,
    "centery": {
        "type": "string",
        "value": "50%"
    },
    "containerweight": 100,
    "contentalignment": 6,
    "id": "lblAmountValue",
    "info": null,
    "ipad": {
        "psp": {
            "wrapping": 2
        }
    },
    "iphone": {
        "psp": {
            "wrapping": 2
        }
    },
    "isvisible": true,
    "kuid": "fa69a348c8ef49509743e51df114b151",
    "name": "kony.ui.Label",
    "paddinginpixel": false,
    "parent": "flxTotalAmount",
    "pf": "frmBulkBillPayConfirm",
    "responsiveData": {
        "b1": {
            "right": {
                "type": "string",
                "value": "32dp"
            }
        },
        "b2": {
            "right": {
                "type": "string",
                "value": "17dp"
            }
        },
        "b4": {
            "right": {
                "type": "string",
                "value": "35dp"
            }
        }
    },
    "tooltip": "",
    "wType": "Label",
    "zindex": 1
}