{
    "@class": "com.kony.gen.viz.model.component.KVizLabel",
    "DNDConfig": null,
    "__parentReadjusting__": false,
    "_height_": {
        "type": "string",
        "value": "28dp"
    },
    "_left_": {
        "type": "string",
        "value": "0%"
    },
    "_margin_": [
        0,
        0,
        0,
        0
    ],
    "_padding_": [
        0,
        1,
        0,
        0
    ],
    "_skin_": "sbf892219fd04dbcae8a4a76f57b2ae0",
    "_text_": "D",
    "_width_": {
        "type": "string",
        "value": "28dp"
    },
    "_wrapping_": 2,
    "accessibilityconfig": {
        "a11yLabel": "Terms and condition Checkbox"
    },
    "android": {
        "textStyle": {
            "letterSpacing": 0,
            "strikeThrough": false
        }
    },
    "canUpdateUI": true,
    "centery": {
        "type": "string",
        "value": "50%"
    },
    "containerweight": 100,
    "contentalignment": 5,
    "desktopweb": {
        "padding": [
            0,
            1,
            0,
            0
        ],
        "paddingInPixel": true
    },
    "id": "lblCheckBoxIcon",
    "info": null,
    "ipad": {
        "psp": {
            "wrapping": 2
        }
    },
    "iphone": {
        "psp": {
            "wrapping": 2
        }
    },
    "isvisible": true,
    "kuid": "d47f276b45604a7aae068ac634c5ac87",
    "name": "kony.ui.Label",
    "paddinginpixel": false,
    "parent": "flxCheckBoxTnC",
    "pf": "frmBulkBillPayConfirm",
    "tooltip": "",
    "wType": "Label",
    "zindex": 1
}