{
    "DNDConfig": null,
    "__parentReadjusting__": false,
    "_height_": {
        "type": "string",
        "value": "80dp"
    },
    "_left_": {
        "type": "string",
        "value": "0dp"
    },
    "_margin_": [
        0,
        0,
        0,
        0
    ],
    "_orientation_": 6,
    "_padding_": [
        0,
        0,
        0,
        0
    ],
    "_percent_": true,
    "_skin_": "s24c92fc23b14f5484b693ee9b8a9b35",
    "_top_": {
        "type": "string",
        "value": "0dp"
    },
    "_width_": {
        "type": "string",
        "value": "100%"
    },
    "allboxes": [],
    "canUpdateUI": true,
    "children": [
        "btnMakeAnotherWireTransfer",
        "btnSaveRecipient",
        "btnViewSentTransactions"
    ],
    "clipbounds": true,
    "containerweight": 100,
    "enablescrolling": true,
    "id": "flxbuttons",
    "info": null,
    "isvisible": false,
    "kuid": "fa50571897ff47a9a4a6fa682d83471c",
    "layouttype": 2,
    "name": "kony.ui.FlexContainer",
    "parent": "flxConfirmDetails",
    "pf": "frmWireTransferAddInternationalAccountConfirm",
    "responsiveData": {
        "b1": {
            "isVisible": false
        },
        "b2": {
            "isVisible": false,
            "zIndex": 3
        },
        "b3": {
            "height": {
                "type": "string",
                "value": "200dp"
            },
            "isVisible": false
        },
        "b4": {
            "height": {
                "type": "string",
                "value": "110dp"
            },
            "isVisible": false,
            "layoutType": 3
        }
    },
    "reverselayoutdirection": true,
    "snapgridsize": 10,
    "snaptogrid": true,
    "wType": "FlexContainer",
    "widgetalignment": 1,
    "zindex": 1
}