{
    "@class": "com.kony.gen.viz.model.component.KVizButton",
    "DNDConfig": null,
    "__parentReadjusting__": false,
    "_height_": {
        "type": "string",
        "value": "100%"
    },
    "_margin_": [
        6,
        6,
        6,
        6
    ],
    "_padding_": [
        0,
        0,
        0,
        0
    ],
    "_right_": {
        "type": "string",
        "value": "10dp"
    },
    "_skin_": "s963768c82394bc78c43038f558413f9",
    "_text_": "Compose New",
    "_width_": {
        "type": "ref",
        "value": "preferred"
    },
    "accessibilityconfig": {
        "a11yLabel": "Compose New"
    },
    "canUpdateUI": true,
    "centery": {
        "type": "string",
        "value": "50%"
    },
    "containerweight": 100,
    "contentalignment": 4,
    "disabledSkins": {
        "focusSkin": "sf44d06ca8224832827ea7fdff757013"
    },
    "displaytext": true,
    "id": "btnNewMessage",
    "ide_onClick": "AS_Button_dfe3235016d14c1eae0f7cc88ac0c5ca",
    "info": null,
    "isvisible": true,
    "kuid": "f9201c5d63ba4170898e75152515cfea",
    "name": "kony.ui.Button",
    "parent": "flxTabs",
    "pf": "userwidgetmodel",
    "tooltip": "New Message",
    "wType": "Button",
    "zindex": 1
}