{
    "@class": "com.kony.gen.viz.model.component.KVizImage2",
    "DNDConfig": null,
    "__parentReadjusting__": false,
    "_base64_": null,
    "_height_": {
        "type": "string",
        "value": "26dp"
    },
    "_left_": {
        "type": "string",
        "value": "50%"
    },
    "_margin_": [
        0,
        0,
        0,
        0
    ],
    "_padding_": [
        0,
        0,
        0,
        0
    ],
    "_skin_": "s78a5f26c9f14cec9ebed1bb46098f80",
    "_src_": "attachment_blue.png",
    "_top_": {
        "type": "string",
        "value": "11dp"
    },
    "_width_": {
        "type": "string",
        "value": "50%"
    },
    "accessibilityconfig": {
        "a11yLabel": "Attachment",
        "a11yValue": ""
    },
    "canUpdateUI": true,
    "containerweight": 100,
    "id": "imgAttachmentBLue2",
    "imagescalemode": 1,
    "imagewhiledownloading": "img_transparent.png",
    "info": null,
    "invokedProperty": "src",
    "isvisible": false,
    "kuid": "b68fc7bf32eb44fea31f0baf3bb971b9",
    "name": "kony.ui.Image2",
    "parent": "flxImageAttachment2",
    "pf": "userwidgetmodel",
    "srcType": 1,
    "tooltip": "Attachment",
    "wType": "Image",
    "widgetalignment": 5,
    "zindex": 1
}