{
    "@class": "com.kony.gen.viz.model.component.KVizRichText",
    "DNDConfig": null,
    "__parentReadjusting__": false,
    "_height_": {
        "type": "ref",
        "value": "preferred"
    },
    "_left_": {
        "type": "string",
        "value": "0%"
    },
    "_margin_": [
        0,
        0,
        0,
        0
    ],
    "_padding_": [
        0,
        0,
        0,
        0
    ],
    "_skin_": "sc4cc30bc71442ee9f8b2e9230a973fa",
    "_text_": "Hi! You are our priviledged customer. </br></br>\nYou have a pending Bill Payment due on 15/05/2017. \nPlease pay your bill at least 3 days before due date to avoid late payment charges as it may take 2-3 days to process the amount.",
    "_top_": {
        "type": "string",
        "value": "0dp"
    },
    "_width_": {
        "type": "string",
        "value": "94%"
    },
    "_wrapping_": 2,
    "accessibilityconfig": {
        "a11yLabel": "Hi! You are our priviledged customer. </br></br>\nYou have a pending Bill Payment due on 15/05/2017. \nPlease pay your bill at least 3 days before due date to avoid late payment charges as it may take 2-3 days to process the amount."
    },
    "canUpdateUI": true,
    "containerweight": 100,
    "contentalignment": 4,
    "id": "rtxNotificationData",
    "info": null,
    "isvisible": true,
    "kuid": "ed445ccb45ab47c5bc97bbccf3bef1cc",
    "name": "kony.ui.RichText",
    "parent": "flxData",
    "pf": "userwidgetmodel",
    "wType": "RichText",
    "widgetalignment": 5,
    "zindex": 1
}