{
    "@class": "com.kony.gen.viz.model.container.KVizSegment2",
    "DNDConfig": null,
    "__parentReadjusting__": false,
    "_data_": [],
    "_height_": {
        "type": "ref",
        "value": "preferred"
    },
    "_indicator_": "none",
    "_left_": {
        "type": "string",
        "value": "40px"
    },
    "_margin_": [
        0,
        0,
        0,
        0
    ],
    "_orientation_": 2,
    "_padding_": [
        0,
        0,
        0,
        0
    ],
    "_top_": {
        "type": "string",
        "value": "0dp"
    },
    "_width_": {
        "type": "string",
        "value": "91.50%"
    },
    "autogrowmode": 1,
    "canUpdateUI": true,
    "centerx": {
        "type": "string",
        "value": "50%"
    },
    "containerweight": 100,
    "counter": "02",
    "desktop": {
        "_data_": [],
        "rowTemplateId": "ded88bcf0d3a4c9f99866e6c231c6a83",
        "rowtemplate": "flxMessagesLeft",
        "widgetdatamap": {
            "flxAttachmentName1": "flxAttachmentName1",
            "flxAttachmentName2": "flxAttachmentName2",
            "flxAttachmentName3": "flxAttachmentName3",
            "flxAttachmentName4": "flxAttachmentName4",
            "flxAttachmentName5": "flxAttachmentName5",
            "flxDocAttachment1": "flxDocAttachment1",
            "flxDocAttachment2": "flxDocAttachment2",
            "flxDocAttachment3": "flxDocAttachment3",
            "flxDocAttachment4": "flxDocAttachment4",
            "flxDocAttachment5": "flxDocAttachment5",
            "flxDownloadAttachment1": "flxDownloadAttachment1",
            "flxDownloadAttachment2": "flxDownloadAttachment2",
            "flxDownloadAttachment3": "flxDownloadAttachment3",
            "flxDownloadAttachment4": "flxDownloadAttachment4",
            "flxDownloadAttachment5": "flxDownloadAttachment5",
            "flxDummy": "flxDummy",
            "flxMessage": "flxMessage",
            "flxMessagesLeft": "flxMessagesLeft",
            "flxNameDate": "flxNameDate",
            "flxRemoveAttachment1": "flxRemoveAttachment1",
            "flxRemoveAttachment2": "flxRemoveAttachment2",
            "flxRemoveAttachment3": "flxRemoveAttachment3",
            "flxRemoveAttachment4": "flxRemoveAttachment4",
            "flxRemoveAttachment5": "flxRemoveAttachment5",
            "flxSeparator2": "flxSeparator2",
            "flxVerticalMiniSeparator1": "flxVerticalMiniSeparator1",
            "flxVerticalMiniSeparator2": "flxVerticalMiniSeparator2",
            "flxVerticalMiniSeparator3": "flxVerticalMiniSeparator3",
            "flxVerticalMiniSeparator4": "flxVerticalMiniSeparator4",
            "flxVerticalMiniSeparator5": "flxVerticalMiniSeparator5",
            "imgDownloadAttachment1": "imgDownloadAttachment1",
            "imgDownloadAttachment2": "imgDownloadAttachment2",
            "imgDownloadAttachment3": "imgDownloadAttachment3",
            "imgDownloadAttachment4": "imgDownloadAttachment4",
            "imgDownloadAttachment5": "imgDownloadAttachment5",
            "imgPDF1": "imgPDF1",
            "imgPDF2": "imgPDF2",
            "imgPDF3": "imgPDF3",
            "imgPDF4": "imgPDF4",
            "imgPDF5": "imgPDF5",
            "imgRemoveAttachment1": "imgRemoveAttachment1",
            "imgRemoveAttachment2": "imgRemoveAttachment2",
            "imgRemoveAttachment3": "imgRemoveAttachment3",
            "imgRemoveAttachment4": "imgRemoveAttachment4",
            "imgRemoveAttachment5": "imgRemoveAttachment5",
            "imgToolTip": "imgToolTip",
            "imgUser": "imgUser",
            "lblDate": "lblDate",
            "lblDocName1": "lblDocName1",
            "lblDocName2": "lblDocName2",
            "lblDocName3": "lblDocName3",
            "lblDocName4": "lblDocName4",
            "lblDocName5": "lblDocName5",
            "lblDummy": "lblDummy",
            "lblShowAll": "lblShowAll",
            "lblSize1": "lblSize1",
            "lblSize2": "lblSize2",
            "lblSize3": "lblSize3",
            "lblSize4": "lblSize4",
            "lblSize5": "lblSize5",
            "lblUser": "lblUser",
            "rtxMessage": "rtxMessage"
        }
    },
    "focusedindex": null,
    "focuseditem": null,
    "groupcells": false,
    "hasSections": false,
    "id": "segMessages",
    "info": null,
    "ipad": {
        "psp": {
            "indicator": "rowselect"
        }
    },
    "iphone": {
        "psp": {
            "indicator": "rowselect"
        }
    },
    "isvisible": true,
    "kuid": "addc3c51fd1742ee8a1f73c73c5424fb",
    "masterdata": {},
    "minheight": {
        "type": "string",
        "value": "100dp"
    },
    "name": "kony.ui.SegmentedUI2",
    "needpageindicator": true,
    "pageoffdotimage": "pageoffdot.png",
    "pageondotimage": "pageondot.png",
    "paginationconfig": {
        "position": "bottom"
    },
    "parent": "flxMainMessages",
    "pf": "userwidgetmodel",
    "retainselection": false,
    "rowcounter": 2,
    "rowfocusskin": "s9f69e977910472eb44c62ae28c41fe1",
    "rowskin": "scf5f90f6ac04976ab88b2a4f7153285",
    "rowtemplate": "FlexContainer0a4e6042fbcb045",
    "screenlevelwidget": false,
    "seccounter": 0,
    "sectionheaderskin": "sdc4ff4ed1584272be2ae69045dfb29d",
    "selectedRows": null,
    "selectedState": false,
    "selectedindex": null,
    "selectedindices": null,
    "selecteditems": null,
    "selectedsectionindex": 0,
    "selectionbehavior": "default",
    "separatorrequired": false,
    "showscrollbars": false,
    "viewtype": "tableview",
    "vizProps": {},
    "wType": "Segment",
    "widgetalignment": 5,
    "widgetdatamap": {
        "flxAttachmentName1": "flxAttachmentName1",
        "flxAttachmentName2": "flxAttachmentName2",
        "flxAttachmentName3": "flxAttachmentName3",
        "flxAttachmentName4": "flxAttachmentName4",
        "flxAttachmentName5": "flxAttachmentName5",
        "flxDocAttachment1": "flxDocAttachment1",
        "flxDocAttachment2": "flxDocAttachment2",
        "flxDocAttachment3": "flxDocAttachment3",
        "flxDocAttachment4": "flxDocAttachment4",
        "flxDocAttachment5": "flxDocAttachment5",
        "flxDownloadAttachment1": "flxDownloadAttachment1",
        "flxDownloadAttachment2": "flxDownloadAttachment2",
        "flxDownloadAttachment3": "flxDownloadAttachment3",
        "flxDownloadAttachment4": "flxDownloadAttachment4",
        "flxDownloadAttachment5": "flxDownloadAttachment5",
        "flxDummy": "flxDummy",
        "flxMessage": "flxMessage",
        "flxMessagesLeft": "flxMessagesLeft",
        "flxNameDate": "flxNameDate",
        "flxRemoveAttachment1": "flxRemoveAttachment1",
        "flxRemoveAttachment2": "flxRemoveAttachment2",
        "flxRemoveAttachment3": "flxRemoveAttachment3",
        "flxRemoveAttachment4": "flxRemoveAttachment4",
        "flxRemoveAttachment5": "flxRemoveAttachment5",
        "flxSeparator2": "flxSeparator2",
        "flxVerticalMiniSeparator1": "flxVerticalMiniSeparator1",
        "flxVerticalMiniSeparator2": "flxVerticalMiniSeparator2",
        "flxVerticalMiniSeparator3": "flxVerticalMiniSeparator3",
        "flxVerticalMiniSeparator4": "flxVerticalMiniSeparator4",
        "flxVerticalMiniSeparator5": "flxVerticalMiniSeparator5",
        "imgDownloadAttachment1": "imgDownloadAttachment1",
        "imgDownloadAttachment2": "imgDownloadAttachment2",
        "imgDownloadAttachment3": "imgDownloadAttachment3",
        "imgDownloadAttachment4": "imgDownloadAttachment4",
        "imgDownloadAttachment5": "imgDownloadAttachment5",
        "imgPDF1": "imgPDF1",
        "imgPDF2": "imgPDF2",
        "imgPDF3": "imgPDF3",
        "imgPDF4": "imgPDF4",
        "imgPDF5": "imgPDF5",
        "imgRemoveAttachment1": "imgRemoveAttachment1",
        "imgRemoveAttachment2": "imgRemoveAttachment2",
        "imgRemoveAttachment3": "imgRemoveAttachment3",
        "imgRemoveAttachment4": "imgRemoveAttachment4",
        "imgRemoveAttachment5": "imgRemoveAttachment5",
        "imgToolTip": "imgToolTip",
        "imgUser": "imgUser",
        "lblDate": "lblDate",
        "lblDocName1": "lblDocName1",
        "lblDocName2": "lblDocName2",
        "lblDocName3": "lblDocName3",
        "lblDocName4": "lblDocName4",
        "lblDocName5": "lblDocName5",
        "lblDummy": "lblDummy",
        "lblShowAll": "lblShowAll",
        "lblSize1": "lblSize1",
        "lblSize2": "lblSize2",
        "lblSize3": "lblSize3",
        "lblSize4": "lblSize4",
        "lblSize5": "lblSize5",
        "lblUser": "lblUser",
        "rtxMessage": "rtxMessage"
    },
    "zindex": 1
}