{
    "DNDConfig": null,
    "__parentReadjusting__": false,
    "_height_": {
        "type": "string",
        "value": "20dp"
    },
    "_left_": {
        "type": "string",
        "value": "2%"
    },
    "_margin_": [
        0,
        0,
        0,
        0
    ],
    "_orientation_": 6,
    "_padding_": [
        0,
        0,
        0,
        0
    ],
    "_percent_": true,
    "_skin_": "s680c9bafb594fe4bfa388d84acc43b2",
    "_width_": {
        "type": "string",
        "value": "20dp"
    },
    "allboxes": [],
    "autogrowmode": 0,
    "canUpdateUI": true,
    "centerx": {
        "type": "string",
        "value": "4%"
    },
    "centery": {
        "type": "string",
        "value": "50%"
    },
    "children": [
        "imgDropDown",
        "lblDropdown"
    ],
    "clipbounds": true,
    "containerId": true,
    "containerweight": 100,
    "desktopweb": {
        "psp": {
            "hoverSkin": "s680c9bafb594fe4bfa388d84acc43b2"
        }
    },
    "disabledSkins": {},
    "enablescrolling": true,
    "id": "flxDropDown",
    "ide_onClick": "AS_FlexContainer_d32a57654f4842e2b78a72a3ccffb554",
    "info": null,
    "iscustomlayout": false,
    "isvisible": true,
    "kuid": "f62143911e17491cb05b4300041d2642",
    "layouttype": 2,
    "name": "kony.ui.FlexContainer",
    "parent": "flxUserCommonRowHeader",
    "pf": "segBBAllUsersRowTemplate",
    "retaincontentalignment": false,
    "retainflexpositionproperties": false,
    "snapgridsize": 10,
    "snaptogrid": true,
    "wType": "FlexContainer",
    "widgetalignment": 1,
    "zindex": 1
}