{
    "DNDConfig": null,
    "__parentReadjusting__": false,
    "_height_": {
        "type": "string",
        "value": "50dp"
    },
    "_left_": {
        "type": "string",
        "value": "6.28%"
    },
    "_margin_": [
        0,
        0,
        0,
        0
    ],
    "_orientation_": 6,
    "_padding_": [
        0,
        0,
        0,
        0
    ],
    "_percent_": true,
    "_skin_": "secff68ee7904525acebc42c36c39094",
    "_top_": {
        "type": "string",
        "value": "0dp"
    },
    "_width_": {
        "type": "string",
        "value": "93.72%"
    },
    "allboxes": [],
    "autogrowmode": 0,
    "canUpdateUI": true,
    "children": [
        "lblNameApprovals",
        "lblRoleApprovals",
        "lblUserCreatedDate",
        "lblActionsApprovals",
        "btnActionsApprovals",
        "lblStatus"
    ],
    "clipbounds": true,
    "containerId": true,
    "containerweight": 100,
    "disabledSkins": {},
    "enablescrolling": true,
    "focusskin": "secff68ee7904525acebc42c36c39094",
    "id": "flxUserApprovalsRowHeader",
    "info": null,
    "iscustomlayout": false,
    "isvisible": false,
    "kuid": "cb38c39c9c0346aba0b4aeb130a50f64",
    "layouttype": 2,
    "name": "kony.ui.FlexContainer",
    "parent": "flxMyApprovalsRowHeader",
    "pf": "segACHMyApprovalsRowMobileTemplate",
    "retaincontentalignment": false,
    "retainflexpositionproperties": false,
    "snapgridsize": 10,
    "snaptogrid": true,
    "wType": "FlexContainer",
    "widgetalignment": 1
}