{
	 "@class": "com.kony.gen.viz.model.component.KVizLabel",
	 "DNDConfig": null,
	 "__parentReadjusting__": false,
	 "_height_": {
		 "type": "ref",
		 "value": "preferred"
	},
	 "_margin_": [
		 1,
		 1,
		 1,
		 1
	],
	 "_padding_": [
		 0,
		 0,
		 0,
		 0
	],
	 "_right_": {
		 "type": "string",
		 "value": "25dp"
	},
	 "_skin_": "s5d28b68a8694e7789d19c014bfb1441",
	 "_text_": "O",
	 "_width_": {
		 "type": "string",
		 "value": "17dp"
	},
	 "_wrapping_": 2,
	 "accessibilityconfig": {
		 "a11yLabel": "Language dropdown"
	},
	 "android": {
		 "textStyle": {
			 "letterSpacing": 0,
			 "strikeThrough": false
		}
	},
	 "canUpdateUI": true,
	 "centery": {
		 "type": "string",
		 "value": "52.00%"
	},
	 "containerweight": 100,
	 "contentalignment": 4,
	 "id": "lblCheckBox",
	 "info": null,
	 "ipad": {
		 "psp": {
			 "wrapping": 2
		}
	},
	 "iphone": {
		 "psp": {
			 "wrapping": 2
		}
	},
	 "isvisible": true,
	 "kuid": "f03e66891fa242b6855b73c6a97f23e1",
	 "name": "kony.ui.Label",
	 "parent": "flxDropdown",
	 "pf": "frmMFAPreLogin",
	 "responsiveData": {
		 "b1": {},
		 "b2": {
			 "right": {
				 "type": "string",
				 "value": "0dp"
			}
		},
		 "b3": {
			 "right": {
				 "type": "string",
				 "value": "0dp"
			}
		},
		 "b4": {
			 "right": {
				 "type": "string",
				 "value": "0dp"
			}
		}
	},
	 "tooltip": "Select Product",
	 "wType": "Label",
	 "zindex": 1
}