{
    "@class": "com.kony.gen.viz.model.component.KVizLabel",
    "DNDConfig": null,
    "__parentReadjusting__": false,
    "_bottom_": {
        "type": "number",
        "value": ""
    },
    "_height_": {
        "type": "ref",
        "value": "preferred"
    },
    "_left_": {
        "type": "string",
        "value": "594dp"
    },
    "_margin_": [
        1,
        1,
        1,
        1
    ],
    "_padding_": [
        0,
        0,
        0,
        0
    ],
    "_right_": {
        "type": "number",
        "value": ""
    },
    "_skin_": "s404575463f040a9ad9977b446cd4073",
    "_text_": "Label",
    "_top_": {
        "type": "string",
        "value": "805dp"
    },
    "_width_": {
        "type": "ref",
        "value": "preferred"
    },
    "_wrapping_": 2,
    "android": {
        "textStyle": {
            "letterSpacing": 0,
            "strikeThrough": false
        }
    },
    "canUpdateUI": true,
    "containerweight": 100,
    "contentalignment": 4,
    "id": "lblCopyrightDesktop",
    "info": null,
    "ipad": {
        "psp": {
            "wrapping": 2
        }
    },
    "iphone": {
        "psp": {
            "wrapping": 2
        }
    },
    "iscustomlayout": false,
    "isvisible": true,
    "kuid": "b2de782e03854310a62134ca3b0a5451",
    "name": "kony.ui.Label",
    "parent": "flxMain",
    "pf": "frmMFAPreLogin",
    "responsiveData": {
        "b1": {
            "bottom": {
                "type": "string",
                "value": "20px"
            },
            "contentAlignment": 1,
            "height": {
                "type": "string",
                "value": "40px"
            },
            "isVisible": true,
            "left": {
                "type": "string",
                "value": "565dp"
            },
            "right": {
                "type": "string",
                "value": "65px"
            },
            "skin": "s404575463f040a9ad9977b446cd4073",
            "top": {
                "type": "string",
                "value": ""
            },
            "width": {
                "type": "string",
                "value": ""
            }
        },
        "b2": {
            "isVisible": false
        },
        "b3": {
            "isVisible": false
        },
        "b4": {
            "isVisible": false
        }
    },
    "retaincontentalignment": false,
    "retainflexpositionproperties": false,
    "texti18n": "i18n.footer.copyright",
    "tooltip": "",
    "wType": "Label",
    "zindex": 20
}