{
    "@class": "com.kony.gen.viz.model.component.KVizLabel",
    "DNDConfig": null,
    "__parentReadjusting__": false,
    "_height_": {
        "type": "ref",
        "value": "preferred"
    },
    "_left_": {
        "type": "string",
        "value": "30dp"
    },
    "_margin_": [
        1,
        1,
        1,
        1
    ],
    "_padding_": [
        0,
        0,
        0,
        0
    ],
    "_skin_": "sba30ccf73ac4f6fb34314131a35a329",
    "_text_": "Date",
    "_top_": {
        "type": "string",
        "value": "25dp"
    },
    "_width_": {
        "type": "string",
        "value": "60%"
    },
    "_wrapping_": 2,
    "accessibilityconfig": {
        "a11yLabel": "Overall Spending"
    },
    "android": {
        "textStyle": {
            "letterSpacing": 0,
            "strikeThrough": false
        }
    },
    "canUpdateUI": true,
    "containerweight": 100,
    "contentalignment": 4,
    "id": "lblOverallSpendingMySpending",
    "info": null,
    "ipad": {
        "psp": {
            "wrapping": 2
        }
    },
    "iphone": {
        "psp": {
            "wrapping": 2
        }
    },
    "isvisible": true,
    "kuid": "g41e57a7f9784acaa2a52e385a630ba7",
    "name": "kony.ui.Label",
    "parent": "flxMySpendingWrapper",
    "pf": "userwidgetmodel",
    "texti18n": "i18n.PFM.OverallSpending",
    "tooltip": "",
    "wType": "Label",
    "zindex": 1
}