{
    "@class": "com.kony.gen.viz.model.component.KVizButton",
    "DNDConfig": null,
    "__parentReadjusting__": false,
    "_height_": {
        "type": "string",
        "value": "50dp"
    },
    "_left_": {
        "type": "string",
        "value": "38.07%"
    },
    "_margin_": [
        6,
        6,
        6,
        6
    ],
    "_padding_": [
        0,
        0,
        0,
        0
    ],
    "_skin_": "sa611611b2f24e93bcfd09e1606c0d86",
    "_text_": "ADD MORE ACCOUNTS",
    "_top_": {
        "type": "string",
        "value": "20dp"
    },
    "_width_": {
        "type": "string",
        "value": "28.96%"
    },
    "accessibilityconfig": {
        "a11yLabel": "ADD MORE ACCOUNTS"
    },
    "canUpdateUI": true,
    "containerweight": 100,
    "contentalignment": 5,
    "desktopweb": {
        "psp": {
            "hoverSkin": "s83729feaa224e359d660d5af05c4bac"
        }
    },
    "disabledSkins": {},
    "displaytext": true,
    "focusskin": "s434743e49c446699565893e4974ec52",
    "id": "btnAddMoreAccounts",
    "info": null,
    "isvisible": true,
    "kuid": "b2e4f6690c1a4e8189d8ccaf7ce839b3",
    "name": "kony.ui.Button",
    "parent": "flxAcknowledgementButtons",
    "pf": "userwidgetmodel",
    "tooltip": "CANCEL",
    "wType": "Button",
    "zindex": 1
}