{
    "@class": "com.kony.gen.viz.model.component.KVizUserWidget",
    "DNDConfig": null,
    "__parentReadjusting__": false,
    "_android_": {},
    "_androidwearos_": {},
    "_children_": [],
    "_desktopweb_": {},
    "_height_": {
        "type": "string",
        "value": "100%"
    },
    "_ipad_": {},
    "_iphone_": {},
    "_kiosk_": {},
    "_left_": {
        "type": "string",
        "value": "0dp"
    },
    "_margin_": [
        0,
        0,
        0,
        0
    ],
    "_orientation_": 1,
    "_padding_": [
        0,
        0,
        0,
        0
    ],
    "_percent_": true,
    "_skin_": "s24c92fc23b14f5484b693ee9b8a9b35",
    "_spa_": {},
    "_spaan_": {},
    "_spaandroidtablet_": {},
    "_spabb_": {},
    "_spaip_": {},
    "_spaipad_": {},
    "_spamobile_": {},
    "_spatablet_": {},
    "_spawindowstablet_": {},
    "_spawinphone8_": {},
    "_tabrcandroid_": {},
    "_top_": {
        "type": "string",
        "value": "0dp"
    },
    "_vizProps_": {
        "hidewidgethierarchy": false
    },
    "_width_": {
        "type": "string",
        "value": "100%"
    },
    "_windows10_": {},
    "_windows8_": {},
    "_winphone10_": {},
    "_winphone8_": {},
    "areflexpropsreferenced": false,
    "canUpdateUI": true,
    "clipbounds": true,
    "containerweight": 0,
    "dataDiffs": {
        "accountAlerts": {
            "__events__": {},
            "__info__": {
                "isRoot": true,
                "kuid": "a5368b8ba12f445f8a7f8cd315ef5763",
                "srcKUID": "aa2de45724b442fbb919ff5903ec5d4e",
                "wType": "FlexContainer"
            }
        },
        "btnModifyAlerts": {
            "__events__": {},
            "__info__": {
                "kuid": "ddd74b16364a48658958262b3adc9747",
                "srcKUID": "fa92b66940e244efb6f107767cfd5b5e",
                "wType": "Button"
            }
        },
        "flxAlertsHeader": {
            "__events__": {},
            "__info__": {
                "kuid": "f91c1b6a0f4848a2ba7dabc487313400",
                "srcKUID": "e089a8376b704ab595f16c449832ec4e",
                "wType": "FlexContainer"
            }
        },
        "flxAlertsSegment": {
            "__events__": {},
            "__info__": {
                "kuid": "fdabcab63cdb4aa5bb4a494108cc3730",
                "srcKUID": "eed104720ca944febb0f6e3515498192",
                "wType": "FlexContainer"
            }
        },
        "flxAlertsSeperator": {
            "__events__": {},
            "__info__": {
                "kuid": "a0789ccc39ae46e9bba176b8a5cb2f2b",
                "srcKUID": "df9af614e9344a629426bf2720a17aa7",
                "wType": "FlexContainer"
            }
        },
        "flxAlertsSeperator2": {
            "__events__": {},
            "__info__": {
                "kuid": "a329d35ca2504bc793d7ecae4258562c",
                "srcKUID": "aa93f79ad07c4854a513b02e957795fe",
                "wType": "FlexContainer"
            }
        },
        "flxAlertsWarning": {
            "__events__": {},
            "__info__": {
                "kuid": "c19847ee44fd4aeeb00590cf44098540",
                "srcKUID": "d36690f80bc740efa014bfb5b411477d",
                "wType": "FlexContainer"
            }
        },
        "flxAlertsWarningWrapper": {
            "__events__": {},
            "__info__": {
                "kuid": "ic480b9ffdf842ed94c52bc080c5d341",
                "srcKUID": "af91667fc56c4432ab30de90e4cc53f4",
                "wType": "FlexContainer"
            }
        },
        "flxClickBlocker": {
            "__events__": {},
            "__info__": {
                "kuid": "aed415c9c493404b96b4473300af8ada",
                "srcKUID": "ebf6855a793246028d2150071b9a2111",
                "wType": "FlexContainer"
            }
        },
        "flxMessage": {
            "__events__": {},
            "__info__": {
                "kuid": "c7100d2158e74801aee36aae2656b474",
                "srcKUID": "e149f1c3357045b78938c46fc3245c0f",
                "wType": "FlexContainer"
            }
        },
        "flxNoAlertsFound": {
            "__events__": {},
            "__info__": {
                "kuid": "f4075acc36d44981bcd0e6b39c2a75bc",
                "srcKUID": "g67cc0815168420890ea03cfba8ab65d",
                "wType": "FlexContainer"
            }
        },
        "flxScrollAlertsBody": {
            "__events__": {},
            "__info__": {
                "kuid": "ac85e08587dd4dfab798cb29786e2073",
                "srcKUID": "c10c19d79dca448681c104e5217a5bef",
                "wType": "FlexScrollContainer"
            }
        },
        "imgAlertsWarningImage": {
            "__events__": {},
            "__info__": {
                "kuid": "ac4bdec636d14fa3b60be970a5b90c67",
                "srcKUID": "fcd0a4b426354d5f97ab91a72e6913fc",
                "wType": "Image"
            },
            "src": "info_icon_blue.png"
        },
        "imgError": {
            "__events__": {},
            "__info__": {
                "kuid": "f48780ebd3fc43fea3b717e3deb4223b",
                "srcKUID": "aebd943dcace4144a3ca5f7ee540abca",
                "wType": "Image"
            },
            "src": "error_yellow.png"
        },
        "lblAlertsHeading": {
            "__events__": {},
            "__info__": {
                "kuid": "bd191eaee81a461f9db90f6ebdbdfba7",
                "srcKUID": "cb746efbd3424883b4822337971b7005",
                "wType": "Label"
            }
        },
        "lblAlertsWarning": {
            "__events__": {},
            "__info__": {
                "kuid": "e63b4a2bded7482abbf21b0be1272d0e",
                "srcKUID": "h827fec6499e45b7bccd95da65333d2d",
                "wType": "Label"
            }
        },
        "lblAlertsWarningImage": {
            "__events__": {},
            "__info__": {
                "kuid": "f4a7a707538c4cceb903e5edd12f994e",
                "srcKUID": "e132534c5c1a44798b2a8d6d5d9d15e6",
                "wType": "Label"
            }
        },
        "lblNoAlertsWarning": {
            "__events__": {},
            "__info__": {
                "kuid": "d236033b4f034ddeaa60b86471ca58af",
                "srcKUID": "hc420dc7e7b44f7aa034db873119cd23",
                "wType": "Label"
            }
        },
        "segAlerts": {
            "__events__": {},
            "__info__": {
                "kuid": "cfebb9dfed7745be9684ed7fc5cb9295",
                "srcKUID": "fa6ce8066aa04e34858b32dfdfdffae6",
                "wType": "Segment"
            }
        }
    },
    "enablescrolling": true,
    "id": "accountAlerts",
    "info": null,
    "iscustomlayout": false,
    "isdatareferenced": false,
    "issegmentchild": false,
    "isvisible": true,
    "kuid": "a5368b8ba12f445f8a7f8cd315ef5763",
    "layouttype": 2,
    "masterType": 0,
    "name": "kony.ui.UserWidgetInstance",
    "parent": "flxAccountAlertsWrapper",
    "pf": "userwidgetmodel",
    "retaincontentalignment": false,
    "retainflexpositionproperties": false,
    "retainflowhorizontalalignment": false,
    "snapgridsize": 10,
    "snaptogrid": true,
    "sourceUserWidget": "aa2de45724b442fbb919ff5903ec5d4e",
    "wType": "UserWidgetInstance"
}