{
    "@class": "com.kony.gen.viz.model.component.KVizButton",
    "DNDConfig": null,
    "__parentReadjusting__": false,
    "_height_": {
        "type": "ref",
        "value": "preferred"
    },
    "_margin_": [
        6,
        6,
        6,
        6
    ],
    "_padding_": [
        0,
        0,
        0,
        0
    ],
    "_right_": {
        "type": "string",
        "value": "0px"
    },
    "_skin_": "se4cbdf6e51f48eda9966caa941c6a19",
    "_text_": "Edit",
    "_top_": {
        "type": "string",
        "value": "0dp"
    },
    "_width_": {
        "type": "ref",
        "value": "preferred"
    },
    "accessibilityconfig": {
        "a11yLabel": "Modify"
    },
    "canUpdateUI": true,
    "centery": {
        "type": "string",
        "value": "50%"
    },
    "containerweight": 100,
    "contentalignment": 5,
    "disabledSkins": {
        "focusSkin": "sf44d06ca8224832827ea7fdff757013"
    },
    "displaytext": true,
    "focusskin": null,
    "id": "btnEditCommAlerts",
    "info": null,
    "isvisible": true,
    "kuid": "aaf08895a375481a86b18a27c3a658ac",
    "name": "kony.ui.Button",
    "parent": "flxAlertCommunicationHeader",
    "pf": "userwidgetmodel",
    "texti18n": "i18n.billPay.Edit",
    "tooltip": "Modify",
    "wType": "Button",
    "zindex": 1
}