{
    "DNDConfig": null,
    "__parentReadjusting__": false,
    "_height_": {
        "type": "string",
        "value": "468dp"
    },
    "_left_": {
        "type": "string",
        "value": "0%"
    },
    "_margin_": [
        0,
        0,
        0,
        0
    ],
    "_orientation_": 6,
    "_padding_": [
        0,
        0,
        0,
        0
    ],
    "_percent_": true,
    "_skin_": "s68cde8c1c40436989962f3559a757ac",
    "_top_": {
        "type": "string",
        "value": "0dp"
    },
    "_width_": {
        "type": "string",
        "value": "100%"
    },
    "allboxes": [],
    "autogrowmode": 0,
    "canUpdateUI": true,
    "children": [
        "lblAnswerSecurityQuestionsAndAnswersSet",
        "flxErrorEditSecurityQuestions",
        "flxAnswerSecurityQuestionsQASet1",
        "flxAnswerSecurityQuestionsQASet2"
    ],
    "clipbounds": true,
    "containerweight": 100,
    "enablescrolling": true,
    "id": "flxAnswerSecurityQuestionSet",
    "info": null,
    "isvisible": true,
    "kuid": "ca7ce3e3cafa4170899b25aa862aba5b",
    "layouttype": 4,
    "name": "kony.ui.FlexContainer",
    "parent": "flxAnswerSecurityQuestionsContainer",
    "pf": "userwidgetmodel",
    "snapgridsize": 10,
    "snaptogrid": true,
    "wType": "FlexContainer",
    "widgetalignment": 1,
    "zindex": 1
}