{
    "DNDConfig": null,
    "__parentReadjusting__": false,
    "_height_": {
        "type": "string",
        "value": "13dp"
    },
    "_left_": {
        "type": "string",
        "value": "23.60%"
    },
    "_margin_": [
        0,
        0,
        0,
        0
    ],
    "_orientation_": 6,
    "_padding_": [
        0,
        0,
        0,
        0
    ],
    "_percent_": true,
    "_skin_": "scbd4cac3526468089bf3013adff0549",
    "_top_": {
        "type": "string",
        "value": "28dp"
    },
    "_width_": {
        "type": "string",
        "value": "13dp"
    },
    "allboxes": [],
    "autogrowmode": 0,
    "canUpdateUI": true,
    "children": [
        "imgAddRadioBtnUS"
    ],
    "clipbounds": true,
    "containerweight": 100,
    "enablescrolling": true,
    "id": "flxAddRadioBtnUS",
    "info": null,
    "isvisible": false,
    "kuid": "b2c2879497184d65b5aea19f61b7e72a",
    "layouttype": 2,
    "name": "kony.ui.FlexContainer",
    "parent": "flxAddPhoneNumber",
    "pf": "userwidgetmodel",
    "snapgridsize": 10,
    "snaptogrid": true,
    "wType": "FlexContainer",
    "widgetalignment": 1,
    "zindex": 1
}