{
    "DNDConfig": null,
    "__parentReadjusting__": false,
    "_height_": {
        "type": "string",
        "value": "150dp"
    },
    "_left_": {
        "type": "string",
        "value": "0dp"
    },
    "_margin_": [
        0,
        0,
        0,
        0
    ],
    "_orientation_": 6,
    "_padding_": [
        0,
        0,
        0,
        0
    ],
    "_percent_": true,
    "_skin_": "s24c92fc23b14f5484b693ee9b8a9b35",
    "_top_": {
        "type": "string",
        "value": "0dp"
    },
    "_width_": {
        "type": "string",
        "value": "100%"
    },
    "allboxes": [],
    "autogrowmode": 0,
    "canUpdateUI": true,
    "children": [
        "lblAddPhoneNumberType",
        "CopylblAddPhoneNumberType0e7fccf3aacf343",
        "lbxAddPhoneNumberType",
        "lblAddRadioUS",
        "lblAddRadioInternational",
        "lblAddPhoneNumber",
        "flxAddPhoneNumberCountryCode",
        "lblAddExtension",
        "tbxAddExtension",
        "flxAddRadioBtnInternational",
        "flxAddRadioBtnUS"
    ],
    "clipbounds": true,
    "containerweight": 100,
    "enablescrolling": true,
    "id": "flxAddPhoneNumber",
    "info": null,
    "isvisible": true,
    "kuid": "c4e5e2361e9447ccaaf71d26ec020c3b",
    "layouttype": 2,
    "name": "kony.ui.FlexContainer",
    "parent": "flxAddPhoneNumberContent",
    "pf": "userwidgetmodel",
    "snapgridsize": 10,
    "snaptogrid": true,
    "wType": "FlexContainer",
    "widgetalignment": 1,
    "zindex": 1
}