{
    "DNDConfig": null,
    "__parentReadjusting__": false,
    "_height_": {
        "type": "string",
        "value": "46dp"
    },
    "_left_": {
        "type": "string",
        "value": "20.71%"
    },
    "_margin_": [
        0,
        0,
        0,
        0
    ],
    "_orientation_": 6,
    "_padding_": [
        0,
        0,
        0,
        0
    ],
    "_percent_": true,
    "_skin_": "s68cde8c1c40436989962f3559a757ac",
    "_top_": {
        "type": "string",
        "value": "101dp"
    },
    "_width_": {
        "type": "string",
        "value": "29.30%"
    },
    "allboxes": [],
    "autogrowmode": 0,
    "canUpdateUI": true,
    "children": [
        "imgViewOTP",
        "tbxEnterOTP"
    ],
    "clipbounds": true,
    "containerweight": 100,
    "enablescrolling": true,
    "id": "flxOTPtextbox",
    "info": null,
    "isvisible": true,
    "kuid": "bdf804c6780646999336f5166190c718",
    "layouttype": 2,
    "name": "kony.ui.FlexContainer",
    "parent": "flxSecuritySettingVerificationBody",
    "pf": "userwidgetmodel",
    "snapgridsize": 10,
    "snaptogrid": true,
    "wType": "FlexContainer",
    "widgetalignment": 1,
    "zindex": 2
}