{
    "@class": "com.kony.gen.viz.model.component.KVizImage2",
    "DNDConfig": null,
    "__parentReadjusting__": false,
    "_base64_": null,
    "_height_": {
        "type": "string",
        "value": "30dp"
    },
    "_margin_": [
        0,
        0,
        0,
        0
    ],
    "_padding_": [
        0,
        0,
        0,
        0
    ],
    "_right_": {
        "type": "string",
        "value": "2.41%"
    },
    "_skin_": "s8ee487de5774c1eb668e74bf92f5cdd",
    "_src_": "download_blue.png",
    "_top_": {
        "type": "string",
        "value": "15dp"
    },
    "_width_": {
        "type": "string",
        "value": "30dp"
    },
    "accessibilityconfig": {
        "a11yLabel": "Download",
        "a11yValue": ""
    },
    "canUpdateUI": true,
    "centery": {
        "type": "string",
        "value": "50%"
    },
    "containerweight": 100,
    "context": {
        "channel": "desktop",
        "formID": "uwu886471e9ec64dfabf9345f176339ccd",
        "platform": "desktopweb",
        "templateType": "userwidgets",
        "topLevelBox": null
    },
    "id": "imgDownload",
    "imagescalemode": 1,
    "imagewhiledownloading": "img_transparent.png",
    "info": null,
    "invokedProperty": "src",
    "isvisible": true,
    "kuid": "f0aec64e27ee4f66ad1a9ab54b9086d6",
    "name": "kony.ui.Image2",
    "parent": "flxPDF",
    "pf": "userwidgetmodel",
    "srcType": 1,
    "tooltip": "Download",
    "wType": "Image",
    "widgetalignment": 5,
    "zindex": 1
}