{
    "@class": "com.kony.gen.viz.model.component.KVizLabel",
    "DNDConfig": null,
    "__parentReadjusting__": false,
    "_height_": {
        "type": "ref",
        "value": "preferred"
    },
    "_left_": {
        "type": "string",
        "value": "5.58%"
    },
    "_margin_": [
        1,
        1,
        1,
        1
    ],
    "_padding_": [
        0,
        0,
        0,
        0
    ],
    "_skin_": "seb042f60a6445619a292de4c7cc1b30",
    "_text_": "VIEW PHONE SETTING",
    "_top_": {
        "type": "string",
        "value": "22dp"
    },
    "_width_": {
        "type": "ref",
        "value": "preferred"
    },
    "_wrapping_": 2,
    "accessibilityconfig": {
        "a11yLabel": "View Phone Settings"
    },
    "android": {
        "textStyle": {
            "letterSpacing": 0,
            "strikeThrough": false
        }
    },
    "canUpdateUI": true,
    "containerweight": 100,
    "contentalignment": 4,
    "desktopweb": {
        "psp": {
            "hoverSkin": "sb0b08db6e3a4193918761d40ba1d32a"
        }
    },
    "id": "lblViewPhoneSettings",
    "info": null,
    "ipad": {
        "psp": {
            "wrapping": 2
        }
    },
    "iphone": {
        "psp": {
            "wrapping": 2
        }
    },
    "isvisible": true,
    "kuid": "f29d5106da1a48ce87d6ff389c370030",
    "name": "kony.ui.Label",
    "parent": "flxSecureAccessCodePhoneSettings",
    "pf": "userwidgetmodel",
    "texti18n": "i18n.ProfileManagement.ViewPhoneSetting",
    "tooltip": "View Phone Settings",
    "wType": "Label",
    "zindex": 1
}