{
    "@class": "com.kony.gen.viz.model.component.KVizLabel",
    "DNDConfig": null,
    "__parentReadjusting__": false,
    "_height_": {
        "type": "ref",
        "value": "preferred"
    },
    "_left_": {
        "type": "string",
        "value": "0%"
    },
    "_margin_": [
        1,
        1,
        1,
        1
    ],
    "_padding_": [
        0,
        0,
        0,
        0
    ],
    "_skin_": "s0b241293fbc4b8e99db4fd5e9405f9d",
    "_text_": "SECURITY SETTING VERIFICATION",
    "_width_": {
        "type": "ref",
        "value": "preferred"
    },
    "_wrapping_": 2,
    "accessibilityconfig": {
        "a11yLabel": "Security Settings Verification"
    },
    "android": {
        "textStyle": {
            "letterSpacing": 0,
            "strikeThrough": false
        }
    },
    "canUpdateUI": true,
    "centery": {
        "type": "string",
        "value": "50%"
    },
    "containerweight": 100,
    "contentalignment": 4,
    "id": "lbSecuritySettingVerification",
    "info": null,
    "ipad": {
        "psp": {
            "wrapping": 2
        }
    },
    "iphone": {
        "psp": {
            "wrapping": 2
        }
    },
    "isvisible": true,
    "kuid": "f81b447304ec4930b1b5504a1ef8fabf",
    "name": "kony.ui.Label",
    "parent": "flxSecuritySettingVerificationHeader",
    "pf": "userwidgetmodel",
    "texti18n": "i18n.ProfileManagement.SecuritySettingVerification",
    "tooltip": "",
    "wType": "Label",
    "zindex": 1
}