{
    "@class": "com.kony.gen.viz.model.component.KVizListBox",
    "DNDConfig": null,
    "__parentReadjusting__": false,
    "_height_": {
        "type": "string",
        "value": "40dp"
    },
    "_left_": {
        "type": "string",
        "value": "15.78%"
    },
    "_margin_": [
        0,
        0,
        0,
        0
    ],
    "_padding_": [
        3,
        0,
        0,
        0
    ],
    "_skin_": "s9fc3471589f4e979cf1995adcec57b6",
    "_top_": {
        "type": "string",
        "value": "17dp"
    },
    "_width_": {
        "type": "string",
        "value": "67.60%"
    },
    "canUpdateUI": true,
    "containerweight": 100,
    "contentalignment": 4,
    "context": {
        "channel": "desktop",
        "formID": "uwu886471e9ec64dfabf9345f176339ccd",
        "platform": "desktopweb",
        "templateType": "userwidgets",
        "topLevelBox": null
    },
    "groupcells": false,
    "id": "lbxQuestion3",
    "info": null,
    "isvisible": true,
    "kuid": "f19daf99e9414c8a8079056f68c373f2",
    "masterdata": [
        [
            "lb1",
            "In which city were you born?"
        ],
        [
            "lb2",
            "Who is your favourite hollywood actor?"
        ],
        [
            "lb3",
            "What is your favourite holiday destination?"
        ],
        [
            "Key906",
            "Who is your favourite sports man?"
        ],
        [
            "Key830",
            "What is your favourite dish?"
        ]
    ],
    "name": "kony.ui.ListBox",
    "parent": "flxSecurityQASet3",
    "pf": "userwidgetmodel",
    "selectedkey": "lb3",
    "selectedkeys": null,
    "selectedkeyvalue": [
        "lb3",
        "What is your favourite holiday destination?"
    ],
    "selectedkeyvalues": null,
    "size": 18,
    "viewconfig": {
        "toggleViewConfig": {
            "viewStyle": 0
        }
    },
    "viewtype": 0,
    "wType": "ListBox",
    "zindex": 1,
    "focusskin": "s9eb08f78097439eb767801e8fdeb5cd"
}