{
    "@class": "com.kony.gen.viz.model.component.KVizRichText",
    "DNDConfig": null,
    "__parentReadjusting__": false,
    "_bottom_": {
        "type": "string",
        "value": "20px"
    },
    "_height_": {
        "type": "ref",
        "value": "preferred"
    },
    "_left_": {
        "type": "string",
        "value": "50dp"
    },
    "_margin_": [
        0,
        0,
        0,
        0
    ],
    "_padding_": [
        0,
        0,
        0,
        0
    ],
    "_right_": {
        "type": "string",
        "value": "5%"
    },
    "_skin_": "s8a8ec75ad3645388a4ce250f3b9d2c8",
    "_text_": "You have selected the following contact details for alert communication.\n",
    "_top_": {
        "type": "string",
        "value": "20px"
    },
    "_width_": {
        "type": "string",
        "value": "93%"
    },
    "_wrapping_": 2,
    "accessibilityconfig": {
        "a11yLabel": "Alerts is enabled. you will receive Alerts for Balance & spending related activities. You can select the Alerts & the channel."
    },
    "canUpdateUI": true,
    "containerweight": 100,
    "contentalignment": 4,
    "id": "rtxAlertsCommWarning",
    "info": null,
    "isvisible": true,
    "kuid": "ddf811acd34a47c2a33f5e76f2d792cb",
    "name": "kony.ui.RichText",
    "parent": "flxAlertsCommWarningWrapper",
    "pf": "userwidgetmodel",
    "wType": "RichText",
    "widgetalignment": 5,
    "zindex": 1
}