{
    "@class": "com.kony.gen.viz.model.container.KVizSegment2",
    "DNDConfig": null,
    "__parentReadjusting__": false,
    "_data_": [],
    "_height_": {
        "type": "ref",
        "value": "preferred"
    },
    "_indicator_": "none",
    "_left_": {
        "type": "string",
        "value": "0%"
    },
    "_margin_": [
        0,
        0,
        0,
        0
    ],
    "_orientation_": 2,
    "_padding_": [
        0,
        0,
        0,
        0
    ],
    "_top_": {
        "type": "string",
        "value": "20dp"
    },
    "_width_": {
        "type": "string",
        "value": "100%"
    },
    "autogrowmode": 1,
    "canUpdateUI": true,
    "containerweight": 100,
    "counter": "01",
    "desktop": {
        "_data_": [],
        "rowTemplateId": "b7b49663a590477097ec0ee49abb866b",
        "rowtemplate": "flxAccountRow",
        "sectionHeaderTemplateId": "jbf310bb4c8242bdbb8f24c90b9124e6",
        "sectionheadertemplate": "flxAccountPreferencesHeader",
        "widgetdatamap": {
            "btn": "btn",
            "btnEdit": "btnEdit",
            "flxAccountHolder": "flxAccountHolder",
            "flxAccountHolderKey": "flxAccountHolderKey",
            "flxAccountHolderValue": "flxAccountHolderValue",
            "flxAccountListItemWrapper": "flxAccountListItemWrapper",
            "flxAccountName": "flxAccountName",
            "flxAccountNumber": "flxAccountNumber",
            "flxAccountNumberKey": "flxAccountNumberKey",
            "flxAccountNumberValue": "flxAccountNumberValue",
            "flxAccountPreferencesHeader": "flxAccountPreferencesHeader",
            "flxAccountRow": "flxAccountRow",
            "flxAccountType": "flxAccountType",
            "flxAccountTypeKey": "flxAccountTypeKey",
            "flxAccountTypeValue": "flxAccountTypeValue",
            "flxContent": "flxContent",
            "flxEStatement": "flxEStatement",
            "flxEStatementCheckBox": "flxEStatementCheckBox",
            "flxFavoriteCheckBox": "flxFavoriteCheckBox",
            "flxIdentifier": "flxIdentifier",
            "flxLeft": "flxLeft",
            "flxMarkAsFavorite": "flxMarkAsFavorite",
            "flxMenu": "flxMenu",
            "flxMenudup": "flxMenudup",
            "flxMoveDown": "flxMoveDown",
            "flxMoveDowndup": "flxMoveDowndup",
            "flxMoveUp": "flxMoveUp",
            "flxMoveUpdup": "flxMoveUpdup",
            "flxRight": "flxRight",
            "imgEStatementCheckBox": "imgEStatementCheckBox",
            "imgFavoriteCheckBox": "imgFavoriteCheckBox",
            "imgMoveDown": "imgMoveDown",
            "imgMoveDowndup": "imgMoveDowndup",
            "imgMoveUp": "imgMoveUp",
            "imgMoveUpdup": "imgMoveUpdup",
            "lblAccountHolderColon": "lblAccountHolderColon",
            "lblAccountHolderKey": "lblAccountHolderKey",
            "lblAccountHolderValue": "lblAccountHolderValue",
            "lblAccountName": "lblAccountName",
            "lblAccountNumberColon": "lblAccountNumberColon",
            "lblAccountNumberKey": "lblAccountNumberKey",
            "lblAccountNumberValue": "lblAccountNumberValue",
            "lblAccountPreferencesHeader": "lblAccountPreferencesHeader",
            "lblAccountTypeColon": "lblAccountTypeColon",
            "lblAccountTypeKey": "lblAccountTypeKey",
            "lblAccountTypeValue": "lblAccountTypeValue",
            "lblEStatement": "lblEStatement",
            "lblEstatementCheckBoxIcon": "lblEstatementCheckBoxIcon",
            "lblMarkAsFavorite": "lblMarkAsFavorite",
            "lblMarkAsFavouriteAccountCheckBoxIcon": "lblMarkAsFavouriteAccountCheckBoxIcon",
            "lblMove": "lblMove",
            "lblMoveDownIcon": "lblMoveDownIcon",
            "lblMoveDownIcondup": "lblMoveDownIcondup",
            "lblMoveUpIcon": "lblMoveUpIcon",
            "lblMoveUpIcondup": "lblMoveUpIcondup",
            "lblMovedup": "lblMovedup",
            "lblSepeartorlast": "lblSepeartorlast",
            "lblSeperator": "lblSeperator",
            "lblSeperator2": "lblSeperator2",
            "lblsepeartorfirst": "lblsepeartorfirst",
            "lblseperator3": "lblseperator3"
        }
    },
    "focusedindex": null,
    "focuseditem": null,
    "groupcells": false,
    "hasSections": true,
    "id": "segCreditAccounts",
    "info": null,
    "ipad": {
        "psp": {
            "indicator": "rowselect"
        }
    },
    "iphone": {
        "psp": {
            "indicator": "rowselect"
        }
    },
    "isvisible": true,
    "kuid": "a6325b53a7734324a81f659f508aef5c",
    "masterdata": {},
    "name": "kony.ui.SegmentedUI2",
    "needpageindicator": true,
    "pageoffdotimage": "pageoffdot.png",
    "pageondotimage": "pageondot.png",
    "paginationconfig": {
        "position": "bottom"
    },
    "parent": "flxCreditAccounts",
    "pf": "userwidgetmodel",
    "retainselection": false,
    "rowcounter": 1,
    "rowfocusskin": "s9f69e977910472eb44c62ae28c41fe1",
    "rowskin": "scf5f90f6ac04976ab88b2a4f7153285",
    "rowtemplate": "flxAccountRow",
    "screenlevelwidget": false,
    "seccounter": 0,
    "sectionheaderskin": "sdc4ff4ed1584272be2ae69045dfb29d",
    "selectedRows": null,
    "selectedState": false,
    "selectedindex": null,
    "selectedindices": null,
    "selecteditems": null,
    "selectedsectionindex": 0,
    "selectionbehavior": "default",
    "separatorrequired": false,
    "showscrollbars": false,
    "viewtype": "tableview",
    "vizProps": {},
    "wType": "Segment",
    "widgetalignment": 5,
    "widgetdatamap": {
        "btn": "btn",
        "btnEdit": "btnEdit",
        "flxAccountHolder": "flxAccountHolder",
        "flxAccountHolderKey": "flxAccountHolderKey",
        "flxAccountHolderValue": "flxAccountHolderValue",
        "flxAccountListItemWrapper": "flxAccountListItemWrapper",
        "flxAccountName": "flxAccountName",
        "flxAccountNumber": "flxAccountNumber",
        "flxAccountNumberKey": "flxAccountNumberKey",
        "flxAccountNumberValue": "flxAccountNumberValue",
        "flxAccountPreferencesHeader": "flxAccountPreferencesHeader",
        "flxAccountRow": "flxAccountRow",
        "flxAccountType": "flxAccountType",
        "flxAccountTypeKey": "flxAccountTypeKey",
        "flxAccountTypeValue": "flxAccountTypeValue",
        "flxContent": "flxContent",
        "flxEStatement": "flxEStatement",
        "flxEStatementCheckBox": "flxEStatementCheckBox",
        "flxFavoriteCheckBox": "flxFavoriteCheckBox",
        "flxIdentifier": "flxIdentifier",
        "flxLeft": "flxLeft",
        "flxMarkAsFavorite": "flxMarkAsFavorite",
        "flxMenu": "flxMenu",
        "flxMenudup": "flxMenudup",
        "flxMoveDown": "flxMoveDown",
        "flxMoveDowndup": "flxMoveDowndup",
        "flxMoveUp": "flxMoveUp",
        "flxMoveUpdup": "flxMoveUpdup",
        "flxRight": "flxRight",
        "imgEStatementCheckBox": "imgEStatementCheckBox",
        "imgFavoriteCheckBox": "imgFavoriteCheckBox",
        "imgMoveDown": "imgMoveDown",
        "imgMoveDowndup": "imgMoveDowndup",
        "imgMoveUp": "imgMoveUp",
        "imgMoveUpdup": "imgMoveUpdup",
        "lblAccountHolderColon": "lblAccountHolderColon",
        "lblAccountHolderKey": "lblAccountHolderKey",
        "lblAccountHolderValue": "lblAccountHolderValue",
        "lblAccountName": "lblAccountName",
        "lblAccountNumberColon": "lblAccountNumberColon",
        "lblAccountNumberKey": "lblAccountNumberKey",
        "lblAccountNumberValue": "lblAccountNumberValue",
        "lblAccountPreferencesHeader": "lblAccountPreferencesHeader",
        "lblAccountTypeColon": "lblAccountTypeColon",
        "lblAccountTypeKey": "lblAccountTypeKey",
        "lblAccountTypeValue": "lblAccountTypeValue",
        "lblEStatement": "lblEStatement",
        "lblEstatementCheckBoxIcon": "lblEstatementCheckBoxIcon",
        "lblMarkAsFavorite": "lblMarkAsFavorite",
        "lblMarkAsFavouriteAccountCheckBoxIcon": "lblMarkAsFavouriteAccountCheckBoxIcon",
        "lblMove": "lblMove",
        "lblMoveDownIcon": "lblMoveDownIcon",
        "lblMoveDownIcondup": "lblMoveDownIcondup",
        "lblMoveUpIcon": "lblMoveUpIcon",
        "lblMoveUpIcondup": "lblMoveUpIcondup",
        "lblMovedup": "lblMovedup",
        "lblSepeartorlast": "lblSepeartorlast",
        "lblSeperator": "lblSeperator",
        "lblSeperator2": "lblSeperator2",
        "lblsepeartorfirst": "lblsepeartorfirst",
        "lblseperator3": "lblseperator3"
    },
    "zindex": 1
}