{
  "@class": "com.kony.gen.viz.model.component.KVizUserWidget",
  "DNDConfig": null,
  "__parentReadjusting__": false,
  "_children_": [],
  "_height_": {
    "type": "ref",
    "value": "preferred"
  },
  "_left_": {
    "type": "string",
    "value": "0dp"
  },
  "_margin_": [
    0,
    0,
    0,
    0
  ],
  "_orientation_": 1,
  "_padding_": [
    0,
    0,
    0,
    0
  ],
  "_percent_": true,
  "_render_": true,
  "_skin_": "s24c92fc23b14f5484b693ee9b8a9b35",
  "_top_": {
    "type": "string",
    "value": "30dp"
  },
  "_width_": {
    "type": "string",
    "value": "100%"
  },
  "areflexpropsreferenced": false,
  "autogrowmode": 1,
  "canUpdateUI": true,
  "clipbounds": true,
  "containerweight": 0,
  "dataDiffs": {
    "flxContainer": {
      "__events__": {},
      "__info__": {
        "kuid": "d62e8bcd90d6424cb416e9cae13213b9",
        "srcKUID": "f13dc08cac9b42cf84a6cd0eb46e5de8",
        "wType": "FlexContainer"
      }
    },
    "flxInfo": {
      "__events__": {},
      "__info__": {
        "kuid": "ae76bb317f914fbd8892e888dcf890a0",
        "srcKUID": "e95f6b8ffb5f415db6652af917c31c62",
        "wType": "FlexContainer"
      }
    },
    "flxKey": {
      "__events__": {},
      "__info__": {
        "kuid": "d9683bd46fab45fa8f75f920b65133f3",
        "srcKUID": "d4492c719df94445a861e97f34dc4949",
        "wType": "FlexContainer"
      }
    },
    "flxValue": {
      "__events__": {},
      "__info__": {
        "kuid": "jba60477ef8e4d1f8381865bdca7138f",
        "srcKUID": "b141325e5e9048519b71af002cfee26a",
        "wType": "FlexContainer"
      }
    },
    "imgWhatIsSSN": {
      "__events__": {},
      "__info__": {
        "kuid": "b3abb15e8a234ee79bcf345e5d63528d",
        "srcKUID": "f54ec2da1e9d451d9345687646b48cc3",
        "wType": "Image"
      }
    },
    "keyValue": {
      "__events__": {},
      "__info__": {
        "isRoot": true,
        "kuid": "b8bbcf7d531945dcb20f9dd65f867244",
        "srcKUID": "cc43b83fad51498eaee44e391076b1e1",
        "wType": "FlexContainer"
      },
      "autogrowMode": 1,
      "height": {
        "Default": {
          "type": "ref",
          "value": "preferred"
        }
      },
      "left": {
        "Default": {
          "type": "string",
          "value": "0dp"
        }
      },
      "top": {
        "Default": {
          "type": "string",
          "value": "30dp"
        }
      },
      "zIndex": {
        "Default": 5
      }
    },
    "lblColon": {
      "__events__": {},
      "__info__": {
        "kuid": "df5e94d112b3438ebdb06511cdbdee99",
        "srcKUID": "c1b15d6a704e4365be1c4ff0a75c3f55",
        "wType": "Label"
      }
    },
    "lblKey": {
      "__events__": {},
      "__info__": {
        "kuid": "be177026f995496bb8364e59c77966f3",
        "srcKUID": "daa1384a75084c57b8a708d751b05837",
        "wType": "Label"
      },
      "i18n_text": "i18n.common.accountNumber"
    },
    "lblValue": {
      "__events__": {},
      "__info__": {
        "kuid": "cbabed6cdde34c7b9fc687dc7eeba7d0",
        "srcKUID": "had7006a19c947e7ae413b191f0cc841",
        "wType": "Label"
      },
      "text": "2345 3456 5678 6789"
    }
  },
  "id": "keyValueAccountNumber",
  "info": null,
  "isdatareferenced": false,
  "isvisible": true,
  "kuid": "22ed949384d444f9a88a5cbfffd216ad",
  "layouttype": 2,
  "masterType": 0,
  "name": "kony.ui.UserWidgetInstance",
  "parent": "flxMain",
  "pf": "userwidgetmodel",
  "snaptogrid": true,
  "sourceUserWidget": "cc43b83fad51498eaee44e391076b1e1",
  "wType": "UserWidgetInstance",
  "zindex": 5
}
