{
    "@class": "com.kony.gen.viz.model.component.KVizButton",
    "DNDConfig": null,
    "__parentReadjusting__": false,
    "_bottom_": {
        "type": "number",
        "value": "30"
    },
    "_height_": {
        "type": "string",
        "value": "50dp"
    },
    "_left_": {
        "type": "string",
        "value": "67%"
    },
    "_margin_": [
        6,
        6,
        6,
        6
    ],
    "_padding_": [
        0,
        0,
        0,
        0
    ],
    "_skin_": "sfbbba35ede4457b94eb681b72349b98",
    "_text_": "YES",
    "_width_": {
        "type": "string",
        "value": "29.74%"
    },
    "accessibilityconfig": {
        "a11yLabel": "Save"
    },
    "canUpdateUI": true,
    "centery": {
        "type": "string",
        "value": "50%"
    },
    "containerweight": 100,
    "contentalignment": 5,
    "desktopweb": {
        "psp": {
            "hoverSkin": "s81054b5e2b74f17a5261991df565427"
        }
    },
    "disabledSkins": {
        "focusSkin": "sf44d06ca8224832827ea7fdff757013"
    },
    "displaytext": true,
    "id": "btnSave",
    "info": null,
    "isvisible": true,
    "kuid": "bf2bfef516f94433b6e4ef77157f9b39",
    "name": "kony.ui.Button",
    "parent": "flxContentsButtons",
    "pf": "frmBBAccountsLanding",
    "responsiveData": {
        "b1": {
            "height": {
                "type": "string",
                "value": "40px"
            }
        },
        "b2": {
            "height": {
                "type": "string",
                "value": "40px"
            }
        },
        "b3": {
            "height": {
                "type": "string",
                "value": "40px"
            }
        },
        "b4": {
            "height": {
                "type": "string",
                "value": "40px"
            }
        }
    },
    "texti18n": "i18n.ProfileManagement.Save",
    "tooltip": "Save",
    "wType": "Button",
    "zindex": 1
}