{
    "@class": "com.kony.gen.viz.model.component.KVizUserWidget",
    "DNDConfig": null,
    "__parentReadjusting__": false,
    "_children_": [],
    "_height_": {
        "type": "string",
        "value": "150dp"
    },
    "_left_": {
        "type": "string",
        "value": "0dp"
    },
    "_margin_": [
        0,
        0,
        0,
        0
    ],
    "_orientation_": 1,
    "_padding_": [
        0,
        0,
        0,
        0
    ],
    "_percent_": true,
    "_render_": true,
    "_responsiveData_": {
        "b1": {
            "width": {
                "type": "string",
                "value": "100%"
            }
        },
        "b2": {
            "width": {
                "type": "string",
                "value": "100%"
            }
        },
        "b3": {
            "width": {
                "type": "string",
                "value": "100%"
            }
        }
    },
    "_skin_": "s24c92fc23b14f5484b693ee9b8a9b35",
    "_top_": {
        "type": "string",
        "value": "0dp"
    },
    "_width_": {
        "type": "string",
        "value": "1366dp"
    },
    "android": {},
    "androidwearos": {},
    "areflexpropsreferenced": false,
    "canUpdateUI": true,
    "centerx": {
        "type": "string",
        "value": "50%"
    },
    "clipbounds": true,
    "containerweight": 0,
    "dataDiffs": {
        "btnContactUs": {
            "__events__": {},
            "__info__": {
                "kuid": "e4d7952543ca4757af063c89b0198078",
                "srcKUID": "c47b0c9af1b84e63aa01af59eb52124a",
                "wType": "Button"
            },
            "i18n_text": "i18n.footer.contactUs",
            "left": {},
            "responsiveData": {
                "b3": {
                    "left": {
                        "type": "string",
                        "value": "20dp"
                    }
                }
            },
            "text": "Contact Us"
        },
        "btnFaqs": {
            "__events__": {},
            "__info__": {
                "kuid": "d4da263c359842369ff6a9bdb1b02d1e",
                "srcKUID": "ced702d00bc5426892e4632faec9df5d",
                "wType": "Button"
            },
            "responsiveData": {
                "b3": {
                    "isVisible": false
                }
            }
        },
        "btnLocateUs": {
            "__events__": {},
            "__info__": {
                "kuid": "ed9ffd9a6844451e90a6248ed7b8c0d7",
                "srcKUID": "i52587cdcb68471f9e389671ddc5f138",
                "wType": "Button"
            },
            "centerX": {},
            "i18n_text": "i18n.footer.locateUs",
            "left": {},
            "responsiveData": {
                "b2": {
                    "left": {
                        "type": "string",
                        "value": "0dp"
                    }
                },
                "b3": {
                    "centerX": {
                        "type": "string",
                        "value": ""
                    },
                    "left": {
                        "type": "string",
                        "value": "0%"
                    }
                }
            },
            "text": "Locate Us"
        },
        "btnPrivacy": {
            "__events__": {},
            "__info__": {
                "kuid": "i7f8742b9e394517afeb2de76a69eaf8",
                "srcKUID": "c3810888a2304c409e04db4cd519b8ee",
                "wType": "Button"
            },
            "responsiveData": {
                "b3": {
                    "isVisible": false
                }
            }
        },
        "btnTermsAndConditions": {
            "__events__": {},
            "__info__": {
                "kuid": "bd2afc6f82ee4387b906a6df31244489",
                "srcKUID": "baf7c8f817b34b618b7e1f148f49770a",
                "wType": "Button"
            },
            "responsiveData": {
                "b3": {
                    "isVisible": false
                }
            }
        },
        "customfooter": {
            "__events__": {},
            "__info__": {
                "isRoot": true,
                "kuid": "d78ae9974d954776a7d7169f3ab397b2",
                "srcKUID": "a142e816812a4b5b80f84484dcef7232",
                "wType": "FlexContainer"
            },
            "centerX": {
                "Default": {
                    "type": "string",
                    "value": "50%"
                }
            },
            "responsiveData": {
                "b1": {
                    "width": {
                        "type": "string",
                        "value": "100%"
                    }
                },
                "b2": {
                    "width": {
                        "type": "string",
                        "value": "100%"
                    }
                },
                "b3": {
                    "width": {
                        "type": "string",
                        "value": "100%"
                    }
                }
            },
            "width": {
                "Default": {
                    "type": "string",
                    "value": "1366dp"
                }
            },
            "zIndex": {
                "Default": 2
            }
        },
        "flxFooterMenu": {
            "__events__": {},
            "__info__": {
                "kuid": "f10e3b6c8a674edbb06c4c5a47d425e1",
                "srcKUID": "e6b5bc6faf00428680c4dedfe25a0b9a",
                "wType": "FlexContainer"
            },
            "centerX": {
                "Default": {
                    "type": "string",
                    "value": "50%"
                }
            },
            "left": {
                "Default": {
                    "type": "string",
                    "value": ""
                }
            },
            "responsiveData": {
                "b1": {
                    "centerX": {
                        "type": "string",
                        "value": ""
                    },
                    "left": {
                        "type": "string",
                        "value": "6%"
                    },
                    "width": {
                        "type": "string",
                        "value": "87%"
                    }
                },
                "b2": {
                    "centerX": {
                        "type": "string",
                        "value": ""
                    },
                    "left": {
                        "type": "string",
                        "value": "2.50%"
                    },
                    "width": {
                        "type": "string",
                        "value": "90%"
                    }
                },
                "b3": {
                    "width": {
                        "type": "string",
                        "value": "180dp"
                    }
                }
            },
            "width": {
                "Default": {
                    "type": "string",
                    "value": "1200dp"
                }
            }
        },
        "flxVBar1": {
            "__events__": {},
            "__info__": {
                "kuid": "ha37fd7592b547b1ae4bd0a1308bf903",
                "srcKUID": "f31fd58a22cc496a93899a924cf2927d",
                "wType": "FlexContainer"
            },
            "centerX": {},
            "left": {},
            "responsiveData": {
                "b3": {
                    "centerX": {
                        "type": "string",
                        "value": ""
                    },
                    "left": {
                        "type": "string",
                        "value": "20dp"
                    }
                }
            }
        },
        "flxVBar2": {
            "__events__": {},
            "__info__": {
                "kuid": "d03cb6cb98ad433ea473cd31cbbfcfd3",
                "srcKUID": "j39a662286e64bbc9be78a96bb491e27",
                "wType": "FlexContainer"
            },
            "responsiveData": {
                "b3": {
                    "isVisible": false
                }
            }
        },
        "flxVBar3": {
            "__events__": {},
            "__info__": {
                "kuid": "a7078a00c74f4c749381255b6f027cd9",
                "srcKUID": "a6990ffd77914b8e8757540cb40cad1a",
                "wType": "FlexContainer"
            },
            "responsiveData": {
                "b3": {
                    "isVisible": false
                }
            }
        },
        "flxVBar4": {
            "__events__": {},
            "__info__": {
                "kuid": "c509f930b50c4615a122946bd1aa22fb",
                "srcKUID": "e75f96d248634147afa5b6848252df6e",
                "wType": "FlexContainer"
            },
            "responsiveData": {
                "b3": {
                    "isVisible": false
                }
            }
        },
        "imgFooterIconOne": {
            "__events__": {},
            "__info__": {
                "kuid": "ge3bd08b9f0b4cdf837ca6056a4f2bbb",
                "srcKUID": "f2305e3d65bb448e9d68f5608421f28a",
                "wType": "Image"
            },
            "centerY": {},
            "responsiveData": {
                "b2": {
                    "centerY": {
                        "type": "string",
                        "value": "75%"
                    },
                    "isVisible": false,
                    "right": {
                        "type": "string",
                        "value": "10dp"
                    }
                },
                "b3": {
                    "isVisible": false
                }
            },
            "right": {}
        },
        "imgFooterIconThree": {
            "__events__": {},
            "__info__": {
                "kuid": "f51cf0e4e4cd4518990508d2c43b1b99",
                "srcKUID": "hc27193bc4d14f24b60f03ac3c2bddb7",
                "wType": "Image"
            },
            "centerY": {},
            "responsiveData": {
                "b2": {
                    "centerY": {
                        "type": "string",
                        "value": "40%"
                    },
                    "isVisible": false,
                    "right": {
                        "type": "string",
                        "value": "60dp"
                    }
                },
                "b3": {
                    "isVisible": false
                }
            },
            "right": {}
        },
        "imgFooterIconTwo": {
            "__events__": {},
            "__info__": {
                "kuid": "j34f354bd71e463085aa4426120ada17",
                "srcKUID": "cf67ed169e364ace9f62b5aa10dcf1d8",
                "wType": "Image"
            },
            "centerY": {},
            "responsiveData": {
                "b2": {
                    "centerY": {
                        "type": "string",
                        "value": "40%"
                    },
                    "isVisible": false,
                    "right": {
                        "type": "string",
                        "value": "10dp"
                    }
                },
                "b3": {
                    "isVisible": false
                }
            },
            "right": {}
        },
        "lblCopyright": {
            "__events__": {},
            "__info__": {
                "kuid": "e445f80010ed48959d97e15dc1dd6300",
                "srcKUID": "a696ff4e198a4124810242908deae798",
                "wType": "Label"
            },
            "centerX": {
                "Default": {
                    "type": "string",
                    "value": ""
                }
            },
            "left": {
                "Default": {
                    "type": "string",
                    "value": "6%"
                }
            },
            "responsiveData": {
                "b1": {},
                "b2": {
                    "left": {
                        "type": "string",
                        "value": "2.50%"
                    },
                    "width": {
                        "type": "string",
                        "value": "90%"
                    }
                },
                "b3": {}
            },
            "width": {
                "Default": {
                    "type": "ref",
                    "value": "preferred"
                }
            }
        }
    },
    "desktopweb": {
        "render": true
    },
    "id": "customfooter",
    "info": null,
    "ipad": {},
    "iphone": {},
    "isdatareferenced": false,
    "issegmentchild": false,
    "isvisible": true,
    "kiosk": {
        "render": true
    },
    "kuid": "d78ae9974d954776a7d7169f3ab397b2",
    "layouttype": 2,
    "masterType": 0,
    "name": "kony.ui.UserWidgetInstance",
    "parent": "flxFooter",
    "pf": "frmBBAccountsLanding",
    "responsiveData": {
        "b1": {
            "width": {
                "type": "string",
                "value": "100%"
            }
        },
        "b2": {
            "width": {
                "type": "string",
                "value": "100%"
            }
        },
        "b3": {
            "width": {
                "type": "string",
                "value": "100%"
            }
        }
    },
    "snaptogrid": true,
    "sourceUserWidget": "a142e816812a4b5b80f84484dcef7232",
    "spa": {},
    "spaan": {},
    "spaandroidtablet": {},
    "spabb": {},
    "spaip": {},
    "spaipad": {},
    "spamobile": {},
    "spatablet": {},
    "spawindowstablet": {},
    "spawinphone8": {},
    "tabrcandroid": {},
    "vizProps": {
        "hidewidgethierarchy": false
    },
    "vizprops": {
        "hidewidgethierarchy": false
    },
    "wType": "UserWidgetInstance",
    "windows10": {},
    "windows8": {},
    "winphone10": {},
    "winphone8": {},
    "zindex": 2
}