{
    "DNDConfig": null,
    "__parentReadjusting__": false,
    "_height_": {
        "type": "ref",
        "value": "preferred"
    },
    "_left_": {
        "type": "string",
        "value": "0%"
    },
    "_margin_": [
        0,
        0,
        0,
        0
    ],
    "_orientation_": 6,
    "_padding_": [
        0,
        0,
        0,
        0
    ],
    "_percent_": true,
    "_skin_": "sa8d52a315c34fd0b98ab4bce8f84f02",
    "_top_": {
        "type": "string",
        "value": "20dp"
    },
    "_width_": {
        "type": "string",
        "value": "88%"
    },
    "allboxes": [],
    "autogrowmode": 1,
    "canUpdateUI": true,
    "centerx": {
        "type": "string",
        "value": "50%"
    },
    "children": [
        "imgInfoIconWarning",
        "lblOutageWarning",
        "imgCloseOutageWarning"
    ],
    "clipbounds": true,
    "containerweight": 100,
    "enablescrolling": true,
    "id": "flxOutageWarning",
    "info": null,
    "isvisible": false,
    "kuid": "bc31d0527a2a497eae1149c402d9a8eb",
    "layouttype": 2,
    "name": "kony.ui.FlexContainer",
    "parent": "flxMain",
    "pf": "frmAccountsLandingNew",
    "responsiveData": {
        "b1": {
            "width": {
                "type": "string",
                "value": "87.50%"
            }
        },
        "b2": {
            "width": {
                "type": "string",
                "value": "95%"
            }
        },
        "b3": {
            "width": {
                "type": "string",
                "value": "95%"
            }
        },
        "b4": {
            "width": {
                "type": "string",
                "value": "87.50%"
            }
        }
    },
    "snapgridsize": 10,
    "snaptogrid": true,
    "wType": "FlexContainer",
    "widgetalignment": 1,
    "zindex": 1
}