{
    "@class": "com.kony.gen.viz.model.component.KVizUserWidget",
    "DNDConfig": null,
    "__parentReadjusting__": false,
    "_android_": {},
    "_androidwearos_": {},
    "_children_": [],
    "_desktopweb_": {
        "psp": {}
    },
    "_height_": {
        "type": "ref",
        "value": "preferred"
    },
    "_ipad_": {},
    "_iphone_": {},
    "_kiosk_": {},
    "_left_": {
        "type": "string",
        "value": "15dp"
    },
    "_margin_": [
        0,
        0,
        0,
        0
    ],
    "_orientation_": 1,
    "_padding_": [
        0,
        0,
        0,
        0
    ],
    "_percent_": true,
    "_render_": true,
    "_responsiveData_": {
        "b1": {
            "centerX": {
                "type": "string",
                "value": ""
            },
            "left": {
                "type": "string",
                "value": "35.80%"
            }
        },
        "b2": {
            "left": {
                "type": "string",
                "value": ""
            },
            "right": {
                "type": "string",
                "value": "24dp"
            },
            "width": {
                "type": "string",
                "value": "45.50%"
            }
        },
        "b3": {
            "isVisible": true,
            "left": {
                "type": "string",
                "value": "10dp"
            },
            "right": {
                "type": "string",
                "value": "10dp"
            },
            "top": {
                "type": "string",
                "value": "435dp"
            },
            "width": {
                "type": "string",
                "value": ""
            }
        }
    },
    "_skin_": "sdc143f0e5b64ae3a3f155f691c73fa7",
    "_spa_": {},
    "_spaan_": {},
    "_spaandroidtablet_": {},
    "_spabb_": {},
    "_spaip_": {},
    "_spaipad_": {},
    "_spamobile_": {},
    "_spatablet_": {},
    "_spawindowstablet_": {},
    "_spawinphone8_": {},
    "_tabrcandroid_": {},
    "_top_": {
        "type": "string",
        "value": "0dp"
    },
    "_vizProps_": {
        "hidewidgethierarchy": false
    },
    "_width_": {
        "type": "string",
        "value": "28.40%"
    },
    "_windows10_": {},
    "_windows8_": {},
    "_winphone10_": {},
    "_winphone8_": {},
    "android": {},
    "androidwearos": {},
    "areflexpropsreferenced": false,
    "autogrowmode": 1,
    "canUpdateUI": true,
    "centerx": {
        "type": "number",
        "value": ""
    },
    "clipbounds": false,
    "containerweight": 0,
    "dataDiffs": {
        "flxHeader": {
            "__events__": {},
            "__info__": {
                "kuid": "b547a8d0a8f84a49a0ea6596f9047b5f",
                "srcKUID": "id5c8cfa51ab49a9ae7d9858e1ad2bc3",
                "wType": "FlexContainer"
            }
        },
        "flxNoTransactionWrapper": {
            "__events__": {},
            "__info__": {
                "kuid": "fa52feb4636b4da9ba713b176e7cb911",
                "srcKUID": "hdbcdc44290145488c887b578500f5cf",
                "wType": "FlexContainer"
            }
        },
        "flxNoTransactions": {
            "__events__": {},
            "__info__": {
                "kuid": "a4eecb1b4563466bbadedd891a7b3218",
                "srcKUID": "e1431bf189a1416e9c0cc88954438fe1",
                "wType": "FlexContainer"
            }
        },
        "flxSeparator": {
            "__events__": {},
            "__info__": {
                "kuid": "b43c9e43cc6a4d8a820fd065e70c0814",
                "srcKUID": "cc9c1d8d69144d0ba244c60d19ad0711",
                "wType": "FlexContainer"
            },
            "responsiveData": {
                "b2": {
                    "isVisible": false
                },
                "b3": {
                    "isVisible": false
                }
            }
        },
        "flxSeparatorUpcomingTransactions": {
            "__events__": {},
            "__info__": {
                "kuid": "i6fd4a8d71b049849a97fd938a2b4b2f",
                "srcKUID": "bbd74616fcc2414c8914c96a74dc637f",
                "wType": "FlexContainer"
            }
        },
        "flxUpcomingTransactionWrapper": {
            "__events__": {},
            "__info__": {
                "kuid": "e65017698a6d4c2e89777bf4d765f50d",
                "srcKUID": "227b864f98304c429dd528cd3664d980",
                "wType": "FlexContainer"
            },
            "autogrowMode": {
                "Default": 0
            },
            "height": {
                "Default": {
                    "type": "string",
                    "value": "360dp"
                }
            },
            "maxHeight": {
                "Default": {
                    "type": "string",
                    "value": ""
                }
            }
        },
        "imgInfo": {
            "__events__": {},
            "__info__": {
                "kuid": "h8baa21c5ab04e398882b2c6b24894cb",
                "srcKUID": "e14c53d0bcc14e27994d1387ac7e987e",
                "wType": "Image"
            },
            "left": {
                "Default": {
                    "type": "string",
                    "value": "30dp"
                }
            },
            "responsiveData": {
                "b1": {
                    "top": {
                        "type": "string",
                        "value": "40dp"
                    }
                },
                "b2": {
                    "left": {
                        "type": "string",
                        "value": "20dp"
                    }
                },
                "b3": {
                    "left": {
                        "type": "string",
                        "value": "10dp"
                    }
                },
                "b4": {
                    "top": {
                        "type": "string",
                        "value": "40dp"
                    }
                }
            },
            "src": "info_large.png",
            "top": {}
        },
        "imgUpcomingTransactionsIcon": {
            "__events__": {},
            "__info__": {
                "kuid": "a4749196aaed4a298f77521383ee5192",
                "srcKUID": "ddd41384733d4aa69ff6503937c01400",
                "wType": "Label"
            }
        },
        "lblHeader": {
            "__events__": {},
            "__info__": {
                "kuid": "ib9d126a953b4e7bbc9518454dc591bd",
                "srcKUID": "bac6780777204ff5a8587294ead34536",
                "wType": "Label"
            },
            "i18n_text": "i18n.Accounts.upComingTransactions",
            "left": {},
            "responsiveData": {
                "b3": {
                    "left": {
                        "type": "string",
                        "value": "15dp"
                    }
                }
            }
        },
        "rtxNoPaymentMessage": {
            "__events__": {},
            "__info__": {
                "kuid": "e7a6c64865c14fa08052520a9b0d9581",
                "srcKUID": "dc0fd14c7c164f33892dcb87c132692f",
                "wType": "RichText"
            },
            "height": {
                "Default": {
                    "type": "ref",
                    "value": "preferred"
                }
            },
            "left": {
                "Default": {
                    "type": "string",
                    "value": "70dp"
                }
            },
            "responsiveData": {
                "b1": {
                    "left": {
                        "type": "string",
                        "value": "70dp"
                    },
                    "top": {
                        "type": "string",
                        "value": "38dp"
                    }
                },
                "b2": {
                    "left": {
                        "type": "string",
                        "value": "60dp"
                    },
                    "top": {
                        "type": "string",
                        "value": "37dp"
                    }
                },
                "b3": {
                    "left": {
                        "type": "string",
                        "value": "50dp"
                    },
                    "top": {
                        "type": "string",
                        "value": "37dp"
                    }
                },
                "b4": {
                    "left": {
                        "type": "string",
                        "value": "70dp"
                    },
                    "top": {
                        "type": "string",
                        "value": "37dp"
                    }
                }
            },
            "top": {
                "Default": {
                    "type": "string",
                    "value": "41dp"
                }
            },
            "width": {
                "Default": {
                    "type": "string",
                    "value": "75%"
                }
            }
        },
        "segMessages": {
            "__events__": {},
            "__info__": {
                "kuid": "h944d7b89af64a958734f45094700c31",
                "srcKUID": "e63f0b3b6c9a4e489cbf3f504463bb1a",
                "wType": "Segment"
            },
            "data": {
                "desktop": [
                    {
                        "imgWarning": {
                            "@class": "com.viz.ide.model.segment.ImageSegmentData",
                            "src": "imagedrag.png"
                        },
                        "lblAmount": {
                            "@class": "com.viz.ide.model.segment.SimpleTextSegmentData",
                            "text": ""
                        },
                        "lblDate": {
                            "@class": "com.viz.ide.model.segment.SimpleTextSegmentData",
                            "text": ""
                        },
                        "lblFormToNavigate": {
                            "@class": "com.viz.ide.model.segment.SimpleTextSegmentData",
                            "text": ""
                        },
                        "lblSeparator": {
                            "@class": "com.viz.ide.model.segment.SimpleTextSegmentData",
                            "text": ""
                        },
                        "lblTo": {
                            "@class": "com.viz.ide.model.segment.SimpleTextSegmentData",
                            "text": ""
                        },
                        "lblToValue": {
                            "@class": "com.viz.ide.model.segment.SimpleTextSegmentData",
                            "text": ""
                        }
                    }
                ]
            },
            "maxHeight": {
                "Default": {
                    "type": "string",
                    "value": "360dp"
                }
            },
            "top": {
                "Default": {
                    "type": "string",
                    "value": "0dp"
                }
            }
        },
        "upcomingTransactions": {
            "__events__": {},
            "__info__": {
                "isRoot": true,
                "kuid": "c85e666c566d4ac18dee667f5c2bd56c",
                "srcKUID": "bdc0cfd88660415bb58134579a033a3b",
                "wType": "FlexContainer"
            },
            "autogrowMode": 1,
            "centerX": {},
            "height": {
                "Default": {
                    "type": "ref",
                    "value": "preferred"
                }
            },
            "left": {
                "Default": {
                    "type": "string",
                    "value": "15dp"
                }
            },
            "maxHeight": {
                "Default": {
                    "type": "string",
                    "value": ""
                }
            },
            "responsiveData": {
                "b1": {
                    "centerX": {
                        "type": "string",
                        "value": "50%"
                    },
                    "left": {
                        "type": "string",
                        "value": ""
                    }
                },
                "b2": {
                    "left": {
                        "type": "string",
                        "value": ""
                    },
                    "right": {
                        "type": "string",
                        "value": "24dp"
                    },
                    "width": {
                        "type": "string",
                        "value": "46.70%"
                    }
                },
                "b3": {
                    "isVisible": true,
                    "left": {
                        "type": "string",
                        "value": "10dp"
                    },
                    "right": {
                        "type": "string",
                        "value": "10dp"
                    },
                    "top": {
                        "type": "string",
                        "value": "435dp"
                    },
                    "width": {
                        "type": "string",
                        "value": ""
                    }
                }
            },
            "right": {},
            "top": {
                "Default": {
                    "type": "string",
                    "value": "0dp"
                }
            },
            "width": {
                "Default": {
                    "type": "string",
                    "value": "28.40%"
                }
            }
        }
    },
    "desktopweb": {
        "psp": {}
    },
    "id": "upcomingTransactions",
    "info": null,
    "ipad": {},
    "iphone": {},
    "isdatareferenced": false,
    "isvisible": true,
    "kiosk": {},
    "kuid": "c85e666c566d4ac18dee667f5c2bd56c",
    "layouttype": 4,
    "masterType": 0,
    "maxheight": {
        "type": "string",
        "value": ""
    },
    "name": "kony.ui.UserWidgetInstance",
    "parent": "flxSecondaryDetailsRow",
    "pf": "frmAccountsLandingNew",
    "responsiveData": {
        "b1": {
            "centerX": {
                "type": "string",
                "value": "50%"
            },
            "left": {
                "type": "string",
                "value": ""
            }
        },
        "b2": {
            "left": {
                "type": "string",
                "value": ""
            },
            "right": {
                "type": "string",
                "value": "24dp"
            },
            "width": {
                "type": "string",
                "value": "46.70%"
            }
        },
        "b3": {
            "isVisible": true,
            "left": {
                "type": "string",
                "value": "10dp"
            },
            "right": {
                "type": "string",
                "value": "10dp"
            },
            "top": {
                "type": "string",
                "value": "435dp"
            },
            "width": {
                "type": "string",
                "value": ""
            }
        }
    },
    "snaptogrid": true,
    "sourceUserWidget": "bdc0cfd88660415bb58134579a033a3b",
    "spa": {},
    "spaan": {},
    "spaandroidtablet": {},
    "spabb": {},
    "spaip": {},
    "spaipad": {},
    "spamobile": {},
    "spatablet": {},
    "spawindowstablet": {},
    "spawinphone8": {},
    "tabrcandroid": {},
    "vizProps": {
        "hidewidgethierarchy": false
    },
    "vizprops": {
        "hidewidgethierarchy": false
    },
    "wType": "UserWidgetInstance",
    "windows10": {},
    "windows8": {},
    "winphone10": {},
    "winphone8": {}
}