{
    "DNDConfig": null,
    "_height_": {
        "type": "string",
        "value": "90px"
    },
    "_left_": {
        "type": "string",
        "value": "20px"
    },
    "_margin_": [
        0,
        0,
        0,
        0
    ],
    "_orientation_": 6,
    "_padding_": [
        0,
        0,
        0,
        0
    ],
    "_percent_": true,
    "_skin_": "s24c92fc23b14f5484b693ee9b8a9b35",
    "_top_": {
        "type": "string",
        "value": "18px"
    },
    "_width_": {
        "type": "ref",
        "value": "preferred"
    },
    "allboxes": [],
    "canUpdateUI": true,
    "children": [
        "lblTotalBalance",
        "lblTotalBalanceValue"
    ],
    "clipbounds": true,
    "containerweight": 100,
    "enablescrolling": true,
    "id": "flxTotalBalance",
    "info": null,
    "iscustomlayout": false,
    "isvisible": true,
    "kuid": "e5ac96151c9f4d96b82acd17aa1d7526",
    "layouttype": 4,
    "minwidth": {
        "type": "string",
        "value": "123dp"
    },
    "name": "kony.ui.FlexContainer",
    "parent": "flxSavingsPotBalanceDetails",
    "pf": "frmSavingsPotLanding",
    "responsiveData": {
        "b2": {
            "left": {
                "type": "string",
                "value": "20px"
            }
        },
        "b3": {}
    },
    "retaincontentalignment": false,
    "retainflexpositionproperties": false,
    "retainflowhorizontalalignment": false,
    "snapgridsize": 10,
    "snaptogrid": true,
    "wType": "FlexContainer",
    "widgetalignment": 1,
    "zindex": 1
}