{
    "@class": "com.kony.gen.viz.model.component.KVizUserWidget",
    "DNDConfig": null,
    "_children_": [],
    "_height_": {
        "type": "ref",
        "value": "preferred"
    },
    "_left_": {
        "type": "string",
        "value": "0dp"
    },
    "_margin_": [
        0,
        0,
        0,
        0
    ],
    "_orientation_": 1,
    "_padding_": [
        0,
        0,
        0,
        0
    ],
    "_percent_": true,
    "_skin_": "s24c92fc23b14f5484b693ee9b8a9b35",
    "_top_": {
        "type": "string",
        "value": "0dp"
    },
    "_width_": {
        "type": "string",
        "value": "100%"
    },
    "areflexpropsreferenced": false,
    "autogrowmode": 1,
    "canUpdateUI": true,
    "clipbounds": false,
    "containerweight": 0,
    "dataDiffs": {
        "CopyLabel0a41b2cf2bc0345": {
            "__events__": {},
            "__info__": {
                "kuid": "e2d05bc347ae4c218ce011c2ff79fdde",
                "srcKUID": "e4848d7dc9094e27beebb833beda45c4",
                "wType": "Label"
            }
        },
        "CopyLabel0a5c3759ab7de4b": {
            "__events__": {},
            "__info__": {
                "kuid": "e6774e43ce73423db95b391023fab592",
                "srcKUID": "bb82938efb07459083cbf1730c8a548e",
                "wType": "Label"
            }
        },
        "CopyLabel0a8a9792d0b3841": {
            "__events__": {},
            "__info__": {
                "kuid": "hb25400d0ebf42649fa3daefd2941d50",
                "srcKUID": "h3d5cce2449342a1aea02111da8afda5",
                "wType": "Label"
            }
        },
        "CopyLabel0a8dbdb45b1c641": {
            "__events__": {},
            "__info__": {
                "kuid": "h95262f3d3264a2998292b12ffa14f85",
                "srcKUID": "ed6dffbc95c640a9bcfc9883f48fcf7d",
                "wType": "Label"
            }
        },
        "CopyLabel0ab7cc8835bc945": {
            "__events__": {},
            "__info__": {
                "kuid": "a957c92f2190407bae2f0f16d18d0b89",
                "srcKUID": "dc7f099127954044a929164a3f0f1328",
                "wType": "Label"
            }
        },
        "CopyLabel0abe0e6915db543": {
            "__events__": {},
            "__info__": {
                "kuid": "c63edefe0cc64d6fa3529046dff70ca6",
                "srcKUID": "i2da3ad0759d4579b7ed094537c2ce14",
                "wType": "Label"
            }
        },
        "CopyLabel0ad6a46260c2649": {
            "__events__": {},
            "__info__": {
                "kuid": "hd39af9efe364fd69d43e46dd9e556bc",
                "srcKUID": "fd7381e51df943b8bf676da3f4ab4f01",
                "wType": "Label"
            }
        },
        "CopyLabel0b5e40bb906bd48": {
            "__events__": {},
            "__info__": {
                "kuid": "ff983df62f3c44e2aadb4516f51b17c1",
                "srcKUID": "abf89a6ca7134ac8860f06c87d901e14",
                "wType": "Label"
            }
        },
        "CopyLabel0b6451f8fcdaf44": {
            "__events__": {},
            "__info__": {
                "kuid": "c010feabd0334a2f924867c64c1c3b02",
                "srcKUID": "df6ff29a00324ac0b12d7e0834524849",
                "wType": "Label"
            }
        },
        "CopyLabel0c2e173d2f2c444": {
            "__events__": {},
            "__info__": {
                "kuid": "e0c2c2599b9b4c02a2196c3de184a1df",
                "srcKUID": "j695d0c38a2442ce9e12799969e4b522",
                "wType": "Label"
            }
        },
        "CopyLabel0c4948e516e6240": {
            "__events__": {},
            "__info__": {
                "kuid": "h59874e92f8148ab86720863aa35fb47",
                "srcKUID": "a481777ad4c14c0a97f046ae526871e4",
                "wType": "Label"
            }
        },
        "CopyLabel0c581eb3866fe44": {
            "__events__": {},
            "__info__": {
                "kuid": "e2f22802b45242c69d8eda37d83fe541",
                "srcKUID": "g295a260d1db448db245ae190b49a420",
                "wType": "Label"
            }
        },
        "CopyLabel0cc86fd12a45241": {
            "__events__": {},
            "__info__": {
                "kuid": "f3af33755219497583c998f0836f7a82",
                "srcKUID": "c1931f88910049bc850e2fd487591c29",
                "wType": "Label"
            }
        },
        "CopyLabel0cdf6e3b3e7e140": {
            "__events__": {},
            "__info__": {
                "kuid": "d5884e96cb0d43b58359d21ab68dca89",
                "srcKUID": "h1db7af359244b3589f6e312a310abda",
                "wType": "Label"
            }
        },
        "CopyLabel0ce9f275e077042": {
            "__events__": {},
            "__info__": {
                "kuid": "f9f2b228404b41468375ad0caf840e34",
                "srcKUID": "ff82ec2718b344ccad99dedd37689560",
                "wType": "Label"
            },
            "left": {
                "Default": {
                    "type": "string",
                    "value": "0dp"
                }
            },
            "top": {
                "Default": {
                    "type": "string",
                    "value": "0dp"
                }
            }
        },
        "CopyLabel0cfce324ceb0e4d": {
            "__events__": {},
            "__info__": {
                "kuid": "j5b138edb36f43a0921e25496cf679af",
                "srcKUID": "ed1c0c16133e48a194b7d6cbba9d57ac",
                "wType": "Label"
            }
        },
        "CopyLabel0d49e9bd47dad45": {
            "__events__": {},
            "__info__": {
                "kuid": "ae2b6c20006d4a31b98a7a5677cd1959",
                "srcKUID": "b57d09788c844eba85b7855b1fe8d569",
                "wType": "Label"
            }
        },
        "CopyLabel0d5cd2d42622343": {
            "__events__": {},
            "__info__": {
                "kuid": "bf06a8e40d7840c6874b59d738a11c8a",
                "srcKUID": "h98cec4f6d2d461fabeb73762189df3e",
                "wType": "Label"
            }
        },
        "CopyLabel0d6de5f10aa544b": {
            "__events__": {},
            "__info__": {
                "kuid": "h891d6ddabe14e99bebdf2efe4e26bcb",
                "srcKUID": "ce274af545b943b5acf6234546bf2836",
                "wType": "Label"
            }
        },
        "CopyLabel0de2eb530749546": {
            "__events__": {},
            "__info__": {
                "kuid": "i633249000bd46129618536ddfb75e0d",
                "srcKUID": "je035255cfaf4df19c9bb95fbe0169a3",
                "wType": "Label"
            }
        },
        "CopyLabel0e1271e05839941": {
            "__events__": {},
            "__info__": {
                "kuid": "f402f10d134d4af7b930cad50b05d982",
                "srcKUID": "i8e495c9a6cc4a3989d263f989f02b87",
                "wType": "Label"
            }
        },
        "CopyLabel0e676a773945f4e": {
            "__events__": {},
            "__info__": {
                "kuid": "i6b475442b004663a296c9a222305bd3",
                "srcKUID": "g44fc72d4462456e9ff287d0f4f7141a",
                "wType": "Label"
            }
        },
        "CopyLabel0eb8e352c4b3341": {
            "__events__": {},
            "__info__": {
                "kuid": "d6eb27f1249d4133ab5963626f23f009",
                "srcKUID": "f10fa2e8d65a44daaab0d1c6ed1a091e",
                "wType": "Label"
            }
        },
        "CopyLabel0ef24bae8b76540": {
            "__events__": {},
            "__info__": {
                "kuid": "f1adcf7b74694e8797e6827ead8b339e",
                "srcKUID": "ff97faa0c12649d5a32fa3490b135c1e",
                "wType": "Label"
            }
        },
        "CopyLabel0f0082a1f94c14e": {
            "__events__": {},
            "__info__": {
                "kuid": "e2544797fc4d40008e3299fabb8492af",
                "srcKUID": "ec67408a7add4fea90711fc7bbaa1c1c",
                "wType": "Label"
            }
        },
        "CopyLabel0f1fef72e416f4a": {
            "__events__": {},
            "__info__": {
                "kuid": "e9e2a21fd8db44fcb520ecd88388c293",
                "srcKUID": "cf9518ae691a4434be9d6994d7357453",
                "wType": "Label"
            }
        },
        "CopyLabel0f4462ebf98bb4f": {
            "__events__": {},
            "__info__": {
                "kuid": "g68bd5c623ec498380d13a032a9f67cf",
                "srcKUID": "j5f86389a73b4ec08fac6842e4c30b95",
                "wType": "Label"
            }
        },
        "CopyLabel0fae5f33fa29a4d": {
            "__events__": {},
            "__info__": {
                "kuid": "bf553c2f6f964a0bbd1abe098ffef5a0",
                "srcKUID": "b5b6889507054b3199784b056a80951e",
                "wType": "Label"
            }
        },
        "CopyLabel0fbdd3b17226847": {
            "__events__": {},
            "__info__": {
                "kuid": "g6f5ab9641ff4648ac5a4ff7569bf06c",
                "srcKUID": "a4a0a728852d4943b126860bd77d11d7",
                "wType": "Label"
            }
        },
        "CopyLabel0fc711c78bc0749": {
            "__events__": {},
            "__info__": {
                "kuid": "cc440541b1ed4a75892f77def0bf727d",
                "srcKUID": "fdf2b1e3f93d44db94d9e5cbb8ffe08e",
                "wType": "Label"
            }
        },
        "CopyLabel0fd556162573f4b": {
            "__events__": {},
            "__info__": {
                "kuid": "edc36c9a35b84b56a098c133bd48c7fe",
                "srcKUID": "j529ddaa175940fe9dd1bf3daa571458",
                "wType": "Label"
            }
        },
        "CopyLabel0g041348ead494c": {
            "__events__": {},
            "__info__": {
                "kuid": "ce4817303e3b407aae1c03e79179aae1",
                "srcKUID": "j51f2834f01248f2b6f52312e11712d0",
                "wType": "Label"
            }
        },
        "CopyLabel0g18700312da341": {
            "__events__": {},
            "__info__": {
                "kuid": "b2d1d059bc00448e8b36f90a8a8cd304",
                "srcKUID": "f020a83cb7b74099a0f02a5d8fe2d8d9",
                "wType": "Label"
            }
        },
        "CopyLabel0g2792563a80141": {
            "__events__": {},
            "__info__": {
                "kuid": "c98183b8565f466fbaf62c85ae362bdb",
                "srcKUID": "f9bc80299765417c9a145fed8588dd1f",
                "wType": "Label"
            }
        },
        "CopyLabel0gce783bddecc46": {
            "__events__": {},
            "__info__": {
                "kuid": "d285ea5b2fed4dd29a4f7d853dc849d8",
                "srcKUID": "e933e50b71c9454db829159184cc0121",
                "wType": "Label"
            }
        },
        "CopyLabel0h1129e4a4b2643": {
            "__events__": {},
            "__info__": {
                "kuid": "ia2e2710f77c4d6c8f7aa8f8e61ae2e1",
                "srcKUID": "cea01096bfc94279bfe67202d27aae93",
                "wType": "Label"
            }
        },
        "CopyLabel0h232367bfd6749": {
            "__events__": {},
            "__info__": {
                "kuid": "b73866c2cb044be8b9a0af2aa4f4125a",
                "srcKUID": "bc15f4f26e9b42959bde93b18082cf2b",
                "wType": "Label"
            }
        },
        "CopyLabel0h3f4889eb23e48": {
            "__events__": {},
            "__info__": {
                "kuid": "if2eefc9ec004c14ab6c7c082cdd5374",
                "srcKUID": "j70dd7138a904d6f9596d07d6b59cfef",
                "wType": "Label"
            }
        },
        "CopyLabel0h5c495cd54e046": {
            "__events__": {},
            "__info__": {
                "kuid": "ja48f0e6af8a45cf8fee08e223a31471",
                "srcKUID": "ae8824bc839744288c26f8c7def4fdf7",
                "wType": "Label"
            }
        },
        "CopyLabel0hdea37531ded45": {
            "__events__": {},
            "__info__": {
                "kuid": "fb64a74f690e448ab5b3b2479ba53d3b",
                "srcKUID": "i8554f865f0a431fbc98e9eec6fb0a7e",
                "wType": "Label"
            }
        },
        "CopyLabel0ia2a91d2385b43": {
            "__events__": {},
            "__info__": {
                "kuid": "i3f147df9e2e45d4a517b265b8604c36",
                "srcKUID": "b7acb5e1816847aab161771b88675fea",
                "wType": "Label"
            }
        },
        "CopyLabel0ie1f731f016e4b": {
            "__events__": {},
            "__info__": {
                "kuid": "i9dedc35defe4a0eb5e89087cfbeaff4",
                "srcKUID": "a10893166aeb49efaa41801fc8210186",
                "wType": "Label"
            }
        },
        "CopyLabel0j30fb1dc17fa42": {
            "__events__": {},
            "__info__": {
                "kuid": "c6c57cb7921a42128c5f8e8a5210434f",
                "srcKUID": "ad3053879ed1446c8512f4026ec8b77a",
                "wType": "Label"
            }
        },
        "CopyLabel0j769149c74a543": {
            "__events__": {},
            "__info__": {
                "kuid": "jc23424507384a1eaec748cbe5da599e",
                "srcKUID": "j4a4b1b0f3ca4458aa326aaf91d41f2f",
                "wType": "Label"
            }
        },
        "CopyLabel0j9ff8178a0224c": {
            "__events__": {},
            "__info__": {
                "kuid": "db90634069d04da5badd3f271983d1b6",
                "srcKUID": "c31c45d4a05f4149b7069c2d9250b3f1",
                "wType": "Label"
            }
        },
        "CopyLabel0jc53b8beef9f4b": {
            "__events__": {},
            "__info__": {
                "kuid": "c6a22f4c24c14d108accba7c4ccb8d72",
                "srcKUID": "c7015edeafb349c0bf3e7890b48b4259",
                "wType": "Label"
            }
        },
        "CopyLabel0jf3087d0f22d45": {
            "__events__": {},
            "__info__": {
                "kuid": "bb19b5bcbd1a4810935f547759cd9cc1",
                "srcKUID": "e8dae2ecab5e4265b2c4ec67a7c32906",
                "wType": "Label"
            }
        },
        "CopyLabel0jfeb6cd8ff7b4b": {
            "__events__": {},
            "__info__": {
                "kuid": "cac73b56e06543fca629870515cd0d46",
                "srcKUID": "bcffca65d8e242e498281a256472e86e",
                "wType": "Label"
            }
        },
        "CopyflxDetail0a9c02d04f26b47": {
            "__events__": {},
            "__info__": {
                "kuid": "a36f789791b74100b0bdeba4ddd0f1d4",
                "srcKUID": "f139794fd70449c59e25187ef30f26ea",
                "wType": "FlexContainer"
            }
        },
        "CopyflxDetail0a9c1f0aa99f54b": {
            "__events__": {},
            "__info__": {
                "kuid": "f54e9d6030664cc6929a1b90d86d0a73",
                "srcKUID": "f1ad3bc11ab8414abe72d48b1b644d87",
                "wType": "FlexContainer"
            }
        },
        "CopyflxDetail0b460c0d7360949": {
            "__events__": {},
            "__info__": {
                "kuid": "e0c313e89bfc414aa195eac0f18ae763",
                "srcKUID": "c5fe6bcf4dac41f4a31f2c0826d139a1",
                "wType": "FlexContainer"
            }
        },
        "CopyflxDetail0b85897d2a69c49": {
            "__events__": {},
            "__info__": {
                "kuid": "f9182c92b44e4996a1f92aeb8a7d83fa",
                "srcKUID": "c8039461836a4f3082ca950dc9651785",
                "wType": "FlexContainer"
            }
        },
        "CopyflxDetail0c4335f26c54940": {
            "__events__": {},
            "__info__": {
                "kuid": "b90397c075104ff094eb858bc070545e",
                "srcKUID": "j6da6e885f24413fbef174b9a9be82e4",
                "wType": "FlexContainer"
            }
        },
        "CopyflxDetail0c4ebe02208fa42": {
            "__events__": {},
            "__info__": {
                "kuid": "ed54b29764e44a39b4a1da791ebe8534",
                "srcKUID": "ea1a77ef23fd40ca840c4eadb58f7bcb",
                "wType": "FlexContainer"
            }
        },
        "CopyflxDetail0c7c21aba8e6e4d": {
            "__events__": {},
            "__info__": {
                "kuid": "e728c0ac113947ebaa5b99c385cf89be",
                "srcKUID": "i9bbf0d043c04c89a651cd63adc29a59",
                "wType": "FlexContainer"
            }
        },
        "CopyflxDetail0cac59c3dd93a45": {
            "__events__": {},
            "__info__": {
                "kuid": "a11069874e6d41d58b70934048ac1827",
                "srcKUID": "b65272aefbf04d938a7a3bfe63210472",
                "wType": "FlexContainer"
            }
        },
        "CopyflxDetail0d5f197a9be254f": {
            "__events__": {},
            "__info__": {
                "kuid": "c5b26ca0607a4e3799cdc647f36623fe",
                "srcKUID": "c20f1b33ee9e412ea0e6913bf8fe1ec2",
                "wType": "FlexContainer"
            }
        },
        "CopyflxDetail0d7defecb2d724c": {
            "__events__": {},
            "__info__": {
                "kuid": "g2594ad1465f4e449401db68c475c2b4",
                "srcKUID": "fa96f54110a84ee49e2b07f9b4211892",
                "wType": "FlexContainer"
            }
        },
        "CopyflxDetail0dec91f7ca03646": {
            "__events__": {},
            "__info__": {
                "kuid": "c7feded6b86e4e41a439c46017e6c6ff",
                "srcKUID": "e15960f776f84de8bcd7afa0496d848e",
                "wType": "FlexContainer"
            }
        },
        "CopyflxDetail0e24a8cf75c1244": {
            "__events__": {},
            "__info__": {
                "kuid": "ic110ed08a9c4fe380766acdf9477309",
                "srcKUID": "d3c62a117ac54bccb608e6ad257ef838",
                "wType": "FlexContainer"
            }
        },
        "CopyflxDetail0e5009112009c42": {
            "__events__": {},
            "__info__": {
                "kuid": "fd7e7a9a43d2410ca894ea24a23522f2",
                "srcKUID": "e4af747828a44ad18c9b9f24cbcdfda4",
                "wType": "FlexContainer"
            }
        },
        "CopyflxDetail0e62b98bba9d54a": {
            "__events__": {},
            "__info__": {
                "kuid": "d555a0a10a15426ab86d98c231b413b2",
                "srcKUID": "e42db4a09d6c43849f8dc5e185eb1e0f",
                "wType": "FlexContainer"
            }
        },
        "CopyflxDetail0e754a5d2a0a44a": {
            "__events__": {},
            "__info__": {
                "kuid": "bcb4a4d7a765439bbf3406968ff46305",
                "srcKUID": "jc208ebd8f9b49e98f51e75185e30894",
                "wType": "FlexContainer"
            }
        },
        "CopyflxDetail0ec53f116c0a644": {
            "__events__": {},
            "__info__": {
                "kuid": "f3a108351216448aa3519831b7834360",
                "srcKUID": "c6f0c738e8794d3582f1fdd1747fa68e",
                "wType": "FlexContainer"
            }
        },
        "CopyflxDetail0f6a825e727a14e": {
            "__events__": {},
            "__info__": {
                "kuid": "b0d8ebf97dce43ae91fcb8ccb600053b",
                "srcKUID": "f6773e7b558e4d7ea5cd8954e64c5888",
                "wType": "FlexContainer"
            }
        },
        "CopyflxDetail0fb3e0d07fc824e": {
            "__events__": {},
            "__info__": {
                "kuid": "g1aad8b3c56d486a8f58ba503f188413",
                "srcKUID": "i3a8c3505d4b45e3a8f769a3f8408d1e",
                "wType": "FlexContainer"
            }
        },
        "CopyflxDetail0ff8a229fb0dd4d": {
            "__events__": {},
            "__info__": {
                "kuid": "de209ba3092247f4abc757040fc62898",
                "srcKUID": "c8a23db972474f6f93f7394639e19c7d",
                "wType": "FlexContainer"
            }
        },
        "CopyflxDetail0h1ac4e3ace584f": {
            "__events__": {},
            "__info__": {
                "kuid": "c2d466a3b1b145da90ad70094b88ce2c",
                "srcKUID": "c9eda19bbd044411b4e5d09e140353bc",
                "wType": "FlexContainer"
            }
        },
        "CopyflxDetail0ia81c7fc3ea24a": {
            "__events__": {},
            "__info__": {
                "kuid": "jbd07fe8ebd8466e81d24b401052d87f",
                "srcKUID": "f54ad49bc287439690a803875ac84002",
                "wType": "FlexContainer"
            }
        },
        "CopyflxDetail0ifb180626c4243": {
            "__events__": {},
            "__info__": {
                "kuid": "abf1daa509034b269ca532afd0f92645",
                "srcKUID": "h51679d6e53446d9a1ec2c8b01179a21",
                "wType": "FlexContainer"
            }
        },
        "CopyflxDetail0j4d7569a5d1940": {
            "__events__": {},
            "__info__": {
                "kuid": "c32a4ddf946c4db8a1bfe5df9b85c7a0",
                "srcKUID": "c71227d0f464403fba85341bf0190bc9",
                "wType": "FlexContainer"
            }
        },
        "CopyimgAlertIcon0fbf589e103a744": {
            "__events__": {},
            "__info__": {
                "kuid": "c8d54e455a3d46a6aec85a81837b153d",
                "srcKUID": "daf6aebe9c8746a1b8aa3e447ac204cd",
                "wType": "Image"
            }
        },
        "CopylblAlert0ibfe6c972eb24a": {
            "__events__": {},
            "__info__": {
                "kuid": "a9fc43ee3409470391f74b7c9f39a6f8",
                "srcKUID": "d198d16b71d64dcab2299b5d4786b069",
                "wType": "Label"
            }
        },
        "btnAction1": {
            "__events__": {},
            "__info__": {
                "kuid": "f2cf42677503428db1efdff83e67a97e",
                "srcKUID": "g8a1bab003d249df928299c67ae31da0",
                "wType": "Button"
            }
        },
        "btnAction1Mobile": {
            "__events__": {},
            "__info__": {
                "kuid": "f6b85381e2d74649a58312e5bd34dad2",
                "srcKUID": "e3bbaaf0c3434a96ab1aba0fdf462351",
                "wType": "Button"
            }
        },
        "btnAction2": {
            "__events__": {},
            "__info__": {
                "kuid": "f946aa0fcb8649e39b10ec25d6fc8b8d",
                "srcKUID": "e6c589d3d23c430997bd8d11ccdea487",
                "wType": "Button"
            }
        },
        "btnAction2Mobile": {
            "__events__": {},
            "__info__": {
                "kuid": "ebf5cc0917464f049e2874d1d8ec42bb",
                "srcKUID": "fb486a0283394010aeac4d215b9521cf",
                "wType": "Button"
            }
        },
        "btnAction3": {
            "__events__": {},
            "__info__": {
                "kuid": "j4a7a109d8dd43e48ead9f40a7bd7786",
                "srcKUID": "cbbf679ff55145a99c2031e8f20c6f0c",
                "wType": "Button"
            }
        },
        "btnAction3Mobile": {
            "__events__": {},
            "__info__": {
                "kuid": "if6add8a34704fcca8689744f7d4ac2d",
                "srcKUID": "i9a56553cf39420aa300e5a9deac494f",
                "wType": "Button"
            }
        },
        "btnAction4": {
            "__events__": {},
            "__info__": {
                "kuid": "b012960cc321457a980c843db3c528d7",
                "srcKUID": "i28965b43c1d42ae8bb9b1bc175e0f9b",
                "wType": "Button"
            }
        },
        "btnAction4Mobile": {
            "__events__": {},
            "__info__": {
                "kuid": "ib8d548ae6f44a7ebbcb54d67a845529",
                "srcKUID": "i2f0cbc5f6784b72be85ba92b1804ccc",
                "wType": "Button"
            }
        },
        "flxActions": {
            "__events__": {},
            "__info__": {
                "kuid": "aed232c31efb45a2acb7e91221c0e9bd",
                "srcKUID": "g492256446664233b13fa22c8af8ae78",
                "wType": "FlexContainer"
            }
        },
        "flxActionsContainer": {
            "__events__": {},
            "__info__": {
                "kuid": "f908d94d89c442658c95e09daf6d06f7",
                "srcKUID": "da8bd2cb117643eea22016d8bee16c5d",
                "wType": "FlexContainer"
            }
        },
        "flxActionsMobile": {
            "__events__": {},
            "__info__": {
                "kuid": "a0b0e51c7e82445e9bb4de4da6545416",
                "srcKUID": "i63937ef95a64ce0bbba4199d21ef02a",
                "wType": "FlexContainer"
            }
        },
        "flxAlert": {
            "__events__": {},
            "__info__": {
                "kuid": "ecd7b127396a490b840d539d887f28f9",
                "srcKUID": "d8cf150374ae4777b0812e97b232d881",
                "wType": "FlexContainer"
            }
        },
        "flxAlertContents": {
            "__events__": {},
            "__info__": {
                "kuid": "ha693d221efd4bdabd3c9676a82ceafa",
                "srcKUID": "ic51eb51c480430d932793b84f419e8d",
                "wType": "FlexContainer"
            }
        },
        "flxAlertMobile": {
            "__events__": {},
            "__info__": {
                "kuid": "d66ab42a04f5463486acce981ba18e12",
                "srcKUID": "bb4bba5b1091498c9d2c564f12a43e3c",
                "wType": "FlexContainer"
            }
        },
        "flxChart": {
            "__events__": {},
            "__info__": {
                "kuid": "h4dc60e92d104cda968ab38f1a37b2f3",
                "srcKUID": "f834ee662bba48c880ca936fbf4c0513",
                "wType": "FlexContainer"
            }
        },
        "flxChartMobile": {
            "__events__": {},
            "__info__": {
                "kuid": "a981e2c2f76e4b60a7c7c8be2c591995",
                "srcKUID": "f0c2943fd205453b987339930e3c1108",
                "wType": "FlexContainer"
            }
        },
        "flxDetail1": {
            "__events__": {},
            "__info__": {
                "kuid": "g7b6551c1e4f44e292629c06e9253422",
                "srcKUID": "i73a2910a52f42738b8c91a827eabcd0",
                "wType": "FlexContainer"
            }
        },
        "flxDetails": {
            "__events__": {},
            "__info__": {
                "kuid": "e6d36c3563474b26b281cb40ee349477",
                "srcKUID": "dda0bc2195814ccab0333ac5da014454",
                "wType": "FlexContainer"
            }
        },
        "flxDetailsMobile": {
            "__events__": {},
            "__info__": {
                "kuid": "bffafa8a79094cca8660848350c379fb",
                "srcKUID": "f70b339b93c1472e9f2e48fb0ef09073",
                "wType": "FlexContainer"
            }
        },
        "flxDetailsWrapper": {
            "__events__": {},
            "__info__": {
                "kuid": "gd0fb1d523f547a990a32183c1e8ffce",
                "srcKUID": "bdc078ccc4d8415c979342ca2e3c2492",
                "wType": "FlexContainer"
            }
        },
        "flxDropDownMobile": {
            "__events__": {},
            "__info__": {
                "kuid": "de40a37c0a694092bb9b66710c1f347e",
                "srcKUID": "ff50b555c9484c0bb45eb90fd838ce9a",
                "wType": "FlexContainer"
            }
        },
        "flxDropdown": {
            "__events__": {},
            "__info__": {
                "kuid": "j506a205c325410a8fdeaa6e38290c07",
                "srcKUID": "ia5de30e107d4d369bdedaba8a345128",
                "wType": "FlexContainer"
            }
        },
        "flxLeft": {
            "__events__": {},
            "__info__": {
                "kuid": "eeb683fd9c3e4e62b79fc87ff29bac17",
                "srcKUID": "abfaeeb056044a4594c70319e8b9c7e1",
                "wType": "FlexContainer"
            }
        },
        "flxLeftMobile": {
            "__events__": {},
            "__info__": {
                "kuid": "ib40209593174ec7a4c44b2d923e32ab",
                "srcKUID": "aa4ba20fa9c346a09ed8027e2666b773",
                "wType": "FlexContainer"
            }
        },
        "flxMain": {
            "__events__": {},
            "__info__": {
                "kuid": "a28dc1ebedad46fe8deab5626647232a",
                "srcKUID": "a5dd2bb425b44015848f81fc53699a41",
                "wType": "FlexContainer"
            }
        },
        "flxMainMobile": {
            "__events__": {},
            "__info__": {
                "kuid": "e67803e456b24442bd4539a94a29438f",
                "srcKUID": "c8ad21a3994e4df4ba696bc101d7d00e",
                "wType": "FlexContainer"
            }
        },
        "flxRight": {
            "__events__": {},
            "__info__": {
                "kuid": "a2aa85c611984531ba8b1ab3a338a1e5",
                "srcKUID": "c01a07ce876144a98277b5c4d68f4449",
                "wType": "FlexContainer"
            }
        },
        "flxRightMobile": {
            "__events__": {},
            "__info__": {
                "kuid": "fea57053700844f2b28c26a738743b9a",
                "srcKUID": "h3d6bfb0643e41ac859e143712ec7cb0",
                "wType": "FlexContainer"
            }
        },
        "flxRow": {
            "__events__": {},
            "__info__": {
                "kuid": "id3cfc50fe3f48e3987fa1bdd6b59bb1",
                "srcKUID": "b1f86c259a35477eaa9ca8c5e5275d0d",
                "wType": "FlexContainer"
            },
            "bottom": {
                "Default": {
                    "type": "string",
                    "value": "0dp"
                }
            },
            "responsiveData": {
                "b1": {
                    "width": {
                        "type": "string",
                        "value": "100%"
                    }
                },
                "b2": {
                    "width": {
                        "type": "string",
                        "value": "100%"
                    }
                },
                "b4": {
                    "width": {
                        "type": "string",
                        "value": "100%"
                    }
                }
            },
            "top": {
                "Default": {
                    "type": "string",
                    "value": "60dp"
                }
            },
            "width": {
                "Default": {
                    "type": "string",
                    "value": "98%"
                }
            }
        },
        "flxRowMobile": {
            "__events__": {},
            "__info__": {
                "kuid": "eaefbdb032ff4be19ccbb420d189a273",
                "srcKUID": "g052ce51a94c446f88a6debf48b063bb",
                "wType": "FlexContainer"
            },
            "centerX": {
                "Default": {
                    "type": "string",
                    "value": "49.97%"
                }
            },
            "responsiveData": {
                "b2": {
                    "width": {
                        "type": "string",
                        "value": "98%"
                    }
                },
                "b3": {
                    "centerX": {
                        "type": "string",
                        "value": "49.97%"
                    }
                }
            },
            "width": {
                "Default": {
                    "type": "string",
                    "value": "98%"
                }
            }
        },
        "flxSeparatorMobile": {
            "__events__": {},
            "__info__": {
                "kuid": "ed7206adfcfc461c8982b6c8395ef017",
                "srcKUID": "e05d748f9e2d49d1b8cfc8e4445f8df6",
                "wType": "Label"
            }
        },
        "flxSpacing": {
            "__events__": {},
            "__info__": {
                "kuid": "a7d2fcc77d2649049acc3f4c11bbbf20",
                "srcKUID": "h3a1ff956582457185ddb012675855d7",
                "wType": "FlexContainer"
            }
        },
        "flxStatus": {
            "__events__": {},
            "__info__": {
                "kuid": "ac1ba5ef7ca84e72a9886df737fc295b",
                "srcKUID": "f8f74f9840a5475d92c70a1fbb685156",
                "wType": "FlexContainer"
            }
        },
        "flxStatusMobile": {
            "__events__": {},
            "__info__": {
                "kuid": "e8a1fefdece44abfbdf94a14b40f4f2f",
                "srcKUID": "g2d13421fd414c35bc36cc2a5472b02e",
                "wType": "FlexContainer"
            }
        },
        "imgAlertIcon": {
            "__events__": {},
            "__info__": {
                "kuid": "b9a4f8dd65e4426991d6bef192fa8e7d",
                "srcKUID": "acd40066e6094eaa8365836a41afe2d6",
                "wType": "Image"
            }
        },
        "imgStatusIcon": {
            "__events__": {},
            "__info__": {
                "kuid": "aee730d42a184b74892fe8972f289ee4",
                "srcKUID": "f577bd417cf94ff88e26383f2f9910da",
                "wType": "Image"
            },
            "src": "aa_password_error.png"
        },
        "imgStatusMobile": {
            "__events__": {},
            "__info__": {
                "kuid": "c4b47ce985ba4bbe98821b01bb721965",
                "srcKUID": "e497570884c9467b8f45496f6295c337",
                "wType": "Image"
            },
            "src": "aa_password_error.png"
        },
        "lblAlert": {
            "__events__": {},
            "__info__": {
                "kuid": "jbe32b9e27ef46d08a53bb2e54c5eb28",
                "srcKUID": "ga1535e1f37a4d7dad44baee856ddde3",
                "wType": "Label"
            }
        },
        "lblComponentTitle": {
            "__events__": {},
            "__info__": {
                "kuid": "a372dbcfc6d5498c83f873afdc6fb307",
                "srcKUID": "a743d294453a4c2d81e4eeaa2cb52511",
                "wType": "Label"
            },
            "left": {
                "Default": {
                    "type": "string",
                    "value": "0%"
                }
            },
            "responsiveData": {
                "b2": {
                    "left": null,
                    "top": null
                }
            },
            "top": {
                "Default": {
                    "type": "string",
                    "value": "20dp"
                }
            }
        },
        "lblDropdown": {
            "__events__": {},
            "__info__": {
                "kuid": "h82d39608fba459496bba394120f4950",
                "srcKUID": "had58383cae14a779f4fd9d583131fef",
                "wType": "Label"
            }
        },
        "lblDropdownMobile": {
            "__events__": {},
            "__info__": {
                "kuid": "fa3825b622a7417c96e1eae0b5fce254",
                "srcKUID": "j4fa5395228f4bf0bd04dfd2d36faca4",
                "wType": "Label"
            }
        },
        "lblSeparator": {
            "__events__": {},
            "__info__": {
                "kuid": "j481c77afd6642c39d37bd6fbedc99d3",
                "srcKUID": "ed194ba5b3394beca3dbfc27ac9a60b8",
                "wType": "Label"
            }
        },
        "lblStatus": {
            "__events__": {},
            "__info__": {
                "kuid": "ffc623489ac54197aad4fa64a3a2be59",
                "srcKUID": "gd2cc0f6d2dd492b8b7df4e7752eea85",
                "wType": "Label"
            }
        },
        "lblStatusMobile": {
            "__events__": {},
            "__info__": {
                "kuid": "gbd87bf5ad364202af4baee62f04ecf0",
                "srcKUID": "dab646456ad04610a69058dbb3cfdadc",
                "wType": "Label"
            }
        },
        "lblTitle": {
            "__events__": {},
            "__info__": {
                "kuid": "h0e35b242d9f4de8a2d9ff429c9e9526",
                "srcKUID": "b6f1c3ccc70048c79ae3a35a1834cc5c",
                "wType": "Label"
            }
        },
        "lblTitleMobile": {
            "__events__": {},
            "__info__": {
                "kuid": "c541fcc8f8bb4907ae0bfdd8e0a9152a",
                "srcKUID": "ia419a6f49334901b70cd4c67cf5678c",
                "wType": "Label"
            }
        },
        "savingspot": {
            "__events__": {},
            "__info__": {
                "isRoot": true,
                "kuid": "i8e379f044744492aabbac5b4e1e9b05",
                "srcKUID": "ie8e42942e73485c82194722c13118d9",
                "wType": "FlexContainer"
            },
            "responsiveData": {},
            "top": {
                "Default": {
                    "type": "string",
                    "value": "0dp"
                }
            }
        }
    },
    "enablescrolling": true,
    "id": "goalsAndBudgets",
    "info": null,
    "iscustomlayout": false,
    "isdatareferenced": false,
    "isvisible": true,
    "kuid": "i8e379f044744492aabbac5b4e1e9b05",
    "layouttype": 2,
    "masterType": 0,
    "name": "kony.ui.UserWidgetInstance",
    "parent": "flxSavingsPotSegmentContainer",
    "pf": "frmSavingsPotLanding",
    "retaincontentalignment": false,
    "retainflexpositionproperties": false,
    "retainflowhorizontalalignment": false,
    "snapgridsize": 10,
    "snaptogrid": true,
    "sourceUserWidget": "ie8e42942e73485c82194722c13118d9",
    "wType": "UserWidgetInstance"
}