{
    "@class": "com.kony.gen.viz.model.component.KVizLabel",
    "DNDConfig": null,
    "_bottom_": {
        "type": "string",
        "value": ""
    },
    "_height_": {
        "type": "string",
        "value": "60dp"
    },
    "_left_": {
        "type": "string",
        "value": "190dp"
    },
    "_margin_": [
        1,
        1,
        1,
        1
    ],
    "_padding_": [
        0,
        0,
        2,
        0
    ],
    "_right_": {
        "type": "string",
        "value": "24%"
    },
    "_skin_": "s4b6103db040484c9823e522fcca5a36",
    "_text_": "You can create a Savings Goal by instructing Period of Months, Goal Amount and Monthly Savings. It helps you in achieving your needs effectively.",
    "_top_": {
        "type": "string",
        "value": "50dp"
    },
    "_width_": {
        "type": "string",
        "value": ""
    },
    "_wrapping_": 2,
    "accessibilityconfig": {
        "a11yLabel": "Add International Account"
    },
    "android": {
        "textStyle": {
            "letterSpacing": 0,
            "strikeThrough": false
        }
    },
    "canUpdateUI": true,
    "centerx": {
        "type": "string",
        "value": ""
    },
    "centery": {
        "type": "number",
        "value": ""
    },
    "containerweight": 100,
    "contentalignment": 1,
    "id": "lblPotType1Description",
    "info": null,
    "ipad": {
        "psp": {
            "wrapping": 2
        }
    },
    "iphone": {
        "psp": {
            "wrapping": 2
        }
    },
    "isvisible": true,
    "kuid": "g063c2e1a0574494a3e1e4ad8ae6e180",
    "name": "kony.ui.Label",
    "paddinginpixel": false,
    "parent": "flxCreateInfo",
    "pf": "frmSavingsPotLanding",
    "responsiveData": {
        "b1": {},
        "b2": {},
        "b3": {
            "centerX": {
                "type": "string",
                "value": "50%"
            },
            "centerY": {
                "type": "string",
                "value": ""
            },
            "contentAlignment": 2,
            "isVisible": true,
            "left": {
                "type": "string",
                "value": "0dp"
            },
            "right": {
                "type": "string",
                "value": "0%"
            },
            "top": {
                "type": "string",
                "value": "10dp"
            },
            "width": {
                "type": "string",
                "value": "70%"
            }
        },
        "b4": {}
    },
    "texti18n": "i18n.savingsPot.savingsGoalDescrition",
    "tooltip": "",
    "wType": "Label",
    "zindex": 1
}