{
    "DNDConfig": null,
    "__parentReadjusting__": false,
    "_bottom_": {
        "type": "string",
        "value": "0dp"
    },
    "_height_": {
        "type": "ref",
        "value": "preferred"
    },
    "_left_": {
        "type": "string",
        "value": "0%"
    },
    "_margin_": [
        0,
        0,
        0,
        0
    ],
    "_orientation_": 6,
    "_padding_": [
        0,
        0,
        0,
        0
    ],
    "_percent_": true,
    "_skin_": "s9d634c8d71f49d283c6dbd243c743bb",
    "_top_": {
        "type": "string",
        "value": "0dp"
    },
    "_width_": {
        "type": "string",
        "value": "100%"
    },
    "allboxes": [],
    "autogrowmode": 1,
    "canUpdateUI": true,
    "children": [
        "flxBulkWireFilesHeader",
        "flxBulkWireFilesSeparator",
        "flxErrorFlow",
        "flxUploadFile",
        "flxAckContainer",
        "flxBulkWireFilesSeparator2",
        "flxFilesBulkWireFileActions",
        "flxFilesUplaodAckOptions"
    ],
    "clipbounds": false,
    "containerweight": 100,
    "enablescrolling": true,
    "id": "flxBulkWireFileupload",
    "info": null,
    "iscustomlayout": false,
    "isvisible": true,
    "kuid": "g254d30a3a80428d806b6855715f14bb",
    "layouttype": 4,
    "name": "kony.ui.FlexContainer",
    "parent": "flxWireTransfersWindow",
    "pf": "frmAddBulkTransferFile",
    "retaincontentalignment": false,
    "retainflexpositionproperties": false,
    "snapgridsize": 10,
    "snaptogrid": true,
    "wType": "FlexContainer",
    "widgetalignment": 1,
    "zindex": 1
}