{
    "@class": "com.kony.gen.viz.model.component.KVizImage2",
    "DNDConfig": null,
    "__parentReadjusting__": false,
    "_base64_": null,
    "_height_": {
        "type": "string",
        "value": "15dp"
    },
    "_left_": {
        "type": "string",
        "value": "0dp"
    },
    "_margin_": [
        0,
        0,
        0,
        0
    ],
    "_padding_": [
        0,
        0,
        0,
        0
    ],
    "_skin_": "s78a5f26c9f14cec9ebed1bb46098f80",
    "_src_": "info_grey.png",
    "_width_": {
        "type": "string",
        "value": "15dp"
    },
    "accessibilityconfig": {
        "a11yLabel": "Info",
        "a11yValue": ""
    },
    "canUpdateUI": true,
    "centerx": {
        "type": "number",
        "value": ""
    },
    "centery": {
        "type": "string",
        "value": "51%"
    },
    "containerweight": 100,
    "context": {
        "channel": "desktop",
        "formID": "frmAddBulkTransferFile",
        "platform": "desktopweb",
        "templateType": "forms",
        "topLevelBox": null
    },
    "id": "imgInfoIcon",
    "imagescalemode": 1,
    "info": null,
    "invokedProperty": "src",
    "isvisible": true,
    "kuid": "a0ae1bbefd484b2a9655cd78175bf0d5",
    "name": "kony.ui.Image2",
    "parent": "flxInfo",
    "pf": "frmAddBulkTransferFile",
    "responsiveData": {
        "b2": {
            "centerX": {
                "type": "string",
                "value": "49.86%"
            }
        },
        "b3": {
            "centerX": {
                "type": "string",
                "value": "49.86%"
            },
            "height": {
                "type": "string",
                "value": "16dp"
            },
            "width": {
                "type": "string",
                "value": "16dp"
            }
        },
        "b4": {}
    },
    "srcType": 1,
    "tooltip": "Info",
    "wType": "Image",
    "widgetalignment": 5,
    "zindex": 1
}