{
    "@class": "com.kony.gen.viz.model.component.KVizButton",
    "DNDConfig": null,
    "__parentReadjusting__": false,
    "_height_": {
        "type": "string",
        "value": "50dp"
    },
    "_left_": {
        "type": "string",
        "value": "63.85%"
    },
    "_margin_": [
        6,
        6,
        6,
        6
    ],
    "_padding_": [
        0,
        0,
        0,
        0
    ],
    "_skin_": "sd93406756c64689acabc6c6ca718fdc",
    "_text_": "PAY AMOUNT",
    "_top_": {
        "type": "string",
        "value": "447dp"
    },
    "_width_": {
        "type": "string",
        "value": "32.36%"
    },
    "canUpdateUI": true,
    "containerweight": 100,
    "contentalignment": 5,
    "disabledSkins": {
        "focusSkin": "s30cdf4f9a6c4bbcb797e45d11425d8e"
    },
    "displaytext": true,
    "id": "btnConfirm",
    "info": null,
    "isvisible": true,
    "kuid": "h0de8adfdce54ff0bd1cb5fd8f3dce4d",
    "name": "kony.ui.Button",
    "parent": "PayDueAmount",
    "pf": "userwidgetmodel",
    "tooltip": "PAY AMOUNT",
    "wType": "Button",
    "zindex": 2,
    "accessibilityconfig": {
        "a11yLabel": "PAY AMOUNT"
    }
}