{
    "@class": "com.kony.gen.viz.model.component.KVizButton",
    "DNDConfig": null,
    "__parentReadjusting__": false,
    "_height_": {
        "type": "ref",
        "value": "preferred"
    },
    "_margin_": [
        6,
        6,
        6,
        6
    ],
    "_padding_": [
        0,
        0,
        0,
        0
    ],
    "_right_": {
        "type": "string",
        "value": "0dp"
    },
    "_skin_": "s55b84dca2454feda7c7ebea7678efa9",
    "_text_": "Cancel this Occurrence",
    "_top_": {
        "type": "string",
        "value": "0dp"
    },
    "_width_": {
        "type": "ref",
        "value": "preferred"
    },
    "accessibilityconfig": {
        "a11yLabel": "Cancel this Occurrence"
    },
    "canUpdateUI": true,
    "centery": {
        "type": "string",
        "value": "50%"
    },
    "containerId": true,
    "containerweight": 100,
    "contentalignment": 4,
    "desktopweb": {
        "psp": {
            "hoverSkin": "s8ba57bbb01e49f2acad2f1ea21d8717"
        }
    },
    "disabledSkins": {
        "focusSkin": "sf44d06ca8224832827ea7fdff757013"
    },
    "displaytext": true,
    "id": "btnCancelThisOccurrencemod",
    "ide_onClick": "AS_Button_a1e7c74994a74893aa15a8a7735bf425",
    "info": null,
    "isvisible": true,
    "kuid": "b1b368a5a3b342d2b2a46ec32263ffa0",
    "name": "kony.ui.Button",
    "parent": "flxDetailWrapperTwo",
    "pf": "segScheduledTransactionsSelected",
    "tooltip": "Print",
    "wType": "Button",
    "zindex": 1
}