{
    "AS_AppEvents_i82374ae6fd1448ca3ac6a26639b6e7e": {
        "id": "AS_AppEvents_i82374ae6fd1448ca3ac6a26639b6e7e",
        "type": "ACTION_SEQUENCE",
        "params": [{
            "datatype": "collection",
            "name": "eventobject"
        }],
        "language": "js",
        "actions": [{
            "id": "ADD_SNIPPET__ec6e37b0036e4b049ee069f64ae98fe0",
            "type": "ADD_SNIPPET",
            "codeSnippet": "kony.mvc.MDAApplication.getSharedInstance().appContext.deeplinkUrl={\n  deeplinkpath:eventobject.deeplinkpath,\n  formID:eventobject.formID,\n}",
            "parentId": null,
            "callbackType": null
        }]
    }
}