{
    "AS_Button_ie632b7282fb42d4bb8566a13ed42681": {
        "id": "AS_Button_ie632b7282fb42d4bb8566a13ed42681",
        "type": "ACTION_SEQUENCE",
        "params": [{
            "datatype": "collection",
            "name": "eventobject"
        }],
        "contextObj": {
            "name": "frmAcknowledgement",
            "type": "forms",
            "platform": "",
            "KUID": "cb4b7da5a9954469a49f6e61d6bf1d13"
        },
        "language": "js",
        "actions": [{
            "id": "ADD_SNIPPET__c42a9055200f4b438bd70d0a2fce26ff",
            "type": "ADD_SNIPPET",
            "codeSnippet": "this.makeTransfer();",
            "parentId": null,
            "callbackType": null
        }]
    }
}