{
    "AS_Button_b4b7920595ca430c9f75f0c1fb387a51": {
        "id": "AS_Button_b4b7920595ca430c9f75f0c1fb387a51",
        "type": "ACTION_SEQUENCE",
        "params": [{
            "datatype": "collection",
            "name": "eventobject"
        }],
        "contextObj": {
            "name": "frmTransfers",
            "type": "forms",
            "platform": "",
            "KUID": "e9f47be88ab64765a96b1fae7d2a7720"
        },
        "language": "js",
        "actions": [{
            "id": "ADD_SNIPPET__fe05e1fb4c964dffb92527b3eca10b26",
            "type": "ADD_SNIPPET",
            "codeSnippet": " this.getUserRecentTransactions();",
            "parentId": null,
            "callbackType": null
        }]
    }
}