{
    "AS_Button_a92df3783b20499aaf1ba139e65eecd5": {
        "id": "AS_Button_a92df3783b20499aaf1ba139e65eecd5",
        "type": "ACTION_SEQUENCE",
        "params": [{
            "datatype": "collection",
            "name": "eventobject"
        }],
        "contextObj": {
            "name": "frmLogin",
            "type": "forms",
            "platform": "",
            "KUID": "j0329c6c64654440bf366abc8de81b74"
        },
        "language": "js",
        "actions": [{
            "id": "ADD_SNIPPET__c070264e1efc4784a0ae12ce13eaaaf8",
            "type": "ADD_SNIPPET",
            "codeSnippet": "//this.verifyUser();\nvar context = {\n  \"action\": \"Navigate to Enroll\"\n};\nvar enrollModule = kony.mvc.MDAApplication.getSharedInstance().getModuleManager().getModule(\"EnrollModule\");\nenrollModule.presentationController.showEnrollPage(context);\n            \n \n",
            "parentId": null,
            "callbackType": null
        }]
    }
}