{
    "AS_Button_id5586f3515e4c13b31e3326beccc43b": {
        "id": "AS_Button_id5586f3515e4c13b31e3326beccc43b",
        "type": "ACTION_SEQUENCE",
        "params": [{
            "datatype": "collection",
            "name": "eventobject"
        }, {
            "datatype": "collection",
            "name": "context"
        }],
        "contextObj": {
            "name": "segRegisteredPayee",
            "type": "templates",
            "platform": "",
            "KUID": "i56c8b9a7af94b92a82874f35817f5a6"
        },
        "language": "js",
        "actions": [{
            "id": "ADD_SNIPPET__c24da2efb13f4fd8bd564ce3b6432cfa",
            "type": "ADD_SNIPPET",
            "codeSnippet": "//this.navigateToManagePayeeBillPay();",
            "parentId": null,
            "callbackType": null
        }]
    }
}