{
    "AS_Button_e7f4fe53757948e2b3e564a10e03fc89": {
        "id": "AS_Button_e7f4fe53757948e2b3e564a10e03fc89",
        "type": "ACTION_SEQUENCE",
        "params": [{
            "datatype": "collection",
            "name": "eventobject"
        }],
        "language": "js",
        "actions": [{
            "id": "ADD_SNIPPET_ide_onClick_j7523f14d4b64fb5b9cb7401ade9963b",
            "type": "ADD_SNIPPET",
            "codeSnippet": "var self = this;\nthis.makeBillpayment();",
            "callbackType": null
        }]
    }
}