{
    "AS_Button_c760d2e80880470f9bed50c7b8ba9270": {
        "id": "AS_Button_c760d2e80880470f9bed50c7b8ba9270",
        "type": "ACTION_SEQUENCE",
        "params": [{
            "datatype": "collection",
            "name": "eventobject"
        }],
        "contextObj": {
            "name": "frmLogin",
            "type": "forms",
            "platform": "",
            "KUID": "j0329c6c64654440bf366abc8de81b74"
        },
        "language": "js",
        "actions": [{
            "id": "ADD_SNIPPET__f314016efa8642229dd7bb88bb9b8877",
            "type": "ADD_SNIPPET",
            "codeSnippet": "this.onLoginClick();\n",
            "parentId": null,
            "callbackType": null
        }]
    }
}