{
    "AS_Button_bc6a0c71ea6c46519d02032a9daaf4f0": {
        "id": "AS_Button_bc6a0c71ea6c46519d02032a9daaf4f0",
        "type": "ACTION_SEQUENCE",
        "params": [{
            "datatype": "collection",
            "name": "eventobject"
        }, {
            "datatype": "collection",
            "name": "context"
        }],
        "contextObj": {
            "name": "segManageRecipientSelectedMobile",
            "type": "templates",
            "platform": null,
            "KUID": "i8808782f80f40558e5dfa3578785ec9"
        },
        "language": "js",
        "actions": [{
            "id": "ADD_SNIPPET_ide_onClick_bb75c602b72948e4a0b26a934553c5d6",
            "type": "ADD_SNIPPET",
            "codeSnippet": "//adding this comment due to platform bug.",
            "callbackType": null
        }]
    }
}