{
    "AS_Button_c33854257d2941daa1ec88bf98d94155": {
        "id": "AS_Button_c33854257d2941daa1ec88bf98d94155",
        "type": "ACTION_SEQUENCE",
        "params": [{
            "datatype": "collection",
            "name": "eventobject"
        }],
        "contextObj": {
            "name": "CopyfrmLogin",
            "type": "forms",
            "platform": null,
            "KUID": "d6328cf267c248a6b559c500d837ea14"
        },
        "language": "js",
        "actions": [{
            "id": "ADD_SNIPPET_ide_onClick_b52b887695994932b783c6a8abb88d1b",
            "type": "ADD_SNIPPET",
            "codeSnippet": "this.loginLater(this.view.flxResetSuccessful);",
            "callbackType": null
        }]
    }
}