{
    "AS_Button_abefcbe22a6c413e9aa614ce6ecb4dfe": {
        "id": "AS_Button_abefcbe22a6c413e9aa614ce6ecb4dfe",
        "type": "ACTION_SEQUENCE",
        "params": [{
            "datatype": "collection",
            "name": "eventobject"
        }],
        "contextObj": {
            "name": "frmVerifyAccountEur",
            "type": "forms",
            "platform": null,
            "KUID": "e4fe1a12814546a2a3fe8fae1a02d68d"
        },
        "language": "js",
        "actions": [{
            "id": "ADD_SNIPPET_ide_onClick_da060c09d19d4ed6bf37c8f2b81181b7",
            "type": "ADD_SNIPPET",
            "codeSnippet": "this.presenter.cancelTransaction(this);",
            "callbackType": null
        }]
    }
}