{
    "AS_Button_ge7d0c8c2d8d4f53a192c7aed15a70d4": {
        "id": "AS_Button_ge7d0c8c2d8d4f53a192c7aed15a70d4",
        "type": "ACTION_SEQUENCE",
        "params": [{
            "datatype": "collection",
            "name": "eventobject"
        }],
        "contextObj": {
            "name": "frmTransfersEur",
            "type": "forms",
            "platform": null,
            "KUID": "ce91c8ed58094b46825ffa2ecbf979d7"
        },
        "language": "js",
        "actions": [{
            "id": "ADD_SNIPPET_ide_onClick_j2ad78c744e6449294523ed2aab8c508",
            "type": "ADD_SNIPPET",
            "codeSnippet": "this.closeViewReport();\n\n",
            "callbackType": null
        }]
    }
}