{
    "AS_Button_b33ede6b507443869ccfb1afc00a99f8": {
        "id": "AS_Button_b33ede6b507443869ccfb1afc00a99f8",
        "type": "ACTION_SEQUENCE",
        "params": [{
            "datatype": "collection",
            "name": "eventobject"
        }, {
            "datatype": "collection",
            "name": "context"
        }],
        "language": "js",
        "actions": [{
            "id": "ADD_SNIPPET_ide_onClick_d3aa2a19956e4707aa642ab68bce7bea",
            "type": "ADD_SNIPPET",
            "codeSnippet": "this.MakeTransferAction();",
            "callbackType": null
        }]
    }
}