{
    "AS_Button_f4c8e83edcb24b83806c4aad35eb13c6": {
        "id": "AS_Button_f4c8e83edcb24b83806c4aad35eb13c6",
        "type": "ACTION_SEQUENCE",
        "params": [{
            "datatype": "collection",
            "name": "eventobject"
        }],
        "contextObj": {
            "name": "CopyfrmConfirmAccount",
            "type": "forms",
            "platform": null,
            "KUID": "c1e84d4df00943fea19243d209ebb20d"
        },
        "language": "js",
        "actions": [{
            "id": "ADD_SNIPPET_ide_onClick_c4f78decd35f4e6eb89f2a7fd469ac34",
            "type": "ADD_SNIPPET",
            "codeSnippet": "this.navigateForm();",
            "callbackType": null
        }]
    }
}