{
    "AS_Button_d085657f6eaa43a2bbeee87a454c56a2": {
        "id": "AS_Button_d085657f6eaa43a2bbeee87a454c56a2",
        "type": "ACTION_SEQUENCE",
        "name": "AS_Button_c96b7bf2562645de8e17400ddbf0d2e2",
        "params": [{
            "datatype": "collection",
            "name": "eventobject"
        }],
        "contextObj": {
            "name": "frmBillPay",
            "type": "forms",
            "platform": "",
            "KUID": "h754f638fe6d4c56aac376a2f3adf18b"
        },
        "language": "js",
        "actions": []
    }
}