{
    "AS_Button_f0530d61f0b643758212ceb05a7ed757": {
        "id": "AS_Button_f0530d61f0b643758212ceb05a7ed757",
        "type": "ACTION_SEQUENCE",
        "params": [{
            "datatype": "collection",
            "name": "eventobject"
        }],
        "contextObj": {
            "name": "frmAccountsDetails",
            "type": "forms",
            "platform": "",
            "KUID": "f22d64f7cb454ad980b530de61c4240a"
        },
        "language": "js",
        "actions": [{
            "id": "ADD_SNIPPET__b0e45dc09dad49e480594b3e3b8bffb1",
            "type": "ADD_SNIPPET",
            "codeSnippet": "this.presenter.Transactions.showAll();",
            "parentId": null,
            "callbackType": null
        }]
    }
}