{
    "AS_Button_cd6be4fae9594aaa8a0fe540e26f107d": {
        "id": "AS_Button_cd6be4fae9594aaa8a0fe540e26f107d",
        "type": "ACTION_SEQUENCE",
        "params": [{
            "datatype": "collection",
            "name": "eventobject"
        }],
        "contextObj": {
            "name": "frmBillPay",
            "type": "forms",
            "platform": "",
            "KUID": "h754f638fe6d4c56aac376a2f3adf18b"
        },
        "language": "js",
        "actions": [{
            "id": "ADD_SNIPPET__gc5c3d6e09c945c3a783c75eb5fc69c6",
            "type": "ADD_SNIPPET",
            "codeSnippet": "this.setPaymentDueSegmentData();",
            "parentId": null,
            "callbackType": null
        }]
    }
}