{
    "AS_Button_e5b8f3262a4b4a80b62198115cfbcec8": {
        "id": "AS_Button_e5b8f3262a4b4a80b62198115cfbcec8",
        "type": "ACTION_SEQUENCE",
        "params": [{
            "datatype": "collection",
            "name": "eventobject"
        }, {
            "datatype": "collection",
            "name": "context"
        }],
        "contextObj": {
            "name": "segManageRecipientSelected",
            "type": "templates",
            "platform": "",
            "KUID": "i2f31261efb34380a16f1580bf86966f"
        },
        "language": "js",
        "actions": [{
            "id": "ADD_SNIPPET__a21020263bdb474091282f54488a3ea3",
            "type": "ADD_SNIPPET",
            "codeSnippet": "//adding this comment due to platform bug.",
            "parentId": null,
            "callbackType": null
        }]
    }
}