{
    "AS_Button_a11c480a7dd945f5b1ddf807f0c17dec": {
        "id": "AS_Button_a11c480a7dd945f5b1ddf807f0c17dec",
        "type": "ACTION_SEQUENCE",
        "params": [{
            "datatype": "collection",
            "name": "eventobject"
        }, {
            "datatype": "collection",
            "name": "context"
        }],
        "contextObj": {
            "name": "segManageRecipientMobile",
            "type": "templates",
            "platform": null,
            "KUID": "c82125495f3a4ecba8473e6047dd2ab6"
        },
        "language": "js",
        "actions": [{
            "id": "ADD_SNIPPET_ide_onClick_ia4e913eb27b49d8a3ba87dd6812ac8a",
            "type": "ADD_SNIPPET",
            "codeSnippet": "//adding this comment due to platform bug.",
            "callbackType": null
        }]
    }
}