{
    "AS_Button_ga99b04528c7451a9a416aa2b05459bb": {
        "id": "AS_Button_ga99b04528c7451a9a416aa2b05459bb",
        "type": "ACTION_SEQUENCE",
        "params": [{
            "datatype": "collection",
            "name": "eventobject"
        }],
        "contextObj": {
            "name": "frmConfirmEur",
            "type": "forms",
            "platform": null,
            "KUID": "bd60bcd5cc2045c0b96a76158d5137ff"
        },
        "language": "js",
        "actions": [{
            "id": "ADD_SNIPPET_ide_onClick_bbc9244b9bd4445ea8e41798c73bb074",
            "type": "ADD_SNIPPET",
            "codeSnippet": "this.showFAQs();",
            "callbackType": null
        }]
    }
}