{
    "AS_Button_b8468eb4e7c24e2b9702e3afbe24c04a": {
        "id": "AS_Button_b8468eb4e7c24e2b9702e3afbe24c04a",
        "type": "ACTION_SEQUENCE",
        "name": "AS_Button_dd90bffede7949d18c0a97cada7784b5",
        "params": [{
            "datatype": "collection",
            "name": "eventobject"
        }],
        "contextObj": {
            "name": "frmAddExternalAccount",
            "type": "forms",
            "platform": "",
            "KUID": "g44e89ee0cb445b982945b6b358d77eb"
        },
        "language": "js",
        "actions": []
    }
}