{
    "AS_Button_d2cb1ab9432d4378bb8f28172b9f72fa": {
        "id": "AS_Button_d2cb1ab9432d4378bb8f28172b9f72fa",
        "type": "ACTION_SEQUENCE",
        "params": [{
            "datatype": "collection",
            "name": "eventobject"
        }],
        "contextObj": {
            "name": "frmLogin",
            "type": "forms",
            "platform": "",
            "KUID": "j0329c6c64654440bf366abc8de81b74"
        },
        "language": "js",
        "actions": [{
            "id": "ADD_SNIPPET__a0b34a1ee36b4c898fbcc5964f8b52fe",
            "type": "ADD_SNIPPET",
            "codeSnippet": "this.showEnterOTPPage();",
            "parentId": null,
            "callbackType": null
        }]
    }
}