{
    "AS_Button_fd720cd23dbc4c53af0f8239bca0b073": {
        "id": "AS_Button_fd720cd23dbc4c53af0f8239bca0b073",
        "type": "ACTION_SEQUENCE",
        "params": [{
            "datatype": "collection",
            "name": "eventobject"
        }],
        "contextObj": {
            "name": "CopyfrmAddExternalAccount",
            "type": "forms",
            "platform": null,
            "KUID": "afe51522323e4a0c8857c1ef70ef41f4"
        },
        "language": "js",
        "actions": [{
            "id": "ADD_SNIPPET_ide_onClick_c11b4aafc90f457781ce37e82b1c08b8",
            "type": "ADD_SNIPPET",
            "codeSnippet": "this.showFAQs();",
            "callbackType": null
        }]
    }
}