{
    "AS_Button_bdc8a06a39f54b97be814a0994575785": {
        "id": "AS_Button_bdc8a06a39f54b97be814a0994575785",
        "type": "ACTION_SEQUENCE",
        "params": [{
            "datatype": "collection",
            "name": "eventobject"
        }],
        "contextObj": {
            "name": "frmConfirmEur",
            "type": "forms",
            "platform": null,
            "KUID": "bd60bcd5cc2045c0b96a76158d5137ff"
        },
        "language": "js",
        "actions": [{
            "id": "ADD_SNIPPET_ide_onClick_abf891686dbf47a1a9a0a5c0be59bc62",
            "type": "ADD_SNIPPET",
            "codeSnippet": "this.showContactUsPage();",
            "callbackType": null
        }]
    }
}