{
    "AS_Button_d161ef1ebc3d4f94a8695d59ec9e561f": {
        "id": "AS_Button_d161ef1ebc3d4f94a8695d59ec9e561f",
        "type": "ACTION_SEQUENCE",
        "params": [{
            "datatype": "collection",
            "name": "eventobject"
        }],
        "contextObj": {
            "name": "frmTransfers",
            "type": "forms",
            "platform": "",
            "KUID": "e9f47be88ab64765a96b1fae7d2a7720"
        },
        "language": "js",
        "actions": [{
            "id": "ADD_SNIPPET__c7612e25ff0d48b0aff336431f2f1e00",
            "type": "ADD_SNIPPET",
            "codeSnippet": "this.getUserScheduledTransactions();",
            "parentId": null,
            "callbackType": null
        }]
    }
}