{
    "AS_Button_b32ea3895c154d38932a3c1a9c0cc2af": {
        "id": "AS_Button_b32ea3895c154d38932a3c1a9c0cc2af",
        "type": "ACTION_SEQUENCE",
        "params": [{
            "datatype": "collection",
            "name": "eventobject"
        }],
        "contextObj": {
            "name": "frmNotificationsAndMessages",
            "type": "forms",
            "platform": "",
            "KUID": "a83a23bb52bc4894a44b027a89964c1b"
        },
        "language": "js",
        "actions": [{
            "id": "ADD_SNIPPET__g03bac0bc4594e7c958f1e825fa0d773",
            "type": "ADD_SNIPPET",
            "codeSnippet": "this.setNotificationSegmentData();",
            "parentId": null,
            "callbackType": null
        }]
    }
}