{
    "AS_Button_d1438cccc8d34a0b9789f10716bee3d7": {
        "id": "AS_Button_d1438cccc8d34a0b9789f10716bee3d7",
        "type": "ACTION_SEQUENCE",
        "params": [{
            "datatype": "collection",
            "name": "eventobject"
        }],
        "contextObj": {
            "name": "frmAccountsDetails",
            "type": "forms",
            "platform": "",
            "KUID": "f22d64f7cb454ad980b530de61c4240a"
        },
        "language": "js",
        "actions": [{
            "id": "ADD_SNIPPET__f98bc6ad54e44ad4acebedb2d3f733f3",
            "type": "ADD_SNIPPET",
            "codeSnippet": "this.showBalanceDetails();",
            "parentId": null,
            "callbackType": null
        }]
    }
}