{
    "AS_Button_af8db695707d49329ffae85a52e8652b": {
        "id": "AS_Button_af8db695707d49329ffae85a52e8652b",
        "type": "ACTION_SEQUENCE",
        "params": [{
            "datatype": "collection",
            "name": "eventobject"
        }],
        "contextObj": {
            "name": "frmMFATransactions",
            "type": "forms",
            "platform": "",
            "KUID": "ed262e310404497fa20d94e4a05c5085"
        },
        "language": "js",
        "actions": []
    }
}