{
    "AS_Button_iea72b295e7f4881888331dd2e37a64d": {
        "id": "AS_Button_iea72b295e7f4881888331dd2e37a64d",
        "type": "ACTION_SEQUENCE",
        "params": [{
            "datatype": "collection",
            "name": "eventobject"
        }],
        "contextObj": {
            "name": "frmBillPay",
            "type": "forms",
            "platform": "",
            "KUID": "h754f638fe6d4c56aac376a2f3adf18b"
        },
        "language": "js",
        "actions": [{
            "id": "ADD_SNIPPET__if33739eba124101b5e6c8c558382622",
            "type": "ADD_SNIPPET",
            "codeSnippet": "this.viewEBill();",
            "parentId": null,
            "callbackType": null
        }]
    }
}