{
    "AS_Button_edf84b675e0048f69d15f08ac0eb9aef": {
        "id": "AS_Button_edf84b675e0048f69d15f08ac0eb9aef",
        "type": "ACTION_SEQUENCE",
        "name": "AS_Button_a2223874aaf3402cad10202503c50e17",
        "params": [{
            "datatype": "collection",
            "name": "eventobject"
        }],
        "contextObj": {
            "name": "frmPayDueAmount",
            "type": "forms",
            "platform": "",
            "KUID": "ba0b4f38b88d4ad7a2c69bb7d0d38c44"
        },
        "language": "js",
        "actions": []
    }
}