{
    "AS_Button_c6757cef4c994e0b80c1c66c2ea44a2e": {
        "id": "AS_Button_c6757cef4c994e0b80c1c66c2ea44a2e",
        "type": "ACTION_SEQUENCE",
        "params": [{
            "datatype": "collection",
            "name": "eventobject"
        }],
        "language": "js",
        "actions": [{
            "id": "ADD_SNIPPET_ide_onClick_d67d96e80e6e4eabab4396845c3cf7a0",
            "type": "ADD_SNIPPET",
            "codeSnippet": "this.showQuitPopup();",
            "callbackType": null
        }]
    }
}