{
    "AS_Button_db79ef55ee564a7e98f73df8c9dc6693": {
        "id": "AS_Button_db79ef55ee564a7e98f73df8c9dc6693",
        "type": "ACTION_SEQUENCE",
        "params": [{
            "datatype": "collection",
            "name": "eventobject"
        }, {
            "datatype": "collection",
            "name": "context"
        }],
        "contextObj": {
            "KUID": "c7751ca2de9c424e8920920c1d369fd1",
            "name": "segBBSearchRoles",
            "platform": "",
            "type": "templates"
        },
        "language": "js",
        "actions": [{
            "id": "ADD_SNIPPET__i044547fbb174639a236c78585e97409",
            "type": "ADD_SNIPPET",
            "codeSnippet": "this.executeOnParent(\"viewSelectedRole\");",
            "parentId": null,
            "callbackType": null
        }]
    }
}