{
    "AS_Button_da6e6fbf4eaa4d5688bb8fed1cfc2f5d": {
        "id": "AS_Button_da6e6fbf4eaa4d5688bb8fed1cfc2f5d",
        "type": "ACTION_SEQUENCE",
        "params": [{
            "datatype": "collection",
            "name": "eventobject"
        }],
        "contextObj": {
            "name": "frmNotificationsAndMessages",
            "type": "forms",
            "platform": "",
            "KUID": "a83a23bb52bc4894a44b027a89964c1b"
        },
        "language": "js",
        "actions": [{
            "id": "ADD_SNIPPET__eda6e102a74b43968a2a900a292775ca",
            "type": "ADD_SNIPPET",
            "codeSnippet": "this.setMessagesSegmentData();",
            "parentId": null,
            "callbackType": null
        }]
    }
}