{
    "AS_Button_h3557a44a5e84cab935df574868ea442": {
        "id": "AS_Button_h3557a44a5e84cab935df574868ea442",
        "type": "ACTION_SEQUENCE",
        "params": [{
            "datatype": "collection",
            "name": "eventobject"
        }, {
            "datatype": "collection",
            "name": "context"
        }],
        "contextObj": {
            "name": "segBillPayManagePayeesEdit",
            "type": "templates",
            "platform": "",
            "KUID": "fb48d13896b14343872f3c37384f39de"
        },
        "language": "js",
        "actions": [{
            "id": "ADD_SNIPPET__fe0930bad6fc44f9aab6cf155b6e3841",
            "type": "ADD_SNIPPET",
            "codeSnippet": "kony.print(\"Cancel clicked\");",
            "parentId": null,
            "callbackType": null
        }]
    }
}