{
    "AS_Button_d14d6518cb52481880ff6377fc6aa3b5": {
        "id": "AS_Button_d14d6518cb52481880ff6377fc6aa3b5",
        "type": "ACTION_SEQUENCE",
        "params": [{
            "datatype": "collection",
            "name": "eventobject"
        }, {
            "datatype": "collection",
            "name": "context"
        }],
        "language": "js",
        "actions": [{
            "id": "ADD_SNIPPET_ide_onClick_j63923c57d134e13b780428bf845039a",
            "type": "ADD_SNIPPET",
            "codeSnippet": "this.showEditRule();",
            "callbackType": null
        }]
    }
}