{
    "AS_Button_i68219564987434780371f2ccbf70a5a": {
        "id": "AS_Button_i68219564987434780371f2ccbf70a5a",
        "type": "ACTION_SEQUENCE",
        "params": [{
            "datatype": "collection",
            "name": "eventobject"
        }, {
            "datatype": "collection",
            "name": "context"
        }],
        "contextObj": {
            "name": "segManageRecipientSelected",
            "type": "templates",
            "platform": "",
            "KUID": "i2f31261efb34380a16f1580bf86966f"
        },
        "language": "js",
        "actions": [{
            "id": "ADD_SNIPPET__f36c132c0f554792a9b2089385f81380",
            "type": "ADD_SNIPPET",
            "codeSnippet": "this.showRequestMoney();",
            "parentId": null,
            "callbackType": null
        }]
    }
}