{
    "AS_Button_c4c9eb523afe48d89e125bb95c7ba88f": {
        "id": "AS_Button_c4c9eb523afe48d89e125bb95c7ba88f",
        "type": "ACTION_SEQUENCE",
        "params": [{
            "datatype": "collection",
            "name": "eventobject"
        }, {
            "datatype": "collection",
            "name": "context"
        }],
        "contextObj": {
            "name": "segManageRecipientsWireTransfersSelected",
            "type": "templates",
            "platform": "",
            "KUID": "ac032eecfc1746f488255418256eb8f3"
        },
        "language": "js",
        "actions": [{
            "id": "ADD_SNIPPET__h5b62964d44c417b9d3a075f8a30f18a",
            "type": "ADD_SNIPPET",
            "codeSnippet": "this.DeleteAction();",
            "parentId": null,
            "callbackType": null
        }]
    }
}