{
    "AS_Button_b074d66bdfca492cb0249f1a2442393c": {
        "id": "AS_Button_b074d66bdfca492cb0249f1a2442393c",
        "type": "ACTION_SEQUENCE",
        "params": [{
            "datatype": "collection",
            "name": "eventobject"
        }],
        "contextObj": {
            "name": "frmAcknowledgementEur",
            "type": "forms",
            "platform": null,
            "KUID": "e2cae5afb56745e6a52230a4491e7b40"
        },
        "language": "js",
        "actions": [{
            "id": "ADD_SNIPPET_ide_onClick_gffeed7a581d4127985f215418ff63b6",
            "type": "ADD_SNIPPET",
            "codeSnippet": "this.showContactUsPage();",
            "callbackType": null
        }]
    }
}