{
    "AS_Button_gc512bafef07474bb317c2000cf76883": {
        "id": "AS_Button_gc512bafef07474bb317c2000cf76883",
        "type": "ACTION_SEQUENCE",
        "params": [{
            "datatype": "collection",
            "name": "eventobject"
        }],
        "contextObj": {
            "name": "frmAddExternalAccountEur",
            "type": "forms",
            "platform": null,
            "KUID": "b4d3cf5fda1141e78858debbef0eb064"
        },
        "language": "js",
        "actions": [{
            "id": "ADD_SNIPPET_ide_onClick_e0f334eaa9cc4115b0de350721db34c1",
            "type": "ADD_SNIPPET",
            "codeSnippet": "this.showPrivacyPolicyPage();",
            "callbackType": null
        }]
    }
}