{
    "AS_Button_hf60d527592a403ab9be014945341945": {
        "id": "AS_Button_hf60d527592a403ab9be014945341945",
        "type": "ACTION_SEQUENCE",
        "params": [{
            "datatype": "collection",
            "name": "eventobject"
        }, {
            "datatype": "collection",
            "name": "context"
        }],
        "contextObj": {
            "name": "segBillPayManagePayeesSelectedMobile",
            "type": "templates",
            "platform": null,
            "KUID": "da5494edf09843409b7bb4694b1766b6"
        },
        "language": "js",
        "actions": [{
            "id": "ADD_SNIPPET_ide_onClick_bd4389656f3f474c963c9e16c2ec657f",
            "type": "ADD_SNIPPET",
            "codeSnippet": "this.showPayABill();",
            "callbackType": null
        }]
    }
}