{
    "AS_Button_h19bf09b78f24a87ad7930ff8701b531": {
        "id": "AS_Button_h19bf09b78f24a87ad7930ff8701b531",
        "type": "ACTION_SEQUENCE",
        "params": [{
            "datatype": "collection",
            "name": "eventobject"
        }],
        "contextObj": {
            "name": "frmAddPayee",
            "type": "forms",
            "platform": "",
            "KUID": "a6f26a85f86b40cca7b9347666e596a5"
        },
        "language": "js",
        "actions": [{
            "id": "ADD_SNIPPET_ide_onClick_ae696554ae5b444eb56167eb6fa09c84",
            "type": "ADD_SNIPPET",
            "codeSnippet": "//this.showflxAddBillerDetailsInformation();\n\nthis.goToAddBillerDetails();",
            "callbackType": null
        }]
    }
}