{
    "AS_Button_ed23b77dbc8541478e2bc7a76ba59bc9": {
        "id": "AS_Button_ed23b77dbc8541478e2bc7a76ba59bc9",
        "type": "ACTION_SEQUENCE",
        "params": [{
            "datatype": "collection",
            "name": "eventobject"
        }, {
            "datatype": "collection",
            "name": "context"
        }],
        "language": "js",
        "actions": [{
            "id": "ADD_SNIPPET_ide_onClick_a1b931f43e1645368b8c241f48940fae",
            "type": "ADD_SNIPPET",
            "codeSnippet": "//adding this comment due to platform bug.",
            "callbackType": null
        }]
    }
}