{
    "AS_Button_c35cd1f24661446d93b46b6d39a55933": {
        "id": "AS_Button_c35cd1f24661446d93b46b6d39a55933",
        "type": "ACTION_SEQUENCE",
        "params": [{
            "datatype": "collection",
            "name": "eventobject"
        }],
        "contextObj": {
            "name": "frmEnrollNow",
            "type": "forms",
            "platform": "",
            "KUID": "bd78051f2239477699cd5b3d036cf72a"
        },
        "language": "js",
        "actions": [{
            "id": "ADD_SNIPPET__e565550ef52f4214b28ceba6776bf187",
            "type": "ADD_SNIPPET",
            "codeSnippet": "this.showEnterOTPPage();",
            "parentId": null,
            "callbackType": null
        }]
    }
}