{
    "AS_Button_ef76c54ead894f29af74652cc3c76173": {
        "id": "AS_Button_ef76c54ead894f29af74652cc3c76173",
        "type": "ACTION_SEQUENCE",
        "params": [{
            "datatype": "collection",
            "name": "eventobject"
        }],
        "contextObj": {
            "name": "frmVerifyAccountEur",
            "type": "forms",
            "platform": null,
            "KUID": "e4fe1a12814546a2a3fe8fae1a02d68d"
        },
        "language": "js",
        "actions": [{
            "id": "ADD_SNIPPET_ide_onClick_e8aabe561aa14f85ba7e8b04baeab4de",
            "type": "ADD_SNIPPET",
            "codeSnippet": "this.showContactUsPage();",
            "callbackType": null
        }]
    }
}