{
    "AS_Button_h554c53724854d2c8b8454f754fbd9a9": {
        "id": "AS_Button_h554c53724854d2c8b8454f754fbd9a9",
        "type": "ACTION_SEQUENCE",
        "params": [{
            "datatype": "collection",
            "name": "eventobject"
        }],
        "contextObj": {
            "name": "frmOneTimePaymentAcknowledgement",
            "type": "forms",
            "platform": "",
            "KUID": "ce29f041297a41dc89d164f21ccb995f"
        },
        "language": "js",
        "actions": [{
            "id": "ADD_SNIPPET__ia2ae61102d648cc8f0622be4228c947",
            "type": "ADD_SNIPPET",
            "codeSnippet": "this.viewallpayeesbtnaction();",
            "parentId": null
        }]
    }
}