{
    "AS_Button_cc7c9b6a6b65410db404fcb485b7c33c": {
        "id": "AS_Button_cc7c9b6a6b65410db404fcb485b7c33c",
        "type": "ACTION_SEQUENCE",
        "params": [{
            "datatype": "collection",
            "name": "eventobject"
        }, {
            "datatype": "collection",
            "name": "context"
        }],
        "contextObj": {
            "name": "segBillPayManagePayees",
            "type": "templates",
            "platform": "",
            "KUID": "e5487cb77a86419292b5fed2a19bc775"
        },
        "language": "js",
        "actions": [{
            "id": "ADD_SNIPPET__f763854bd2bc48978f348139ab880e75",
            "type": "ADD_SNIPPET",
            "codeSnippet": "this.viewEBill();",
            "parentId": null,
            "callbackType": null
        }]
    }
}