{
    "AS_Button_d7d02dbfef8947c6b91c723e58d73396": {
        "id": "AS_Button_d7d02dbfef8947c6b91c723e58d73396",
        "type": "ACTION_SEQUENCE",
        "params": [{
            "datatype": "collection",
            "name": "eventobject"
        }],
        "contextObj": {
            "name": "CopyfrmBillPayScheduled",
            "type": "forms",
            "platform": null,
            "KUID": "aea68f49940f4618a329754f124a955d"
        },
        "language": "js",
        "actions": [{
            "id": "ADD_SNIPPET_ide_onClick_e575462726bb496a98055c18df0bcfe0",
            "type": "ADD_SNIPPET",
            "codeSnippet": " var obj1 = {\n       \"tabname\": \"payees\"\n      };\n      var navObj = new kony.mvc.Navigation(\"frmBillPay\");\n      navObj.navigate(obj1);",
            "callbackType": null
        }]
    }
}