{
    "AS_Button_ad65eb7bf90343dcb8171e30616cbf58": {
        "id": "AS_Button_ad65eb7bf90343dcb8171e30616cbf58",
        "type": "ACTION_SEQUENCE",
        "params": [{
            "datatype": "collection",
            "name": "eventobject"
        }],
        "contextObj": {
            "name": "frmAddPayee",
            "type": "forms",
            "platform": "",
            "KUID": "a6f26a85f86b40cca7b9347666e596a5"
        },
        "language": "js",
        "actions": [{
            "id": "ADD_SNIPPET__aa372daccfcb40ffaef7e4542e52935e",
            "type": "ADD_SNIPPET",
            "codeSnippet": "this.showFlxEnterPayeeInfo();",
            "parentId": null,
            "callbackType": null
        }]
    }
}