{
    "AS_Button_jc691a63e0194156aaac0f483cc4e58b": {
        "id": "AS_Button_jc691a63e0194156aaac0f483cc4e58b",
        "type": "ACTION_SEQUENCE",
        "params": [{
            "datatype": "collection",
            "name": "eventobject"
        }, {
            "datatype": "collection",
            "name": "context"
        }],
        "contextObj": {
            "name": "segBillPayScheduledSelectedMobile",
            "type": "templates",
            "platform": null,
            "KUID": "fab0e3236f514593992de54747e06310"
        },
        "language": "js",
        "actions": [{
            "id": "ADD_SNIPPET_ide_onClick_fb17f46614c24c9ab2989034a0fba48b",
            "type": "ADD_SNIPPET",
            "codeSnippet": "this.showPayABill();",
            "callbackType": null
        }]
    }
}