{
    "AS_Button_bf9cec6b7ccc4d4b9e1a8a8531e34651": {
        "id": "AS_Button_bf9cec6b7ccc4d4b9e1a8a8531e34651",
        "type": "ACTION_SEQUENCE",
        "params": [{
            "datatype": "collection",
            "name": "eventobject"
        }, {
            "datatype": "collection",
            "name": "context"
        }],
        "contextObj": {
            "name": "segSendRequestMobile",
            "type": "templates",
            "platform": null,
            "KUID": "ab5ec2abc8f44003ace543808af99e6f"
        },
        "language": "js",
        "actions": [{
            "id": "ADD_SNIPPET_ide_onClick_ad3f85f55f074be7a4d2321c54c46583",
            "type": "ADD_SNIPPET",
            "codeSnippet": "this.showRequestMoney();",
            "callbackType": null
        }]
    }
}