{
    "AS_Button_i80d6d7622c548c897d7f3821501c309": {
        "id": "AS_Button_i80d6d7622c548c897d7f3821501c309",
        "type": "ACTION_SEQUENCE",
        "params": [{
            "datatype": "collection",
            "name": "eventobject"
        }],
        "language": "js",
        "actions": [{
            "id": "ADD_SNIPPET_ide_onClick_c1f9a82358594d0eb671b28417cb414b",
            "type": "ADD_SNIPPET",
            "codeSnippet": "this.showFlxAddPayeeAck();",
            "callbackType": null
        }]
    }
}