{
    "AS_Button_e75b527aef8f4c08ab91890e15b59ded": {
        "id": "AS_Button_e75b527aef8f4c08ab91890e15b59ded",
        "type": "ACTION_SEQUENCE",
        "params": [{
            "datatype": "collection",
            "name": "eventobject"
        }],
        "contextObj": {
            "name": "frmAcknowledgementEur",
            "type": "forms",
            "platform": null,
            "KUID": "e2cae5afb56745e6a52230a4491e7b40"
        },
        "language": "js",
        "actions": [{
            "id": "ADD_SNIPPET_ide_onClick_bba45b62b63c42ca81514c0d637456db",
            "type": "ADD_SNIPPET",
            "codeSnippet": "this.showLocateUsPage();",
            "callbackType": null
        }]
    }
}