{
    "AS_Button_g2042863740141038b2d8deec93dbd3f": {
        "id": "AS_Button_g2042863740141038b2d8deec93dbd3f",
        "type": "ACTION_SEQUENCE",
        "params": [{
            "datatype": "collection",
            "name": "eventobject"
        }],
        "contextObj": {
            "name": "frmAddInternalAccountEur",
            "type": "forms",
            "platform": null,
            "KUID": "f6d47ee3559a49b9a84a9fcd7d6fce64"
        },
        "language": "js",
        "actions": [{
            "id": "ADD_SNIPPET_ide_onClick_bb8888a33b4c49ad9447401d3cc54cf0",
            "type": "ADD_SNIPPET",
            "codeSnippet": "this.navigateForm();",
            "callbackType": null
        }]
    }
}