{
    "AS_Button_c61a427d5c334232959a419e596f755f": {
        "id": "AS_Button_c61a427d5c334232959a419e596f755f",
        "type": "ACTION_SEQUENCE",
        "params": [{
            "datatype": "collection",
            "name": "eventobject"
        }],
        "contextObj": {
            "name": "frmEnrollNow",
            "type": "forms",
            "platform": "",
            "KUID": "bd78051f2239477699cd5b3d036cf72a"
        },
        "language": "js",
        "actions": [{
            "id": "ADD_SNIPPET__i1253fe7eaf94234bf9dbb6d2f0b5b92",
            "type": "ADD_SNIPPET",
            "codeSnippet": "this.useCVVForReset();",
            "parentId": null,
            "callbackType": null
        }]
    }
}