{
    "AS_Button_d0cb6f3604e54e638233c2fd3f23b406": {
        "id": "AS_Button_d0cb6f3604e54e638233c2fd3f23b406",
        "type": "ACTION_SEQUENCE",
        "params": [{
            "datatype": "collection",
            "name": "eventobject"
        }],
        "contextObj": {
            "name": "CopyfrmLogin",
            "type": "forms",
            "platform": null,
            "KUID": "d6328cf267c248a6b559c500d837ea14"
        },
        "language": "js",
        "actions": [{
            "id": "ADD_SNIPPET_ide_onClick_c4b400be9296461a96658446b03b3e18",
            "type": "ADD_SNIPPET",
            "codeSnippet": "this.btnYesTakeSurvey();",
            "callbackType": null
        }]
    }
}