{
    "AS_Button_efd1e6088950448f80cf84f7d90c07dd": {
        "id": "AS_Button_efd1e6088950448f80cf84f7d90c07dd",
        "type": "ACTION_SEQUENCE",
        "params": [{
            "datatype": "collection",
            "name": "eventobject"
        }],
        "contextObj": {
            "name": "frmLogin",
            "type": "forms",
            "platform": "",
            "KUID": "j0329c6c64654440bf366abc8de81b74"
        },
        "language": "js",
        "actions": [{
            "id": "ADD_SNIPPET__b01a23b0b93f4ea58ddb41d3bed201f2",
            "type": "ADD_SNIPPET",
            "codeSnippet": "this.login();",
            "parentId": null,
            "callbackType": null
        }]
    }
}