{
    "AS_Button_b3217c7841514565b45fed9a103f52c5": {
        "id": "AS_Button_b3217c7841514565b45fed9a103f52c5",
        "type": "ACTION_SEQUENCE",
        "params": [{
            "datatype": "collection",
            "name": "eventobject"
        }, {
            "datatype": "collection",
            "name": "context"
        }],
        "contextObj": {
            "name": "segBillPayManagePayeesSelectedMobile",
            "type": "templates",
            "platform": null,
            "KUID": "da5494edf09843409b7bb4694b1766b6"
        },
        "language": "js",
        "actions": [{
            "id": "ADD_SNIPPET_ide_onClick_ccb3edb5b37e4edd81d723affa118b8c",
            "type": "ADD_SNIPPET",
            "codeSnippet": "//comment",
            "callbackType": null
        }]
    }
}