{
    "AS_Button_b2371399cf834e6d86641a188a66eb30": {
        "id": "AS_Button_b2371399cf834e6d86641a188a66eb30",
        "type": "ACTION_SEQUENCE",
        "params": [{
            "datatype": "collection",
            "name": "eventobject"
        }, {
            "datatype": "collection",
            "name": "context"
        }],
        "language": "js",
        "actions": [{
            "id": "ADD_SNIPPET_ide_onClick_fef7aae27f8a442cafe9fe20f7b16763",
            "type": "ADD_SNIPPET",
            "codeSnippet": "kony.print(\"Empty Action for View Activity due to platform defect\");",
            "callbackType": null
        }]
    }
}