{
    "AS_FlexContainer_f940e6b214024be6b87cb85516a10d9d": {
        "id": "AS_FlexContainer_f940e6b214024be6b87cb85516a10d9d",
        "type": "ACTION_SEQUENCE",
        "params": [{
            "datatype": "collection",
            "name": "eventobject"
        }, {
            "datatype": "collection",
            "name": "context"
        }],
        "contextObj": {
            "name": "segChequeBookReqUnSelectedMobile",
            "type": "templates",
            "platform": "",
            "KUID": "cb75dccedb7f408ca9f05da2a9bb268a"
        },
        "language": "js",
        "actions": [{
            "id": "ADD_SNIPPET_ee89a04e450440af83468bcb44b088d5",
            "type": "ADD_SNIPPET",
            "codeSnippet": "this.showSelectedRow();",
            "parentId": null,
            "callbackType": null
        }]
    }
}