{
    "AS_Form_gf8b4c3663d54189a12322cd1c2484f6": {
        "id": "AS_Form_gf8b4c3663d54189a12322cd1c2484f6",
        "type": "ACTION_SEQUENCE",
        "params": [{
            "datatype": "collection",
            "name": "eventobject"
        }],
        "contextObj": {
            "name": "frmAddExternalAccountEur",
            "type": "forms",
            "platform": null,
            "KUID": "b4d3cf5fda1141e78858debbef0eb064"
        },
        "language": "js",
        "actions": [{
            "id": "ADD_SNIPPET_ide_onDeviceBack_e896b39350e64b439f7a56476077b153",
            "type": "ADD_SNIPPET",
            "codeSnippet": "//Have to Consolidate\nkony.print(\"Back Button Pressed\");",
            "callbackType": null
        }]
    }
}