{
    "AS_Form_j0d8ac2d8a184dfa84fd0d506ff9fb53": {
        "id": "AS_Form_j0d8ac2d8a184dfa84fd0d506ff9fb53",
        "type": "ACTION_SEQUENCE",
        "params": [{
            "datatype": "collection",
            "name": "eventobject"
        }],
        "contextObj": {
            "name": "frmBBAccountsLanding",
            "type": "forms",
            "platform": "",
            "KUID": "edc0be9ced2e48b7919dffec197e5bae"
        },
        "language": "js",
        "actions": [{
            "id": "ADD_SNIPPET__a7c16c74c0154cbf8a61356218b47c0b",
            "type": "ADD_SNIPPET",
            "codeSnippet": "this.onLoadChangePointer();\nthis.setContextualMenuLeft();",
            "parentId": null
        }]
    }
}