{
    "AS_Form_hf198fbf60fd44588ec3db2db3905a56": {
        "id": "AS_Form_hf198fbf60fd44588ec3db2db3905a56",
        "type": "ACTION_SEQUENCE",
        "params": [{
            "datatype": "collection",
            "name": "eventobject"
        }],
        "contextObj": {
            "name": "frmNAO",
            "type": "forms",
            "platform": "",
            "KUID": "bf92432b783b4654a4621f52754a686e"
        },
        "language": "js",
        "actions": [{
            "id": "ADD_SNIPPET__g1e5cb9cfd8b447e91ef262fdb488073",
            "type": "ADD_SNIPPET",
            "codeSnippet": "kony.print(\"on device back\");",
            "parentId": null,
            "callbackType": null
        }]
    }
}