{
    "AS_FlexContainer_jdc7a408642d4d448ef69f1db985ada4": {
        "id": "AS_FlexContainer_jdc7a408642d4d448ef69f1db985ada4",
        "type": "ACTION_SEQUENCE",
        "params": [{
            "datatype": "collection",
            "name": "eventobject"
        }, {
            "datatype": "collection",
            "name": "context"
        }],
        "contextObj": {
            "name": "segBillPayManagePayeesSelected",
            "type": "templates",
            "platform": "",
            "KUID": "i6b4ba8f0c5e418e8f5082c832ec6a6a"
        },
        "language": "js",
        "actions": [{
            "id": "ADD_SNIPPET__h39cfdf8c8414083a671db948d66bbd7",
            "type": "ADD_SNIPPET",
            "codeSnippet": "this.segmentManagePayeesRowClick();",
            "parentId": null,
            "callbackType": null
        }]
    }
}