{
    "AS_Form_ed3cddc975794f57956aadc13f42cdab": {
        "id": "AS_Form_ed3cddc975794f57956aadc13f42cdab",
        "type": "ACTION_SEQUENCE",
        "params": [{
            "datatype": "collection",
            "name": "eventobject"
        }, {
            "datatype": "string",
            "name": "x"
        }, {
            "datatype": "string",
            "name": "y"
        }],
        "contextObj": {
            "name": "CopyfrmConfirmAccount",
            "type": "forms",
            "platform": null,
            "KUID": "c1e84d4df00943fea19243d209ebb20d"
        },
        "language": "js",
        "actions": [{
            "id": "ADD_SNIPPET_ide_onTouchEnd_e5c756028bf04049b509d858842b7199",
            "type": "ADD_SNIPPET",
            "codeSnippet": "hidePopups();",
            "callbackType": null
        }]
    }
}