{
    "AS_FlexContainer_if6394c7fbad4f208d84ad3850eaa54c": {
        "id": "AS_FlexContainer_if6394c7fbad4f208d84ad3850eaa54c",
        "type": "ACTION_SEQUENCE",
        "params": [{
            "datatype": "collection",
            "name": "eventobject"
        }, {
            "datatype": "collection",
            "name": "context"
        }],
        "contextObj": {
            "name": "segTransactionsRowSavings",
            "type": "templates",
            "platform": "",
            "KUID": "a340c420c4104f78b8822e5f6087325e"
        },
        "language": "js",
        "actions": [{
            "id": "ADD_SNIPPET__a2868f790bf4410cbf77cdf3106825a1",
            "type": "ADD_SNIPPET",
            "codeSnippet": "this.showSelectedRow();",
            "parentId": null,
            "callbackType": null
        }]
    }
}