{
    "AS_FlexContainer_f964352effd347949a73b77c3d9fa5aa": {
        "id": "AS_FlexContainer_f964352effd347949a73b77c3d9fa5aa",
        "type": "ACTION_SEQUENCE",
        "params": [{
            "datatype": "collection",
            "name": "eventobject"
        }, {
            "datatype": "collection",
            "name": "context"
        }],
        "language": "js",
        "actions": [{
            "id": "ADD_SNIPPET_ide_onClick_b2ba9561632245b892847de0283e6c26",
            "type": "ADD_SNIPPET",
            "codeSnippet": " this.showSelectedRow();",
            "callbackType": null
        }]
    }
}