{
    "AS_FlexContainer_jdd807a1ba7c4215adadcc8b27606f25": {
        "id": "AS_FlexContainer_jdd807a1ba7c4215adadcc8b27606f25",
        "type": "ACTION_SEQUENCE",
        "params": [{
            "datatype": "collection",
            "name": "eventobject"
        }, {
            "datatype": "collection",
            "name": "context"
        }],
        "contextObj": {
            "name": "segSendRequestSelectedMobileP2P",
            "type": "templates",
            "platform": null,
            "KUID": "d26d3dc0b9344788a0411d7515516955"
        },
        "language": "js",
        "actions": [{
            "id": "ADD_SNIPPET_ide_onClick_f37283d627b840ba9abcab56a5f5c5db",
            "type": "ADD_SNIPPET",
            "codeSnippet": "this.showSelectedRow();",
            "callbackType": null
        }]
    }
}