{
    "AS_FlexContainer_a62e578ec4c54543aefc567e7af2cb17": {
        "id": "AS_FlexContainer_a62e578ec4c54543aefc567e7af2cb17",
        "type": "ACTION_SEQUENCE",
        "params": [{
            "datatype": "collection",
            "name": "eventobject"
        }, {
            "datatype": "collection",
            "name": "context"
        }],
        "contextObj": {
            "name": "segBillPayAllPayeesMobile",
            "type": "templates",
            "platform": null,
            "KUID": "ca19227e83fb4b3a8eac3e9cef824d34"
        },
        "language": "js",
        "actions": [{
            "id": "ADD_SNIPPET_ide_onClick_ec285ad3816f451db93cd8572ce610e0",
            "type": "ADD_SNIPPET",
            "codeSnippet": "kony.print(\"Action - Hold for R1\");\nthis.segmentAllPayeesRowClick();",
            "callbackType": null
        }]
    }
}