{
    "AS_Form_eb1f0c04e3994393baa0f3ede59f5f2a": {
        "id": "AS_Form_eb1f0c04e3994393baa0f3ede59f5f2a",
        "type": "ACTION_SEQUENCE",
        "params": [{
            "datatype": "collection",
            "name": "eventobject"
        }],
        "contextObj": {
            "name": "CopyfrmLogin",
            "type": "forms",
            "platform": null,
            "KUID": "d6328cf267c248a6b559c500d837ea14"
        },
        "language": "js",
        "actions": [{
            "id": "ADD_SNIPPET_ide_preShow_h6e2ed46ae8b4a318e0377799dbfe390",
            "type": "ADD_SNIPPET",
            "codeSnippet": "this.onPreShow();",
            "callbackType": null
        }]
    }
}