{
    "AS_FlexContainer_hef57cdf59d249f6b78d96558fcaa1ef": {
        "id": "AS_FlexContainer_hef57cdf59d249f6b78d96558fcaa1ef",
        "type": "ACTION_SEQUENCE",
        "params": [{
            "datatype": "collection",
            "name": "eventobject"
        }],
        "language": "js",
        "actions": [{
            "id": "ADD_SNIPPET_ide_onClick_gf9be47bd04849949691ffe4cd5da800",
            "type": "ADD_SNIPPET",
            "codeSnippet": "this.setTCcheckBoxState();",
            "callbackType": null
        }]
    }
}