{
    "AS_FlexContainer_f0cdd76c878b4efba032f70d9f5ca511": {
        "id": "AS_FlexContainer_f0cdd76c878b4efba032f70d9f5ca511",
        "type": "ACTION_SEQUENCE",
        "params": [{
            "datatype": "collection",
            "name": "eventobject"
        }, {
            "datatype": "collection",
            "name": "context"
        }],
        "contextObj": {
            "name": "segManageRecipientP2P",
            "type": "templates",
            "platform": null,
            "KUID": "d8f2cd36f49949499a3a80117b8836e1"
        },
        "language": "js",
        "actions": [{
            "id": "ADD_SNIPPET_ide_onClick_b8c6ce73c1444c6384e14aaa3d5e3642",
            "type": "ADD_SNIPPET",
            "codeSnippet": "this.showSelectedRow();",
            "callbackType": null
        }]
    }
}