{
    "AS_Form_icbc5cf501194fa797e61630affa4366": {
        "id": "AS_Form_icbc5cf501194fa797e61630affa4366",
        "type": "ACTION_SEQUENCE",
        "params": [{
            "datatype": "collection",
            "name": "eventobject"
        }],
        "contextObj": {
            "name": "CopyfrmBBMyApprovals",
            "type": "forms",
            "platform": null,
            "KUID": "fc06a723c5364d18bf3a40538ed736d5"
        },
        "language": "js",
        "actions": [{
            "id": "ADD_SNIPPET_ide_preShow_e260820ce3eb443c8dbbda9dff7bb480",
            "type": "ADD_SNIPPET",
            "codeSnippet": "this.onPreShow();",
            "callbackType": null
        }]
    }
}