{
    "AS_FlexContainer_fb610951c0644066bcb0dc7250f17961": {
        "id": "AS_FlexContainer_fb610951c0644066bcb0dc7250f17961",
        "type": "ACTION_SEQUENCE",
        "params": [{
            "datatype": "collection",
            "name": "eventobject"
        }, {
            "datatype": "collection",
            "name": "context"
        }],
        "contextObj": {
            "KUID": "g7c6f7d8d0cc483ea60ab8c384582cab",
            "name": "segFastExternalAccountsTransfersUnselectedIC",
            "platform": "",
            "type": "templates"
        },
        "language": "js",
        "actions": [{
            "id": "ADD_SNIPPET__b639cb7895ed402bb31f7944577d5dd8",
            "type": "ADD_SNIPPET",
            "codeSnippet": "this.showSelectedRow();",
            "parentId": null,
            "callbackType": null
        }]
    }
}