{
    "AS_Form_ff629bd8a25549278138d00a9f1d3371": {
        "id": "AS_Form_ff629bd8a25549278138d00a9f1d3371",
        "type": "ACTION_SEQUENCE",
        "params": [{
            "datatype": "collection",
            "name": "eventobject"
        }],
        "contextObj": {
            "name": "frmBulkTransferFiles",
            "type": "forms",
            "platform": "",
            "KUID": "dc5ccf04cd0c4c59a5b28368240d965d"
        },
        "language": "js",
        "actions": [{
            "id": "ADD_SNIPPET__fc37342b31ea4c20b6c97948ad9a41c6",
            "type": "ADD_SNIPPET",
            "codeSnippet": "self.postShow();",
            "parentId": null,
            "callbackType": null
        }]
    }
}