{
    "AS_Form_d9d37d4ca7c64bafa8efdd8259a9461e": {
        "id": "AS_Form_d9d37d4ca7c64bafa8efdd8259a9461e",
        "type": "ACTION_SEQUENCE",
        "params": [{
            "datatype": "collection",
            "name": "eventobject"
        }],
        "contextObj": {
            "name": "frmFastManagePayee",
            "type": "forms",
            "platform": "",
            "KUID": "c8f34682fbe74ec48394c2e19f654eca"
        },
        "language": "js",
        "actions": [{
            "id": "ADD_SNIPPET__ac6b1ff4652546d8821e4b82d19ec906",
            "type": "ADD_SNIPPET",
            "codeSnippet": "this.postShowActions();",
            "parentId": null,
            "callbackType": null
        }]
    }
}