{
    "AS_FlexContainer_h1ab1c72abbb443d808a1aa1264beb70": {
        "id": "AS_FlexContainer_h1ab1c72abbb443d808a1aa1264beb70",
        "type": "ACTION_SEQUENCE",
        "params": [{
            "datatype": "collection",
            "name": "eventobject"
        }, {
            "datatype": "collection",
            "name": "context"
        }],
        "contextObj": {
            "name": "segManageRecipientSelectedP2P",
            "type": "templates",
            "platform": null,
            "KUID": "a8d36b1b1cc14d45a4eb27490797c2c3"
        },
        "language": "js",
        "actions": [{
            "id": "ADD_SNIPPET_ide_onClick_f293048f1b9d4bfea6616ce641831b2c",
            "type": "ADD_SNIPPET",
            "codeSnippet": "this.showSelectedRow();",
            "callbackType": null
        }]
    }
}