{
    "AS_Form_f72c7a51ab1740d8a35c4b440b35851d": {
        "id": "AS_Form_f72c7a51ab1740d8a35c4b440b35851d",
        "type": "ACTION_SEQUENCE",
        "params": [{
            "datatype": "collection",
            "name": "eventobject"
        }],
        "contextObj": {
            "name": "frmBulkWireViewFileDetails",
            "type": "forms",
            "platform": "",
            "KUID": "a093895a710245b3b0c705d87b11c408"
        },
        "language": "js",
        "actions": [{
            "id": "ADD_SNIPPET__a3b28c9b404a4e79b05e91ca801ad34d",
            "type": "ADD_SNIPPET",
            "codeSnippet": "//this.init;",
            "parentId": null,
            "callbackType": null
        }]
    }
}