{
    "AS_FlexContainer_a39045ca27fd46f7b4b01cb17b66b1e8": {
        "id": "AS_FlexContainer_a39045ca27fd46f7b4b01cb17b66b1e8",
        "type": "ACTION_SEQUENCE",
        "params": [{
            "datatype": "collection",
            "name": "eventobject"
        }, {
            "datatype": "collection",
            "name": "context"
        }],
        "contextObj": {
            "name": "segManageRecipient",
            "type": "templates",
            "KUID": "gc7170a39a20401bb52d906605672bd8"
        },
        "language": "js",
        "actions": [{
            "id": "ADD_SNIPPET__a4c0546e8cb5441ab65b5d10af435c0f",
            "type": "ADD_SNIPPET",
            "codeSnippet": "this.showSelectedRow();",
            "parentId": null,
            "callbackType": null
        }]
    }
}