{
    "AS_Form_f31197c5de9440b1ae3309c4a563db32": {
        "id": "AS_Form_f31197c5de9440b1ae3309c4a563db32",
        "type": "ACTION_SEQUENCE",
        "params": [{
            "datatype": "collection",
            "name": "eventobject"
        }],
        "contextObj": {
            "name": "frmCreateSavingsPot",
            "type": "forms",
            "platform": "",
            "KUID": "h7e7f370b2f34c41a91e00a9c9291977"
        },
        "language": "js",
        "actions": [{
            "id": "ADD_SNIPPET_h6906d9ca6ce47a88bbe84a04b74a4fa",
            "type": "ADD_SNIPPET",
            "codeSnippet": "this.init();",
            "parentId": null,
            "callbackType": null
        }]
    }
}