{
    "AS_Form_ecdb6c3f56ad424887102ac5faf7f0db": {
        "id": "AS_Form_ecdb6c3f56ad424887102ac5faf7f0db",
        "type": "ACTION_SEQUENCE",
        "params": [{
            "datatype": "collection",
            "name": "eventobject"
        }],
        "contextObj": {
            "name": "frmLogin",
            "type": "forms",
            "platform": "",
            "KUID": "j0329c6c64654440bf366abc8de81b74"
        },
        "language": "js",
        "actions": [{
            "id": "ADD_SNIPPET__d975c46d32ee4798903924277adcb322",
            "type": "ADD_SNIPPET",
            "codeSnippet": "this.preshowFrmLogin();",
            "parentId": null,
            "callbackType": null
        }]
    }
}