{
    "AS_Form_hfd04c449d0f412eb5fbbb5de5bda627": {
        "id": "AS_Form_hfd04c449d0f412eb5fbbb5de5bda627",
        "type": "ACTION_SEQUENCE",
        "params": [{
            "datatype": "collection",
            "name": "eventobject"
        }],
        "contextObj": {
            "name": "frmP2PAddRecipient",
            "type": "forms",
            "platform": null,
            "KUID": "fe10cbdfcd43425f8c46aedadf0f84ed"
        },
        "language": "js",
        "actions": [{
            "id": "INVOKE_FUNCTION__ide_init_e66111b31c874137a58c8f472b284310",
            "type": "INVOKE_FUNCTION",
            "sequenceKUID": "init",
            "display": "init",
            "inputparams": [],
            "callbackType": null,
            "disabled": null,
            "source": "controller"
        }]
    }
}