{
    "AS_Form_a916cb32c4a342fa8dc22af3484ba871": {
        "id": "AS_Form_a916cb32c4a342fa8dc22af3484ba871",
        "type": "ACTION_SEQUENCE",
        "params": [{
            "datatype": "collection",
            "name": "eventobject"
        }],
        "contextObj": {
            "name": "frmVerifyAccount",
            "type": "forms",
            "platform": "",
            "KUID": "cd9d334f742c4ef3addf06485fd42e4c"
        },
        "language": "js",
        "actions": [{
            "id": "ADD_SNIPPET__b88674cc30424218835ccc5b27cd3723",
            "type": "ADD_SNIPPET",
            "codeSnippet": "//Need to Consolidate\nkony.print(\"Back button pressed\");",
            "parentId": null,
            "callbackType": null
        }]
    }
}