{
    "AS_FlexContainer_c9a9542ad9cd44b0b6c6e1922f00e4af": {
        "id": "AS_FlexContainer_c9a9542ad9cd44b0b6c6e1922f00e4af",
        "type": "ACTION_SEQUENCE",
        "params": [{
            "datatype": "collection",
            "name": "eventobject"
        }, {
            "datatype": "collection",
            "name": "context"
        }],
        "contextObj": {
            "name": "segFeaturePermissions",
            "type": "templates",
            "platform": "",
            "KUID": "f0b706cc9ea7461cbd75bd9ee8a67c31"
        },
        "language": "js",
        "actions": [{
            "id": "INVOKE_FUNCTION___i0c634ca13164b6480eb3a2c82a60357",
            "type": "INVOKE_FUNCTION",
            "sequenceKUID": "selectOrUnselectParentFeature",
            "display": "selectOrUnselectParentFeature",
            "inputparams": [{
                "name": "eventobject",
                "value": " eventobject"
            }, {
                "name": "context",
                "value": " context"
            }],
            "parentId": null,
            "callbackType": null,
            "disabled": null,
            "source": "controller"
        }]
    }
}