{
    "AS_FlexContainer_a53d1f70572b460cb9d886a6a256e412": {
        "id": "AS_FlexContainer_a53d1f70572b460cb9d886a6a256e412",
        "type": "ACTION_SEQUENCE",
        "params": [{
            "datatype": "collection",
            "name": "eventobject"
        }, {
            "datatype": "collection",
            "name": "context"
        }],
        "contextObj": {
            "name": "segDisputedTransactionsUnSelectedWrapperMobile",
            "type": "templates",
            "platform": "",
            "KUID": "f27d516cf8424b3c816d5fcfd72f3867"
        },
        "language": "js",
        "actions": [{
            "id": "ADD_SNIPPET_h59a160f289a4b11b5ca12ce821012b3",
            "type": "ADD_SNIPPET",
            "codeSnippet": "this.showSelectedRow();",
            "parentId": null
        }]
    }
}