{
    "AS_FlexContainer_ababfa31016544888c66880a4919a87f": {
        "id": "AS_FlexContainer_ababfa31016544888c66880a4919a87f",
        "type": "ACTION_SEQUENCE",
        "params": [{
            "datatype": "collection",
            "name": "eventobject"
        }],
        "contextObj": {
            "name": "frmAcknowledgementEur",
            "type": "forms",
            "platform": null,
            "KUID": "a6931f4472b444e19ecff6cf00252086"
        },
        "language": "js",
        "actions": [{
            "id": "ADD_SNIPPET_ide_onClick_gfbbfed24d0048b8886c3e21c01d909a",
            "type": "ADD_SNIPPET",
            "codeSnippet": "this.showUserActions();",
            "callbackType": null
        }]
    }
}