{
    "AS_FlexContainer_hdeb8e346bb64bb38a7754bd797dd402": {
        "id": "AS_FlexContainer_hdeb8e346bb64bb38a7754bd797dd402",
        "type": "ACTION_SEQUENCE",
        "params": [{
            "datatype": "collection",
            "name": "eventobject"
        }, {
            "datatype": "collection",
            "name": "context"
        }],
        "contextObj": {
            "name": "segChequeManagementUnSelectedTablet",
            "type": "templates",
            "platform": "",
            "KUID": "c8ecb4e29ed84fe6802cc61212dd7440"
        },
        "language": "js",
        "actions": [{
            "id": "ADD_SNIPPET_f8fb3ac268ee49e8ad4152e6283361ad",
            "type": "ADD_SNIPPET",
            "codeSnippet": "this.showSelectedRow();",
            "parentId": null
        }]
    }
}