{
    "AS_FlexContainer_cacb5cc7f0854a678518359ae6f2c6d9": {
        "id": "AS_FlexContainer_cacb5cc7f0854a678518359ae6f2c6d9",
        "type": "ACTION_SEQUENCE",
        "params": [{
            "datatype": "collection",
            "name": "eventobject"
        }],
        "contextObj": {
            "name": "CopyfrmAddExternalAccount",
            "type": "forms",
            "platform": null,
            "KUID": "afe51522323e4a0c8857c1ef70ef41f4"
        },
        "language": "js",
        "actions": [{
            "id": "ADD_SNIPPET_ide_onClick_d4ebe06a05654dc394f7aed2e12593c0",
            "type": "ADD_SNIPPET",
            "codeSnippet": "//this.closeHamburgerMenu();",
            "callbackType": null
        }]
    }
}