{
    "AS_FlexContainer_ca66915b23b240feb751008240b375ae": {
        "id": "AS_FlexContainer_ca66915b23b240feb751008240b375ae",
        "type": "ACTION_SEQUENCE",
        "params": [{
            "datatype": "collection",
            "name": "eventobject"
        }],
        "contextObj": {
            "name": "frmNotificationsAndMessages",
            "type": "forms",
            "platform": "",
            "KUID": "a83a23bb52bc4894a44b027a89964c1b"
        },
        "language": "js",
        "actions": []
    }
}