{
    "AS_FlexContainer_j7d2e2d54ceb4a5e888e95272b658a1d": {
        "id": "AS_FlexContainer_j7d2e2d54ceb4a5e888e95272b658a1d",
        "type": "ACTION_SEQUENCE",
        "params": [{
            "datatype": "collection",
            "name": "eventobject"
        }, {
            "datatype": "collection",
            "name": "context"
        }],
        "contextObj": {
            "name": "segProfileManagementEmail",
            "type": "templates",
            "platform": "",
            "KUID": "f9c67f983dde4bab87369981dc6b59f5"
        },
        "language": "js",
        "actions": []
    }
}