{
    "AS_FlexContainer_eb33e9b3f7bd4f61973eb79b13add610": {
        "id": "AS_FlexContainer_eb33e9b3f7bd4f61973eb79b13add610",
        "type": "ACTION_SEQUENCE",
        "params": [{
            "datatype": "collection",
            "name": "eventobject"
        }, {
            "datatype": "collection",
            "name": "context"
        }],
        "contextObj": {
            "name": "segRecentsWireTransfersSelected",
            "type": "templates",
            "platform": "",
            "KUID": "fba0115a8879452ea8181f1c0498fd92"
        },
        "language": "js",
        "actions": [{
            "id": "ADD_SNIPPET__af3fdc4ef37a4c3d9920bc932d4c7075",
            "type": "ADD_SNIPPET",
            "codeSnippet": "this.showSelectedRow();",
            "parentId": null,
            "callbackType": null
        }]
    }
}