{
    "AS_Form_a564d3de94874a9a92275166b7209f10": {
        "id": "AS_Form_a564d3de94874a9a92275166b7209f10",
        "type": "ACTION_SEQUENCE",
        "params": [{
            "datatype": "collection",
            "name": "eventobject"
        }, {
            "datatype": "string",
            "name": "x"
        }, {
            "datatype": "string",
            "name": "y"
        }],
        "contextObj": {
            "name": "frmPayAPerson",
            "type": "forms",
            "platform": null,
            "KUID": "b19e9f55ebab4254b5eadf20d2a4c409"
        },
        "language": "js",
        "actions": [{
            "id": "ADD_SNIPPET_ide_onTouchEnd_de603394791143abbf49e2b452c9ecd0",
            "type": "ADD_SNIPPET",
            "codeSnippet": "hidePopups();",
            "callbackType": null
        }]
    }
}