{
    "AS_Form_eefa879fe48d4cc785e9189b5cc7491a": {
        "id": "AS_Form_eefa879fe48d4cc785e9189b5cc7491a",
        "type": "ACTION_SEQUENCE",
        "params": [{
            "datatype": "collection",
            "name": "eventobject"
        }],
        "contextObj": {
            "name": "frmLocateUsAllTab",
            "type": "forms",
            "platform": "",
            "KUID": "c2fe4f1fca364829a47e46beaacd9ab8"
        },
        "language": "js",
        "actions": [{
            "id": "ADD_SNIPPET_d15af9b366cc4a37b1edf2f617cb4866",
            "type": "ADD_SNIPPET",
            "codeSnippet": "this.init();",
            "parentId": null
        }]
    }
}