{
    "AS_Form_ea0676b6305641d4848f2e4157c16c3b": {
        "actions": [
            {
                "callbackType": null,
                "codeSnippet": "this.onPreShow();",
                "id": "ADD_SNIPPET__acc8fa2056cd4750ac8ae314dce731c7",
                "parentId": null,
                "type": "ADD_SNIPPET"
            }
        ],
        "contextObj": {
            "KUID": "c2ba18e95cc34afb9afdd6df8130ae80",
            "name": "frmACHDashboard",
            "platform": "",
            "type": "forms"
        },
        "id": "AS_Form_ea0676b6305641d4848f2e4157c16c3b",
        "language": "js",
        "params": [
            {
                "datatype": "collection",
                "name": "eventobject"
            }
        ],
        "type": "ACTION_SEQUENCE"
    }
}