{
    "AS_FlexContainer_a7df5e125bb64b27ad2145c10bf8b09f": {
        "id": "AS_FlexContainer_a7df5e125bb64b27ad2145c10bf8b09f",
        "type": "ACTION_SEQUENCE",
        "params": [{
            "datatype": "collection",
            "name": "eventobject"
        }],
        "contextObj": {
            "name": "frmPayDueAmount",
            "type": "forms",
            "platform": "",
            "KUID": "ba0b4f38b88d4ad7a2c69bb7d0d38c44"
        },
        "language": "js",
        "actions": [{
            "id": "ADD_SNIPPET__fc782b67cec04caa89863e54ab2f699f",
            "type": "ADD_SNIPPET",
            "codeSnippet": "this.payDueAmountRadioButton(\"Other\");",
            "parentId": null,
            "callbackType": null
        }]
    }
}