{
    "AS_FlexContainer_f1294b7a2c7643f6a4c2bdd7c3c9d0a8": {
        "id": "AS_FlexContainer_f1294b7a2c7643f6a4c2bdd7c3c9d0a8",
        "type": "ACTION_SEQUENCE",
        "params": [{
            "datatype": "collection",
            "name": "eventobject"
        }, {
            "datatype": "collection",
            "name": "context"
        }],
        "contextObj": {
            "name": "segFeaturePermissions",
            "type": "templates",
            "platform": "",
            "KUID": "f0b706cc9ea7461cbd75bd9ee8a67c31"
        },
        "language": "js",
        "actions": [{
            "id": "INVOKE_FUNCTION___de0b9026572140658472d6e4a5193ac1",
            "type": "INVOKE_FUNCTION",
            "sequenceKUID": "selectOrUnselectParentFeature",
            "display": "selectOrUnselectParentFeature",
            "inputparams": [{
                "name": "eventobject",
                "value": " eventobject"
            }, {
                "name": "context",
                "value": " context"
            }],
            "parentId": null,
            "callbackType": null,
            "disabled": null,
            "source": "controller"
        }]
    }
}