{
    "AS_Form_fa4870f04ba1430cbfd3f1dceb925668": {
        "id": "AS_Form_fa4870f04ba1430cbfd3f1dceb925668",
        "type": "ACTION_SEQUENCE",
        "params": [{
            "datatype": "collection",
            "name": "eventobject"
        }],
        "contextObj": {
            "name": "frmProfileManagement",
            "type": "forms",
            "platform": "",
            "KUID": "e136103788ec406cab0b1d0f2087f12b"
        },
        "language": "js",
        "actions": [{
            "id": "ADD_SNIPPET__f4a849a3f8114684bf734cc973c3f807",
            "type": "ADD_SNIPPET",
            "codeSnippet": "this.postShowProfileManagement();",
            "parentId": null,
            "callbackType": null
        }]
    }
}