{
    "AS_FlexContainer_d115578c61ec4f85a2b4966f535b9bfe": {
        "id": "AS_FlexContainer_d115578c61ec4f85a2b4966f535b9bfe",
        "type": "ACTION_SEQUENCE",
        "params": [{
            "datatype": "collection",
            "name": "eventobject"
        }, {
            "datatype": "collection",
            "name": "context"
        }],
        "contextObj": {
            "name": "segPastPaymentsSelectedEur",
            "type": "templates",
            "platform": "",
            "KUID": "jbfae53d100146fca0b5753db06b7b00"
        },
        "language": "js",
        "actions": [{
            "id": "ADD_SNIPPET_a02ff4d826d6498db4a5ee6ca908ef3a",
            "type": "ADD_SNIPPET",
            "codeSnippet": "this.showUnselectedRow();",
            "parentId": null
        }]
    }
}