{
    "AS_Form_d11489da236d436eb49117357b28928a": {
        "id": "AS_Form_d11489da236d436eb49117357b28928a",
        "type": "ACTION_SEQUENCE",
        "params": [{
            "datatype": "collection",
            "name": "eventobject"
        }, {
            "datatype": "string",
            "name": "x"
        }, {
            "datatype": "string",
            "name": "y"
        }],
        "contextObj": {
            "name": "frmEnrollNowBusiness",
            "type": "forms",
            "platform": null,
            "KUID": "c34b0397365a4e57a311fd6ef8e410ce"
        },
        "language": "js",
        "actions": [{
            "id": "ADD_SNIPPET_ide_onTouchEnd_a35ce6720e064e0e83c379ad50bc5061",
            "type": "ADD_SNIPPET",
            "codeSnippet": "hidePopups();",
            "callbackType": null
        }]
    }
}