{
    "AS_FlexContainer_j650409ce7f14faba7e5d01b4e758149": {
        "id": "AS_FlexContainer_j650409ce7f14faba7e5d01b4e758149",
        "type": "ACTION_SEQUENCE",
        "params": [{
            "datatype": "collection",
            "name": "eventobject"
        }, {
            "datatype": "collection",
            "name": "context"
        }],
        "contextObj": {
            "name": "segBulkPayementRowTemplate",
            "type": "templates",
            "platform": "",
            "KUID": "db1d94e92aa74a4d99f615975eb77301"
        },
        "language": "js",
        "actions": [{
            "id": "INVOKE_FUNCTION__g665896e415946afad3c31babc78fe12",
            "type": "INVOKE_FUNCTION",
            "sequenceKUID": "showDetails",
            "display": "showDetails",
            "inputparams": [{
                "name": "eventobject",
                "value": " eventobject"
            }, {
                "name": "context",
                "value": " context"
            }],
            "parentId": null,
            "callbackType": null,
            "disabled": null,
            "source": "controller"
        }]
    }
}