{
    "AS_FlexContainer_f0a61e8d7ebf4baca41643c3df6ca622": {
        "id": "AS_FlexContainer_f0a61e8d7ebf4baca41643c3df6ca622",
        "type": "ACTION_SEQUENCE",
        "params": [{
            "datatype": "collection",
            "name": "eventobject"
        }, {
            "datatype": "collection",
            "name": "context"
        }],
        "contextObj": {
            "name": "segPFMUnCategorizedTransactionsPFMMobile",
            "type": "templates",
            "platform": "",
            "KUID": "hde8d3d3a5e8437e83553fb05d8e070f"
        },
        "language": "js",
        "actions": [{
            "id": "ADD_SNIPPET__f5eac0ca263d4cdc86c34115623dd0b5",
            "type": "ADD_SNIPPET",
            "codeSnippet": "this.showSelectedRow();",
            "parentId": null,
            "callbackType": null
        }]
    }
}