{
    "AS_FlexContainer_b64c9fb184b843579dd945a42f76eae0": {
        "id": "AS_FlexContainer_b64c9fb184b843579dd945a42f76eae0",
        "type": "ACTION_SEQUENCE",
        "params": [{
            "datatype": "collection",
            "name": "eventobject"
        }, {
            "datatype": "collection",
            "name": "context"
        }],
        "contextObj": {
            "name": "segSendRequestSelected",
            "type": "templates",
            "platform": "",
            "KUID": "h6f637e9455f4e19b766fbc2ebe8c496"
        },
        "language": "js",
        "actions": [{
            "id": "ADD_SNIPPET__e845cb45883e4ebcb01c1992eba0cc66",
            "type": "ADD_SNIPPET",
            "codeSnippet": "this.showSelectedRow();",
            "parentId": null,
            "callbackType": null
        }]
    }
}