{
    "AS_FlexContainer_ac97bc4b6e334e2d9ab422dd95680583": {
        "id": "AS_FlexContainer_ac97bc4b6e334e2d9ab422dd95680583",
        "type": "ACTION_SEQUENCE",
        "params": [{
            "datatype": "collection",
            "name": "eventobject"
        }, {
            "datatype": "collection",
            "name": "context"
        }],
        "language": "js",
        "actions": [{
            "id": "ADD_SNIPPET_ide_onClick_je8951a9af8747988c2e6b60e51b7fe9",
            "type": "ADD_SNIPPET",
            "codeSnippet": "this.toggleCheckBox();",
            "callbackType": null
        }]
    }
}