{
    "AS_Form_h1d5599155334af882c936a5b71e785c": {
        "id": "AS_Form_h1d5599155334af882c936a5b71e785c",
        "type": "ACTION_SEQUENCE",
        "params": [{
            "datatype": "collection",
            "name": "eventobject"
        }],
        "contextObj": {
            "name": "CopyfrmBBApprovalHistory",
            "type": "forms",
            "platform": null,
            "KUID": "f8f89be47e6b4a799a514e6370f815dd"
        },
        "language": "js",
        "actions": [{
            "id": "ADD_SNIPPET_ide_onDeviceBack_f0506f2f265842e68ee29c523813ca88",
            "type": "ADD_SNIPPET",
            "codeSnippet": "kony.print(\"Back Button Pressed\");"
        }]
    }
}