{
    "AS_Form_debd6d79386b4b94b2e1f527a6b35c25": {
        "id": "AS_Form_debd6d79386b4b94b2e1f527a6b35c25",
        "type": "ACTION_SEQUENCE",
        "params": [{
            "datatype": "collection",
            "name": "eventobject"
        }],
        "contextObj": {
            "name": "frmAccountsLanding",
            "type": "forms",
            "platform": "",
            "KUID": "c0567b2e5ece4b0cbbe1b35e3c8f3103"
        },
        "language": "js",
        "actions": [{
            "id": "ADD_SNIPPET__ff6ad01ddb7c47dfa01afc46ac2b19e2",
            "type": "ADD_SNIPPET",
            "codeSnippet": "this.onLoadChangePointer();\nthis.postShow();\nthis.setContextualMenuLeft();\n",
            "parentId": null,
            "callbackType": null
        }]
    }
}