{
    "AS_Form_h071a6a2b43446deb39efd56817d6cd7": {
        "id": "AS_Form_h071a6a2b43446deb39efd56817d6cd7",
        "type": "ACTION_SEQUENCE",
        "params": [{
            "datatype": "collection",
            "name": "eventobject"
        }],
        "contextObj": {
            "name": "frmNAO",
            "type": "forms",
            "platform": "",
            "KUID": "bf92432b783b4654a4621f52754a686e"
        },
        "language": "js",
        "actions": [{
            "id": "ADD_SNIPPET__aa37aaebb07c4693b98edd9c820eb705",
            "type": "ADD_SNIPPET",
            "codeSnippet": "this.preShowNAO();",
            "parentId": null,
            "callbackType": null
        }]
    }
}