{
    "AS_FlexContainer_d3b1e26fabd44cb7b5b6ace1c455e0f7": {
        "id": "AS_FlexContainer_d3b1e26fabd44cb7b5b6ace1c455e0f7",
        "type": "ACTION_SEQUENCE",
        "params": [{
            "datatype": "collection",
            "name": "eventobject"
        }, {
            "datatype": "string",
            "name": "x"
        }, {
            "datatype": "string",
            "name": "y"
        }],
        "contextObj": {
            "name": "frmTransfersEur",
            "type": "forms",
            "platform": null,
            "KUID": "ce91c8ed58094b46825ffa2ecbf979d7"
        },
        "language": "js",
        "actions": [{
            "id": "ADD_SNIPPET_ide_onTouchEnd_cd35af539084433db8ec65dd2e5c4494",
            "type": "ADD_SNIPPET",
            "codeSnippet": "this.view.flxContextualMenu.setVisibility(false);",
            "callbackType": null
        }]
    }
}