{
    "AS_Form_j80a3560ba764284a9f5ea3de7601fdc": {
        "id": "AS_Form_j80a3560ba764284a9f5ea3de7601fdc",
        "type": "ACTION_SEQUENCE",
        "params": [{
            "datatype": "collection",
            "name": "eventobject"
        }],
        "contextObj": {
            "name": "frmFastActiveRecipient",
            "type": "forms",
            "platform": "",
            "KUID": "f280d3f60b9c4ad0a278ff87ee48f676"
        },
        "language": "js",
        "actions": [{
            "id": "ADD_SNIPPET__ab104bfad1a643b4a1f9497c71cf6f5c",
            "type": "ADD_SNIPPET",
            "codeSnippet": "this.preShowActive();",
            "parentId": null,
            "callbackType": null
        }]
    }
}