{
    "AS_FlexContainer_ga457bbc3b854af5a94d45b2666c832f": {
        "id": "AS_FlexContainer_ga457bbc3b854af5a94d45b2666c832f",
        "type": "ACTION_SEQUENCE",
        "params": [{
            "datatype": "collection",
            "name": "eventobject"
        }, {
            "datatype": "collection",
            "name": "context"
        }],
        "contextObj": {
            "name": "segFeaturePermissions",
            "type": "templates",
            "platform": "",
            "KUID": "f0b706cc9ea7461cbd75bd9ee8a67c31"
        },
        "language": "js",
        "actions": [{
            "id": "INVOKE_FUNCTION___d3c4a79b93884804b69eade0b877dbf7",
            "type": "INVOKE_FUNCTION",
            "sequenceKUID": "selectOrUnselectParentFeature",
            "display": "selectOrUnselectParentFeature",
            "inputparams": [{
                "name": "eventobject",
                "value": " eventobject"
            }, {
                "name": "context",
                "value": " context"
            }],
            "parentId": null,
            "callbackType": null,
            "disabled": null,
            "source": "controller"
        }]
    }
}