{
    "AS_Form_c0b71de19f3440d790f7522027d43434": {
        "id": "AS_Form_c0b71de19f3440d790f7522027d43434",
        "type": "ACTION_SEQUENCE",
        "params": [{
            "datatype": "collection",
            "name": "eventobject"
        }, {
            "datatype": "string",
            "name": "x"
        }, {
            "datatype": "string",
            "name": "y"
        }],
        "contextObj": {
            "name": "frmBillPay",
            "type": "forms",
            "platform": "",
            "KUID": "h754f638fe6d4c56aac376a2f3adf18b"
        },
        "language": "js",
        "actions": [{
            "id": "ADD_SNIPPET__c0b59e7a1b0c4b64822c8e106524077f",
            "type": "ADD_SNIPPET",
            "codeSnippet": "hidePopups();",
            "parentId": null,
            "callbackType": null
        }]
    }
}