{
    "AS_Form_b366a82cbd174f63884727df2d0ac2e8": {
        "id": "AS_Form_b366a82cbd174f63884727df2d0ac2e8",
        "type": "ACTION_SEQUENCE",
        "params": [{
            "datatype": "collection",
            "name": "eventobject"
        }],
        "contextObj": {
            "name": "frmAddExternalAccount",
            "type": "forms",
            "platform": "",
            "KUID": "g44e89ee0cb445b982945b6b358d77eb"
        },
        "language": "js",
        "actions": [{
            "id": "ADD_SNIPPET__fd8dcd233e904671bffb1655a038696e",
            "type": "ADD_SNIPPET",
            "codeSnippet": "this.postshowAddExternalAccount();",
            "parentId": null,
            "callbackType": null
        }]
    }
}