{
    "AS_FlexContainer_c098f086593c4c75b973b72b694b92df": {
        "id": "AS_FlexContainer_c098f086593c4c75b973b72b694b92df",
        "type": "ACTION_SEQUENCE",
        "params": [{
            "datatype": "collection",
            "name": "eventobject"
        }, {
            "datatype": "collection",
            "name": "context"
        }],
        "contextObj": {
            "name": "segDownloadAttachmentsPast",
            "type": "templates",
            "platform": null,
            "KUID": "d54d180f67904679a74f84d7f2bae100"
        },
        "language": "js",
        "actions": [{
            "id": "INVOKE_FUNCTION__ide_onClick_cd7536a2378041019926bdc02973d90a",
            "type": "INVOKE_FUNCTION",
            "sequenceKUID": "downloadSingleFile",
            "display": "downloadSingleFile",
            "inputparams": [],
            "callbackType": null,
            "disabled": null,
            "source": "controller"
        }]
    }
}