{
    "AS_FlexContainer_b31127bfb76948c593d0147e0bbbd894": {
        "id": "AS_FlexContainer_b31127bfb76948c593d0147e0bbbd894",
        "type": "ACTION_SEQUENCE",
        "params": [{
            "datatype": "collection",
            "name": "eventobject"
        }],
        "contextObj": {
            "name": "frmAddExternalAccount",
            "type": "forms",
            "platform": "",
            "KUID": "g44e89ee0cb445b982945b6b358d77eb"
        },
        "language": "js",
        "actions": [{
            "id": "ADD_SNIPPET__b3559a05142e44aa9f96a82479503375",
            "type": "ADD_SNIPPET",
            "codeSnippet": "this.toggleCheckBox();",
            "parentId": null,
            "callbackType": null
        }]
    }
}