{
    "AS_FlexContainer_ef5f4f299076488d997e34b37b39f814": {
        "id": "AS_FlexContainer_ef5f4f299076488d997e34b37b39f814",
        "type": "ACTION_SEQUENCE",
        "params": [{
            "datatype": "collection",
            "name": "eventobject"
        }, {
            "datatype": "collection",
            "name": "context"
        }],
        "contextObj": {
            "name": "segFastPastTransfersSelected",
            "type": "templates",
            "platform": "",
            "KUID": "hab4ddc26b884537bad5fb97b9d836e8"
        },
        "language": "js",
        "actions": [{
            "id": "ADD_SNIPPET__b640e347cadf4e7bb66383ea9b2e4c6f",
            "type": "ADD_SNIPPET",
            "codeSnippet": "this.showUnselectedRow();",
            "parentId": null,
            "callbackType": null
        }]
    }
}