{
    "AS_FlexContainer_a74c7e232d64498dadced7789bac7c12": {
        "id": "AS_FlexContainer_a74c7e232d64498dadced7789bac7c12",
        "type": "ACTION_SEQUENCE",
        "params": [{
            "datatype": "collection",
            "name": "eventobject"
        }, {
            "datatype": "collection",
            "name": "context"
        }],
        "contextObj": {
            "name": "segRecentTransfersSelected",
            "type": "templates",
            "platform": "",
            "KUID": "a1b486105e3e41808b91c29c3fca391b"
        },
        "language": "js",
        "actions": [{
            "id": "ADD_SNIPPET__f127d5a910fc401bb2d13c7c664e3127",
            "type": "ADD_SNIPPET",
            "codeSnippet": "this.showUnselectedRow();",
            "parentId": null,
            "callbackType": null
        }]
    }
}