{
    "AS_FlexContainer_j7f3936d1cfa4c7aba4440c8fd2e5f8f": {
        "id": "AS_FlexContainer_j7f3936d1cfa4c7aba4440c8fd2e5f8f",
        "type": "ACTION_SEQUENCE",
        "params": [{
            "datatype": "collection",
            "name": "eventobject"
        }],
        "contextObj": {
            "name": "frmAcknowledgementEur",
            "type": "forms",
            "platform": null,
            "KUID": "a6931f4472b444e19ecff6cf00252086"
        },
        "language": "js",
        "actions": [{
            "id": "ADD_SNIPPET_ide_onClick_b5b16e954f0e4e928612819f0a936fdc",
            "type": "ADD_SNIPPET",
            "codeSnippet": "this.showUserActions();",
            "callbackType": null
        }]
    }
}