{
    "AS_FlexContainer_c6b1b3c9207b481986bf71531f15708f": {
        "id": "AS_FlexContainer_c6b1b3c9207b481986bf71531f15708f",
        "type": "ACTION_SEQUENCE",
        "params": [{
            "datatype": "collection",
            "name": "eventobject"
        }],
        "language": "js",
        "actions": [{
            "id": "ADD_SNIPPET_ide_onClick_g94164a9e494496985493d69e99db12d",
            "type": "ADD_SNIPPET",
            "codeSnippet": "this.toggleCheckbox();",
            "callbackType": null
        }]
    }
}