{
    "AS_FlexContainer_c27bcda593564aa39725c81f767c99b4": {
        "id": "AS_FlexContainer_c27bcda593564aa39725c81f767c99b4",
        "type": "ACTION_SEQUENCE",
        "params": [{
            "datatype": "collection",
            "name": "eventobject"
        }],
        "contextObj": {
            "name": "frmCustomerFeedbackSurvey",
            "type": "forms",
            "platform": "",
            "KUID": "ad9d39604a4348e1b3724c4bc446e1b4"
        },
        "language": "js",
        "actions": [{
            "id": "ADD_SNIPPET__f5f6bc734dba44569611bb890d49bf23",
            "type": "ADD_SNIPPET",
            "codeSnippet": "this.showRatingAction();",
            "parentId": null,
            "callbackType": null
        }]
    }
}