{
    "AS_FlexContainer_ee08aadf174748f8ac0a4703acbf236d": {
        "id": "AS_FlexContainer_ee08aadf174748f8ac0a4703acbf236d",
        "type": "ACTION_SEQUENCE",
        "params": [{
            "datatype": "collection",
            "name": "eventobject"
        }, {
            "datatype": "collection",
            "name": "context"
        }],
        "contextObj": {
            "KUID": "b76f7509036f459d8306ec66fd637872",
            "name": "segExternalAccountsFastTransfersSelectedNewIC",
            "platform": null,
            "type": "templates"
        },
        "language": "js",
        "actions": [{
            "id": "ADD_SNIPPET_ide_onClick_e889dd90145e4819ac88ae3a2db6b488",
            "type": "ADD_SNIPPET",
            "codeSnippet": "this.showUnselectedRow();",
            "callbackType": null
        }]
    }
}