{
    "AS_FlexContainer_gf509ea55f7347ae81f70361bae22054": {
        "id": "AS_FlexContainer_gf509ea55f7347ae81f70361bae22054",
        "type": "ACTION_SEQUENCE",
        "params": [{
            "datatype": "collection",
            "name": "eventobject"
        }],
        "contextObj": {
            "name": "frmEnrollNowBusiness",
            "type": "forms",
            "platform": null,
            "KUID": "c34b0397365a4e57a311fd6ef8e410ce"
        },
        "language": "js",
        "actions": [{
            "id": "ADD_SNIPPET_ide_onClick_fa0593a0935849308f22342d671fba67",
            "type": "ADD_SNIPPET",
            "codeSnippet": "this.onFeedbackCrossClick();",
            "callbackType": null
        }]
    }
}