{
    "AS_Form_df54577c6e6c42638599a408181d6f22": {
        "id": "AS_Form_df54577c6e6c42638599a408181d6f22",
        "type": "ACTION_SEQUENCE",
        "params": [{
            "datatype": "collection",
            "name": "eventobject"
        }],
        "contextObj": {
            "name": "frmP2PSettingsReview",
            "type": "forms",
            "platform": null,
            "KUID": "b9cbbad6862f4104966bab9ce13cdf48"
        },
        "language": "js",
        "actions": [{
            "id": "INVOKE_FUNCTION__ide_init_i1191359faa745829bdf2e776ef49da5",
            "type": "INVOKE_FUNCTION",
            "sequenceKUID": "init",
            "display": "init",
            "inputparams": [],
            "callbackType": null,
            "disabled": null,
            "source": "controller"
        }]
    }
}