{
    "AS_FlexContainer_c601fc43ee564306a0959c51c7779416": {
        "id": "AS_FlexContainer_c601fc43ee564306a0959c51c7779416",
        "type": "ACTION_SEQUENCE",
        "params": [{
            "datatype": "collection",
            "name": "eventobject"
        }],
        "contextObj": {
            "name": "frmAccountsLanding",
            "type": "forms",
            "platform": "",
            "KUID": "c0567b2e5ece4b0cbbe1b35e3c8f3103"
        },
        "language": "js",
        "actions": [{
            "id": "ADD_SNIPPET__bf57d70860244e9291b68916d8d18868",
            "type": "ADD_SNIPPET",
            "codeSnippet": "this.navigateToMyAccounts();",
            "parentId": null,
            "callbackType": null
        }]
    }
}