{
    "AS_FlexContainer_bc65b0ef2c394271a3577b620d0b4b9a": {
        "id": "AS_FlexContainer_bc65b0ef2c394271a3577b620d0b4b9a",
        "type": "ACTION_SEQUENCE",
        "params": [{
            "datatype": "collection",
            "name": "eventobject"
        }, {
            "datatype": "collection",
            "name": "context"
        }],
        "contextObj": {
            "name": "segManageRecipientsWireTransfersMobileSelectedNew",
            "type": "templates",
            "platform": "",
            "KUID": "f46321fab07c49969906df058a9a68f9"
        },
        "language": "js",
        "actions": [{
            "id": "ADD_SNIPPET__e7f5b3330e294487acddde0070fae5c2",
            "type": "ADD_SNIPPET",
            "codeSnippet": "this.showSelectedRow();",
            "parentId": null
        }]
    }
}