{
    "AS_FlexContainer_g76db7d5ac774e3eaa75e14a7168bff3": {
        "id": "AS_FlexContainer_g76db7d5ac774e3eaa75e14a7168bff3",
        "type": "ACTION_SEQUENCE",
        "params": [{
            "datatype": "collection",
            "name": "eventobject"
        }],
        "contextObj": {
            "name": "frmVerifyAccountEur",
            "type": "forms",
            "platform": null,
            "KUID": "e4fe1a12814546a2a3fe8fae1a02d68d"
        },
        "language": "js",
        "actions": [{
            "id": "ADD_SNIPPET_ide_onClick_aeadbb5c168945c58a368316fbf0ba3b",
            "type": "ADD_SNIPPET",
            "codeSnippet": "this.showUserActions();",
            "callbackType": null
        }]
    }
}