{
    "AS_FlexContainer_h268397d456e4955a1fdc11d25c6f420": {
        "id": "AS_FlexContainer_h268397d456e4955a1fdc11d25c6f420",
        "type": "ACTION_SEQUENCE",
        "params": [{
            "datatype": "collection",
            "name": "eventobject"
        }, {
            "datatype": "collection",
            "name": "context"
        }],
        "contextObj": {
            "name": "segManageRecipientsWireTransfersUnselected",
            "type": "templates",
            "platform": "",
            "KUID": "bf120f122bba451c9cd160188d0fd0c4"
        },
        "language": "js",
        "actions": [{
            "id": "ADD_SNIPPET__e571230c659040c89fb747568b350c83",
            "type": "ADD_SNIPPET",
            "codeSnippet": "this.showSelectedRow();",
            "parentId": null,
            "callbackType": null
        }]
    }
}