{
    "AS_Form_i0f3721740ec44cfb039646739a57c7d": {
        "id": "AS_Form_i0f3721740ec44cfb039646739a57c7d",
        "type": "ACTION_SEQUENCE",
        "params": [{
            "datatype": "collection",
            "name": "eventobject"
        }],
        "contextObj": {
            "name": "frmFastAddExternalAccount",
            "type": "forms",
            "platform": "",
            "KUID": "ibd12100ce3e4011bb182bcaa8703fa5"
        },
        "language": "js",
        "actions": [{
            "id": "ADD_SNIPPET__j9c8b132652743c19232e9df0edb42da",
            "type": "ADD_SNIPPET",
            "codeSnippet": "this.preShowAddExternalAccount();",
            "parentId": null,
            "callbackType": null
        }]
    }
}