{
    "AS_FlexContainer_h8251eb09eac418a91014c518eba847f": {
        "id": "AS_FlexContainer_h8251eb09eac418a91014c518eba847f",
        "type": "ACTION_SEQUENCE",
        "params": [{
            "datatype": "collection",
            "name": "eventobject"
        }],
        "contextObj": {
            "name": "CopyfrmLogin",
            "type": "forms",
            "platform": null,
            "KUID": "d6328cf267c248a6b559c500d837ea14"
        },
        "language": "js",
        "actions": [{
            "id": "ADD_SNIPPET_ide_onClick_f2241d042e1e47699e996431d3d75e5b",
            "type": "ADD_SNIPPET",
            "codeSnippet": "// this.flxCrossTakeSurvey();\nthis.view.flxFeedbackTakeSurvey.setVisibility(false);",
            "callbackType": null
        }]
    }
}