{
    "AS_FlexContainer_b7c0dc090bca4ba4b62fde8abb95de9a": {
        "id": "AS_FlexContainer_b7c0dc090bca4ba4b62fde8abb95de9a",
        "type": "ACTION_SEQUENCE",
        "params": [{
            "datatype": "collection",
            "name": "eventobject"
        }, {
            "datatype": "collection",
            "name": "context"
        }],
        "contextObj": {
            "name": "segFeaturePermissionsTablet",
            "type": "templates",
            "platform": "",
            "KUID": "jec723efe539441dba60bb351fc8fd1f"
        },
        "language": "js",
        "actions": [{
            "id": "INVOKE_FUNCTION___e739498db0c547fdb3911872be961391",
            "type": "INVOKE_FUNCTION",
            "sequenceKUID": "selectOrUnselectParentFeature",
            "display": "selectOrUnselectParentFeature",
            "inputparams": [{
                "name": "eventobject",
                "value": " eventobject"
            }, {
                "name": "context",
                "value": " context"
            }],
            "parentId": null,
            "callbackType": null,
            "disabled": null,
            "source": "controller"
        }]
    }
}