{
    "AS_FlexContainer_iae2c3d66ec341d5bf34bf3898bf9606": {
        "id": "AS_FlexContainer_iae2c3d66ec341d5bf34bf3898bf9606",
        "type": "ACTION_SEQUENCE",
        "params": [{
            "datatype": "collection",
            "name": "eventobject"
        }, {
            "datatype": "collection",
            "name": "context"
        }],
        "contextObj": {
            "name": "segViewsAndFilters",
            "type": "templates",
            "platform": "",
            "KUID": "c83572d6e5864945826128e2eea50854"
        },
        "language": "js",
        "actions": [{
            "id": "ADD_SNIPPET__i716f4fbb811423d8ebcc700a4707abe",
            "type": "ADD_SNIPPET",
            "codeSnippet": "//Registering Action",
            "parentId": null,
            "callbackType": null
        }]
    }
}