{
    "AS_FlexContainer_aaef4c12448a4353b02774c2d20f0c30": {
        "id": "AS_FlexContainer_aaef4c12448a4353b02774c2d20f0c30",
        "type": "ACTION_SEQUENCE",
        "params": [{
            "datatype": "collection",
            "name": "eventobject"
        }, {
            "datatype": "collection",
            "name": "context"
        }],
        "contextObj": {
            "name": "segProfileManagementPhoneNumbers",
            "type": "templates",
            "platform": "",
            "KUID": "db445a79675a41389d8fbbb8d3c49235"
        },
        "language": "js",
        "actions": [{
            "id": "ADD_SNIPPET__dbde3c6b443a478abbea51099e06a6de",
            "type": "ADD_SNIPPET",
            "codeSnippet": "this.showSelectedRow();",
            "parentId": null,
            "callbackType": null
        }]
    }
}