{
    "AS_Form_i56ac4a75ab8411f9533ace31645d4be": {
        "id": "AS_Form_i56ac4a75ab8411f9533ace31645d4be",
        "type": "ACTION_SEQUENCE",
        "params": [{
            "datatype": "collection",
            "name": "eventobject"
        }],
        "contextObj": {
            "KUID": "c9a13767ee7a429e97af03e1f3a4ca84",
            "name": "frmBBUsersDashboard",
            "platform": "",
            "type": "forms"
        },
        "language": "js",
        "actions": [{
            "id": "ADD_SNIPPET__fd448736d3534c848b7ed073d4c68cee",
            "type": "ADD_SNIPPET",
            "codeSnippet": "this.onPreShow();",
            "parentId": null,
            "callbackType": null
        }]
    }
}