{
    "AS_FlexContainer_c131ab268d994e879418afab6e36aa5c": {
        "id": "AS_FlexContainer_c131ab268d994e879418afab6e36aa5c",
        "type": "ACTION_SEQUENCE",
        "params": [{
            "datatype": "collection",
            "name": "eventobject"
        }, {
            "datatype": "collection",
            "name": "context"
        }],
        "contextObj": {
            "name": "segPFMUnCategorizedTransactionsPFMSelectedMobile",
            "type": "templates",
            "platform": "",
            "KUID": "e6b3c8d05c4f4dd98fa72cbd267791dc"
        },
        "language": "js",
        "actions": [{
            "id": "ADD_SNIPPET__e175b8f0ac474b9982b4f683fcade986",
            "type": "ADD_SNIPPET",
            "codeSnippet": "this.showSelectedRow();",
            "parentId": null,
            "callbackType": null
        }]
    }
}