{
    "AS_FlexContainer_i00fcfe8c8d64778aca1d05a59eab181": {
        "id": "AS_FlexContainer_i00fcfe8c8d64778aca1d05a59eab181",
        "type": "ACTION_SEQUENCE",
        "params": [{
            "datatype": "collection",
            "name": "eventobject"
        }],
        "contextObj": {
            "name": "frmLogin",
            "type": "forms",
            "platform": "",
            "KUID": "j0329c6c64654440bf366abc8de81b74"
        },
        "language": "js",
        "actions": [{
            "id": "ADD_SNIPPET__caa6b5fce2604494838b43fdde57c4db",
            "type": "ADD_SNIPPET",
            "codeSnippet": "this.rememberMe();",
            "parentId": null,
            "callbackType": null
        }]
    }
}