{
    "AS_Image_cc8c1374aaa44074a5a2787a3bb2899c": {
        "id": "AS_Image_cc8c1374aaa44074a5a2787a3bb2899c",
        "type": "ACTION_SEQUENCE",
        "params": [{
            "datatype": "collection",
            "name": "eventobject"
        }, {
            "datatype": "string",
            "name": "x"
        }, {
            "datatype": "string",
            "name": "y"
        }],
        "contextObj": {
            "name": "frmProfileManagement",
            "type": "forms",
            "platform": "",
            "KUID": "e136103788ec406cab0b1d0f2087f12b"
        },
        "language": "js",
        "actions": [{
            "id": "ADD_SNIPPET__hf8aa5d5b6d7448ea94a13bd4c0a12f9",
            "type": "ADD_SNIPPET",
            "codeSnippet": "this.hideOTP();",
            "parentId": null,
            "callbackType": null
        }]
    }
}