{
    "AS_Image_bf4f9fac510e450d94ad0c35dbeff60c": {
        "id": "AS_Image_bf4f9fac510e450d94ad0c35dbeff60c",
        "type": "ACTION_SEQUENCE",
        "params": [{
            "datatype": "collection",
            "name": "eventobject"
        }, {
            "datatype": "string",
            "name": "x"
        }, {
            "datatype": "string",
            "name": "y"
        }],
        "contextObj": {
            "name": "frmNotificationsAndMessages",
            "type": "forms",
            "platform": "",
            "KUID": "a83a23bb52bc4894a44b027a89964c1b"
        },
        "language": "js",
        "actions": [{
            "id": "ADD_SNIPPET__abfe4c12dc3c4c909834d9a5ccb0ef17",
            "type": "ADD_SNIPPET",
            "codeSnippet": "this.SearchAnimate();",
            "parentId": null,
            "callbackType": null
        }]
    }
}