{
    "AS_Image_c57b68e2aaef4b22a4af5e88e7bfd274": {
        "id": "AS_Image_c57b68e2aaef4b22a4af5e88e7bfd274",
        "type": "ACTION_SEQUENCE",
        "params": [{
            "datatype": "collection",
            "name": "eventobject"
        }, {
            "datatype": "string",
            "name": "x"
        }, {
            "datatype": "string",
            "name": "y"
        }],
        "contextObj": {
            "type": "forms",
            "platform": "",
            "KUID": "i8ed287fcbf940a08ff5de5a2699eb8c"
        },
        "language": "js",
        "actions": [{
            "id": "ADD_SNIPPET__f76f12310dfc4afb84653f2405708c67",
            "type": "ADD_SNIPPET",
            "codeSnippet": "this.showPassword();",
            "parentId": null,
            "callbackType": null
        }]
    }
}