{
    "AS_Image_f6c6da64757d4d5b8f7fcf1dba788ded": {
        "id": "AS_Image_f6c6da64757d4d5b8f7fcf1dba788ded",
        "type": "ACTION_SEQUENCE",
        "params": [{
            "datatype": "collection",
            "name": "eventobject"
        }, {
            "datatype": "string",
            "name": "x"
        }, {
            "datatype": "string",
            "name": "y"
        }],
        "contextObj": {
            "name": "frmPayDueAmount",
            "type": "forms",
            "platform": "",
            "KUID": "ba0b4f38b88d4ad7a2c69bb7d0d38c44"
        },
        "language": "js",
        "actions": [{
            "id": "ADD_SNIPPET__i37f8a2f6fc4455cb137144b85eca6e9",
            "type": "ADD_SNIPPET",
            "codeSnippet": "this.imgToggle(\"Due\");",
            "parentId": null,
            "callbackType": null
        }]
    }
}