{
    "AS_Image_g634f88706c345f9a65d9b7f8ce9ad9a": {
        "id": "AS_Image_g634f88706c345f9a65d9b7f8ce9ad9a",
        "type": "ACTION_SEQUENCE",
        "params": [{
            "datatype": "collection",
            "name": "eventobject"
        }, {
            "datatype": "string",
            "name": "x"
        }, {
            "datatype": "string",
            "name": "y"
        }],
        "contextObj": {
            "name": "frmTransfersEur",
            "type": "forms",
            "platform": null,
            "KUID": "ce91c8ed58094b46825ffa2ecbf979d7"
        },
        "language": "js",
        "actions": [{
            "id": "ADD_SNIPPET_ide_onTouchEnd_c97e43387a17471694923907c4283c0c",
            "type": "ADD_SNIPPET",
            "codeSnippet": "this.hidePassword();",
            "callbackType": null
        }]
    }
}