{
    "AS_Image_dcf3b4d5b9674382bb37384d63c2a74d": {
        "id": "AS_Image_dcf3b4d5b9674382bb37384d63c2a74d",
        "type": "ACTION_SEQUENCE",
        "params": [{
            "datatype": "collection",
            "name": "eventobject"
        }, {
            "datatype": "string",
            "name": "x"
        }, {
            "datatype": "string",
            "name": "y"
        }],
        "contextObj": {
            "name": "CopyfrmTransfers",
            "type": "forms",
            "platform": null,
            "KUID": "fd8c83b1fe4e4deebe923e6b4b790fa1"
        },
        "language": "js",
        "actions": [{
            "id": "ADD_SNIPPET_ide_onTouchStart_cdffb0d308bd4af2a2f8263cb8339fa1",
            "type": "ADD_SNIPPET",
            "codeSnippet": "this.showPassword();",
            "callbackType": null
        }]
    }
}