{
    "AS_Label_d5f2e4c4903f420f9956332e7fe2280e": {
        "id": "AS_Label_d5f2e4c4903f420f9956332e7fe2280e",
        "type": "ACTION_SEQUENCE",
        "params": [{
            "datatype": "collection",
            "name": "eventobject"
        }, {
            "datatype": "string",
            "name": "x"
        }, {
            "datatype": "string",
            "name": "y"
        }],
        "contextObj": {
            "name": "frmLogin",
            "type": "forms",
            "platform": "",
            "KUID": "j0329c6c64654440bf366abc8de81b74"
        },
        "language": "js",
        "actions": [{
            "id": "ADD_SNIPPET__h259caa09ce64e37a2dd1ad663830d83",
            "type": "ADD_SNIPPET",
            "codeSnippet": "this.useOTPForReset();",
            "parentId": null,
            "callbackType": null
        }]
    }
}