{
    "AS_Label_a53df3a3093643c18d5744d7ae610a00": {
        "id": "AS_Label_a53df3a3093643c18d5744d7ae610a00",
        "type": "ACTION_SEQUENCE",
        "params": [{
            "datatype": "collection",
            "name": "eventobject"
        }, {
            "datatype": "string",
            "name": "x"
        }, {
            "datatype": "string",
            "name": "y"
        }],
        "contextObj": {
            "name": "frmTransfers",
            "type": "forms",
            "platform": "",
            "KUID": "e9f47be88ab64765a96b1fae7d2a7720"
        },
        "language": "js",
        "actions": [{
            "id": "NAVIGATE_TO_FORM___c4177dc1ccce4e2897df5827bbe27025",
            "type": "NAVIGATE_TO_FORM",
            "formId": "frmAccountsLanding",
            "friendlyName": "frmAccountsLanding",
            "formKUID": "c0567b2e5ece4b0cbbe1b35e3c8f3103",
            "mappings": {},
            "mappingsOrder": [],
            "parentId": "",
            "callbackType": null,
            "enableMappingEditor": true,
            "package": "AccountsModule"
        }]
    }
}