{
    "AS_Label_e1399d153e6d4adfb846a3281cd2dc64": {
        "id": "AS_Label_e1399d153e6d4adfb846a3281cd2dc64",
        "type": "ACTION_SEQUENCE",
        "params": [{
            "datatype": "collection",
            "name": "eventobject"
        }, {
            "datatype": "string",
            "name": "x"
        }, {
            "datatype": "string",
            "name": "y"
        }],
        "contextObj": {
            "name": "frmLogin",
            "type": "forms",
            "platform": "",
            "KUID": "j0329c6c64654440bf366abc8de81b74"
        },
        "language": "js",
        "actions": [{
            "id": "ADD_SNIPPET__i8636b6d457444f3871b94ce8b8ab43c",
            "type": "ADD_SNIPPET",
            "codeSnippet": "this.verifyUser();",
            "parentId": null,
            "callbackType": null
        }]
    }
}