{
    "AS_Label_a8a9c0b5503a48bea9bbad52d2da4ccb": {
        "id": "AS_Label_a8a9c0b5503a48bea9bbad52d2da4ccb",
        "type": "ACTION_SEQUENCE",
        "params": [{
            "datatype": "collection",
            "name": "eventobject"
        }, {
            "datatype": "string",
            "name": "x"
        }, {
            "datatype": "string",
            "name": "y"
        }],
        "contextObj": {
            "name": "frmFastTransfers",
            "type": "forms",
            "platform": "",
            "KUID": "dafe58294c114b15bb1f0099cc24b9a8"
        },
        "language": "js",
        "actions": [{
            "id": "ADD_SNIPPET__g1246d22347c428e90b954c26c1209da",
            "type": "ADD_SNIPPET",
            "codeSnippet": "kony.mvc.MDAApplication.getSharedInstance().getModuleManager().getModule(\"TransferFastModule\").presentationController.showTransferScreen({showRecipientGateway:true}); ",
            "parentId": null,
            "callbackType": null
        }]
    }
}