{
    "AS_Segment_c4ce2920107b4b0aa8fed8549663fa38": {
        "id": "AS_Segment_c4ce2920107b4b0aa8fed8549663fa38",
        "type": "ACTION_SEQUENCE",
        "params": [{
            "datatype": "collection",
            "name": "eventobject"
        }, {
            "datatype": "number",
            "name": "sectionNumber"
        }, {
            "datatype": "number",
            "name": "rowNumber"
        }],
        "contextObj": {
            "name": "frmAccountsDetails",
            "type": "forms",
            "platform": "",
            "KUID": "f22d64f7cb454ad980b530de61c4240a"
        },
        "language": "js",
        "actions": [{
            "id": "ADD_SNIPPET__a64a54edcd6941b0951c5a96846b421d",
            "type": "ADD_SNIPPET",
            "codeSnippet": "this.transactionsSegmentRowClick();",
            "parentId": null,
            "callbackType": null
        }]
    }
}