{
    "AS_Segment_g72bec9d4dd14a25a953ad0cae086ffc": {
        "id": "AS_Segment_g72bec9d4dd14a25a953ad0cae086ffc",
        "type": "ACTION_SEQUENCE",
        "params": [{
            "datatype": "collection",
            "name": "eventobject"
        }, {
            "datatype": "number",
            "name": "sectionNumber"
        }, {
            "datatype": "number",
            "name": "rowNumber"
        }],
        "contextObj": {
            "name": "frmLogin",
            "type": "forms",
            "platform": "",
            "KUID": "j0329c6c64654440bf366abc8de81b74"
        },
        "language": "js",
        "actions": [{
            "id": "ADD_SNIPPET_ide_onRowClick_f84c857d307041e791ec427a2564a469",
            "type": "ADD_SNIPPET",
            "codeSnippet": "this.selectYourLanguage();",
            "callbackType": null
        }]
    }
}