{
    "AS_Segment_c7ceacdad50b4c8dbb9f028067e484d2": {
        "id": "AS_Segment_c7ceacdad50b4c8dbb9f028067e484d2",
        "type": "ACTION_SEQUENCE",
        "params": [{
            "datatype": "collection",
            "name": "eventobject"
        }, {
            "datatype": "number",
            "name": "sectionNumber"
        }, {
            "datatype": "number",
            "name": "rowNumber"
        }],
        "contextObj": {
            "name": "CopyfrmAddPayee1",
            "type": "forms",
            "platform": null,
            "KUID": "e3156ddd0243498ab3842669c7088601"
        },
        "language": "js",
        "actions": [{
            "id": "ADD_SNIPPET_ide_onRowClick_f479d9e850104e70ae689cdb5377aee9",
            "type": "ADD_SNIPPET",
            "codeSnippet": "this.selectPayeeName();",
            "callbackType": null
        }]
    }
}