{
    "AS_TextField_g96e908cf8ed40ccb3f3ebc79df4c800": {
        "id": "AS_TextField_g96e908cf8ed40ccb3f3ebc79df4c800",
        "type": "ACTION_SEQUENCE",
        "params": [{
            "datatype": "collection",
            "name": "eventobject"
        }],
        "contextObj": {
            "name": "frmAddInternalAccount",
            "type": "forms",
            "platform": "",
            "KUID": "i0c7320b49fe40e1a3a168c136395e15"
        },
        "language": "js",
        "actions": [{
            "id": "ADD_SNIPPET__f35e5527999d4c01a33599dfb873f673",
            "type": "ADD_SNIPPET",
            "codeSnippet": "this.validateInternalError();",
            "parentId": null,
            "callbackType": null
        }]
    }
}