{
    "AS_TextField_d8da8fc831bc4acda1dc707b0df15569": {
        "id": "AS_TextField_d8da8fc831bc4acda1dc707b0df15569",
        "type": "ACTION_SEQUENCE",
        "params": [{
            "datatype": "collection",
            "name": "eventobject"
        }, {
            "datatype": "string",
            "name": "changedtext"
        }, {
            "datatype": "collection",
            "name": "context"
        }],
        "contextObj": {
            "name": "segCreateUserTransDetails",
            "type": "templates",
            "platform": "",
            "KUID": "ba26fd8591564193af0a1e1e6dfbb1b0"
        },
        "language": "js",
        "actions": [{
            "id": "ADD_SNIPPET__dd932d506c1e45e0adab0b29c6a4f722",
            "type": "ADD_SNIPPET",
            "codeSnippet": "var self = this;\nreturn self.validateTransactionLimitsOnEndEditing.call(self, eventobject, changedtext, context);",
            "parentId": null
        }]
    }
}