{
    "AS_TextField_db852255d18c4fd9aabdb161ada0f92c": {
        "id": "AS_TextField_db852255d18c4fd9aabdb161ada0f92c",
        "type": "ACTION_SEQUENCE",
        "params": [{
            "datatype": "collection",
            "name": "eventobject"
        }, {
            "datatype": "string",
            "name": "changedtext"
        }],
        "contextObj": {
            "type": "forms",
            "platform": "",
            "KUID": "i8ed287fcbf940a08ff5de5a2699eb8c"
        },
        "language": "js",
        "actions": [{
            "id": "ADD_SNIPPET__e2f5a61fcbf344f5abab361825e73e0a",
            "type": "ADD_SNIPPET",
            "codeSnippet": "this.enableSecureAccessCode(this.view.SecureAccessCode.tbxSecureAccessCode.text);",
            "parentId": null,
            "callbackType": null
        }]
    }
}