{
    "AS_TextField_e656d35398da43d2b13c3d662335fa70": {
        "id": "AS_TextField_e656d35398da43d2b13c3d662335fa70",
        "type": "ACTION_SEQUENCE",
        "params": [{
            "datatype": "collection",
            "name": "eventobject"
        }, {
            "datatype": "string",
            "name": "changedtext"
        }],
        "contextObj": {
            "name": "frmNotificationsAndMessages",
            "type": "forms",
            "platform": "",
            "KUID": "a83a23bb52bc4894a44b027a89964c1b"
        },
        "language": "js",
        "actions": [{
            "id": "ADD_SNIPPET__ecd0468b9f3643ef953dacbeb0ea90aa",
            "type": "ADD_SNIPPET",
            "codeSnippet": "this.onSearchClick();\nthis.showProgressBar();",
            "parentId": null,
            "callbackType": null
        }]
    }
}