{
    "AS_TextField_f3f08f2de0674122ab3642c14fd3dc14": {
        "id": "AS_TextField_f3f08f2de0674122ab3642c14fd3dc14",
        "type": "ACTION_SEQUENCE",
        "params": [{
            "datatype": "collection",
            "name": "eventobject"
        }],
        "contextObj": {
            "name": "CopyfrmLogin",
            "type": "forms",
            "platform": null,
            "KUID": "d6328cf267c248a6b559c500d837ea14"
        },
        "language": "js",
        "actions": [{
            "id": "ADD_SNIPPET_ide_onKeyUp_jb330f5aa8354c91a7372068e996540b",
            "type": "ADD_SNIPPET",
            "codeSnippet": "this.otpCheck();",
            "callbackType": null
        }]
    }
}