{
    "AS_TextField_ae8f978cbd9b450494bff40561e74146": {
        "id": "AS_TextField_ae8f978cbd9b450494bff40561e74146",
        "type": "ACTION_SEQUENCE",
        "params": [{
            "datatype": "collection",
            "name": "eventobject"
        }, {
            "datatype": "string",
            "name": "changedtext"
        }, {
            "datatype": "collection",
            "name": "context"
        }],
        "contextObj": {
            "name": "segCreateUserTransDetails",
            "type": "templates",
            "platform": "",
            "KUID": "ba26fd8591564193af0a1e1e6dfbb1b0"
        },
        "language": "js",
        "actions": [{
            "id": "ADD_SNIPPET__d8a83b05210c46abb2e1fc3f4b99ad43",
            "type": "ADD_SNIPPET",
            "codeSnippet": "var self = this;\nreturn self.validateTransactionLimitsOnEndEditing.call(self, eventobject, changedtext, context);",
            "parentId": null
        }]
    }
}