{
    "AS_TextField_a91213fde7ff48c3a4f71031eb2396b8": {
        "id": "AS_TextField_a91213fde7ff48c3a4f71031eb2396b8",
        "type": "ACTION_SEQUENCE",
        "params": [{
            "datatype": "collection",
            "name": "eventobject"
        }, {
            "datatype": "string",
            "name": "changedtext"
        }],
        "contextObj": {
            "name": "frmLogin",
            "type": "forms",
            "platform": "",
            "KUID": "j0329c6c64654440bf366abc8de81b74"
        },
        "language": "js",
        "actions": [{
            "id": "ADD_SNIPPET__e8d14c15645b47a8a82aa1c2452849de",
            "type": "ADD_SNIPPET",
            "codeSnippet": "if(this.view.main.flxUserName.skin ==\"sknBorderFF0101\"){\n this.credentialsMissingUIChangesAnti(); \n}\nthis.showUserNameSuggestions();",
            "parentId": null,
            "callbackType": null
        }]
    }
}