{
    "AS_TextField_h3d2490effa746129d7c71efe1dd207a": {
        "id": "AS_TextField_h3d2490effa746129d7c71efe1dd207a",
        "type": "ACTION_SEQUENCE",
        "params": [{
            "datatype": "collection",
            "name": "eventobject"
        }, {
            "datatype": "string",
            "name": "changedtext"
        }, {
            "datatype": "collection",
            "name": "context"
        }],
        "contextObj": {
            "name": "segCreateUserTransDetails",
            "type": "templates",
            "platform": "",
            "KUID": "ba26fd8591564193af0a1e1e6dfbb1b0"
        },
        "language": "js",
        "actions": [{
            "id": "ADD_SNIPPET__aa99b17a3d014ae282dded3bbddc3a2b",
            "type": "ADD_SNIPPET",
            "codeSnippet": "var self = this;\nreturn self.validateTransactionLimitsOnEndEditing.call(self, eventobject, changedtext, context);",
            "parentId": null,
            "callbackType": null
        }]
    }
}