{
    "AS_TextField_ad60138272da4c36bf12b09244cd870e": {
        "id": "AS_TextField_ad60138272da4c36bf12b09244cd870e",
        "type": "ACTION_SEQUENCE",
        "params": [{
            "datatype": "collection",
            "name": "eventobject"
        }, {
            "datatype": "string",
            "name": "changedtext"
        }, {
            "datatype": "collection",
            "name": "context"
        }],
        "contextObj": {
            "name": "segCreateUserTransDetails",
            "type": "templates",
            "platform": "",
            "KUID": "ba26fd8591564193af0a1e1e6dfbb1b0"
        },
        "language": "js",
        "actions": [{
            "id": "ADD_SNIPPET__b34269ee28e6463e825ba320c8c001f2",
            "type": "ADD_SNIPPET",
            "codeSnippet": "var self = this;\nreturn self.validateTransactionLimitsOnEndEditing.call(self, eventobject, changedtext, context);",
            "parentId": null
        }]
    }
}