{
    "AS_TextField_g8da09fedddb4d4da4ce6548705a811b": {
        "id": "AS_TextField_g8da09fedddb4d4da4ce6548705a811b",
        "type": "ACTION_SEQUENCE",
        "params": [{
            "datatype": "collection",
            "name": "eventobject"
        }],
        "contextObj": {
            "name": "frmAddExternalAccount",
            "type": "forms",
            "platform": "",
            "KUID": "g44e89ee0cb445b982945b6b358d77eb"
        },
        "language": "js",
        "actions": [{
            "id": "ADD_SNIPPET__db5e8f8125d24948b3fc558e1d7426f6",
            "type": "ADD_SNIPPET",
            "codeSnippet": "this.validateDomesticFields();",
            "parentId": null,
            "callbackType": null
        }]
    }
}