{
    "AS_TextField_e4392d053c4c4f3d9f758dcebac49697": {
        "id": "AS_TextField_e4392d053c4c4f3d9f758dcebac49697",
        "type": "ACTION_SEQUENCE",
        "params": [{
            "datatype": "collection",
            "name": "eventobject"
        }, {
            "datatype": "collection",
            "name": "context"
        }],
        "contextObj": {
            "KUID": "a6e679f2a9cb4b0da69b6ca1d2a6ff53",
            "name": "CopysegACHTemplateRecordDetails",
            "platform": "",
            "type": "templates"
        },
        "language": "js",
        "actions": [{
            "id": "ADD_SNIPPET__h46fa98df5004afdbdd77ab9bb8f4ff4",
            "type": "ADD_SNIPPET",
            "codeSnippet": "this.executeOnParent(\"updateTotal\",eventobject);",
            "parentId": null,
            "callbackType": null
        }]
    }
}