{
    "AS_TextField_c91e7fd235ab4c86a976fe91125ab9bc": {
        "id": "AS_TextField_c91e7fd235ab4c86a976fe91125ab9bc",
        "type": "ACTION_SEQUENCE",
        "params": [{
            "datatype": "collection",
            "name": "eventobject"
        }, {
            "datatype": "string",
            "name": "changedtext"
        }],
        "contextObj": {
            "name": "frmProfileManagement",
            "type": "forms",
            "platform": "",
            "KUID": "e136103788ec406cab0b1d0f2087f12b"
        },
        "language": "js",
        "actions": [{
            "id": "ADD_SNIPPET__dd947e7df64645ef95c02e1d1aed0c1d",
            "type": "ADD_SNIPPET",
            "codeSnippet": "this.onEditingAnswer2(); ",
            "parentId": null,
            "callbackType": null
        }]
    }
}