{
    "AS_TextField_b028a1d8452a46ddb0ed04b80ccd57fe": {
        "id": "AS_TextField_b028a1d8452a46ddb0ed04b80ccd57fe",
        "type": "ACTION_SEQUENCE",
        "params": [{
            "datatype": "collection",
            "name": "eventobject"
        }],
        "contextObj": {
            "name": "CopyfrmTransfers",
            "type": "forms",
            "platform": null,
            "KUID": "fd8c83b1fe4e4deebe923e6b4b790fa1"
        },
        "language": "js",
        "actions": [{
            "id": "ADD_SNIPPET_ide_onKeyUp_fa2a5ca83b9d4661bc510f59e3ee4deb",
            "type": "ADD_SNIPPET",
            "codeSnippet": "this.enableSecurityQuestions(this.view.AnswerSecurityQuestionsModule.tbxAnswers1.text , this.view.AnswerSecurityQuestionsModule.tbxAnswers2.text);",
            "callbackType": null
        }]
    }
}