{
    "AS_TextField_j3d7e710b1c447708db8934acdc6d121": {
        "id": "AS_TextField_j3d7e710b1c447708db8934acdc6d121",
        "type": "ACTION_SEQUENCE",
        "params": [{
            "datatype": "collection",
            "name": "eventobject"
        }],
        "contextObj": {
            "name": "frmLogin",
            "type": "forms",
            "platform": "",
            "KUID": "j0329c6c64654440bf366abc8de81b74"
        },
        "language": "js",
        "actions": [{
            "id": "ADD_SNIPPET__j2200439c4714216953e30d53b681617",
            "type": "ADD_SNIPPET",
            "codeSnippet": "this.validateNewPassword(this.view.newpasswordsetting.tbxNewPassword.text); ",
            "parentId": null,
            "callbackType": null
        }]
    }
}