{
    "AS_TextField_h969b8f9d56147e7b9fcf0f98d94b4fb": {
        "id": "AS_TextField_h969b8f9d56147e7b9fcf0f98d94b4fb",
        "type": "ACTION_SEQUENCE",
        "params": [{
            "datatype": "collection",
            "name": "eventobject"
        }, {
            "datatype": "string",
            "name": "changedtext"
        }],
        "contextObj": {
            "name": "frmPayDueAmount",
            "type": "forms",
            "platform": "",
            "KUID": "ba0b4f38b88d4ad7a2c69bb7d0d38c44"
        },
        "language": "js",
        "actions": [{
            "id": "ADD_SNIPPET__hd9356325e954f08b4a4aa5cf88382e3",
            "type": "ADD_SNIPPET",
            "codeSnippet": "this.textboxAmount();",
            "parentId": null,
            "callbackType": null
        }]
    }
}