{
    "AS_TextField_e3f4bbf0033842c6b47dedf2007a94df": {
        "id": "AS_TextField_e3f4bbf0033842c6b47dedf2007a94df",
        "type": "ACTION_SEQUENCE",
        "params": [{
            "datatype": "collection",
            "name": "eventobject"
        }],
        "contextObj": {
            "name": "frmAddInternalAccountEur",
            "type": "forms",
            "platform": null,
            "KUID": "f6d47ee3559a49b9a84a9fcd7d6fce64"
        },
        "language": "js",
        "actions": [{
            "id": "ADD_SNIPPET_ide_onKeyUp_f309e8ac21cf4f9f97e62961521f1475",
            "type": "ADD_SNIPPET",
            "codeSnippet": "this.validateInternalError();",
            "callbackType": null
        }]
    }
}