{
    "AS_TextField_b04dfa97611340b3a013f866e6bb666a": {
        "id": "AS_TextField_b04dfa97611340b3a013f866e6bb666a",
        "type": "ACTION_SEQUENCE",
        "params": [{
            "datatype": "collection",
            "name": "eventobject"
        }, {
            "datatype": "string",
            "name": "changedtext"
        }, {
            "datatype": "collection",
            "name": "context"
        }],
        "contextObj": {
            "name": "segEditApprovalLimit",
            "type": "templates",
            "platform": "",
            "KUID": "b75ef7ab43364c63bed0dcb6a093274b"
        },
        "language": "js",
        "actions": [{
            "id": "INVOKE_FUNCTION___bfc70c61c9374bc88f94939777f4adfe",
            "type": "INVOKE_FUNCTION",
            "sequenceKUID": "onLimitChanged",
            "display": "onLimitChanged",
            "inputparams": [{
                "name": "eventobject",
                "value": " eventobject"
            }, {
                "name": "context",
                "value": " changedtext"
            }],
            "parentId": null,
            "callbackType": null,
            "disabled": null,
            "source": "controller"
        }]
    }
}