{
    "AS_TextField_aabb3e2e578c468e914c9606c18e0d3c": {
        "id": "AS_TextField_aabb3e2e578c468e914c9606c18e0d3c",
        "type": "ACTION_SEQUENCE",
        "params": [{
            "datatype": "collection",
            "name": "eventobject"
        }],
        "contextObj": {
            "name": "CopyfrmAddExternalAccount",
            "type": "forms",
            "platform": null,
            "KUID": "afe51522323e4a0c8857c1ef70ef41f4"
        },
        "language": "js",
        "actions": [{
            "id": "ADD_SNIPPET_ide_onKeyUp_aa1e0dfd44d843ff8269fe6b9e87ff84",
            "type": "ADD_SNIPPET",
            "codeSnippet": "this.validateDomesticFields();",
            "callbackType": null
        }]
    }
}