{
    "AS_UWI_d08d039d0a50409ab14236609c371333": {
        "id": "AS_UWI_d08d039d0a50409ab14236609c371333",
        "type": "ACTION_SEQUENCE",
        "params": [],
        "contextObj": {
            "name": "frmAccountsDetails",
            "type": "forms",
            "platform": "",
            "KUID": "f22d64f7cb454ad980b530de61c4240a"
        },
        "language": "js",
        "actions": [{
            "id": "ADD_SNIPPET_ia99d65365704933b1fd7d64fe436b9a",
            "type": "ADD_SNIPPET",
            "codeSnippet": "this.showDownloadPopup();",
            "parentId": null
        }]
    }
}