{
    "AS_UWI_a3228c3385ef481791f9df9dcf056937": {
        "id": "AS_UWI_a3228c3385ef481791f9df9dcf056937",
        "type": "ACTION_SEQUENCE",
        "params": [{
            "datatype": "collection",
            "name": "eventobject"
        }, {
            "datatype": "string",
            "name": "x"
        }, {
            "datatype": "string",
            "name": "y"
        }],
        "contextObj": {
            "name": "frmLogin",
            "type": "forms",
            "platform": "",
            "KUID": "j0329c6c64654440bf366abc8de81b74"
        },
        "language": "js",
        "actions": [{
            "id": "ADD_SNIPPET_ide_onTouchStart_e36825584826429c8f500d7b0c1469f3",
            "type": "ADD_SNIPPET",
            "codeSnippet": "this.loginWithVerifiedUserName();",
            "callbackType": null
        }]
    }
}