{
    "AS_UWI_bdce2483ac4043948fa26c37190c75d6": {
        "id": "AS_UWI_bdce2483ac4043948fa26c37190c75d6",
        "type": "ACTION_SEQUENCE",
        "params": [{
            "datatype": "collection",
            "name": "eventobject"
        }, {
            "datatype": "string",
            "name": "x"
        }, {
            "datatype": "string",
            "name": "y"
        }],
        "contextObj": {
            "name": "CopyfrmLogin",
            "type": "forms",
            "platform": null,
            "KUID": "d6328cf267c248a6b559c500d837ea14"
        },
        "language": "js",
        "actions": [{
            "id": "ADD_SNIPPET_ide_onTouchStart_bb7d31e9e8ab4e7f8c29a66b3991f809",
            "type": "ADD_SNIPPET",
            "codeSnippet": "this.loginWithVerifiedUserName();",
            "callbackType": null
        }]
    }
}