{
    "AS_UWI_ffc83bb67a2f49f294b4ff3fbdc9d418": {
        "id": "AS_UWI_ffc83bb67a2f49f294b4ff3fbdc9d418",
        "type": "ACTION_SEQUENCE",
        "params": [{
            "datatype": "collection",
            "name": "eventobject"
        }, {
            "datatype": "string",
            "name": "x"
        }, {
            "datatype": "string",
            "name": "y"
        }],
        "contextObj": {
            "name": "frmLogin",
            "type": "forms",
            "platform": "",
            "KUID": "j0329c6c64654440bf366abc8de81b74"
        },
        "language": "js",
        "actions": [{
            "id": "ADD_SNIPPET__bd32e7e9fefc4f3e81dab0175f29c9fd",
            "type": "ADD_SNIPPET",
            "codeSnippet": "this.goToPasswordResetOptionsPage();",
            "parentId": null,
            "callbackType": null
        }]
    }
}