{
    "@class": "com.kony.gen.viz.model.component.KVizButton",
    "DNDConfig": null,
    "__parentReadjusting__": false,
    "_height_": {
        "type": "string",
        "value": "50dp"
    },
    "_left_": {
        "type": "string",
        "value": "0dp"
    },
    "_margin_": [
        6,
        6,
        6,
        6
    ],
    "_padding_": [
        2,
        0,
        2,
        0
    ],
    "_skin_": "s611bd2c5d324490aa9f7ed9d412984f",
    "_text_": "ALL",
    "_top_": {
        "type": "string",
        "value": "320dp"
    },
    "_width_": {
        "type": "ref",
        "value": "preferred"
    },
    "accessibilityconfig": {
        "a11yLabel": "Modify Transfer"
    },
    "canUpdateUI": true,
    "centerx": {
        "type": "string",
        "value": "50%"
    },
    "containerweight": 100,
    "contentalignment": 5,
    "desktopweb": {
        "psp": {
            "hoverSkin": "s611bd2c5d324490aa9f7ed9d412984f"
        }
    },
    "disabledSkins": {},
    "displaytext": true,
    "focusskin": "sbf72662805b48f3b06b5cd3a5a6fdca",
    "id": "btnModifyTransfer",
    "info": null,
    "isvisible": true,
    "kuid": "fe6a595b505e4bc1a39f8f8be570183d",
    "name": "kony.ui.Button",
    "paddinginpixel": false,
    "parent": "acknowledgmentModify",
    "pf": "userwidgetmodel",
    "texti18n": "i18n.Transfers.MODIFYTRANSFER",
    "tooltip": "ModiftyTransfer",
    "wType": "Button",
    "zindex": 1
}