{
    "@class": "com.kony.gen.viz.model.container.KVizSegment2",
    "DNDConfig": null,
    "__parentReadjusting__": false,
    "_bottom_": {
        "type": "string",
        "value": "0dp"
    },
    "_data_": [],
    "_height_": {
        "type": "ref",
        "value": "preferred"
    },
    "_indicator_": "none",
    "_left_": {
        "type": "string",
        "value": "0dp"
    },
    "_margin_": [
        0,
        0,
        0,
        0
    ],
    "_orientation_": 2,
    "_padding_": [
        0,
        0,
        0,
        0
    ],
    "_top_": {
        "type": "string",
        "value": "0dp"
    },
    "_width_": {
        "type": "string",
        "value": "100%"
    },
    "alternaterowskin": null,
    "autogrowmode": 1,
    "canUpdateUI": true,
    "containerweight": 100,
    "counter": "10",
    "disabledSkins": {
        "alternateRowSkin": "s90b50bcb2324024b8f95a9270632903"
    },
    "focusedindex": null,
    "focuseditem": null,
    "groupcells": false,
    "hasSections": true,
    "id": "segRemovedRecipient",
    "info": null,
    "ipad": {
        "psp": {
            "indicator": "rowselect"
        }
    },
    "iphone": {
        "psp": {
            "indicator": "rowselect"
        }
    },
    "isvisible": true,
    "kuid": "d383fe7fadbe453fafda1c90f76b2fb3",
    "masterdata": {},
    "name": "kony.ui.SegmentedUI2",
    "needpageindicator": true,
    "pageoffdotimage": "pageoffdot.png",
    "pageondotimage": "pageondot.png",
    "paginationconfig": {
        "position": "bottom"
    },
    "parent": "flxSegRemovedRecipient",
    "pf": "frmBulkWireTransferRemovedRecipients",
    "retainselection": false,
    "rowTemplateId": "a145da64e06e4fc8a77c8c27677b4034",
    "rowcounter": 0,
    "rowfocusskin": "s9f69e977910472eb44c62ae28c41fe1",
    "rowskin": "scf5f90f6ac04976ab88b2a4f7153285",
    "rowtemplate": "flxBulkWireRemovedRecipients",
    "screenlevelwidget": false,
    "seccounter": 1,
    "sectionHeaderTemplateId": "c2b072b67853489aad9ec54e6f6fa3fd",
    "sectionheaderskin": "sdc4ff4ed1584272be2ae69045dfb29d",
    "sectionheadertemplate": "flxBulkWireHeader",
    "selectedRows": null,
    "selectedState": false,
    "selectedindex": null,
    "selectedindices": null,
    "selecteditems": null,
    "selectedsectionindex": null,
    "selectionbehavior": "default",
    "separatorcolor": "e9e9e900",
    "separatorrequired": true,
    "separatorthickness": 1,
    "showscrollbars": false,
    "viewtype": "tableview",
    "vizProps": {},
    "wType": "Segment",
    "widgetalignment": 5,
    "widgetdatamap": {
        "flxAmount": "flxAmount",
        "flxBulkWireHeader": "flxBulkWireHeader",
        "flxBulkWireRemovedRecipients": "flxBulkWireRemovedRecipients",
        "flxCurrency": "flxCurrency",
        "flxDropdown": "flxDropdown",
        "flxFrom": "flxFrom",
        "flxLeft": "flxLeft",
        "flxRecipient": "flxRecipient",
        "flxRight": "flxRight",
        "flxSegBulkWireAckWrapper": "flxSegBulkWireAckWrapper",
        "flxStatus": "flxStatus",
        "flxWrapper": "flxWrapper",
        "lblAmount": "lblAmount",
        "lblCurrency": "lblCurrency",
        "lblDropdown": "lblDropdown",
        "lblFrom": "lblFrom",
        "lblHeader": "lblHeader",
        "lblRecipient": "lblRecipient",
        "lblSeparator": "lblSeparator",
        "lblStatus": "lblStatus"
    },
    "zindex": 1
}