{
    "@class": "com.kony.gen.viz.model.component.KVizButton",
    "DNDConfig": null,
    "__parentReadjusting__": false,
    "_height_": {
        "type": "string",
        "value": "50dp"
    },
    "_margin_": [
        6,
        6,
        6,
        6
    ],
    "_padding_": [
        0,
        0,
        0,
        0
    ],
    "_right_": {
        "type": "string",
        "value": "4.50%"
    },
    "_skin_": "s95376e131db404ebbe858e3b39046ef",
    "_text_": "SAVE",
    "_top_": {
        "type": "string",
        "value": "20dp"
    },
    "_width_": {
        "type": "string",
        "value": "29.47%"
    },
    "accessibilityconfig": {
        "a11yLabel": "Select"
    },
    "canUpdateUI": true,
    "containerweight": 100,
    "contentalignment": 5,
    "desktopweb": {
        "psp": {
            "hoverSkin": "s81054b5e2b74f17a5261991df565427"
        }
    },
    "disabledSkins": {
        "focusSkin": "sf44d06ca8224832827ea7fdff757013"
    },
    "displaytext": true,
    "id": "btnAccountsDescriptionProceed",
    "info": null,
    "isvisible": true,
    "kuid": "hecc169a0a26493780b16e3631dddd8d",
    "name": "kony.ui.Button",
    "parent": "flxAccountsDescriptionButtons",
    "pf": "userwidgetmodel",
    "texti18n": "i18n.NUO.Select",
    "tooltip": "Select",
    "wType": "Button",
    "zindex": 1
}