{
    "DNDConfig": null,
    "__parentReadjusting__": false,
    "_height_": {
        "type": "ref",
        "value": "preferred"
    },
    "_left_": {
        "type": "string",
        "value": "5dp"
    },
    "_margin_": [
        0,
        0,
        0,
        0
    ],
    "_orientation_": 6,
    "_padding_": [
        0,
        0,
        0,
        0
    ],
    "_percent_": true,
    "_skin_": "s24c92fc23b14f5484b693ee9b8a9b35",
    "_top_": {
        "type": "string",
        "value": "10dp"
    },
    "_width_": {
        "type": "string",
        "value": "100%"
    },
    "allboxes": [],
    "autogrowmode": 1,
    "canUpdateUI": true,
    "children": [
        "flxAccountNumberTitle",
        "flxAccountTypeTitle",
        "flxAddedOnTitle",
        "flxRoutingNumberTitle",
        "flxAccountHolderTitle",
        "flxBankDetailsTitle",
        "lblRowSeperator"
    ],
    "clipbounds": true,
    "containerId": true,
    "containerweight": 100,
    "enablescrolling": true,
    "id": "flxDetail",
    "info": null,
    "isvisible": true,
    "kuid": "fca8d5bff37b4db39fbc1916543b9800",
    "layouttype": 4,
    "name": "kony.ui.FlexContainer",
    "parent": "flxRowOne",
    "pf": "segExternalAccountsEdit",
    "snapgridsize": 10,
    "snaptogrid": true,
    "wType": "FlexContainer",
    "widgetalignment": 1,
    "zindex": 1
}