{
    "DNDConfig": null,
    "__parentReadjusting__": false,
    "_height_": {
        "type": "string",
        "value": "40dp"
    },
    "_left_": {
        "type": "string",
        "value": "0dp"
    },
    "_margin_": [
        0,
        0,
        0,
        0
    ],
    "_orientation_": 6,
    "_padding_": [
        0,
        0,
        0,
        0
    ],
    "_percent_": true,
    "_skin_": "s24c92fc23b14f5484b693ee9b8a9b35",
    "_width_": {
        "type": "string",
        "value": "100%"
    },
    "allboxes": [],
    "canUpdateUI": true,
    "centery": {
        "type": "string",
        "value": "50%"
    },
    "children": [
        "flxWrapperBeneficiaries"
    ],
    "clipbounds": true,
    "containerweight": 100,
    "enablescrolling": true,
    "id": "flxBulkBeneficiariesSelectedWrapper",
    "info": null,
    "isvisible": true,
    "kuid": "db689cae32534e18a6460fe5e8f51732",
    "layouttype": 3,
    "name": "kony.ui.FlexContainer",
    "parent": "flxBeneficiariesWrapper",
    "pf": "frmBulkBeneficiariesSelected",
    "responsiveData": {
        "b1": {
            "height": {
                "type": "string",
                "value": "42dp"
            }
        }
    },
    "snapgridsize": 10,
    "snaptogrid": true,
    "wType": "FlexContainer",
    "widgetalignment": 1,
    "zindex": 1
}