{
    "@class": "com.kony.gen.viz.model.component.KVizButton",
    "DNDConfig": null,
    "__parentReadjusting__": false,
    "_height_": {
        "type": "string",
        "value": "20px"
    },
    "_margin_": [
        6,
        6,
        6,
        6
    ],
    "_padding_": [
        0,
        0,
        0,
        0
    ],
    "_right_": {
        "type": "string",
        "value": "29px"
    },
    "_skin_": "sda6b496fd94462ba06feb36e449fe30",
    "_text_": "Make Bulk Transfer",
    "_top_": {
        "type": "string",
        "value": "20dp"
    },
    "_width_": {
        "type": "ref",
        "value": "preferred"
    },
    "accessibilityconfig": {
        "a11yLabel": "Edit"
    },
    "canUpdateUI": true,
    "centery": {
        "type": "number",
        "value": ""
    },
    "containerweight": 100,
    "contentalignment": 5,
    "desktopweb": {
        "psp": {
            "hoverSkin": "sd36babbd8f6461f8b492698ab830d13"
        }
    },
    "disabledSkins": {
        "focusSkin": "sf44d06ca8224832827ea7fdff757013"
    },
    "displaytext": true,
    "id": "btnAction",
    "info": null,
    "isvisible": true,
    "kuid": "fb2d67f4b896413d90b0038b651b5361",
    "name": "kony.ui.Button",
    "parent": "flxConfirmHeaderMain",
    "pf": "frmBulkWireCreateTemplateAck",
    "responsiveData": {
        "b1": {
            "centerY": {
                "type": "string",
                "value": "50%"
            }
        },
        "b2": {
            "centerY": {
                "type": "string",
                "value": "50%"
            }
        },
        "b3": {
            "centerY": {
                "type": "string",
                "value": "50%"
            }
        },
        "b4": {
            "centerY": {
                "type": "string",
                "value": "50%"
            }
        }
    },
    "texti18n": "i18n.userManagement.viewMoreDetails",
    "tooltip": "Make Bulk Transfer",
    "wType": "Button",
    "zindex": 1
}