{
    "@class": "com.kony.gen.viz.model.component.KVizButton",
    "DNDConfig": null,
    "__parentReadjusting__": false,
    "_height_": {
        "type": "string",
        "value": "40dp"
    },
    "_left_": {
        "type": "string",
        "value": "79.83%"
    },
    "_margin_": [
        6,
        6,
        6,
        6
    ],
    "_padding_": [
        0,
        0,
        0,
        0
    ],
    "_right_": {
        "type": "string",
        "value": "2.50%"
    },
    "_skin_": "sb83c52605f046c7bd20a2c67b84b162",
    "_text_": "Next",
    "_width_": {
        "type": "string",
        "value": "17.66%"
    },
    "canUpdateUI": true,
    "centery": {
        "type": "string",
        "value": "50%"
    },
    "containerweight": 100,
    "contentalignment": 5,
    "displaytext": true,
    "focusskin": "sb83c52605f046c7bd20a2c67b84b162",
    "id": "btnNext",
    "info": null,
    "iscustomlayout": false,
    "isvisible": true,
    "kuid": "e19ce71ebf62422ca3255605c566f6e4",
    "name": "kony.ui.Button",
    "parent": "flxMain",
    "pf": "userwidgetmodel",
    "retaincontentalignment": false,
    "retainflexpositionproperties": false,
    "wType": "Button",
    "zindex": 1
}