{
    "@class": "com.kony.gen.viz.model.component.KVizLabel",
    "DNDConfig": null,
    "__parentReadjusting__": false,
    "_height_": {
        "type": "string",
        "value": "30dp"
    },
    "_left_": {
        "type": "string",
        "value": "0dp"
    },
    "_margin_": [
        0,
        0,
        0,
        0
    ],
    "_padding_": [
        0,
        0,
        0,
        0
    ],
    "_skin_": "sbf892219fd04dbcae8a4a76f57b2ae0",
    "_text_": "L",
    "_top_": {
        "type": "string",
        "value": "0dp"
    },
    "_width_": {
        "type": "string",
        "value": "22dp"
    },
    "_wrapping_": 2,
    "accessibilityconfig": {
        "a11yLabel": "Radio Button"
    },
    "android": {
        "textStyle": {
            "letterSpacing": 0,
            "strikeThrough": false
        }
    },
    "canUpdateUI": true,
    "centerx": {
        "type": "number",
        "value": ""
    },
    "containerweight": 100,
    "contentalignment": 1,
    "id": "imgRadioBtnRecipient2",
    "info": null,
    "ipad": {
        "psp": {
            "wrapping": 2
        }
    },
    "iphone": {
        "psp": {
            "wrapping": 2
        }
    },
    "isvisible": true,
    "kuid": "d0e1432c469e4a95b6a9593533d5aa23",
    "name": "kony.ui.Label",
    "parent": "flxTypeRadio2",
    "pf": "frmWireTransferOneTimePaymentStep1",
    "responsiveData": {
        "b3": {
            "centerX": {
                "type": "string",
                "value": "50%"
            },
            "left": {
                "type": "string",
                "value": "2dp"
            }
        }
    },
    "tooltip": "",
    "wType": "Label",
    "zindex": 1
}