{
    "DNDConfig": null,
    "__parentReadjusting__": false,
    "_height_": {
        "type": "string",
        "value": "40dp"
    },
    "_left_": {
        "type": "string",
        "value": "33.38%"
    },
    "_margin_": [
        0,
        0,
        0,
        0
    ],
    "_orientation_": 6,
    "_padding_": [
        0,
        0,
        0,
        0
    ],
    "_percent_": true,
    "_right_": {
        "type": "number",
        "value": "20"
    },
    "_skin_": "s24c92fc23b14f5484b693ee9b8a9b35",
    "_top_": {
        "type": "string",
        "value": "85dp"
    },
    "_width_": {
        "type": "string",
        "value": "25.91%"
    },
    "allboxes": [],
    "autogrowmode": 0,
    "canUpdateUI": true,
    "children": [
        "lblDailyLimitCurrSymbol",
        "tbxMaxDailyValue"
    ],
    "clipbounds": true,
    "containerId": true,
    "containerweight": 100,
    "enablescrolling": true,
    "focusskin": "s32002f89979400c9f0c8f5811e4b80d",
    "id": "flxMaxDailyLimit",
    "info": null,
    "isvisible": true,
    "kuid": "ea9d12ebcf434a2bb3bb21e9cfaa0008",
    "layouttype": 2,
    "name": "kony.ui.FlexContainer",
    "parent": "flxTransferPermissionsWithoutGrouping",
    "pf": "segBBTransferPermissionsWithoutGrouping",
    "snapgridsize": 10,
    "snaptogrid": true,
    "wType": "FlexContainer",
    "widgetalignment": 1,
    "zindex": 1
}