{
    "@class": "com.kony.gen.viz.model.component.KVizLabel",
    "DNDConfig": null,
    "__parentReadjusting__": false,
    "_height_": {
        "type": "ref",
        "value": "preferred"
    },
    "_margin_": [
        1,
        1,
        1,
        1
    ],
    "_padding_": [
        2,
        0,
        2,
        0
    ],
    "_skin_": "s1f3deab74044424be0d207f4739da36",
    "_text_": "45423792753",
    "_top_": {
        "type": "string",
        "value": "310dp"
    },
    "_width_": {
        "type": "string",
        "value": "100%"
    },
    "_wrapping_": 2,
    "accessibilityconfig": {
        "a11yLabel": "Take Survey"
    },
    "android": {
        "textStyle": {
            "letterSpacing": 0,
            "strikeThrough": false
        }
    },
    "canUpdateUI": true,
    "centerx": {
        "type": "string",
        "value": "50%"
    },
    "containerweight": 100,
    "contentalignment": 5,
    "id": "lblRefrenceNumberValue",
    "info": null,
    "ipad": {
        "psp": {
            "wrapping": 2
        }
    },
    "iphone": {
        "psp": {
            "wrapping": 2
        }
    },
    "isvisible": false,
    "kuid": "e5bd612a69a745f8b808b279d6a78ad1",
    "name": "kony.ui.Label",
    "paddinginpixel": false,
    "parent": "acknowledgment",
    "pf": "userwidgetmodel",
    "texti18n": "i18n.CustomerFeedback.TakeSurvey",
    "tooltip": "",
    "wType": "Label",
    "zindex": 1
}