{
    "@class": "com.kony.gen.viz.model.component.KVizListBox",
    "DNDConfig": null,
    "__parentReadjusting__": false,
    "_height_": {
        "type": "string",
        "value": "9.01%"
    },
    "_left_": {
        "type": "string",
        "value": "3.77%"
    },
    "_margin_": [
        0,
        0,
        0,
        0
    ],
    "_padding_": [
        1,
        0,
        0,
        0
    ],
    "_skin_": "sbaba22b80b348e6a9f536af0ad26b53",
    "_top_": {
        "type": "string",
        "value": "30.20%"
    },
    "_width_": {
        "type": "string",
        "value": "45.54%"
    },
    "canUpdateUI": true,
    "containerweight": 100,
    "contentalignment": 4,
    "context": {
        "channel": "desktop",
        "formID": "uwu0cbd99fc4d94748a801faa82d1f10f0",
        "platform": "desktopweb",
        "templateType": "userwidgets",
        "topLevelBox": null
    },
    "desktopweb": {
        "psp": {
            "hoverSkin": "sba5012deddd4a46a4ba30a09e9df91b"
        }
    },
    "focusskin": "s9eb08f78097439eb767801e8fdeb5cd",
    "groupcells": false,
    "id": "lbxToAccountmod",
    "info": null,
    "isvisible": true,
    "kiosk": {
        "psp": {
            "placeholder": "Select Account to 'transfer to'"
        }
    },
    "kuid": "e45b010a17954e0d9c322493aa3d75b5",
    "masterdata": [
        [
            "lb1",
            "Carlo's Checking Account"
        ],
        [
            "lbl2",
            "Linda's Savings Account"
        ],
        [
            "lbl3",
            "Michael's Savings Account"
        ],
        [
            "lbl4",
            "My Son's Savings Account"
        ]
    ],
    "name": "kony.ui.ListBox",
    "paddinginpixel": false,
    "parent": "flxNewTransferForm",
    "pf": "userwidgetmodel",
    "selectedkeys": null,
    "selectedkeyvalue": null,
    "selectedkeyvalues": null,
    "size": 18,
    "viewconfig": {
        "toggleViewConfig": {
            "viewStyle": 0
        }
    },
    "viewtype": 0,
    "wType": "ListBox",
    "zindex": 1
}