{
    "@class": "com.kony.gen.viz.model.component.KVizTextBox2",
    "DNDConfig": null,
    "__parentReadjusting__": false,
    "_height_": {
        "type": "string",
        "value": "40dp"
    },
    "_left_": {
        "type": "string",
        "value": "0dp"
    },
    "_margin_": [
        0,
        0,
        0,
        0
    ],
    "_padding_": [
        3,
        0,
        0,
        0
    ],
    "_placeholder_": "Enter Swift Code",
    "_skin_": "s26c65e1ba054da39dd45c5a46abc5f0",
    "_text_": "",
    "_top_": {
        "type": "string",
        "value": "6px"
    },
    "_width_": {
        "type": "string",
        "value": "100%"
    },
    "accessibilityconfig": {
        "a11yLabel": "Enter Routing Number"
    },
    "autocapitalize": "none",
    "autocomplete": false,
    "autocorrect": false,
    "autofilter": false,
    "canUpdateUI": true,
    "containerheight": "",
    "containerheightmode": 1,
    "containerweight": 100,
    "contentalignment": 4,
    "desktopweb": {
        "psp": {
            "hoverSkin": "s80a8c5539a441ee9b9b49917cc45cc2"
        }
    },
    "focusskin": "s2faf9c2766d4142ab33d0bf97445ae0",
    "id": "tbxIntSwiftCodeKA",
    "info": null,
    "isvisible": true,
    "keyboardtype": "A",
    "kuid": "j0e47d81b74c42638fb6071e0a206b34",
    "mode": "A",
    "name": "kony.ui.TextBox2",
    "parent": "flxIntSwiftCodeKA",
    "pf": "userwidgetmodel",
    "securetextentry": false,
    "textinputmode": "A",
    "viewtype": "default",
    "wType": "TextField",
    "zindex": 1
}