{
    "DNDConfig": null,
    "_height_": {
        "type": "string",
        "value": "247dp"
    },
    "_margin_": [
        0,
        0,
        0,
        0
    ],
    "_orientation_": 6,
    "_padding_": [
        0,
        0,
        0,
        0
    ],
    "_percent_": true,
    "_skin_": "s32db308af9e4770a9ccf700cbe81176",
    "allboxes": [],
    "autogrowmode": 0,
    "canUpdateUI": true,
    "children": [
        "flxIdentifier",
        "flxSelectedRowWrapper",
        "flxBottomSeperator"
    ],
    "clipbounds": true,
    "containerId": true,
    "containerweight": 100,
    "controllerInfo": {
        "default": {
            "channel": "desktop",
            "name": "flxSendRequestSelectedMobileP2PController"
        }
    },
    "enablescrolling": true,
    "id": "flxSendRequestSelectedMobileP2P",
    "info": null,
    "isvisible": true,
    "kuid": "i06a53e3ad044cef8f2538aeeefa289f",
    "layouttype": 3,
    "name": "kony.ui.FlexContainer",
    "parent": "segSendRequestSelectedMobileP2P",
    "pf": "segSendRequestSelectedMobileP2P",
    "snapgridsize": 10,
    "snaptogrid": true,
    "wType": "FlexContainer",
    "widgetalignment": 1
}