{
    "DNDConfig": null,
    "_height_": {
        "type": "string",
        "value": "32dp"
    },
    "_left_": {
        "type": "number",
        "value": "0"
    },
    "_margin_": [
        0,
        0,
        0,
        0
    ],
    "_orientation_": 6,
    "_padding_": [
        0,
        0,
        0,
        0
    ],
    "_percent_": true,
    "_right_": {
        "type": "number",
        "value": ""
    },
    "_skin_": "s24c92fc23b14f5484b693ee9b8a9b35",
    "_top_": {
        "type": "string",
        "value": "9dp"
    },
    "_width_": {
        "type": "string",
        "value": "32dp"
    },
    "allboxes": [],
    "autogrowmode": 0,
    "canUpdateUI": true,
    "centery": {
        "type": "string",
        "value": "50%"
    },
    "children": [
        "imgPaginationNextEnabled"
    ],
    "clipbounds": false,
    "containerweight": 100,
    "desktopweb": {
        "psp": {
            "hoverSkin": "s6c4cbf31f7c4fc08f7236fa16b00f8a"
        }
    },
    "enablescrolling": true,
    "id": "flxPaginationNextEnabled",
    "info": null,
    "isvisible": true,
    "kuid": "cc4bf4880a7a468eb7e53b0ce58d85d6",
    "layouttype": 2,
    "name": "kony.ui.FlexContainer",
    "parent": "flxPaginationWrapper",
    "pf": "userwidgetmodel",
    "responsiveData": {
        "b3": {
            "left": {
                "type": "string",
                "value": ""
            },
            "right": {
                "type": "string",
                "value": "0dp"
            }
        }
    },
    "snapgridsize": 10,
    "snaptogrid": true,
    "wType": "FlexContainer",
    "widgetalignment": 1,
    "zindex": 1
}