{
    "AS_Button_b072016496964972938a681a0c6110ba": {
        "id": "AS_Button_b072016496964972938a681a0c6110ba",
        "type": "ACTION_SEQUENCE",
        "params": [{
            "datatype": "collection",
            "name": "eventobject"
        }],
        "contextObj": {
            "name": "uw294b249e1f264e78b48398d28b888f75",
            "type": "userwidgets",
            "KUID": "294b249e1f264e78b48398d28b888f75"
        },
        "language": "js",
        "actions": [{
            "id": "ADD_SNIPPET__j97690cfd8ed42e2a88ae97a51cb9a35",
            "type": "ADD_SNIPPET",
            "codeSnippet": "onNavigate(\"MyRequests\");",
            "parentId": null,
            "callbackType": null
        }]
    }
}