{
    "AS_Button_h80556e9d2834519bc200ae74561ca8b": {
        "actions": [
            {
                "callbackType": null,
                "codeSnippet": "this.clickTab(eventobject);",
                "id": "ADD_SNIPPET__gf3804465c9f456aac68a6ed427d2d93",
                "parentId": null,
                "type": "ADD_SNIPPET"
            }
        ],
        "contextObj": {
            "KUID": "u3f47d4299ff42938009a5fe8fa46b87",
            "name": "uwu3f47d4299ff42938009a5fe8fa46b87",
            "type": "userwidgets"
        },
        "id": "AS_Button_h80556e9d2834519bc200ae74561ca8b",
        "language": "js",
        "params": [
            {
                "datatype": "collection",
                "name": "eventobject"
            }
        ],
        "type": "ACTION_SEQUENCE"
    }
}