{
    "AS_Button_db967164d0a342abb7f9f3981b4202a9": {
        "id": "AS_Button_db967164d0a342abb7f9f3981b4202a9",
        "type": "ACTION_SEQUENCE",
        "params": [{
            "datatype": "collection",
            "name": "eventobject"
        }],
        "contextObj": {
            "KUID": "u146c2fcd43f4154b2be4f99a18c3a52",
            "name": "uwu146c2fcd43f4154b2be4f99a18c3a52",
            "type": "userwidgets"
        },
        "language": "js",
        "actions": [{
            "id": "ADD_SNIPPET__ce59f792a5b7484685b5f2adff0c1a25",
            "type": "ADD_SNIPPET",
            "codeSnippet": "this.clickTab(eventobject);",
            "parentId": null,
            "callbackType": null
        }]
    }
}