{
    "AS_Button_h760bf9bf068444a856399ab013a14b8": {
        "id": "AS_Button_h760bf9bf068444a856399ab013a14b8",
        "type": "ACTION_SEQUENCE",
        "params": [{
            "datatype": "collection",
            "name": "eventobject"
        }],
        "contextObj": {
            "KUID": "u2955b3a21ea4d40bc9d0dcf4b101a62",
            "name": "uwu2955b3a21ea4d40bc9d0dcf4b101a62",
            "type": "userwidgets"
        },
        "language": "js",
        "actions": [{
            "id": "ADD_SNIPPET__g00aec48874b4737a266fccd4d5a00e4",
            "type": "ADD_SNIPPET",
            "codeSnippet": "this.clickTab(eventobject);",
            "parentId": null,
            "callbackType": null
        }]
    }
}