{
    "AS_Button_a05e63e207ac4eb98cea48eaba9f2a42": {
        "id": "AS_Button_a05e63e207ac4eb98cea48eaba9f2a42",
        "type": "ACTION_SEQUENCE",
        "params": [{
            "datatype": "collection",
            "name": "eventobject"
        }],
        "contextObj": {
            "KUID": "u3f47d4299ff42938009a5fe8fa46b87",
            "name": "uwu3f47d4299ff42938009a5fe8fa46b87",
            "type": "userwidgets"
        },
        "language": "js",
        "actions": [{
            "id": "ADD_SNIPPET__b4411aff655147e4b85b426b33ccb4da",
            "type": "ADD_SNIPPET",
            "codeSnippet": "this.clickTab(eventobject);",
            "parentId": null,
            "callbackType": null
        }]
    }
}