{
    "AS_Button_0e5c7ccf351543e7887a9cca0ca6b01a": {
        "id": "AS_Button_0e5c7ccf351543e7887a9cca0ca6b01a",
        "type": "ACTION_SEQUENCE",
        "params": [{
            "datatype": "collection",
            "name": "eventobject"
        }],
        "contextObj": {
            "name": "uwu880133531214eb8bd74348879605663",
            "type": "userwidgets",
            "KUID": "u880133531214eb8bd74348879605663"
        },
        "language": "js",
        "actions": [{
            "id": "ADD_SNIPPET__da48357f2f614c4ca56df8c4c6dabd6d",
            "type": "ADD_SNIPPET",
            "codeSnippet": "// var count= this.view.flxPhone.widgets().length;\n// kony.print(\"count value\"+count);\n// if(count<3){\n//   var append=count+1;\n// var idName = \"tbxPhoneValue0\"+append;\n// kony.print(idName);\n// var txtBasic = {id:idName, placeholder:\"Enter a number here\", maxTextLength:15, isVisible:true,skin:\"sknTBXAcc\", bottom:\"5px\",height:\"40dp\", left : \"0%\",width : \"100%\" };\n// var txtLayout = {padding:[3,0,3,0],type:\"FlowVertical\"};\n// var txtPSP ={};\n// var textBox1 = new kony.ui.TextBox2(txtBasic, txtLayout, txtPSP);\n// this.view.flxPhone.add(textBox1);\n//   if(append == 3)\n//     this.view.AddRecipient.flxPhone.setVisibility(false);\n// }\n",
            "parentId": null,
            "callbackType": null
        }]
    }
}