{
    "AS_Button_ae73f8a1fe30453599c9e388d6e791db": {
        "id": "AS_Button_ae73f8a1fe30453599c9e388d6e791db",
        "type": "ACTION_SEQUENCE",
        "params": [{
            "datatype": "collection",
            "name": "eventobject"
        }],
        "contextObj": {
            "KUID": "u69e81693b034f5abe5c619b67bb8cb9",
            "name": "uwu69e81693b034f5abe5c619b67bb8cb9",
            "type": "userwidgets"
        },
        "language": "js",
        "actions": [{
            "id": "ADD_SNIPPET__i8ff965546c74af381ac1bc098ae4b2c",
            "type": "ADD_SNIPPET",
            "codeSnippet": "this.showTermsAndConditions();",
            "parentId": null,
            "callbackType": null
        }]
    }
}