{
    "AS_FlexContainer_gf609a22df584ee8ac37aa3e2f8e3183": {
        "id": "AS_FlexContainer_gf609a22df584ee8ac37aa3e2f8e3183",
        "type": "ACTION_SEQUENCE",
        "params": [{
            "datatype": "collection",
            "name": "eventobject"
        }],
        "contextObj": {
            "name": "uwuff8657ea2b54b84ac4bb271cd720b1d",
            "type": "userwidgets",
            "KUID": "uff8657ea2b54b84ac4bb271cd720b1d"
        },
        "language": "js",
        "actions": [{
            "id": "INVOKE_FUNCTION__ec6d1cfdbb264ab3b1e1114b3b949e22",
            "type": "INVOKE_FUNCTION",
            "sequenceKUID": "preshow",
            "display": "preshow",
            "inputparams": [],
            "parentId": null,
            "callbackType": null,
            "disabled": null,
            "source": "controller"
        }]
    }
}