{
    "AS_FlexContainer_f30af7782eba47978dddc0ef6abf7175": {
        "id": "AS_FlexContainer_f30af7782eba47978dddc0ef6abf7175",
        "type": "ACTION_SEQUENCE",
        "params": [{
            "datatype": "collection",
            "name": "eventobject"
        }],
        "contextObj": {
            "name": "uwu0c254ff60fd4759bdc3555b1eaef73d",
            "type": "userwidgets",
            "KUID": "u0c254ff60fd4759bdc3555b1eaef73d"
        },
        "language": "js",
        "actions": [{
            "id": "ADD_SNIPPET__if23345236b640d6b00082175945efe7",
            "type": "ADD_SNIPPET",
            "codeSnippet": "this.showContextualMenu();",
            "parentId": null,
            "callbackType": null
        }]
    }
}