{
    "AS_FlexContainer_f598550cad054eeb9d261a7da6c0637b": {
        "actions": [
            {
                "callbackType": null,
                "codeSnippet": "this.postShowHamburger();",
                "id": "ADD_SNIPPET__eec3f636bf2d437a914d360e3b12a6cd",
                "parentId": null,
                "type": "ADD_SNIPPET"
            }
        ],
        "contextObj": {
            "KUID": "uda08b9730274e7bb8bb238b546b3b3e",
            "name": "uwu061affc28134a43aad7bfab7786c25c",
            "type": "userwidgets"
        },
        "id": "AS_FlexContainer_f598550cad054eeb9d261a7da6c0637b",
        "language": "js",
        "params": [
            {
                "datatype": "collection",
                "name": "eventobject"
            }
        ],
        "type": "ACTION_SEQUENCE"
    }
}