{
    "AS_FlexContainer_faf6a8bf14b94872acdcb741e1cc7839": {
        "id": "AS_FlexContainer_faf6a8bf14b94872acdcb741e1cc7839",
        "type": "ACTION_SEQUENCE",
        "params": [{
            "datatype": "collection",
            "name": "eventobject"
        }],
        "contextObj": {
            "name": "uwu7a6c04d5b8a43488886cb5c5317a008",
            "type": "userwidgets",
            "KUID": "u7a6c04d5b8a43488886cb5c5317a008"
        },
        "language": "js",
        "actions": [{
            "id": "INVOKE_FUNCTION__c8fdcc91a518457f8576ac8703f6938f",
            "type": "INVOKE_FUNCTION",
            "sequenceKUID": "preShow",
            "display": "preShow",
            "inputparams": [],
            "parentId": null,
            "callbackType": null,
            "disabled": null,
            "source": "controller"
        }]
    }
}