{
    "AS_FlexContainer_hf9c5d4224cd4b3b89cee2eabd4c4a9e": {
        "id": "AS_FlexContainer_hf9c5d4224cd4b3b89cee2eabd4c4a9e",
        "type": "ACTION_SEQUENCE",
        "params": [{
            "datatype": "collection",
            "name": "eventobject"
        }],
        "contextObj": {
            "KUID": "ufcc37b5082d4c7683a827e363ebc747",
            "name": "uwufcc37b5082d4c7683a827e363ebc747",
            "type": "userwidgets"
        },
        "language": "js",
        "actions": [{
            "id": "ADD_SNIPPET__jccc5a31fd404d52b51001d85c173d88",
            "type": "ADD_SNIPPET",
            "codeSnippet": "this.initHeader();",
            "parentId": null,
            "callbackType": null
        }]
    }
}