{
    "AS_FlexContainer_ac0dc96e5e8c4042a13c91b5273b8aa5": {
        "id": "AS_FlexContainer_ac0dc96e5e8c4042a13c91b5273b8aa5",
        "type": "ACTION_SEQUENCE",
        "params": [{
            "datatype": "collection",
            "name": "eventobject"
        }],
        "contextObj": {
            "name": "uwu91541147cca4f1088a9de2660f842ff",
            "type": "userwidgets",
            "KUID": "u91541147cca4f1088a9de2660f842ff"
        },
        "language": "js",
        "actions": [{
            "id": "ADD_SNIPPET__c53bee27467e4619985c1c1835a057ae",
            "type": "ADD_SNIPPET",
            "codeSnippet": "this.preshow();",
            "parentId": null
        }]
    }
}