{
    "AS_FlexContainer_ac0ca825ffc84b62a65344a8d99650f9": {
        "id": "AS_FlexContainer_ac0ca825ffc84b62a65344a8d99650f9",
        "type": "ACTION_SEQUENCE",
        "params": [{
            "datatype": "collection",
            "name": "eventobject"
        }],
        "contextObj": {
            "name": "uwucff12a70e6b417e94330c77c8de640b",
            "type": "userwidgets",
            "KUID": "ucff12a70e6b417e94330c77c8de640b"
        },
        "language": "js",
        "actions": [{
            "id": "ADD_SNIPPET__fd782eb0f67d4b0bb8cd0f5bedda5f24",
            "type": "ADD_SNIPPET",
            "codeSnippet": "kony.print(\"AMITA\");\nthis.view.lbxDate.masterDataMap = [[{\"daykey\":\"day0\",\"dayvalue\":\"Day\"}],\"daykey\",\"dayvalue\"];\nthis.view.lbxMonth.masterDataMap = [[{\"monthkey\":\"m0\",\"monthvalue\":\"Month\"}],\"monthkey\",\"monthvalue\"];\nthis.setYears(); ",
            "parentId": null,
            "callbackType": null
        }]
    }
}