{
    "AS_FlexContainer_a0eca25e2ff148b2b1da5688f81faee7": {
        "actions": [
            {
                "callbackType": null,
                "codeSnippet": "this.showUserActions();",
                "id": "ADD_SNIPPET__c7e9a9da746d4b8cab4cba9706a80c43",
                "parentId": null,
                "type": "ADD_SNIPPET"
            }
        ],
        "contextObj": {
            "KUID": "ub502194d7404f56ba4d32bb5f6d75b3",
            "name": "uwu8a6ec125b5849f1b101cb5192deae35",
            "type": "userwidgets"
        },
        "id": "AS_FlexContainer_a0eca25e2ff148b2b1da5688f81faee7",
        "language": "js",
        "params": [
            {
                "datatype": "collection",
                "name": "eventobject"
            }
        ],
        "type": "ACTION_SEQUENCE"
    }
}