{
    "AS_FlexContainer_i1c5c832da504478b929f6ad588067dd": {
        "id": "AS_FlexContainer_i1c5c832da504478b929f6ad588067dd",
        "type": "ACTION_SEQUENCE",
        "params": [{
            "datatype": "collection",
            "name": "eventobject"
        }, {
            "datatype": "string",
            "name": "x"
        }, {
            "datatype": "string",
            "name": "y"
        }],
        "contextObj": {
            "name": "uwb50876f980ec4fc193400f13716e0d4e",
            "type": "userwidgets",
            "KUID": "b50876f980ec4fc193400f13716e0d4e"
        },
        "language": "js",
        "actions": []
    }
}