{
    "AS_FlexContainer_cd12f3f129c94e1187fae1e76a4360bf": {
        "id": "AS_FlexContainer_cd12f3f129c94e1187fae1e76a4360bf",
        "type": "ACTION_SEQUENCE",
        "params": [{
            "datatype": "collection",
            "name": "eventobject"
        }],
        "contextObj": {
            "name": "uw9fa226d9679c43a18199f18fbc5ee02d",
            "type": "userwidgets",
            "KUID": "9fa226d9679c43a18199f18fbc5ee02d"
        },
        "language": "js",
        "actions": [{
            "id": "ADD_SNIPPET_e3289b4ae5df4ecea958355c76283c47",
            "type": "ADD_SNIPPET",
            "codeSnippet": "this.postshow()",
            "parentId": null
        }]
    }
}