{
    "AS_FlexContainer_e1583190d80a423fa08e6481869d6262": {
        "id": "AS_FlexContainer_e1583190d80a423fa08e6481869d6262",
        "type": "ACTION_SEQUENCE",
        "params": [{
            "datatype": "collection",
            "name": "eventobject"
        }],
        "contextObj": {
            "KUID": "u31c707da7774d75a292fd9004a81deb",
            "name": "uwu31c707da7774d75a292fd9004a81deb",
            "type": "userwidgets"
        },
        "language": "js",
        "actions": [{
            "id": "ADD_SNIPPET__a8287be4a8cd4164b35dea7222a2e28b",
            "type": "ADD_SNIPPET",
            "codeSnippet": "//this.closeHamburgerMenu();",
            "parentId": null,
            "callbackType": null
        }]
    }
}