{
    "AS_Image_h25a3ec7a2284a62a310aba668b08941": {
        "id": "AS_Image_h25a3ec7a2284a62a310aba668b08941",
        "type": "ACTION_SEQUENCE",
        "params": [{
            "datatype": "collection",
            "name": "eventobject"
        }, {
            "datatype": "string",
            "name": "x"
        }, {
            "datatype": "string",
            "name": "y"
        }],
        "contextObj": {
            "KUID": "u686d41b19174a05ba2b4ea6d2adbab6",
            "name": "uwu686d41b19174a05ba2b4ea6d2adbab6",
            "type": "userwidgets"
        },
        "language": "js",
        "actions": [{
            "id": "ADD_SNIPPET__g7cfe6d29817459c888bfd8ba7860ca9",
            "type": "ADD_SNIPPET",
            "codeSnippet": "if(this.view.imgOption1.src === \"radioinactivebb.png\")\n{\n  this.view.imgOption1.src = \"radioactivebb.png\";\n  this.view.imgOption0.src = \"radioinactivebb.png\";\n  this.view.flxToggleOptions.forceLayout();\n  if(this.onOptionToggle !== undefined && this.onOptionToggle !== null) \n  {\n    this.onOptionToggle();\n  }\n}",
            "parentId": null,
            "callbackType": null
        }]
    }
}