{
    "AS_Segment_ef0f8d5027ac459b8a74e6e4c64a8e5d": {
        "id": "AS_Segment_ef0f8d5027ac459b8a74e6e4c64a8e5d",
        "type": "ACTION_SEQUENCE",
        "params": [{
            "datatype": "collection",
            "name": "eventobject"
        }, {
            "datatype": "number",
            "name": "sectionNumber"
        }, {
            "datatype": "number",
            "name": "rowNumber"
        }],
        "language": "js",
        "actions": [{
            "id": "ADD_SNIPPET_ide_onRowClick_gdba8942e80f446091cd9b8a63c34525",
            "type": "ADD_SNIPPET",
            "codeSnippet": "var data = this.view.segTransactions.data;\nvar index = this.view.segTransactions.selectedIndex[1];\nif(data[index].template==\"segTransactionsRowSavings\"){\n  data[index].template = \"segTransactionsRowSelectedSavings\";\n  this.view.segTransactions.setDataAt(data[index], index);\n}else{\n  data[index].template = \"segTransactionsRowSavings\";\n  this.view.segTransactions.setDataAt(data[index], index);\n}",
            "callbackType": null
        }]
    }
}