{
    "@class": "com.kony.gen.viz.model.component.KVizButton",
    "DNDConfig": null,
    "__parentReadjusting__": false,
    "_height_": {
        "type": "string",
        "value": "40dp"
    },
    "_margin_": [
        6,
        6,
        6,
        6
    ],
    "_padding_": [
        0,
        0,
        0,
        0
    ],
    "_right_": {
        "type": "string",
        "value": "3.77%"
    },
    "_skin_": "s4fe0674a3c84b76a21524a90bad4282",
    "_text_": "NEXT",
    "_top_": {
        "type": "string",
        "value": "60dp"
    },
    "_width_": {
        "type": "string",
        "value": "28.90%"
    },
    "accessibilityconfig": {
        "a11yLabel": "Next"
    },
    "canUpdateUI": true,
    "centerx": {
        "type": "number",
        "value": ""
    },
    "containerweight": 100,
    "contentalignment": 5,
    "desktopweb": {
        "psp": {
            "hoverSkin": "s81054b5e2b74f17a5261991df565427"
        }
    },
    "displaytext": true,
    "focusskin": "s5a4f67acd3e47b9be6d6910a7a6686f",
    "id": "btnNext2",
    "ide_onClick": "AS_Button_c76755d388d44f3fb9d0f8331133a976",
    "info": null,
    "isvisible": true,
    "kuid": "c4b4e02f431c4678b8570cf41588c7e3",
    "name": "kony.ui.Button",
    "parent": "flxRestNext2",
    "pf": "frmAddPayee",
    "responsiveData": {
        "b1": {
            "right": {
                "type": "string",
                "value": "26dp"
            },
            "width": {
                "type": "string",
                "value": "150dp"
            }
        },
        "b2": {
            "right": {
                "type": "string",
                "value": "26dp"
            },
            "top": {
                "type": "string",
                "value": "40dp"
            },
            "width": {
                "type": "string",
                "value": "150dp"
            }
        },
        "b3": {
            "centerX": {
                "type": "string",
                "value": "50%"
            },
            "right": {
                "type": "string",
                "value": ""
            },
            "width": {
                "type": "string",
                "value": "95%"
            }
        },
        "b4": {
            "right": {
                "type": "string",
                "value": "26dp"
            },
            "width": {
                "type": "string",
                "value": "150dp"
            }
        }
    },
    "texti18n": "i18n.common.next",
    "tooltip": "Next",
    "wType": "Button",
    "zindex": 1
}