{
    "@class": "com.kony.gen.viz.model.component.KVizButton",
    "DNDConfig": null,
    "__parentReadjusting__": false,
    "_height_": {
        "type": "string",
        "value": "100%"
    },
    "_left_": {
        "type": "string",
        "value": "10dp"
    },
    "_margin_": [
        6,
        6,
        6,
        6
    ],
    "_padding_": [
        2,
        0,
        2,
        0
    ],
    "_skin_": "s5dd5bb2b8874529bd590fd8525a7fd5",
    "_text_": "SEARCH FOR PAYEE BY NAME",
    "_width_": {
        "type": "ref",
        "value": "preferred"
    },
    "accessibilityconfig": {
        "a11yLabel": "Search for Payee by Name"
    },
    "canUpdateUI": true,
    "centery": {
        "type": "string",
        "value": "50%"
    },
    "containerweight": 100,
    "contentalignment": 5,
    "desktopweb": {
        "psp": {
            "hoverSkin": "sc81e19f9198454c82d4f148a92a2561"
        }
    },
    "disabledSkins": {
        "focusSkin": "sf44d06ca8224832827ea7fdff757013"
    },
    "displaytext": true,
    "id": "btnSearchPayee",
    "ide_onClick": "AS_Button_hb44ae19562949689ff83e0595e5d6f4",
    "info": null,
    "isvisible": true,
    "kuid": "j3c0447b34d84fe4be700a58bf94905c",
    "name": "kony.ui.Button",
    "paddingLocked": false,
    "paddinginpixel": false,
    "parent": "flxAddPayeeTabs",
    "pf": "frmAddPayee",
    "responsiveData": {
        "b3": {}
    },
    "texti18n": "i18n.AddPayee.SEARCHFORPAYEEBYNAME",
    "tooltip": "Search For Payee By Name",
    "wType": "Button",
    "zindex": 2
}