{
    "DNDConfig": null,
    "__parentReadjusting__": false,
    "_height_": {
        "type": "string",
        "value": "40dp"
    },
    "_left_": {
        "type": "string",
        "value": "0dp"
    },
    "_margin_": [
        0,
        0,
        0,
        0
    ],
    "_orientation_": 6,
    "_padding_": [
        0,
        0,
        0,
        0
    ],
    "_percent_": true,
    "_skin_": "s24c92fc23b14f5484b693ee9b8a9b35",
    "_top_": {
        "type": "string",
        "value": "20dp"
    },
    "_width_": {
        "type": "string",
        "value": "100%"
    },
    "allboxes": [],
    "canUpdateUI": true,
    "children": [
        "flxAddNameOnBillKey",
        "lblAddColon5",
        "tbxAddNameOnBillValue"
    ],
    "clipbounds": true,
    "containerweight": 100,
    "enablescrolling": true,
    "id": "flxAddNameOnBill",
    "info": null,
    "isvisible": true,
    "kuid": "j612e0df1731418eb39f552c44d57044",
    "layouttype": 2,
    "name": "kony.ui.FlexContainer",
    "parent": "flxAddBillerDetails",
    "pf": "frmAddPayee",
    "responsiveData": {
        "b3": {
            "height": {
                "type": "string",
                "value": "70dp"
            },
            "layoutType": 4,
            "top": {
                "type": "string",
                "value": "15dp"
            }
        }
    },
    "snapgridsize": 10,
    "snaptogrid": true,
    "wType": "FlexContainer",
    "widgetalignment": 1,
    "zindex": 1
}