{
    "DNDConfig": null,
    "__parentReadjusting__": false,
    "_height_": {
        "type": "string",
        "value": "100%"
    },
    "_left_": {
        "type": "string",
        "value": "0dp"
    },
    "_margin_": [
        0,
        0,
        0,
        0
    ],
    "_orientation_": 6,
    "_padding_": [
        0,
        0,
        0,
        0
    ],
    "_percent_": true,
    "_skin_": "s8ee461dc68a4139ac91ad88b129e84a",
    "_top_": {
        "type": "string",
        "value": "0dp"
    },
    "_width_": {
        "type": "string",
        "value": "100%"
    },
    "allboxes": [],
    "autogrowmode": 0,
    "canUpdateUI": true,
    "children": [],
    "clipbounds": true,
    "containerweight": 100,
    "desktopweb": {
        "psp": {
            "hoverSkin": "s8ee461dc68a4139ac91ad88b129e84a"
        }
    },
    "enablescrolling": true,
    "id": "flxClick",
    "ide_onClick": "AS_FlexContainer_f6470d9ef6f644448d1005e7cb8e3580",
    "info": null,
    "isvisible": true,
    "kuid": "h4852067b09b4b9b92642696b365bee9",
    "layouttype": 2,
    "name": "kony.ui.FlexContainer",
    "parent": "flexcheckuncheck",
    "pf": "frmAddPayee",
    "snapgridsize": 10,
    "snaptogrid": true,
    "wType": "FlexContainer",
    "widgetalignment": 1,
    "zindex": 1
}