{
    "@class": "com.kony.gen.viz.model.component.KVizLabel",
    "DNDConfig": null,
    "_height_": {
        "type": "ref",
        "value": "preferred"
    },
    "_left_": {
        "type": "string",
        "value": "15dp"
    },
    "_margin_": [
        1,
        1,
        1,
        1
    ],
    "_padding_": [
        0,
        0,
        0,
        0
    ],
    "_skin_": "sbff4ac20b984fc49b28258a1e7f2ef8",
    "_top_": {
        "type": "number",
        "value": ""
    },
    "_width_": {
        "type": "string",
        "value": "90%"
    },
    "_wrapping_": 2,
    "accessibilityconfig": {
        "a11yLabel": "Please activate the Wire Transfer service to send or receive money."
    },
    "android": {
        "textStyle": {
            "letterSpacing": 0,
            "strikeThrough": false
        }
    },
    "canUpdateUI": true,
    "centery": {
        "type": "string",
        "value": "50%"
    },
    "containerweight": 100,
    "contentalignment": 4,
    "id": "lblWarning",
    "info": null,
    "ipad": {
        "psp": {
            "wrapping": 2
        }
    },
    "iphone": {
        "psp": {
            "wrapping": 2
        }
    },
    "isvisible": true,
    "kuid": "c190cdcfedbf4ace9eb4b113d49af23e",
    "minheight": {
        "type": "number",
        "value": ""
    },
    "name": "kony.ui.Label",
    "parent": "flxWarning",
    "pf": "frmCreateSavingsGoal",
    "responsiveData": {
        "b1": {
            "centerY": {
                "type": "string",
                "value": "50%"
            },
            "contentAlignment": 1
        },
        "b2": {
            "contentAlignment": 4
        },
        "b3": {
            "centerY": {
                "type": "string",
                "value": ""
            },
            "contentAlignment": 4,
            "height": {
                "type": "ref",
                "value": "preferred"
            },
            "left": {
                "type": "string",
                "value": "10dp"
            },
            "minHeight": {
                "type": "string",
                "value": ""
            },
            "top": {
                "type": "string",
                "value": "12dp"
            },
            "width": {
                "type": "string",
                "value": "91%"
            }
        },
        "b4": {
            "contentAlignment": 1
        }
    },
    "texti18n": "i18n.savingsPot.thankYouGoalAccInfo",
    "tooltip": "",
    "wType": "Label",
    "zindex": 1
}