{
    "@class": "com.kony.gen.viz.model.component.KVizImage2",
    "DNDConfig": null,
    "__parentReadjusting__": false,
    "_base64_": null,
    "_height_": {
        "type": "string",
        "value": "24dp"
    },
    "_margin_": [
        0,
        0,
        0,
        0
    ],
    "_padding_": [
        0,
        0,
        0,
        0
    ],
    "_skin_": "s78a5f26c9f14cec9ebed1bb46098f80",
    "_src_": "pagination_back_inactive.png",
    "_width_": {
        "type": "string",
        "value": "24dp"
    },
    "accessibilityconfig": {
        "a11yLabel": "Pagination left",
        "a11yValue": ""
    },
    "canUpdateUI": true,
    "centerx": {
        "type": "string",
        "value": "50%"
    },
    "centery": {
        "type": "string",
        "value": "50%"
    },
    "containerweight": 100,
    "id": "imgPaginationPrevious",
    "imagescalemode": 1,
    "info": null,
    "isvisible": true,
    "kuid": "fd327ae53b5247078141c11d56f2ccfe",
    "name": "kony.ui.Image2",
    "parent": "flxPaginationPrevious",
    "pf": "frmPastPaymentsEur",
    "srcType": 1,
    "tooltip": "Previous",
    "wType": "Image",
    "widgetalignment": 5,
    "zindex": 1
}