{
    "DNDConfig": null,
    "__parentReadjusting__": false,
    "_height_": {
        "type": "string",
        "value": "8px"
    },
    "_left_": {
        "type": "string",
        "value": "0%"
    },
    "_margin_": [
        0,
        0,
        0,
        0
    ],
    "_orientation_": 6,
    "_padding_": [
        0,
        0,
        0,
        0
    ],
    "_percent_": true,
    "_skin_": "sbffe54c0cb94c738eb94257cee4bd5e",
    "_width_": {
        "type": "string",
        "value": "0.66%"
    },
    "allboxes": [],
    "autogrowmode": 0,
    "canUpdateUI": true,
    "centery": {
        "type": "string",
        "value": "50%"
    },
    "children": [],
    "clipbounds": true,
    "containerweight": 100,
    "enablescrolling": true,
    "id": "flxbullet",
    "info": null,
    "isvisible": true,
    "kuid": "h1815f3de408475dbc2d712b388e1984",
    "layouttype": 4,
    "name": "kony.ui.FlexContainer",
    "parent": "flxone",
    "pf": "frmBillPayActivation",
    "responsiveData": {
        "b3": {
            "width": {
                "type": "string",
                "value": "8dp"
            }
        }
    },
    "snapgridsize": 10,
    "snaptogrid": true,
    "wType": "FlexContainer",
    "widgetalignment": 1,
    "zindex": 1
}