{
    "DNDConfig": null,
    "__parentReadjusting__": false,
    "_height_": {
        "type": "string",
        "value": "110dp"
    },
    "_left_": {
        "type": "string",
        "value": "0dp"
    },
    "_margin_": [
        0,
        0,
        0,
        0
    ],
    "_orientation_": 6,
    "_padding_": [
        0,
        0,
        0,
        0
    ],
    "_percent_": true,
    "_skin_": "s4c164186eb64ac9826be6fb1ed8a0c9",
    "_top_": {
        "type": "string",
        "value": "0dp"
    },
    "_width_": {
        "type": "string",
        "value": "100%"
    },
    "allboxes": [],
    "canUpdateUI": true,
    "children": [
        "btnProceed"
    ],
    "clipbounds": true,
    "containerweight": 100,
    "enablescrolling": true,
    "id": "flxButtons",
    "info": null,
    "isvisible": true,
    "kuid": "e4d3a2cc095d4f82a99871bee5f879b1",
    "layouttype": 2,
    "name": "kony.ui.FlexContainer",
    "parent": "flxActivateMain",
    "pf": "frmBillPayActivation",
    "responsiveData": {
        "b1": {
            "height": {
                "type": "string",
                "value": "80dp"
            }
        },
        "b2": {
            "height": {
                "type": "string",
                "value": "80dp"
            }
        },
        "b3": {
            "height": {
                "type": "string",
                "value": "80dp"
            }
        },
        "b4": {
            "height": {
                "type": "string",
                "value": "80dp"
            }
        }
    },
    "snapgridsize": 10,
    "snaptogrid": true,
    "wType": "FlexContainer",
    "widgetalignment": 1,
    "zindex": 2
}