{
    "DNDConfig": null,
    "__parentReadjusting__": false,
    "_bottom_": {
        "type": "string",
        "value": "20dp"
    },
    "_height_": {
        "type": "ref",
        "value": "preferred"
    },
    "_left_": {
        "type": "string",
        "value": "0dp"
    },
    "_margin_": [
        0,
        0,
        0,
        0
    ],
    "_orientation_": 6,
    "_padding_": [
        0,
        0,
        0,
        0
    ],
    "_percent_": true,
    "_right_": {
        "type": "number",
        "value": ""
    },
    "_skin_": "sdc143f0e5b64ae3a3f155f691c73fa7",
    "_top_": {
        "type": "string",
        "value": "18dp"
    },
    "_width_": {
        "type": "string",
        "value": "100%"
    },
    "allboxes": [],
    "autogrowmode": 1,
    "canUpdateUI": true,
    "children": [
        "flxMainSetCardLimits"
    ],
    "clipbounds": false,
    "containerweight": 100,
    "enablescrolling": true,
    "id": "flxCardShadow",
    "info": null,
    "iscustomlayout": false,
    "isvisible": true,
    "kuid": "d0d2e4653ce14e80aae1a2e6dfd71095",
    "layouttype": 2,
    "name": "kony.ui.FlexContainer",
    "parent": "flxCardLimits",
    "pf": "frmCardManagement",
    "responsiveData": {
        "b1": {
            "left": {
                "type": "string",
                "value": "2dp"
            },
            "width": {
                "type": "string",
                "value": "97%"
            }
        },
        "b2": {
            "left": {
                "type": "string",
                "value": "2.50%"
            },
            "width": {
                "type": "string",
                "value": "95%"
            }
        },
        "b3": {
            "left": {
                "type": "string",
                "value": "2.50%"
            },
            "right": {
                "type": "string",
                "value": ""
            },
            "width": {
                "type": "string",
                "value": "95%"
            }
        },
        "b4": {
            "left": {
                "type": "string",
                "value": "10dp"
            },
            "width": {
                "type": "string",
                "value": "97%"
            }
        }
    },
    "snapgridsize": 10,
    "snaptogrid": true,
    "wType": "FlexContainer",
    "widgetalignment": 1,
    "zindex": 1
}