{
    "@class": "com.kony.gen.viz.model.component.KVizTextBox2",
    "DNDConfig": null,
    "__parentReadjusting__": false,
    "_height_": {
        "type": "string",
        "value": "40dp"
    },
    "_left_": {
        "type": "string",
        "value": "0dp"
    },
    "_margin_": [
        0,
        0,
        0,
        0
    ],
    "_padding_": [
        3,
        0,
        0,
        0
    ],
    "_placeholder_": "Enter Account Number",
    "_skin_": "s26c65e1ba054da39dd45c5a46abc5f0",
    "_text_": "",
    "_top_": {
        "type": "string",
        "value": "6px"
    },
    "_width_": {
        "type": "string",
        "value": "99%"
    },
    "accessibilityconfig": {
        "a11yLabel": "Enter Account Number"
    },
    "autocapitalize": "none",
    "autocomplete": false,
    "autocorrect": false,
    "autofilter": false,
    "canUpdateUI": true,
    "containerheight": "",
    "containerheightmode": 1,
    "containerweight": 100,
    "contentalignment": 4,
    "desktopweb": {
        "ide_onKeyUp": "AS_TextField_f8025b2a6f26497ea322da4ec7b424cc",
        "psp": {
            "hoverSkin": "s80a8c5539a441ee9b9b49917cc45cc2"
        }
    },
    "disabledSkins": {},
    "focusskin": "s2faf9c2766d4142ab33d0bf97445ae0",
    "id": "tbxAccountNumberAgainKA",
    "info": null,
    "isvisible": true,
    "keyboardstyle": "A",
    "keyboardtype": "A",
    "kiosk": {
        "psp": {
            "toolTip": "Re-enter Account Number"
        }
    },
    "kuid": "c1f310000e1c4517aec003882472ead0",
    "mode": "A",
    "name": "kony.ui.TextBox2",
    "parent": "flxAccountNumberAgainKA",
    "pf": "frmFastAddInternationalAccount",
    "placeholderi18n": "i18n.addPayee.RelationshipNumberPlaceholder",
    "placeholderskin": "",
    "responsiveData": {
        "b3": {
            "desktopweb": {
                "placeholderSkin": "sdef800abb3a4d9ba16067ac291a3e33"
            },
            "disabledSkins": {},
            "placeholderSkin": ""
        }
    },
    "securetextentry": false,
    "textinputmode": "A",
    "viewtype": "default",
    "wType": "TextField",
    "zindex": 1
}