{
    "@class": "com.kony.gen.viz.model.component.KVizButton",
    "DNDConfig": null,
    "__parentReadjusting__": false,
    "_height_": {
        "type": "ref",
        "value": "preferred"
    },
    "_margin_": [
        6,
        6,
        6,
        6
    ],
    "_padding_": [
        0,
        0,
        0,
        0
    ],
    "_right_": {
        "type": "string",
        "value": "21.13%"
    },
    "_skin_": "sf6ca31ec68641e5a2df8232c58cd39a",
    "_text_": "MODIFY",
    "_top_": {
        "type": "string",
        "value": "16px"
    },
    "_width_": {
        "type": "ref",
        "value": "preferred"
    },
    "accessibilityconfig": {
        "a11yLabel": "MODIFY"
    },
    "canUpdateUI": true,
    "containerId": true,
    "containerweight": 100,
    "contentalignment": 5,
    "disabledSkins": {
        "focusSkin": "sf44d06ca8224832827ea7fdff757013"
    },
    "displaytext": true,
    "id": "btnModify",
    "ide_onClick": "AS_Button_e98995ed03f243d29996db05b63277dc",
    "info": null,
    "isvisible": true,
    "kuid": "ed0562ab9d324d77813de891a5f76016",
    "name": "kony.ui.Button",
    "parent": "flxModifyAction",
    "pf": "segSentSelected",
    "wType": "Button",
    "zindex": 1
}