{
    "@class": "com.kony.gen.viz.model.component.KVizButton",
    "DNDConfig": null,
    "__parentReadjusting__": false,
    "_height_": {
        "type": "ref",
        "value": "preferred"
    },
    "_margin_": [
        6,
        6,
        6,
        6
    ],
    "_padding_": [
        0,
        0,
        0,
        0
    ],
    "_right_": {
        "type": "number",
        "value": "0"
    },
    "_skin_": "sa98f2bef628482fb3e48715d668e3ec",
    "_text_": "ENROLL",
    "_top_": {
        "type": "string",
        "value": "5dp"
    },
    "_width_": {
        "type": "string",
        "value": "40%"
    },
    "accessibilityconfig": {
        "a11yLabel": "ENROLL"
    },
    "canUpdateUI": true,
    "containerweight": 100,
    "contentalignment": 6,
    "desktopweb": {
        "psp": {}
    },
    "disabledSkins": {
        "focusSkin": "s264339940904f6b9d3e47b6fdc9e327",
        "hoverSkin": "s0d853c8b5284c03a08be1232819c24b"
    },
    "displaytext": true,
    "focusskin": null,
    "id": "btnOnlineAccessEnroll",
    "info": null,
    "isvisible": true,
    "kuid": "f3b768ea7f84483cb7311478ee469e29",
    "name": "kony.ui.Button",
    "parent": "flxNewNEnroll",
    "pf": "userwidgetmodel",
    "tooltip": "Enroll",
    "wType": "Button",
    "zindex": 7
}