{
    "@class": "com.kony.gen.viz.model.component.KVizUserWidget",
    "DNDConfig": null,
    "__parentReadjusting__": false,
    "_children_": [],
    "_height_": {
        "type": "string",
        "value": "101dp"
    },
    "_left_": {
        "type": "string",
        "value": "0dp"
    },
    "_margin_": [
        0,
        0,
        0,
        0
    ],
    "_orientation_": 1,
    "_padding_": [
        0,
        0,
        0,
        0
    ],
    "_percent_": true,
    "_skin_": "s24c92fc23b14f5484b693ee9b8a9b35",
    "_top_": {
        "type": "string",
        "value": "0dp"
    },
    "_width_": {
        "type": "string",
        "value": "100%"
    },
    "areflexpropsreferenced": false,
    "autogrowmode": 0,
    "canUpdateUI": true,
    "clipbounds": false,
    "containerweight": 0,
    "dataDiffs": {
        "Search": {
            "__events__": {},
            "__info__": {
                "isRoot": true,
                "kuid": "h14d268a881d41a5a0d9d8b0833b5b9b",
                "srcKUID": "afd57c04bad743bba99d0e5529f286ef",
                "wType": "FlexContainer"
            }
        },
        "btnConfirm": {
            "__events__": {},
            "__info__": {
                "kuid": "h659573ff4e341849c766a4ca994f652",
                "srcKUID": "e9702e4808614e879fc1c538e8418494",
                "wType": "FlexContainer"
            },
            "responsiveData": {
                "b3": {
                    "width": {
                        "type": "string",
                        "value": "30dp"
                    }
                }
            },
            "width": {}
        },
        "btnConfirm1": {
            "__events__": {},
            "__info__": {
                "kuid": "a1803fee318243de9698a58e0abe0314",
                "srcKUID": "af76dace2e82450d9f162b8462c58110",
                "wType": "Button"
            }
        },
        "flxClearBtn": {
            "__events__": {},
            "__info__": {
                "kuid": "j055973690b343239192fb287c2d71a9",
                "srcKUID": "d3fe792123d04455b5f0b964efb41461",
                "wType": "FlexContainer"
            },
            "responsiveData": {
                "b1": {
                    "isVisible": false
                },
                "b3": {
                    "isVisible": false,
                    "width": {
                        "type": "string",
                        "value": "6%"
                    }
                },
                "b4": {
                    "isVisible": false
                }
            },
            "width": {}
        },
        "flxtxtSearchandClearbtn": {
            "__events__": {},
            "__info__": {
                "kuid": "df7f904183c841498d6105413bbfe897",
                "srcKUID": "c09f8d65274f4847b9b386da774ae9ed",
                "wType": "FlexContainer"
            },
            "left": {
                "Default": {
                    "type": "string",
                    "value": "2.70%"
                }
            },
            "responsiveData": {
                "b1": {
                    "left": {
                        "type": "string",
                        "value": "2.70%"
                    }
                }
            }
        },
        "imgCross": {
            "__events__": {},
            "__info__": {
                "kuid": "f0001b937e02489dbdd83daa4eaabfc7",
                "srcKUID": "eaa7b734e8034d52976bb1bb5a6ef8df",
                "wType": "Image"
            },
            "src": "icon_close_grey.png"
        },
        "lblSearch": {
            "__events__": {},
            "__info__": {
                "kuid": "c29a2ebfc4f24c2fb716f65b7dde44e4",
                "srcKUID": "ha872e5f14bd4b81be4c93f1a3c18480",
                "wType": "Label"
            },
            "centerY": {
                "Default": {
                    "type": "string",
                    "value": "50%"
                }
            },
            "height": {},
            "responsiveData": {
                "b1": {
                    "centerY": {
                        "type": "string",
                        "value": "55%"
                    }
                },
                "b3": {
                    "height": {
                        "type": "string",
                        "value": "40dp"
                    }
                },
                "b4": {
                    "centerY": {
                        "type": "string",
                        "value": "55%"
                    }
                }
            }
        },
        "txtSearch": {
            "__events__": {},
            "__info__": {
                "kuid": "c09eb2becfe24706bd2c6905cabac33a",
                "srcKUID": "i3f8ddcc8538436280c67c4c0ccc7cb6",
                "wType": "TextField"
            },
            "height": {},
            "left": {},
            "responsiveData": {
                "b3": {
                    "height": {
                        "type": "string",
                        "value": "100%"
                    },
                    "left": {
                        "type": "string",
                        "value": "1%"
                    },
                    "width": {
                        "type": "string",
                        "value": "80%"
                    }
                }
            },
            "width": {}
        }
    },
    "enablescrolling": true,
    "id": "Search",
    "info": null,
    "isdatareferenced": false,
    "isvisible": true,
    "kuid": "h14d268a881d41a5a0d9d8b0833b5b9b",
    "layouttype": 2,
    "masterType": 0,
    "name": "kony.ui.UserWidgetInstance",
    "parent": "flxSearch",
    "pf": "frmFastManagePayee",
    "snapgridsize": 10,
    "snaptogrid": true,
    "sourceUserWidget": "afd57c04bad743bba99d0e5529f286ef",
    "wType": "UserWidgetInstance"
}