{
    "@class": "com.kony.gen.viz.model.component.KVizRichText",
    "DNDConfig": null,
    "__parentReadjusting__": false,
    "_height_": {
        "type": "ref",
        "value": "preferred"
    },
    "_left_": {
        "type": "string",
        "value": "76dp"
    },
    "_margin_": [
        0,
        0,
        0,
        0
    ],
    "_padding_": [
        0,
        0,
        0,
        0
    ],
    "_skin_": "sa7875ee0d0f446987db74d1dc49550e",
    "_text_": "",
    "_width_": {
        "type": "ref",
        "value": "preferred"
    },
    "_wrapping_": 2,
    "accessibilityconfig": {
        "a11yLabel": "We couldnt find an exact match. Please enter your Payee information as it appears on your Bill."
    },
    "canUpdateUI": true,
    "centery": {
        "type": "string",
        "value": "50%"
    },
    "containerweight": 100,
    "contentalignment": 4,
    "id": "rtxMisMatch",
    "info": null,
    "isvisible": true,
    "kuid": "aabce35f1fcc43d188202075d9466562",
    "name": "kony.ui.RichText",
    "parent": "flxMisMatch",
    "pf": "frmAddPayee1",
    "texti18n": "i18n.addPayee.BillerMisMatch",
    "wType": "RichText",
    "widgetalignment": 5,
    "zindex": 1
}