{
    "DNDConfig": null,
    "_height_": {
        "type": "string",
        "value": "220dp"
    },
    "_margin_": [
        0,
        0,
        0,
        0
    ],
    "_orientation_": 6,
    "_padding_": [
        0,
        0,
        0,
        0
    ],
    "_percent_": true,
    "_skin_": "s24c92fc23b14f5484b693ee9b8a9b35",
    "allboxes": [],
    "autogrowmode": 0,
    "canUpdateUI": true,
    "children": [
        "flxIdentifier",
        "flxSelectedRowWrapper"
    ],
    "clipbounds": true,
    "containerId": true,
    "containerweight": 100,
    "controllerInfo": {
        "default": {
            "channel": "desktop",
            "name": "flxDisputedTransactionsSelectedController"
        }
    },
    "enablescrolling": true,
    "id": "flxDisputedTransactionsSelected",
    "info": null,
    "isTemplate": true,
    "isvisible": true,
    "kuid": "fda854bcb0804713a08b47ca31635e23",
    "layouttype": 3,
    "name": "kony.ui.FlexContainer",
    "parent": "segDisputedtransactionsSelected",
    "pf": "segDisputedtransactionsSelected",
    "snapgridsize": 10,
    "snaptogrid": true,
    "wType": "FlexContainer",
    "widgetalignment": 1
}