{
    "@class": "com.kony.gen.viz.model.component.KVizDateField",
    "DNDConfig": null,
    "Image": "calendar.png",
    "__id": "segBillPayAllPayeesSelected_calDeliverBy",
    "__input": "calDeliverBy",
    "__parentReadjusting__": false,
    "_data_": null,
    "_date_": [
        null,
        null,
        null
    ],
    "_height_": {
        "type": "string",
        "value": "40dp"
    },
    "_left_": {
        "type": "string",
        "value": "0dp"
    },
    "_margin_": [
        0,
        0,
        0,
        0
    ],
    "_padding_": [
        3,
        0,
        5,
        0
    ],
    "_skin_": "s309f86f067941bbb828e53b34e06a77",
    "_top_": {
        "type": "string",
        "value": "25dp"
    },
    "_width_": {
        "type": "string",
        "value": "100%"
    },
    "advview": "default",
    "calendaricon": "calbtn.png",
    "canUpdateUI": true,
    "containerId": true,
    "containerweight": 100,
    "contentalignment": 5,
    "datecomponents": null,
    "dateeditable": true,
    "dateformat": "dd/MM/yyyy",
    "datesGroup": [],
    "datesState": 0,
    "day": null,
    "daytextalignmentincell": 5,
    "desktopweb": {
        "calendarIcon": "calendar.png"
    },
    "displayedMonths": [
        7,
        2017
    ],
    "entereddate": null,
    "format": "dd/MM/yyyy",
    "formatteddate": null,
    "gridCellInactiveDaysSkin": "sd35029800e247beb86f04d6851b1b8d",
    "gridCellSelectedSkin": "se25cb8945064b57bbc9a41b3cd425f7",
    "gridCellSkin": "s5f875a55e8d4ce4bd8a22d01f285405",
    "gridCellTodaySkin": "s544d961e8084f759a5352dec12df3c8",
    "gridCellWeekendSkin": "s5f875a55e8d4ce4bd8a22d01f285405",
    "gridSkin": "s996ecb9dbc14113a367b19b028a1ef4",
    "hidedaysheader": false,
    "hidemonthsheader": false,
    "hour": null,
    "id": "calDeliverBy",
    "info": null,
    "invokedProperty": "rightNavigationImage",
    "isvisible": false,
    "kiosk": {
        "render": false
    },
    "kuid": "gb966c612f61436b8881e2c51aeece6e",
    "minutes": null,
    "month": null,
    "monthsinrow": 3,
    "name": "kony.ui.Calendar",
    "navigatorAlert": "Invalid Selection",
    "noofmonths": 1,
    "paddinginpixel": false,
    "pagedate": "/2017",
    "parent": "flxDeliverByCalendar",
    "pf": "segBillPaymentAllPayeesSelected",
    "popupHeight": "auto",
    "popupWidth": "auto",
    "seconds": null,
    "selectdate": "//2017",
    "startDay": 0,
    "viewconfig": {
        "gridConfig": {
            "gridCellInactiveDaysSkin": "sd35029800e247beb86f04d6851b1b8d",
            "gridCellSelectedSkin": "se25cb8945064b57bbc9a41b3cd425f7",
            "gridCellSkin": "s5f875a55e8d4ce4bd8a22d01f285405",
            "gridCellTodaySkin": "s544d961e8084f759a5352dec12df3c8",
            "gridCellWeekendSkin": "s5f875a55e8d4ce4bd8a22d01f285405",
            "gridSkin": "s996ecb9dbc14113a367b19b028a1ef4",
            "leftNavigationImage": "arrow_left.png",
            "rightNavigationImage": "arrow_right.png"
        }
    },
    "viewtype": "default",
    "wType": "Calendar",
    "watchos": {
        "render": false
    },
    "widgetalignment": 5,
    "widths": [
        "14.2857%;",
        "14.2857%;",
        "14.2857%;",
        "14.2857%;",
        "14.2857%;",
        "14.2857%;",
        "14.2857%;"
    ],
    "windows10": {
        "render": false
    },
    "winphone10": {
        "render": false
    },
    "year": null,
    "zindex": 1,
    "focusskin": "seb8ea02d2bd442ebe692e7030860d3f"
}