{
    "DNDConfig": null,
    "__parentReadjusting__": false,
    "_height_": {
        "type": "string",
        "value": "40dp"
    },
    "_margin_": [
        0,
        0,
        0,
        0
    ],
    "_orientation_": 6,
    "_padding_": [
        0,
        0,
        0,
        0
    ],
    "_percent_": true,
    "_right_": {
        "type": "string",
        "value": "20dp"
    },
    "_skin_": "s10a240ff40146de8fe3b093d819809b",
    "_width_": {
        "type": "string",
        "value": "150dp"
    },
    "allboxes": [],
    "autogrowmode": 0,
    "canUpdateUI": true,
    "centery": {
        "type": "string",
        "value": "50%"
    },
    "children": [
        "flxAmountDollar",
        "txtAmount"
    ],
    "clipbounds": true,
    "containerId": true,
    "containerweight": 100,
    "enablescrolling": true,
    "id": "flxAmount",
    "info": null,
    "isvisible": true,
    "kuid": "h6dc492bd284443c807e7dff70e294e7",
    "layouttype": 3,
    "name": "kony.ui.FlexContainer",
    "parent": "flxWrapper",
    "pf": "segBillPaymentAllPayeesSelected",
    "snapgridsize": 10,
    "snaptogrid": true,
    "wType": "FlexContainer",
    "widgetalignment": 1,
    "zindex": 1
}