{
    "@class": "com.kony.gen.viz.model.component.KVizImage2",
    "DNDConfig": null,
    "__parentReadjusting__": false,
    "_base64_": null,
    "_height_": {
        "type": "string",
        "value": "16dp"
    },
    "_left_": {
        "type": "string",
        "value": "19dp"
    },
    "_margin_": [
        0,
        0,
        0,
        0
    ],
    "_padding_": [
        0,
        0,
        0,
        0
    ],
    "_skin_": "s78a5f26c9f14cec9ebed1bb46098f80",
    "_src_": "error_yellow.png",
    "_top_": {
        "type": "string",
        "value": "5dp"
    },
    "_width_": {
        "type": "string",
        "value": "16dp"
    },
    "accessibilityconfig": {
        "a11yARIA": {
            "tabindex": -1
        },
        "a11yHidden": false,
        "a11yLabel": "DropDownList",
        "a11yValue": ""
    },
    "canUpdateUI": true,
    "containerId": true,
    "containerweight": 100,
    "id": "imgErrorSelected",
    "imagescalemode": 1,
    "imagewhiledownloading": "img_transparent.png",
    "info": null,
    "invokedProperty": "src",
    "isvisible": false,
    "kuid": "ad840506588540f185a5f0feac0dd9c1",
    "name": "kony.ui.Image2",
    "parent": "flxDropdown",
    "pf": "segBillPaymentAllPayeesSelected",
    "srcType": 1,
    "tooltip": "DropDownList",
    "wType": "Image",
    "widgetalignment": 5,
    "zindex": 1
}