{
    "@class": "com.kony.gen.viz.model.component.KVizListBox",
    "DNDConfig": null,
    "__parentReadjusting__": false,
    "_height_": {
        "type": "string",
        "value": "40dp"
    },
    "_left_": {
        "type": "string",
        "value": "0%"
    },
    "_margin_": [
        0,
        0,
        0,
        0
    ],
    "_padding_": [
        2,
        0,
        0,
        0
    ],
    "_placeholder_": "Please Select",
    "_right_": {
        "type": "string",
        "value": "25dp"
    },
    "_skin_": "sbaba22b80b348e6a9f536af0ad26b53",
    "_top_": {
        "type": "string",
        "value": "30dp"
    },
    "_width_": {
        "type": "string",
        "value": "100%"
    },
    "canUpdateUI": true,
    "containerId": true,
    "containerweight": 100,
    "contentalignment": 4,
    "disabledSkins": {
        "focusSkin": "scbfca6ddbef4cd5b6ed82d4a8287a97"
    },
    "groupcells": false,
    "id": "lstPayFrom",
    "info": null,
    "iscustomlayout": false,
    "isvisible": true,
    "kuid": "jd2d4b2a088a4ed1934010c2f8d2b1b1",
    "masterdata": [],
    "name": "kony.ui.ListBox",
    "paddinginpixel": false,
    "parent": "flxPayFrom",
    "pf": "segBillPaymentAllPayeesSelected",
    "retaincontentalignment": false,
    "retainflexpositionproperties": false,
    "selectedkeys": null,
    "selectedkeyvalue": null,
    "selectedkeyvalues": null,
    "size": 18,
    "viewconfig": {
        "toggleViewConfig": {
            "viewStyle": 0
        }
    },
    "viewtype": 0,
    "wType": "ListBox",
    "zindex": 1,
    "focusskin": "s9eb08f78097439eb767801e8fdeb5cd"
}