{
    "@class": "com.kony.gen.viz.model.component.KVizButton",
    "DNDConfig": null,
    "__parentReadjusting__": false,
    "_height_": {
        "type": "string",
        "value": "40dp"
    },
    "_left_": {
        "type": "number",
        "value": ""
    },
    "_margin_": [
        6,
        6,
        6,
        6
    ],
    "_padding_": [
        0,
        0,
        0,
        0
    ],
    "_right_": {
        "type": "string",
        "value": "0dp"
    },
    "_skin_": "sfbbba35ede4457b94eb681b72349b98",
    "_text_": "",
    "_top_": {
        "type": "number",
        "value": ""
    },
    "_width_": {
        "type": "string",
        "value": "12.50%"
    },
    "accessibilityconfig": {
        "a11yLabel": "Add Account"
    },
    "canUpdateUI": true,
    "centery": {
        "type": "string",
        "value": "50%"
    },
    "containerweight": 100,
    "contentalignment": 5,
    "desktopweb": {
        "psp": {
            "hoverSkin": "s7ab6326aaf94c28b90b61fcb1b54547"
        }
    },
    "disabledSkins": {},
    "displaytext": true,
    "focusskin": "s7388a571dae4f0dade7428f0bf88795",
    "id": "btnContinue",
    "info": null,
    "isvisible": true,
    "kuid": "ee73fea283074ae081d4c5fb9abc88a8",
    "name": "kony.ui.Button",
    "parent": "flxButtons",
    "pf": "frmBulkTemplateEditRecipients",
    "responsiveData": {
        "b2": {
            "width": {
                "type": "string",
                "value": "170dp"
            }
        },
        "b3": {
            "centerY": {
                "type": "string",
                "value": ""
            },
            "left": {
                "type": "string",
                "value": "2%"
            },
            "top": {
                "type": "string",
                "value": "20dp"
            },
            "width": {
                "type": "string",
                "value": "96%"
            }
        }
    },
    "texti18n": "i18n.login.Done",
    "tooltip": "Confirm",
    "wType": "Button",
    "zindex": 1
}