{
	 "@class": "com.kony.gen.viz.model.component.KVizLabel",
	 "DNDConfig": null,
	 "__parentReadjusting__": false,
	 "_height_": {
		 "type": "string",
		 "value": "10dp"
	},
	 "_left_": {
		 "type": "string",
		 "value": "20dp"
	},
	 "_margin_": [
		 1,
		 1,
		 1,
		 1
	],
	 "_padding_": [
		 0,
		 0,
		 0,
		 0
	],
	 "_skin_": "sfa1083b9f9e46caae82dac4c26c7c57",
	 "_text_": "O",
	 "_width_": {
		 "type": "string",
		 "value": "15dp"
	},
	 "_wrapping_": 2,
	 "accessibilityconfig": {
		 "a11yLabel": "Transfer header dropdown"
	},
	 "android": {
		 "textStyle": {
			 "letterSpacing": 0,
			 "strikeThrough": false
		}
	},
	 "canUpdateUI": true,
	 "centery": {
		 "type": "string",
		 "value": "50%"
	},
	 "containerweight": 100,
	 "contentalignment": 4,
	 "id": "imgLblTransfers",
	 "info": null,
	 "ipad": {
		 "psp": {
			 "wrapping": 2
		}
	},
	 "iphone": {
		 "psp": {
			 "wrapping": 2
		}
	},
	 "isvisible": true,
	 "kuid": "cbb98a2523ce419880cc0cbb400f5c13",
	 "name": "kony.ui.Label",
	 "parent": "flxTransfersAndPay",
	 "pf": "userwidgetmodel",
	 "tooltip": "Transfer & Pay",
	 "wType": "Label",
	 "zindex": 2
}