{
    "@class": "com.kony.gen.viz.model.component.KVizButton",
    "DNDConfig": null,
    "__parentReadjusting__": false,
    "_height_": {
        "type": "string",
        "value": "40dp"
    },
    "_left_": {
        "type": "string",
        "value": "78.50%"
    },
    "_margin_": [
        6,
        6,
        6,
        6
    ],
    "_padding_": [
        0,
        0,
        0,
        0
    ],
    "_right_": {
        "type": "number",
        "value": ""
    },
    "_skin_": "s4fe0674a3c84b76a21524a90bad4282",
    "_text_": "btnThree",
    "_top_": {
        "type": "string",
        "value": "517dp"
    },
    "_width_": {
        "type": "string",
        "value": "21.42%"
    },
    "accessibilityconfig": {
        "a11yLabel": "btnThree"
    },
    "canUpdateUI": true,
    "containerweight": 100,
    "contentalignment": 5,
    "disabledSkins": {
        "focusSkin": "sf44d06ca8224832827ea7fdff757013"
    },
    "displaytext": true,
    "hoverskin": "",
    "id": "btnAcknowledgementThree",
    "info": null,
    "isvisible": true,
    "kuid": "a96e53abebd446e19c356c82f929cae7",
    "name": "kony.ui.Button",
    "parent": "flxAcknowledgement",
    "pf": "frmPayAPerson",
    "responsiveData": {
        "b1": {
            "top": {
                "type": "string",
                "value": "475dp"
            }
        },
        "b2": {
            "desktopweb": {
                "psp": {
                    "hoverSkin": "s81054b5e2b74f17a5261991df565427"
                }
            },
            "disabledSkins": {},
            "top": {
                "type": "string",
                "value": "475dp"
            }
        },
        "b3": {
            "left": {
                "type": "string",
                "value": "0dp"
            },
            "top": {
                "type": "string",
                "value": "1240dp"
            },
            "width": {
                "type": "string",
                "value": "100%"
            }
        },
        "b4": {
            "left": {
                "type": "string",
                "value": ""
            },
            "right": {
                "type": "string",
                "value": "0%"
            },
            "top": {
                "type": "string",
                "value": "910dp"
            },
            "width": {
                "type": "string",
                "value": "30%"
            }
        }
    },
    "wType": "Button",
    "zindex": 1
}