{
	 "@class": "com.kony.gen.viz.model.component.KVizLabel",
	 "DNDConfig": null,
	 "__parentReadjusting__": false,
	 "_height_": {
		 "type": "string",
		 "value": "1dp"
	},
	 "_left_": {
		 "type": "string",
		 "value": "0dp"
	},
	 "_margin_": [
		 1,
		 1,
		 1,
		 1
	],
	 "_padding_": [
		 0,
		 0,
		 2,
		 0
	],
	 "_skin_": "sbdeeab4f7084696b39041ac38df96c2",
	 "_text_": " ",
	 "_top_": {
		 "type": "string",
		 "value": "0dp"
	},
	 "_width_": {
		 "type": "string",
		 "value": "100%"
	},
	 "_wrapping_": 2,
	 "accessibilityconfig": {
		 "a11yHidden": true,
		 "a11yLabel": " ",
		 "a11yARIA": {
			 "tabindex": -1
		}
	},
	 "android": {
		 "textStyle": {
			 "letterSpacing": 0,
			 "strikeThrough": false
		}
	},
	 "canUpdateUI": true,
	 "containerweight": 100,
	 "contentalignment": 4,
	 "id": "CopylblWhatElse0ee994d229d7d49",
	 "info": null,
	 "ipad": {
		 "psp": {
			 "wrapping": 2
		}
	},
	 "iphone": {
		 "psp": {
			 "wrapping": 2
		}
	},
	 "isvisible": true,
	 "kuid": "bb1d2f4f6ee14eeeb9b1a122047e9fe4",
	 "name": "kony.ui.Label",
	 "paddinginpixel": false,
	 "parent": "flxAddRecipientButton",
	 "pf": "frmPayAPerson",
	 "tooltip": "",
	 "wType": "Label",
	 "zindex": 1
}