{
	"DNDConfig": null,
	"__parentReadjusting__": false,
	"_height_": {
		"type": "ref",
		"value": "preferred"
	},
	"_left_": {
		"type": "string",
		"value": "0dp"
	},
	"_margin_": [
		0,
		0,
		0,
		0
	],
	"_orientation_": 6,
	"_padding_": [
		0,
		0,
		0,
		0
	],
	"_percent_": true,
	"_skin_": "s24c92fc23b14f5484b693ee9b8a9b35",
	"_top_": {
		"type": "string",
		"value": "120dp"
	},
	"_width_": {
		"type": "string",
		"value": "100%"
	},
	"allboxes": [],
	"autogrowmode": 1,
	"canUpdateUI": true,
	"children": [
		"breadcrumb",
		"flxTop",
		"flxDowntimeWarning",
		"flxMainContainer",
		"flxBottom"
	],
	"clipbounds": true,
	"containerweight": 100,
	"enablescrolling": true,
	"id": "flxContainer",
	"info": null,
	"isvisible": true,
	"kuid": "b7330caef8934160b4b9f7d5afc73a61",
	"layouttype": 4,
	"name": "kony.ui.FlexContainer",
	"parent": "frmPayAPerson",
	"pf": "frmPayAPerson",
	"responsiveData": {
		"b1": {
			"width": {
				"type": "string",
				"value": "100%"
			}
		},
		"b3": {
			"top": {
				"type": "string",
				"value": "50dp"
			},
			"width": {
				"type": "string",
				"value": "100%"
			}
		},
		"b4": {
			"width": {
				"type": "string",
				"value": "100%"
			}
		}
	},
	"snapgridsize": 10,
	"snaptogrid": true,
	"wType": "FlexContainer",
	"widgetalignment": 1,
	"zindex": 1
}