{
	 "@class": "com.kony.gen.viz.model.component.KVizLabel",
	 "DNDConfig": null,
	 "__parentReadjusting__": false,
	 "_height_": {
		 "type": "ref",
		 "value": "preferred"
	},
	 "_left_": {
		 "type": "string",
		 "value": "126dp"
	},
	 "_margin_": [
		 1,
		 1,
		 1,
		 1
	],
	 "_padding_": [
		 0,
		 0,
		 0,
		 0
	],
	 "_skin_": "sc39b68cb14e457b9b79ba3c8c3b88d1",
	 "_text_": "Don't make ti visible.d",
	 "_top_": {
		 "type": "string",
		 "value": "244dp"
	},
	 "_width_": {
		 "type": "ref",
		 "value": "preferred"
	},
	 "_wrapping_": 2,
	 "accessibilityconfig": {
		 "a11yLabel": "Dont make ti visible.d"
	},
	 "android": {
		 "textStyle": {
			 "letterSpacing": 0,
			 "strikeThrough": false
		}
	},
	 "canUpdateUI": true,
	 "containerweight": 100,
	 "contentalignment": 4,
	 "id": "lblHiddenValue",
	 "info": null,
	 "ipad": {
		 "psp": {
			 "wrapping": 2
		}
	},
	 "iphone": {
		 "psp": {
			 "wrapping": 2
		}
	},
	 "isvisible": false,
	 "kuid": "c7ad7bf35f0745288f39a410596dd982",
	 "name": "kony.ui.Label",
	 "parent": "flxAddRecipient",
	 "pf": "frmPayAPerson",
	 "responsiveData": {
		 "b1": {
			 "isVisible": false
		},
		 "b3": {
			 "isVisible": false
		}
	},
	 "tooltip": "",
	 "wType": "Label",
	 "zindex": 1
}