{
    "DNDConfig": null,
    "__parentReadjusting__": false,
    "_height_": {
        "type": "string",
        "value": "760dp"
    },
    "_margin_": [
        0,
        0,
        0,
        0
    ],
    "_orientation_": 6,
    "_padding_": [
        0,
        0,
        0,
        0
    ],
    "_percent_": true,
    "_skin_": "s576844bc0e148a9a02e6171eac305ac",
    "_top_": {
        "type": "string",
        "value": "150dp"
    },
    "_width_": {
        "type": "string",
        "value": "795dp"
    },
    "allboxes": [],
    "canUpdateUI": true,
    "centerx": {
        "type": "string",
        "value": "50%"
    },
    "children": [
        "flxTermsAndConditionsHeader",
        "flxSeperator1",
        "flxTCContents",
        "flxTCCheckBox",
        "flxSeperator2",
        "flxContentsButtons"
    ],
    "clipbounds": true,
    "containerweight": 100,
    "enablescrolling": true,
    "id": "flxTC",
    "info": null,
    "isvisible": true,
    "kuid": "i7f0c58a87cc4dc7ae913ddbaee5bba5",
    "layouttype": 4,
    "name": "kony.ui.FlexContainer",
    "parent": "flxTermsAndConditions",
    "pf": "frmBBApprovalHistory",
    "snapgridsize": 10,
    "snaptogrid": true,
    "vizProps": {},
    "wType": "FlexContainer",
    "widgetalignment": 1,
    "zindex": 1
}