{
    "DNDConfig": null,
    "__parentReadjusting__": false,
    "_bottom_": {
        "type": "number",
        "value": ""
    },
    "_height_": {
        "type": "string",
        "value": "25dp"
    },
    "_left_": {
        "type": "string",
        "value": "0dp"
    },
    "_margin_": [
        0,
        0,
        0,
        0
    ],
    "_orientation_": 6,
    "_padding_": [
        0,
        0,
        0,
        0
    ],
    "_percent_": true,
    "_skin_": "s344174b66d24a22be7a954acfcdefc5",
    "_top_": {
        "type": "string",
        "value": "0dp"
    },
    "_width_": {
        "type": "string",
        "value": "25dp"
    },
    "accessibilityconfig": {
        "a11yARIA": {
            "tabindex": 1
        }
    },
    "allboxes": [],
    "canUpdateUI": true,
    "centerx": {
        "type": "string",
        "value": "60%"
    },
    "centery": {
        "type": "string",
        "value": "49%"
    },
    "children": [
        "imgInfoIcon"
    ],
    "clipbounds": true,
    "containerweight": 100,
    "desktopweb": {
        "psp": {
            "hoverSkin": "s6c4cbf31f7c4fc08f7236fc38f01a0e"
        }
    },
    "enablescrolling": true,
    "id": "flxInfo",
    "info": null,
    "isvisible": true,
    "kuid": "f44270ad3b794a948543fd938736f720",
    "layouttype": 2,
    "name": "kony.ui.FlexContainer",
    "parent": "flxUploadFile",
    "pf": "frmEditBulkTemplateFile",
    "responsiveData": {
        "b1": {
            "centerX": {
                "type": "string",
                "value": "57.90%"
            },
            "centerY": {
                "type": "string",
                "value": "78.43%"
            },
            "left": {
                "type": "string",
                "value": ""
            },
            "top": {
                "type": "string",
                "value": "0dp"
            }
        },
        "b2": {
            "centerX": {
                "type": "string",
                "value": "57.90%"
            },
            "centerY": {
                "type": "string",
                "value": "78.43%"
            }
        },
        "b3": {
            "bottom": {
                "type": "string",
                "value": ""
            },
            "centerX": {
                "type": "string",
                "value": ""
            },
            "centerY": {
                "type": "string",
                "value": "78.43%"
            },
            "height": {
                "type": "string",
                "value": "30dp"
            },
            "left": {
                "type": "string",
                "value": "62%"
            },
            "top": {
                "type": "string",
                "value": ""
            },
            "width": {
                "type": "string",
                "value": "3%"
            }
        },
        "b4": {
            "centerY": {
                "type": "string",
                "value": "78.02%"
            }
        }
    },
    "snapgridsize": 10,
    "snaptogrid": true,
    "wType": "FlexContainer",
    "widgetalignment": 1,
    "zindex": 1
}