{
    "@class": "com.kony.gen.viz.model.component.KVizLabel",
    "DNDConfig": null,
    "__parentReadjusting__": false,
    "_height_": {
        "type": "ref",
        "value": "preferred"
    },
    "_left_": {
        "type": "string",
        "value": "2.20%"
    },
    "_margin_": [
        1,
        1,
        1,
        1
    ],
    "_padding_": [
        0,
        0,
        0,
        0
    ],
    "_skin_": "saba7a95163a455f8f2f131435e16122",
    "_text_": "Your Transaction Details",
    "_width_": {
        "type": "ref",
        "value": "preferred"
    },
    "_wrapping_": 2,
    "accessibilityconfig": {
        "a11yLabel": "Verify Payee Information"
    },
    "android": {
        "textStyle": {
            "letterSpacing": 0,
            "strikeThrough": false
        }
    },
    "canUpdateUI": true,
    "centery": {
        "type": "string",
        "value": "50%"
    },
    "containerweight": 100,
    "contentalignment": 4,
    "id": "lblHeadingDetails",
    "info": null,
    "ipad": {
        "psp": {
            "wrapping": 2
        }
    },
    "iphone": {
        "psp": {
            "wrapping": 2
        }
    },
    "isvisible": true,
    "kuid": "ad3b1690d1784723bdd626e989603442",
    "name": "kony.ui.Label",
    "parent": "flxYourTransactionDetails",
    "pf": "frmPayBillConfirm",
    "responsiveData": {
        "b1": {
            "skin": "s6e13e645ba1488d9cac62841907bbb3"
        },
        "b2": {
            "skin": "s6e13e645ba1488d9cac62841907bbb3"
        },
        "b3": {
            "skin": "s6e13e645ba1488d9cac62841907bbb3"
        },
        "b4": {
            "skin": "s6e13e645ba1488d9cac62841907bbb3"
        }
    },
    "texti18n": "i18n.transfers.YourTransactionDetails",
    "tooltip": "",
    "wType": "Label",
    "zindex": 1
}