{
    "DNDConfig": null,
    "__parentReadjusting__": false,
    "_height_": {
        "type": "string",
        "value": "60px"
    },
    "_left_": {
        "type": "string",
        "value": "0dp"
    },
    "_margin_": [
        0,
        0,
        0,
        0
    ],
    "_orientation_": 6,
    "_padding_": [
        0,
        0,
        0,
        0
    ],
    "_percent_": true,
    "_skin_": "scbd4cac3526468089bf3013adff0549",
    "_top_": {
        "type": "string",
        "value": "0dp"
    },
    "_width_": {
        "type": "string",
        "value": "100%"
    },
    "allboxes": [],
    "canUpdateUI": true,
    "children": [
        "lblContactDetailsKA",
        "flxRadiobuttons"
    ],
    "clipbounds": true,
    "containerweight": 100,
    "enablescrolling": true,
    "id": "flxContactDetailsKA",
    "info": null,
    "isvisible": true,
    "kuid": "ac87ef5598ed42d2b64098b7f48ecd76",
    "layouttype": 4,
    "name": "kony.ui.FlexContainer",
    "parent": "flxcustomerDetailsKA",
    "pf": "frmFastAddRecipient",
    "responsiveData": {
        "b3": {
            "height": {
                "type": "string",
                "value": "120px"
            }
        }
    },
    "snapgridsize": 10,
    "snaptogrid": true,
    "wType": "FlexContainer",
    "widgetalignment": 1,
    "zindex": 1
}