{
	 "DNDConfig": null,
	 "__parentReadjusting__": false,
	 "_height_": {
		 "type": "string",
		 "value": "50dp"
	},
	 "_left_": {
		 "type": "string",
		 "value": "0%"
	},
	 "_margin_": [
		 0,
		 0,
		 0,
		 0
	],
	 "_orientation_": 6,
	 "_padding_": [
		 0,
		 0,
		 0,
		 0
	],
	 "_percent_": true,
	 "_skin_": "s576844bc0e148a9a02e6171eac305ac",
	 "_top_": {
		 "type": "string",
		 "value": "0px"
	},
	 "_width_": {
		 "type": "string",
		 "value": "100%"
	},
	 "allboxes": [],
	 "autogrowmode": 0,
	 "canUpdateUI": true,
	 "children": [
		 "lblP2PSettings",
		 "flxSeperator4"
	],
	 "clipbounds": true,
	 "containerweight": 100,
	 "enablescrolling": true,
	 "id": "flxP2PSettings",
	 "info": null,
	 "isvisible": true,
	 "kuid": "f790a0cba9984fa39ffd1b0786638caf",
	 "layouttype": 2,
	 "name": "kony.ui.FlexContainer",
	 "parent": "flxP2PWindow",
	 "pf": "frmFastAddRecipient",
	 "snapgridsize": 10,
	 "snaptogrid": true,
	 "wType": "FlexContainer",
	 "widgetalignment": 1,
	 "zindex": 1,
	 "accessibilityconfig": {
		 "a11yARIA": {
			 "tabindex": 1
		}
	}
}