{
    "@class": "com.kony.gen.viz.model.component.KVizButton",
    "DNDConfig": null,
    "__parentReadjusting__": false,
    "_bottom_": {
        "type": "string",
        "value": "20dp"
    },
    "_height_": {
        "type": "string",
        "value": "40dp"
    },
    "_left_": {
        "type": "string",
        "value": "20dp"
    },
    "_margin_": [
        6,
        6,
        6,
        6
    ],
    "_padding_": [
        0,
        0,
        0,
        0
    ],
    "_skin_": "s95376e131db404ebbe858e3b39046ef",
    "_text_": "",
    "_top_": {
        "type": "string",
        "value": "107dp"
    },
    "_width_": {
        "type": "string",
        "value": "120dp"
    },
    "accessibilityconfig": {
        "a11yLabel": "Learn More..."
    },
    "canUpdateUI": true,
    "containerweight": 100,
    "contentalignment": 5,
    "desktopweb": {
        "psp": {
            "hoverSkin": "s81054b5e2b74f17a5261991df565427"
        }
    },
    "disabledSkins": {
        "focusSkin": "sf44d06ca8224832827ea7fdff757013"
    },
    "displaytext": true,
    "id": "btnAccountsDescriptionCancel",
    "info": null,
    "isvisible": true,
    "kuid": "d611fa72861b444eb082409416d4ff96",
    "name": "kony.ui.Button",
    "parent": "flxBannerImage",
    "pf": "userwidgetmodel",
    "texti18n": "i18n.NUO.KnowMore",
    "tooltip": "Learn More",
    "wType": "Button",
    "zindex": 1
}