{
    "@class": "com.kony.gen.viz.model.component.KVizRichText",
    "DNDConfig": null,
    "__parentReadjusting__": false,
    "_height_": {
        "type": "ref",
        "value": "preferred"
    },
    "_left_": {
        "type": "string",
        "value": "60dp"
    },
    "_margin_": [
        0,
        0,
        0,
        0
    ],
    "_padding_": [
        0,
        0,
        0,
        0
    ],
    "_right_": {
        "type": "string",
        "value": "10dp"
    },
    "_skin_": "s458bbbcd6b24f24a3e2c55a5a40af27",
    "_text_": "(C) Copyright Infinity Retail Banking. All rights reserved. ",
    "_top_": {
        "type": "string",
        "value": "31dp"
    },
    "_width_": {
        "type": "ref",
        "value": "preferred"
    },
    "_wrapping_": 2,
    "canUpdateUI": true,
    "containerweight": 100,
    "contentalignment": 4,
    "id": "rtxCopyRight",
    "info": null,
    "iscustomlayout": false,
    "isvisible": true,
    "kuid": "ac17c2e9d1744e52a4a472680e3aeb6c",
    "linkskin": "s68be632cc934210829c785f1cfb09f0",
    "maxwidth": {
        "type": "string",
        "value": "90%"
    },
    "name": "kony.ui.RichText",
    "parent": "LoginFooter",
    "pf": "userwidgetmodel",
    "retaincontentalignment": false,
    "retainflexpositionproperties": false,
    "texti18n": "i18n.footer.copyright",
    "wType": "RichText",
    "widgetalignment": 5,
    "zindex": 1
}