{
    "@class": "com.kony.gen.viz.model.component.KVizImage2",
    "DNDConfig": null,
    "__parentReadjusting__": false,
    "_base64_": null,
    "_height_": {
        "type": "string",
        "value": "15dp"
    },
    "_left_": {
        "type": "string",
        "value": "0dp"
    },
    "_margin_": [
        0,
        0,
        0,
        0
    ],
    "_padding_": [
        0,
        0,
        0,
        0
    ],
    "_skin_": "s78a5f26c9f14cec9ebed1bb46098f80",
    "_src_": "info_grey.png",
    "_width_": {
        "type": "string",
        "value": "15dp"
    },
    "accessibilityconfig": {
        "a11yLabel": "Info",
        "a11yValue": ""
    },
    "canUpdateUI": true,
    "centery": {
        "type": "string",
        "value": "51%"
    },
    "containerweight": 100,
    "id": "CopyimgInfoIcon0c5e8897ff2be47",
    "imagescalemode": 1,
    "info": null,
    "invokedProperty": "src",
    "isvisible": true,
    "kuid": "d24d33d8bb2f47d3b6deee422b1a1d12",
    "name": "kony.ui.Image2",
    "parent": "CopyflxInfo0a2966745b9e643",
    "pf": "userwidgetmodel",
    "srcType": 1,
    "tooltip": "Info",
    "wType": "Image",
    "widgetalignment": 5,
    "zindex": 1
}