{
    "@class": "com.kony.gen.viz.model.component.KVizRichText",
    "DNDConfig": null,
    "__parentReadjusting__": false,
    "_bottom_": {
        "type": "string",
        "value": "20dp"
    },
    "_height_": {
        "type": "ref",
        "value": "preferred"
    },
    "_left_": {
        "type": "string",
        "value": "7.80%"
    },
    "_margin_": [
        0,
        0,
        0,
        0
    ],
    "_padding_": [
        0,
        0,
        0,
        0
    ],
    "_skin_": "s7a60b7ae4ed49bdbd3d331fba397dea",
    "_text_": "This account will be the default account when you make a new wire transfer. You can change this while making a new Transfer or update the default account preference in your Account Settings.",
    "_top_": {
        "type": "string",
        "value": "0dp"
    },
    "_width_": {
        "type": "string",
        "value": "83%"
    },
    "_wrapping_": 2,
    "accessibilityconfig": {
        "a11yLabel": "This will be used as default account for your transactions. You can also change this default account. "
    },
    "canUpdateUI": true,
    "containerweight": 100,
    "contentalignment": 4,
    "id": "RichTextInfo",
    "info": null,
    "isvisible": true,
    "kuid": "c5ef2d6b359d45b69c8e4796658724ff",
    "name": "kony.ui.RichText",
    "parent": "flxAccountType",
    "pf": "userwidgetmodel",
    "texti18n": "i18n.WireTransfer.msgInfo2Confirm",
    "wType": "RichText",
    "widgetalignment": 5,
    "zindex": 1
}