{
    "DNDConfig": null,
    "__parentReadjusting__": false,
    "_bottom_": {
        "type": "string",
        "value": "10dp"
    },
    "_height_": {
        "type": "string",
        "value": "60dp"
    },
    "_left_": {
        "type": "string",
        "value": "24dp"
    },
    "_margin_": [
        0,
        0,
        0,
        0
    ],
    "_orientation_": 6,
    "_padding_": [
        0,
        0,
        0,
        0
    ],
    "_percent_": true,
    "_right_": {
        "type": "string",
        "value": "24dp"
    },
    "_skin_": "s72e91a1d9934d2a810357fc7191ba4e",
    "_width_": {
        "type": "string",
        "value": "93.10%"
    },
    "allboxes": [],
    "autogrowmode": 0,
    "canUpdateUI": true,
    "children": [
        "imgPDF5",
        "flxVerticalMiniSeparator5",
        "flxAttachmentName5",
        "flxRemoveAttachment5",
        "flxDownloadAttachment5"
    ],
    "clipbounds": false,
    "containerId": true,
    "containerweight": 100,
    "enablescrolling": true,
    "id": "flxDocAttachment5",
    "info": null,
    "isvisible": false,
    "kuid": "a516cc2fb9f74da3893697c29ab0122b",
    "layouttype": 2,
    "name": "kony.ui.FlexContainer",
    "parent": "flxMessage",
    "pf": "segMessagesRight",
    "snapgridsize": 10,
    "snaptogrid": true,
    "wType": "FlexContainer",
    "widgetalignment": 1,
    "zindex": 1
}