{
    "DNDConfig": null,
    "__parentReadjusting__": false,
    "_height_": {
        "type": "string",
        "value": "60dp"
    },
    "_margin_": [
        0,
        0,
        0,
        0
    ],
    "_orientation_": 6,
    "_padding_": [
        0,
        0,
        0,
        0
    ],
    "_percent_": true,
    "_right_": {
        "type": "string",
        "value": "0dp"
    },
    "_skin_": "s680c9bafb594fe4bfa388d84acc43b2",
    "_top_": {
        "type": "string",
        "value": "0dp"
    },
    "_width_": {
        "type": "string",
        "value": "10%"
    },
    "allboxes": [],
    "autogrowmode": 0,
    "canUpdateUI": true,
    "children": [
        "imgDownloadAttachment5"
    ],
    "clipbounds": false,
    "containerId": true,
    "containerweight": 100,
    "enablescrolling": true,
    "id": "flxDownloadAttachment5",
    "ide_onClick": "AS_FlexContainer_c3cfe5510cc9450c88b73309a09344df",
    "info": null,
    "isvisible": false,
    "kuid": "df742173a0454d029aa158ac31ff5a7f",
    "layouttype": 3,
    "name": "kony.ui.FlexContainer",
    "parent": "flxDocAttachment5",
    "pf": "segMessagesRight",
    "snapgridsize": 10,
    "snaptogrid": true,
    "wType": "FlexContainer",
    "widgetalignment": 1,
    "zindex": 1
}