{
    "@class": "com.kony.gen.viz.model.component.KVizButton",
    "DNDConfig": null,
    "__parentReadjusting__": false,
    "_height_": {
        "type": "ref",
        "value": "preferred"
    },
    "_left_": {
        "type": "string",
        "value": "1.46%"
    },
    "_margin_": [
        6,
        6,
        6,
        6
    ],
    "_padding_": [
        0,
        0,
        0,
        0
    ],
    "_skin_": "s5e49ba7de2a461593672f03ed3827d9",
    "_text_": "MAKE TRANSFER",
    "_width_": {
        "type": "ref",
        "value": "preferred"
    },
    "canUpdateUI": true,
    "centery": {
        "type": "string",
        "value": "50%"
    },
    "containerweight": 100,
    "contentalignment": 5,
    "desktopweb": {
        "psp": {
            "hoverSkin": "s5e49ba7de2a461593672f03ed3827d9"
        }
    },
    "disabledSkins": {
        "focusSkin": "s41199c8c0df41048cbf47d26a9026d5"
    },
    "displaytext": true,
    "focusskin": null,
    "id": "btnBreadcrumb2",
    "ide_onClick": "AS_Button_i8826027cc82433b840e5ba77acaf0fb",
    "info": null,
    "isvisible": true,
    "kuid": "e8107b226c2b40cf90a9a46174bc7f1d",
    "name": "kony.ui.Button",
    "parent": "flxBreadcrumbcontainer",
    "pf": "userwidgetmodel",
    "tooltip": "Make Transfer",
    "wType": "Button",
    "zindex": 1,
    "accessibilityconfig": {
        "a11yLabel": "MAKE TRANSFER"
    }
}