{
    "DNDConfig": null,
    "__parentReadjusting__": false,
    "_height_": {
        "type": "ref",
        "value": "preferred"
    },
    "_left_": {
        "type": "string",
        "value": "0dp"
    },
    "_margin_": [
        0,
        0,
        0,
        0
    ],
    "_orientation_": 6,
    "_padding_": [
        0,
        0,
        0,
        0
    ],
    "_percent_": true,
    "_skin_": "sdc143f0e5b64ae3a3f155f691c73fa7",
    "_top_": {
        "type": "string",
        "value": "0dp"
    },
    "_width_": {
        "type": "string",
        "value": "100%"
    },
    "allboxes": [],
    "autogrowmode": 1,
    "canUpdateUI": true,
    "children": [
        "flxVerifyConfirm",
        "flxSearchSortSeparator",
        "flxCardDetails",
        "flxRowSeperator1",
        "flxSearch",
        "flxRowSeperator",
        "flxSortMakeTransfers",
        "flxNoTransactions",
        "flxSegment",
        "flxRowSeperator2"
    ],
    "clipbounds": false,
    "containerweight": 100,
    "enablescrolling": true,
    "id": "flxContent",
    "info": null,
    "iscustomlayout": false,
    "isvisible": true,
    "kuid": "jdea5f1d131b4d5a82fc4b9e0e902631",
    "layouttype": 4,
    "name": "kony.ui.FlexContainer",
    "parent": "bulkwireAck",
    "pf": "frmBulkWireViewTemplate",
    "responsiveData": {
        "b3": {
            "skin": "sc681e20fcca47828a35daf1b6ea5496"
        }
    },
    "retaincontentalignment": false,
    "retainflexpositionproperties": false,
    "retainflowhorizontalalignment": false,
    "snapgridsize": 10,
    "snaptogrid": true,
    "wType": "FlexContainer",
    "widgetalignment": 1
}