{
    "DNDConfig": null,
    "__parentReadjusting__": false,
    "_height_": {
        "type": "string",
        "value": "100%"
    },
    "_left_": {
        "type": "string",
        "value": "10dp"
    },
    "_margin_": [
        0,
        0,
        0,
        0
    ],
    "_orientation_": 6,
    "_padding_": [
        0,
        0,
        0,
        0
    ],
    "_percent_": true,
    "_right_": {
        "type": "string",
        "value": "10dp"
    },
    "_skin_": "s680c9bafb594fe4bfa388d84acc43b2",
    "_top_": {
        "type": "string",
        "value": "0dp"
    },
    "_width_": {
        "type": "string",
        "value": "7%"
    },
    "allboxes": [],
    "autogrowmode": 0,
    "canUpdateUI": true,
    "children": [
        "CopyimgDropdown0i3a56ff84b5d48"
    ],
    "clipbounds": true,
    "containerId": true,
    "containerweight": 100,
    "desktopweb": {
        "psp": {
            "hoverSkin": "sb92697635f243c28bdd27c3900635be"
        }
    },
    "enablescrolling": true,
    "id": "CopyflxDropdown0cfa7099f9dc44a",
    "ide_onClick": "AS_FlexContainer_e2d4255d272c484d91c258dedb0263f6",
    "info": null,
    "isvisible": true,
    "kuid": "d0be7ea0872d4c7494a1378c4a5229d0",
    "layouttype": 3,
    "name": "kony.ui.FlexContainer",
    "parent": "CopyflxRow0g674640237b346",
    "pf": "segBulkWireTransferFilesMobileSelected",
    "snapgridsize": 10,
    "snaptogrid": true,
    "wType": "FlexContainer",
    "widgetalignment": 1,
    "zindex": 1
}