{
    "@class": "com.kony.gen.viz.model.component.KVizUserWidget",
    "DNDConfig": null,
    "__parentReadjusting__": false,
    "_bottom_": {
        "Default": {
            "type": "string",
            "value": ""
        }
    },
    "_children_": [],
    "_height_": {
        "type": "string",
        "value": "60dp"
    },
    "_left_": {
        "type": "string",
        "value": "0"
    },
    "_margin_": [
        0,
        0,
        0,
        0
    ],
    "_orientation_": 1,
    "_padding_": [
        0,
        0,
        0,
        0
    ],
    "_percent_": true,
    "_render_": true,
    "_skin_": "s24c92fc23b14f5484b693ee9b8a9b35",
    "_top_": {
        "type": "string",
        "value": "0"
    },
    "_width_": {
        "type": "string",
        "value": "100%"
    },
    "android": {},
    "androidwearos": {},
    "areflexpropsreferenced": false,
    "autogrowmode": 0,
    "canUpdateUI": true,
    "clipbounds": true,
    "containerweight": 0,
    "dataDiffs": {
        "flxPaginationFirst": {
            "__events__": {},
            "__info__": {
                "kuid": "c4c5b387b4af48daaa5ffe18aa377e71",
                "srcKUID": "dc5425bcffde40bba077f3ef27070e02",
                "wType": "FlexContainer"
            },
            "left": {
                "Default": {
                    "Default": {
                        "type": "string",
                        "value": "30dp"
                    }
                }
            }
        },
        "flxPaginationLast": {
            "__events__": {},
            "__info__": {
                "kuid": "i632078036b84581a5a518f79e694bee",
                "srcKUID": "e5732cffb816477cbfc5cacac88a046a",
                "wType": "FlexContainer"
            }
        },
        "flxPaginationNext": {
            "__events__": {},
            "__info__": {
                "kuid": "d6cf9785fbc84eb38a01307b4abc43fd",
                "srcKUID": "f98d1324102c48ce890e02e4539c1c49",
                "wType": "FlexContainer"
            }
        },
        "flxPaginationPrevious": {
            "__events__": {},
            "__info__": {
                "kuid": "e54a628378ae44a3839631d4c997aa52",
                "srcKUID": "h7d55c477073421abc369f7b38c6c8ac",
                "wType": "FlexContainer"
            }
        },
        "tablePagination": {
            "__events__": {},
            "__info__": {
                "isRoot": true,
                "kuid": "jdbcb5cdcc564154a9e8f19edd46fa71",
                "srcKUID": "d0682091242b4be393889732aa217f2b",
                "wType": "FlexContainer"
            },
            "bottom": {
                "Default": {
                    "Default": {
                        "type": "string",
                        "value": ""
                    }
                }
            },
            "isVisible": false,
            "left": {
                "Default": {
                    "type": "string",
                    "value": "0"
                }
            },
            "responsiveData": {},
            "top": {
                "Default": {
                    "type": "string",
                    "value": "0"
                }
            }
        }
    },
    "desktopweb": {},
    "id": "CopytablePaginationWireTransfer0d4a49adec51d4c",
    "info": null,
    "ipad": {},
    "iphone": {},
    "isdatareferenced": false,
    "issegmentchild": false,
    "isvisible": false,
    "kiosk": {},
    "kuid": "jdbcb5cdcc564154a9e8f19edd46fa71",
    "layouttype": 2,
    "masterType": 0,
    "name": "kony.ui.UserWidgetInstance",
    "parent": "flxtransferActivityWrapper",
    "pf": "frmBulkWireTemplateRemovedRecipients",
    "responsiveData": {},
    "snaptogrid": true,
    "sourceUserWidget": "d0682091242b4be393889732aa217f2b",
    "spa": {},
    "spaan": {},
    "spaandroidtablet": {},
    "spabb": {},
    "spaip": {},
    "spaipad": {},
    "spamobile": {},
    "spatablet": {},
    "spawindowstablet": {},
    "spawinphone8": {},
    "tabrcandroid": {},
    "vizProps": {
        "hidewidgethierarchy": false
    },
    "wType": "UserWidgetInstance",
    "windows10": {},
    "windows8": {},
    "winphone10": {},
    "winphone8": {}
}