{
    "@class": "com.kony.gen.viz.model.component.KVizLabel",
    "DNDConfig": null,
    "__parentReadjusting__": false,
    "_height_": {
        "type": "ref",
        "value": "preferred"
    },
    "_left_": {
        "type": "string",
        "value": "30%"
    },
    "_margin_": [
        1,
        1,
        1,
        1
    ],
    "_padding_": [
        0,
        0,
        0,
        0
    ],
    "_skin_": "se56454286124fef97a46e7249497088",
    "_text_": "Status",
    "_width_": {
        "type": "ref",
        "value": "preferred"
    },
    "_wrapping_": 2,
    "accessibilityconfig": {
        "a11yLabel": "Status"
    },
    "android": {
        "textStyle": {
            "letterSpacing": 0,
            "strikeThrough": false
        }
    },
    "canUpdateUI": true,
    "centery": {
        "type": "string",
        "value": "50%"
    },
    "containerweight": 100,
    "contentalignment": 4,
    "id": "lblAmount",
    "info": null,
    "ipad": {
        "psp": {
            "wrapping": 2
        }
    },
    "iphone": {
        "psp": {
            "wrapping": 2
        }
    },
    "isvisible": true,
    "kuid": "gde08fa854424dd5bf007debdd67822b",
    "name": "kony.ui.Label",
    "parent": "flxAmount",
    "pf": "frmBulkWireTemplateRemovedRecipients",
    "responsiveData": {
        "b1": {
            "left": {
                "type": "string",
                "value": "20%"
            }
        },
        "b2": {
            "left": {
                "type": "string",
                "value": "20%"
            }
        },
        "b3": {
            "left": {
                "type": "string",
                "value": "20%"
            }
        }
    },
    "texti18n": "i18n.konybb.Common.Amount",
    "tooltip": "",
    "wType": "Label",
    "zindex": 1
}