{
    "@class": "com.kony.gen.viz.model.component.KVizListBox",
    "DNDConfig": null,
    "__parentReadjusting__": false,
    "_height_": {
        "type": "string",
        "value": "100%"
    },
    "_left_": {
        "type": "string",
        "value": "0dp"
    },
    "_margin_": [
        0,
        0,
        0,
        0
    ],
    "_padding_": [
        3,
        0,
        0,
        0
    ],
    "_skin_": "sbaba22b80b348e6a9f536af0ad26b53",
    "_top_": {
        "type": "string",
        "value": "0dp"
    },
    "_width_": {
        "type": "string",
        "value": "100%"
    },
    "canUpdateUI": true,
    "containerweight": 100,
    "contentalignment": 4,
    "context": {
        "channel": "desktop",
        "formID": "uw4bb2e85a23484afeab8ddbe670a4fde7",
        "platform": "desktopweb",
        "templateType": "userwidgets",
        "topLevelBox": null
    },
    "desktopweb": {
        "psp": {
            "hoverSkin": "sebb52e8110340d8b55c47045cb88530"
        }
    },
    "groupcells": false,
    "id": "lstbxCards",
    "info": null,
    "isvisible": true,
    "kuid": "f1491e3cf7d84916bcbb34ea71ed592b",
    "masterdata": [
        [
            "lb1",
            "My Savings Debit card...XXXX5634"
        ],
        [
            "lb2",
            "My Savings Debit card...XXXX5634"
        ],
        [
            "lb3",
            "My Savings Debit card...XXXX5634"
        ]
    ],
    "name": "kony.ui.ListBox",
    "parent": "flxCards",
    "pf": "userwidgetmodel",
    "selectedkeys": null,
    "selectedkeyvalue": null,
    "selectedkeyvalues": null,
    "size": 18,
    "viewconfig": {
        "toggleViewConfig": {
            "viewStyle": 0
        }
    },
    "viewtype": 0,
    "wType": "ListBox",
    "zindex": 1,
    "focusskin": "s9eb08f78097439eb767801e8fdeb5cd"
}