{
    "@class": "com.kony.gen.viz.model.component.KVizLabel",
    "DNDConfig": null,
    "__parentReadjusting__": false,
    "_bottom_": {
        "type": "string",
        "value": "2dp"
    },
    "_height_": {
        "type": "string",
        "value": "1dp"
    },
    "_margin_": [
        1,
        1,
        1,
        1
    ],
    "_padding_": [
        0,
        0,
        0,
        0
    ],
    "_right_": {
        "type": "number",
        "value": "25"
    },
    "_skin_": "s09349f2265649b3ae4b14f3130733b2",
    "_text_": "a",
    "_width_": {
        "type": "string",
        "value": "96%"
    },
    "_wrapping_": 2,
    "accessibilityconfig": {
        "a11yLabel": "a"
    },
    "android": {
        "textStyle": {
            "letterSpacing": 0,
            "strikeThrough": false
        }
    },
    "canUpdateUI": true,
    "centerx": {
        "type": "string",
        "value": "50%"
    },
    "containerId": true,
    "containerweight": 100,
    "contentalignment": 4,
    "id": "lblSepratorr",
    "info": null,
    "ipad": {
        "psp": {
            "wrapping": 2
        }
    },
    "iphone": {
        "psp": {
            "wrapping": 2
        }
    },
    "isvisible": true,
    "kuid": "ged4ca0bbabe46ebb831621d9b186057",
    "name": "kony.ui.Label",
    "parent": "flxRight",
    "pf": "segUpcomingTransactionsCombinedAccess",
    "tooltip": "",
    "wType": "Label",
    "zindex": 1
}