{
    "DNDConfig": null,
    "_height_": {
        "type": "ref",
        "value": "preferred"
    },
    "_left_": {
        "type": "string",
        "value": "0dp"
    },
    "_margin_": [
        0,
        0,
        0,
        0
    ],
    "_orientation_": 6,
    "_padding_": [
        0,
        0,
        0,
        0
    ],
    "_percent_": true,
    "_skin_": "s4b5ad27f86e4f7c8aaa9a78bf7cc838",
    "_top_": {
        "type": "string",
        "value": "0dp"
    },
    "_width_": {
        "type": "string",
        "value": "100%"
    },
    "allboxes": [],
    "autogrowmode": 1,
    "canUpdateUI": true,
    "children": [
        "flxLimitHeaderContainer",
        "flxLimitContainer",
        "flxApprovers",
        "flxRules",
        "lblBottomSeperator"
    ],
    "clipbounds": true,
    "containerId": true,
    "containerweight": 100,
    "controllerInfo": {
        "default": {
            "channel": "desktop",
            "name": "flxEditApprovalLimitController"
        }
    },
    "enablescrolling": true,
    "id": "flxEditApprovalLimit",
    "info": null,
    "iscustomlayout": false,
    "isvisible": true,
    "kuid": "c038838b462e44248031230e5fe70ee8",
    "layouttype": 4,
    "name": "kony.ui.FlexContainer",
    "parent": "segEditApprovalLimit",
    "pf": "segEditApprovalLimit",
    "retaincontentalignment": false,
    "retainflexpositionproperties": false,
    "retainflowhorizontalalignment": false,
    "snapgridsize": 10,
    "snaptogrid": true,
    "wType": "FlexContainer",
    "widgetalignment": 1
}