{
    "@class": "com.kony.gen.viz.model.component.KVizTextBox2",
    "DNDConfig": null,
    "__parentReadjusting__": false,
    "_height_": {
        "type": "string",
        "value": "40dp"
    },
    "_left_": {
        "type": "string",
        "value": "0dp"
    },
    "_margin_": [
        0,
        0,
        0,
        0
    ],
    "_padding_": [
        15,
        0,
        3,
        0
    ],
    "_placeholder_": "Amount",
    "_skin_": "sd91788aa8ad4f3ea57365241c5a4711",
    "_text_": "",
    "_top_": {
        "type": "number",
        "value": 0
    },
    "_width_": {
        "type": "string",
        "value": "150dp"
    },
    "autocapitalize": "none",
    "autocomplete": false,
    "autocorrect": false,
    "autofilter": false,
    "canUpdateUI": true,
    "containerId": true,
    "containerheight": "",
    "containerheightmode": 1,
    "containerweight": 100,
    "contentalignment": 1,
    "desktopweb": {
        "ide_onKeyUp": "AS_TextField_b3b5f9f5842d481ebf95f02c934c6748",
        "psp": {}
    },
    "disabledSkins": {
        "hoverSkin": "s7a4fe8997aa47b08db84e90d970f612"
    },
    "focusskin": "s2faf9c2766d4142ab33d0bf97445ae0",
    "id": "tbxUpperLimit",
    "ide_onTextChange": "AS_TextField_c14539085b654f3db1c068ec55386766",
    "info": null,
    "iscustomlayout": false,
    "isvisible": true,
    "keyboardstyle": "A",
    "keyboardtype": "A",
    "kiosk": {
        "render": false
    },
    "kuid": "bcefa90f49e54818a3a771662bf471b6",
    "mode": "A",
    "name": "kony.ui.TextBox2",
    "paddinginpixel": false,
    "parent": "flxUpperLimit",
    "pf": "segEditApprovalLimit",
    "placeholderskin": "s6bef0f091374991a154eb89a7b6eef8",
    "retaincontentalignment": false,
    "retainflexpositionproperties": false,
    "securetextentry": false,
    "textinputmode": "A",
    "tooltip": "",
    "viewtype": "default",
    "wType": "TextField",
    "watchos": {
        "render": false
    },
    "windows10": {
        "render": false
    },
    "winphone10": {
        "render": false
    },
    "zindex": 100
}