{
    "DNDConfig": null,
    "_height_": {
        "type": "string",
        "value": "30dp"
    },
    "_left_": {
        "type": "string",
        "value": "0dp"
    },
    "_margin_": [
        0,
        0,
        0,
        0
    ],
    "_orientation_": 6,
    "_padding_": [
        0,
        0,
        0,
        0
    ],
    "_percent_": true,
    "_skin_": "s24c92fc23b14f5484b693ee9b8a9b35",
    "_top_": {
        "type": "string",
        "value": "0dp"
    },
    "_width_": {
        "type": "string",
        "value": "35dp"
    },
    "allboxes": [],
    "autogrowmode": 0,
    "canUpdateUI": true,
    "centery": {
        "type": "string",
        "value": "50%"
    },
    "children": [
        "imgTypeRadio2",
        "imgRadioBtnRecipientType2"
    ],
    "clipbounds": true,
    "containerweight": 100,
    "desktopweb": {
        "psp": {
            "hoverSkin": "s3e0ac30f9774278a868cb7c73908a76"
        }
    },
    "enablescrolling": true,
    "id": "flxTypeRadio2",
    "info": null,
    "isvisible": true,
    "kuid": "df4cc1913340407bb06a611de0aa7e10",
    "layouttype": 2,
    "name": "kony.ui.FlexContainer",
    "parent": "flxRecipientTypeRadioButtons",
    "pf": "frmEditTempAddDomestic",
    "responsiveData": {
        "b1": {
            "left": {
                "type": "string",
                "value": "-2dp"
            },
            "width": {
                "type": "string",
                "value": "40dp"
            }
        },
        "b2": {
            "width": {
                "type": "string",
                "value": "40dp"
            }
        }
    },
    "snapgridsize": 10,
    "snaptogrid": true,
    "wType": "FlexContainer",
    "widgetalignment": 1,
    "zindex": 1
}