{
    "@class": "com.kony.gen.viz.model.component.KVizLabel",
    "DNDConfig": null,
    "_height_": {
        "type": "string",
        "value": "30dp"
    },
    "_left_": {
        "type": "string",
        "value": "0dp"
    },
    "_margin_": [
        0,
        0,
        0,
        0
    ],
    "_padding_": [
        0,
        0,
        0,
        0
    ],
    "_skin_": "sbf892219fd04dbcae8a4a76f57b2ae0",
    "_text_": "L",
    "_top_": {
        "type": "string",
        "value": "0dp"
    },
    "_width_": {
        "type": "string",
        "value": "20dp"
    },
    "_wrapping_": 2,
    "accessibilityconfig": {
        "a11yLabel": "Radio Button"
    },
    "android": {
        "textStyle": {
            "letterSpacing": 0,
            "strikeThrough": false
        }
    },
    "canUpdateUI": true,
    "centerx": {
        "type": "string",
        "value": "50%"
    },
    "centery": {
        "type": "string",
        "value": "50%"
    },
    "containerweight": 100,
    "contentalignment": 1,
    "id": "imgRadioBtnRecipientType2",
    "info": null,
    "ipad": {
        "psp": {
            "wrapping": 2
        }
    },
    "iphone": {
        "psp": {
            "wrapping": 2
        }
    },
    "isvisible": true,
    "kuid": "a5343f10522f4bfbb1ef31c2d8ae5688",
    "name": "kony.ui.Label",
    "parent": "flxTypeRadio2",
    "pf": "frmEditTempAddDomestic",
    "responsiveData": {
        "b1": {
            "contentAlignment": 5,
            "width": {
                "type": "string",
                "value": "30dp"
            }
        },
        "b2": {
            "centerY": {
                "type": "string",
                "value": "52%"
            },
            "contentAlignment": 5,
            "width": {
                "type": "string",
                "value": "30dp"
            }
        },
        "b4": {}
    },
    "tooltip": "",
    "wType": "Label",
    "zindex": 1
}