{
    "DNDConfig": null,
    "__parentReadjusting__": false,
    "_height_": {
        "type": "string",
        "value": "40dp"
    },
    "_left_": {
        "type": "string",
        "value": "79%"
    },
    "_margin_": [
        0,
        0,
        0,
        0
    ],
    "_orientation_": 6,
    "_padding_": [
        0,
        0,
        0,
        0
    ],
    "_percent_": true,
    "_skin_": "s9c972ea9d73429ab0bb32a2f3079f2c",
    "_width_": {
        "type": "string",
        "value": "15%"
    },
    "allboxes": [],
    "autogrowmode": 0,
    "canUpdateUI": true,
    "centery": {
        "type": "string",
        "value": "50%"
    },
    "children": [
        "lblCurrSymbol",
        "lblTotalAmountCreate"
    ],
    "clipbounds": true,
    "containerweight": 100,
    "enablescrolling": true,
    "focusskin": "s2691fa91c50414495485d2ddf7d1873",
    "id": "flxTotalAmountCreate",
    "info": null,
    "isvisible": true,
    "kuid": "bdf286428f53439b868c75af34d69822",
    "layouttype": 2,
    "name": "kony.ui.FlexContainer",
    "parent": "flxAddAdditionalDetailsRow",
    "pf": "userwidgetmodel",
    "snapgridsize": 10,
    "snaptogrid": true,
    "wType": "FlexContainer",
    "widgetalignment": 1,
    "zindex": 1
}