{
    "@class": "com.kony.gen.viz.model.component.KVizUserWidget",
    "DNDConfig": null,
    "__parentReadjusting__": false,
    "_children_": [],
    "_height_": {
        "type": "string",
        "value": "268px"
    },
    "_left_": {
        "type": "string",
        "value": "0dp"
    },
    "_margin_": [
        0,
        0,
        0,
        0
    ],
    "_orientation_": 1,
    "_padding_": [
        0,
        0,
        0,
        0
    ],
    "_percent_": true,
    "_render_": true,
    "_skin_": "s701065f11074080832b59947e731160",
    "_top_": {
        "type": "string",
        "value": "300dp"
    },
    "_width_": {
        "type": "string",
        "value": "44.30%"
    },
    "android": {},
    "androidwearos": {},
    "areflexpropsreferenced": false,
    "canUpdateUI": true,
    "centerx": {
        "type": "string",
        "value": "50.00%"
    },
    "centery": {
        "type": "string",
        "value": ""
    },
    "clipbounds": false,
    "containerweight": 0,
    "dataDiffs": {
        "CustomPopup": {
            "__events__": {},
            "__info__": {
                "isRoot": true,
                "kuid": "cdaf77bdc5ff42f99c5cc6b59fe5473e",
                "srcKUID": "eb2d311dcb4744a7b05aa4f5428a6c53",
                "wType": "FlexContainer"
            },
            "bottom": {},
            "centerX": {
                "Default": {
                    "type": "string",
                    "value": "50.00%"
                }
            },
            "centerY": {
                "Default": {
                    "type": "string",
                    "value": ""
                }
            },
            "left": {},
            "responsiveData": {
                "b3": {
                    "isVisible": true
                },
                "b4": {
                    "bottom": {
                        "type": "string",
                        "value": ""
                    },
                    "left": {
                        "type": "string",
                        "value": "10dp"
                    },
                    "right": {
                        "type": "string",
                        "value": ""
                    },
                    "top": {
                        "type": "string",
                        "value": "300dp"
                    },
                    "width": {
                        "type": "string",
                        "value": "75%"
                    }
                }
            },
            "right": {},
            "top": {
                "Default": {
                    "type": "string",
                    "value": "300dp"
                }
            },
            "width": {
                "Default": {
                    "type": "string",
                    "value": "44.30%"
                }
            },
            "zIndex": {
                "Default": 1100
            }
        },
        "btnNo": {
            "__events__": {},
            "__info__": {
                "kuid": "a0e09a6ea1dc4b758b0c3dfae65be29c",
                "srcKUID": "h61577b4448c4e22a2636221e8fe0d6d",
                "wType": "Button"
            },
            "bottom": {},
            "left": {},
            "responsiveData": {
                "b2": {
                    "right": {
                        "type": "string",
                        "value": "41%"
                    },
                    "width": {
                        "type": "string",
                        "value": "30%"
                    }
                },
                "b3": {
                    "right": {
                        "type": "string",
                        "value": "41%"
                    },
                    "width": {
                        "type": "string",
                        "value": "30%"
                    }
                },
                "b4": {
                    "left": {
                        "type": "string",
                        "value": "15dp"
                    },
                    "right": {
                        "type": "string",
                        "value": ""
                    },
                    "top": {
                        "type": "string",
                        "value": "178dp"
                    },
                    "width": {
                        "type": "string",
                        "value": "40%"
                    }
                }
            },
            "right": {},
            "top": {},
            "width": {
                "Default": {
                    "type": "string",
                    "value": "40%"
                }
            }
        },
        "btnYes": {
            "__events__": {},
            "__info__": {
                "kuid": "b0b8f0e63fd24a33bfadd72e46a4a9c3",
                "srcKUID": "e1c11d09edb846848d4aaf921cb1e5a0",
                "wType": "Button"
            },
            "bottom": {},
            "responsiveData": {
                "b2": {
                    "width": {
                        "type": "string",
                        "value": "30%"
                    }
                },
                "b3": {
                    "width": {
                        "type": "string",
                        "value": "30%"
                    }
                },
                "b4": {
                    "bottom": {
                        "type": "string",
                        "value": "30dp"
                    },
                    "right": {
                        "type": "string",
                        "value": "15dp"
                    },
                    "top": {
                        "type": "string",
                        "value": "178dp"
                    },
                    "width": {
                        "type": "string",
                        "value": "40%"
                    }
                }
            },
            "right": {},
            "top": {},
            "width": {
                "Default": {
                    "type": "string",
                    "value": "40%"
                }
            }
        },
        "flxCross": {
            "__events__": {},
            "__info__": {
                "kuid": "fb94c12f96204d00833e7e815e117b78",
                "srcKUID": "e896a8d6e1244397be41e1011101c6ec",
                "wType": "FlexContainer"
            },
            "responsiveData": {
                "b3": {
                    "right": {
                        "type": "string",
                        "value": "5%"
                    }
                },
                "b4": {
                    "right": {
                        "type": "string",
                        "value": "20dp"
                    }
                }
            },
            "right": {
                "Default": {
                    "type": "string",
                    "value": "20dp"
                }
            }
        },
        "flxHeader": {
            "__events__": {},
            "__info__": {
                "kuid": "d5edfabecc1e48b2a1d4f2519cefe460",
                "srcKUID": "b6d465d7232a428eba11c466c6843856",
                "wType": "FlexContainer"
            }
        },
        "flxSeperator": {
            "__events__": {},
            "__info__": {
                "kuid": "f0014091d1b449c19b80d3bef5b1687b",
                "srcKUID": "b469cc45156e429d8fa47b9786168d10",
                "wType": "FlexContainer"
            }
        },
        "flxSeperator2": {
            "__events__": {},
            "__info__": {
                "kuid": "h012e39efdcd42748a2b33c48887122e",
                "srcKUID": "e909e4e4b4a145b1aa92b22ece7050d3",
                "wType": "FlexContainer"
            },
            "responsiveData": {
                "b4": {
                    "isVisible": false
                }
            }
        },
        "imgCross": {
            "__events__": {},
            "__info__": {
                "kuid": "efb5440f6fc04339815abca57df203ad",
                "srcKUID": "ja13bba308404016b1cd223dbcdf01ae",
                "wType": "Image"
            },
            "height": {
                "Default": {
                    "type": "string",
                    "value": "15dp"
                }
            },
            "responsiveData": {
                "b3": {
                    "right": {
                        "type": "string",
                        "value": ""
                    }
                }
            },
            "right": {},
            "src": "bbcloseicon.png"
        },
        "lblHeading": {
            "__events__": {},
            "__info__": {
                "kuid": "b33dfd4c6d8b42ef91cdd4f5cf88a7f6",
                "srcKUID": "f97c1408984847af9f3cd9984a260c74",
                "wType": "Label"
            },
            "i18n_text": "i18n.transfers.Cancel",
            "left": {
                "Default": {
                    "type": "string",
                    "value": "20dp"
                }
            },
            "responsiveData": {},
            "text": ""
        },
        "lblPopupMessage": {
            "__events__": {},
            "__info__": {
                "kuid": "f74e01896ebf4f58b5d6ce9926f3129a",
                "srcKUID": "f7c7509dccf24b88aeb13dc3d34fcc6b",
                "wType": "Label"
            },
            "left": {
                "Default": {
                    "type": "string",
                    "value": "20dp"
                }
            },
            "responsiveData": {
                "b3": {
                    "left": {
                        "type": "string",
                        "value": "20dp"
                    }
                }
            }
        },
        "lblcross": {
            "__events__": {},
            "__info__": {
                "kuid": "e4bfeabe65fe42ddba0a7fb25f393bb9",
                "srcKUID": "fd30aa3a9d8f4077b98f3053f04a091b",
                "wType": "Label"
            }
        }
    },
    "desktopweb": {},
    "id": "CustomPopupCancel",
    "info": null,
    "ipad": {},
    "iphone": {},
    "isdatareferenced": false,
    "isvisible": true,
    "kiosk": {},
    "kuid": "cdaf77bdc5ff42f99c5cc6b59fe5473e",
    "layouttype": 2,
    "masterType": 0,
    "name": "kony.ui.UserWidgetInstance",
    "parent": "flxCancelPopup",
    "pf": "frmMakeBulkTransferTemplate",
    "responsiveData": {
        "b3": {
            "isVisible": true
        },
        "b4": {
            "bottom": {
                "type": "string",
                "value": ""
            },
            "left": {
                "type": "string",
                "value": "10dp"
            },
            "right": {
                "type": "string",
                "value": ""
            },
            "top": {
                "type": "string",
                "value": "300dp"
            },
            "width": {
                "type": "string",
                "value": "75%"
            }
        }
    },
    "snaptogrid": true,
    "sourceUserWidget": "eb2d311dcb4744a7b05aa4f5428a6c53",
    "spa": {},
    "spaan": {},
    "spaandroidtablet": {},
    "spabb": {},
    "spaip": {},
    "spaipad": {},
    "spamobile": {},
    "spatablet": {},
    "spawindowstablet": {},
    "spawinphone8": {},
    "tabrcandroid": {},
    "vizProps": {
        "hidewidgethierarchy": false
    },
    "vizprops": {
        "hidewidgethierarchy": false
    },
    "wType": "UserWidgetInstance",
    "windows10": {},
    "windows8": {},
    "winphone10": {},
    "winphone8": {},
    "zindex": 1100
}