{
	 "@class": "com.kony.gen.viz.model.component.KVizImage2",
	 "DNDConfig": null,
	 "__parentReadjusting__": false,
	 "_base64_": null,
	 "_height_": {
		 "type": "ref",
		 "value": "preferred"
	},
	 "_left_": {
		 "type": "string",
		 "value": "0%"
	},
	 "_margin_": [
		 0,
		 0,
		 0,
		 0
	],
	 "_padding_": [
		 0,
		 0,
		 0,
		 0
	],
	 "_skin_": "s78a5f26c9f14cec9ebed1bb46098f80",
	 "_src_": "checkedboxbb.png",
	 "_width_": {
		 "type": "ref",
		 "value": "preferred"
	},
	 "canUpdateUI": true,
	 "centery": {
		 "type": "string",
		 "value": "50%"
	},
	 "containerId": true,
	 "containerweight": 100,
	 "context": {
		 "channel": "desktop",
		 "platform": "desktopweb",
		 "templateType": "segments",
		 "topLevelBox": null
	},
	 "id": "imgCheckGroupTransaction",
	 "imagescalemode": 1,
	 "info": null,
	 "invokedProperty": "src",
	 "iscustomlayout": false,
	 "isvisible": false,
	 "kuid": "f9555a2d3656451d9d9fe2d2a795d0b0",
	 "name": "kony.ui.Image2",
	 "parent": "flxImgCheckTransaction",
	 "pf": "segBBAccountAccessHeader",
	 "retaincontentalignment": false,
	 "retainflexpositionproperties": false,
	 "srcType": 1,
	 "wType": "Image",
	 "widgetalignment": 5,
	 "zindex": 1,
	 "accessibilityconfig": {
		 "a11yLabel": "Checkbox",
		 "a11yValue": ""
	}
}