{
    "@class": "com.kony.gen.viz.model.component.KVizLabel",
    "DNDConfig": null,
    "_height_": {
        "type": "ref",
        "value": "preferred"
    },
    "_left_": {
        "type": "string",
        "value": "30dp"
    },
    "_margin_": [
        1,
        1,
        1,
        1
    ],
    "_padding_": [
        0,
        0,
        0,
        0
    ],
    "_skin_": "se56454286124fef97a46e7249497088",
    "_text_": "Confirm Details",
    "_top_": {
        "type": "string",
        "value": "15dp"
    },
    "_width_": {
        "type": "ref",
        "value": "preferred"
    },
    "_wrapping_": 2,
    "accessibilityconfig": {
        "a11yLabel": "CONFIRM DETAILS"
    },
    "android": {
        "textStyle": {
            "letterSpacing": 0,
            "strikeThrough": false
        }
    },
    "canUpdateUI": true,
    "centery": {
        "type": "string",
        "value": "60%"
    },
    "containerweight": 100,
    "contentalignment": 4,
    "id": "CopylblConfirmHeader0d34238faa4494c",
    "info": null,
    "ipad": {
        "psp": {
            "wrapping": 2
        }
    },
    "iphone": {
        "psp": {
            "wrapping": 2
        }
    },
    "isvisible": true,
    "kuid": "je2bd51a206b40a7a1790b8772c8b2f5",
    "name": "kony.ui.Label",
    "parent": "flxHeaderConfirm",
    "pf": "frmWireTransferAddKonyAccountAck",
    "responsiveData": {
        "b3": {
            "left": {
                "type": "string",
                "value": "10dp"
            }
        },
        "b4": {
            "centerY": {
                "type": "string",
                "value": "50%"
            }
        }
    },
    "texti18n": "i18n.wiretransfers.confirmDetails",
    "tooltip": "",
    "wType": "Label",
    "zindex": 1
}