{
    "DNDConfig": null,
    "_bottom_": {
        "type": "string",
        "value": "30dp"
    },
    "_height_": {
        "type": "ref",
        "value": "preferred"
    },
    "_left_": {
        "type": "string",
        "value": "30dp"
    },
    "_margin_": [
        0,
        0,
        0,
        0
    ],
    "_orientation_": 6,
    "_padding_": [
        0,
        0,
        0,
        0
    ],
    "_percent_": true,
    "_right_": {
        "type": "number",
        "value": ""
    },
    "_skin_": "s6ee01d1fed2406d99bfbea5e78b4638",
    "_top_": {
        "type": "string",
        "value": "15dp"
    },
    "_width_": {
        "type": "string",
        "value": "50%"
    },
    "allboxes": [],
    "autogrowmode": 1,
    "canUpdateUI": true,
    "children": [
        "lblDetailsKey1",
        "flxRecipientName",
        "lblDetailsKey2",
        "rtxDetailsValue2",
        "lblDetailsKey3",
        "rtxDetailsValue3",
        "lblDetailsKey4",
        "rtxDetailsValue4"
    ],
    "clipbounds": true,
    "containerweight": 100,
    "enablescrolling": true,
    "id": "flxRecipientDetails",
    "info": null,
    "isvisible": true,
    "kuid": "ce426118c32c45178145b106bcf59891",
    "layouttype": 2,
    "minheight": {
        "type": "string",
        "value": ""
    },
    "name": "kony.ui.FlexContainer",
    "parent": "flxDetails",
    "pf": "frmWireTransferAddKonyAccountAck",
    "responsiveData": {
        "b1": {
            "minHeight": {
                "type": "string",
                "value": "200dp"
            },
            "top": {
                "type": "string",
                "value": "50dp"
            },
            "width": {
                "type": "string",
                "value": "46.66%"
            }
        },
        "b2": {
            "minHeight": {
                "type": "string",
                "value": "200dp"
            },
            "top": {
                "type": "string",
                "value": "50dp"
            },
            "width": {
                "type": "string",
                "value": "46.66%"
            }
        },
        "b3": {
            "bottom": {
                "type": "string",
                "value": ""
            },
            "left": {
                "type": "string",
                "value": "2%"
            },
            "right": {
                "type": "string",
                "value": "2%"
            },
            "width": {
                "type": "string",
                "value": "96%"
            }
        },
        "b4": {
            "right": {
                "type": "string",
                "value": "30dp"
            },
            "width": {
                "type": "string",
                "value": ""
            }
        }
    },
    "snapgridsize": 10,
    "snaptogrid": true,
    "wType": "FlexContainer",
    "widgetalignment": 1,
    "zindex": 1
}