{
    "@class": "com.kony.gen.viz.model.component.KVizButton",
    "DNDConfig": null,
    "__parentReadjusting__": false,
    "_height_": {
        "type": "string",
        "value": "40dp"
    },
    "_margin_": [
        6,
        6,
        6,
        6
    ],
    "_padding_": [
        0,
        0,
        0,
        0
    ],
    "_right_": {
        "type": "string",
        "value": "196dp"
    },
    "_skin_": "sa611611b2f24e93bcfd09e1606c0d86",
    "_text_": "BACK",
    "_top_": {
        "type": "number",
        "value": ""
    },
    "_width_": {
        "type": "string",
        "value": "150dp"
    },
    "accessibilityconfig": {
        "a11yLabel": "Back"
    },
    "canUpdateUI": true,
    "centery": {
        "type": "string",
        "value": "50%"
    },
    "containerweight": 100,
    "contentalignment": 5,
    "desktopweb": {
        "psp": {
            "hoverSkin": "s83729feaa224e359d660d5af05c4bac"
        }
    },
    "displaytext": true,
    "focusskin": "sb23593b913b4005add4a246020aa1cc",
    "id": "btnDetailsBack",
    "info": null,
    "isvisible": true,
    "kuid": "cc8b1159ce904ffd992b5db7a2fdba6f",
    "name": "kony.ui.Button",
    "parent": "flxAddDetailsActions",
    "pf": "frmPayeeDetails",
    "responsiveData": {
        "b2": {
            "right": {
                "type": "string",
                "value": "193dp"
            }
        },
        "b3": {
            "centerY": {
                "type": "string",
                "value": ""
            },
            "right": {
                "type": "string",
                "value": "2.50%"
            },
            "skin": "s53f35797e894740848702af91fb98cb",
            "top": {
                "type": "string",
                "value": "80dp"
            },
            "width": {
                "type": "string",
                "value": "95%"
            }
        }
    },
    "texti18n": "i18n.ProfileManagement.BACK",
    "tooltip": "Back",
    "wType": "Button",
    "zindex": 1
}