{
    "@class": "com.kony.gen.viz.model.container.KVizSegment2",
    "DNDConfig": null,
    "__parentReadjusting__": false,
    "_data_": [],
    "_height_": {
        "type": "ref",
        "value": "preferred"
    },
    "_indicator_": "none",
    "_left_": {
        "type": "string",
        "value": "0dp"
    },
    "_margin_": [
        0,
        0,
        0,
        0
    ],
    "_orientation_": 2,
    "_padding_": [
        0,
        0,
        0,
        0
    ],
    "_top_": {
        "type": "string",
        "value": "0dp"
    },
    "_width_": {
        "type": "string",
        "value": "100%"
    },
    "alternaterowskin": null,
    "autogrowmode": 1,
    "canUpdateUI": true,
    "containerweight": 100,
    "counter": "07",
    "desktop": {
        "_data_": [],
        "rowTemplateId": "hee6e0be6f5b403bae5c237144c2df30",
        "rowtemplate": "flxSortP2PActivity",
        "widgetdatamap": {
            "flxAmount": "flxAmount",
            "flxDate": "flxDate",
            "flxFrom": "flxFrom",
            "flxRunningBalance": "flxRunningBalance",
            "flxSortP2PActivity": "flxSortP2PActivity",
            "flxStatus": "flxStatus",
            "lblAmount": "lblAmount",
            "lblDate": "lblDate",
            "lblFrom": "lblFrom",
            "lblRunningStatus": "lblRunningStatus",
            "lblStatus": "lblStatus"
        }
    },
    "disabledSkins": {
        "alternateRowSkin": "s79f16313a0a48ac9d5944e770e95aa0"
    },
    "focusedindex": null,
    "focuseditem": null,
    "groupcells": false,
    "hasSections": false,
    "id": "segP2PActivity",
    "info": null,
    "ipad": {
        "psp": {
            "indicator": "rowselect"
        }
    },
    "iphone": {
        "psp": {
            "indicator": "rowselect"
        }
    },
    "isvisible": true,
    "kuid": "c11e49fc026948b8808fb5dc1a9eb0d6",
    "masterdata": {},
    "minheight": {
        "type": "string",
        "value": "330dp"
    },
    "name": "kony.ui.SegmentedUI2",
    "needpageindicator": true,
    "pageoffdotimage": "pageoffdot.png",
    "pageondotimage": "pageondot.png",
    "paginationconfig": {
        "position": "bottom"
    },
    "parent": "flxSegment",
    "pf": "userwidgetmodel",
    "retainselection": false,
    "rowcounter": 7,
    "rowfocusskin": "s9f69e977910472eb44c62ae28c41fe1",
    "rowskin": "scf5f90f6ac04976ab88b2a4f7153285",
    "rowtemplate": "flxSortP2PActivity",
    "screenlevelwidget": false,
    "seccounter": 0,
    "sectionheaderskin": "sdc4ff4ed1584272be2ae69045dfb29d",
    "selectedRows": null,
    "selectedState": false,
    "selectedindex": null,
    "selectedindices": null,
    "selecteditems": null,
    "selectedsectionindex": 0,
    "selectionbehavior": "default",
    "separatorcolor": "e9e9e900",
    "separatorrequired": true,
    "separatorthickness": 1,
    "showscrollbars": false,
    "viewtype": "tableview",
    "wType": "Segment",
    "widgetalignment": 5,
    "widgetdatamap": {
        "flxAmount": "flxAmount",
        "flxDate": "flxDate",
        "flxFrom": "flxFrom",
        "flxRunningBalance": "flxRunningBalance",
        "flxSortP2PActivity": "flxSortP2PActivity",
        "flxStatus": "flxStatus",
        "lblAmount": "lblAmount",
        "lblDate": "lblDate",
        "lblFrom": "lblFrom",
        "lblRunningStatus": "lblRunningStatus",
        "lblStatus": "lblStatus"
    },
    "zindex": 1
}