{
    "@class": "com.kony.gen.viz.model.component.KVizUserWidget",
    "DNDConfig": null,
    "__parentReadjusting__": false,
    "_android_": {},
    "_androidwearos_": {},
    "_children_": [],
    "_desktopweb_": {},
    "_height_": {
        "type": "string",
        "value": "380dp"
    },
    "_ipad_": {},
    "_iphone_": {},
    "_kiosk_": {},
    "_left_": {
        "type": "string",
        "value": "0dp"
    },
    "_margin_": [
        0,
        0,
        0,
        0
    ],
    "_orientation_": 1,
    "_padding_": [
        0,
        0,
        0,
        0
    ],
    "_percent_": true,
    "_render_": true,
    "_responsiveData_": {
        "b1": {
            "top": {
                "type": "string",
                "value": "80dp"
            }
        },
        "b2": {
            "height": {
                "type": "string",
                "value": "100%"
            },
            "top": {
                "type": "string",
                "value": "80dp"
            }
        },
        "b3": {
            "height": {
                "type": "string",
                "value": "100%"
            },
            "top": {
                "type": "string",
                "value": "80dp"
            }
        },
        "b4": {
            "top": {
                "type": "string",
                "value": "80dp"
            }
        }
    },
    "_skin_": "s1d5d3417cb74ec9883e5f01b8521945",
    "_spa_": {},
    "_spaan_": {},
    "_spaandroidtablet_": {},
    "_spabb_": {},
    "_spaip_": {},
    "_spaipad_": {},
    "_spamobile_": {},
    "_spatablet_": {},
    "_spawindowstablet_": {},
    "_spawinphone8_": {},
    "_tabrcandroid_": {},
    "_top_": {
        "type": "string",
        "value": "0dp"
    },
    "_vizProps_": {
        "hidewidgethierarchy": false
    },
    "_width_": {
        "type": "string",
        "value": "100%"
    },
    "_windows10_": {},
    "_windows8_": {},
    "_winphone10_": {},
    "_winphone8_": {},
    "areflexpropsreferenced": false,
    "autogrowmode": 0,
    "canUpdateUI": true,
    "clipbounds": false,
    "containerweight": 0,
    "dataDiffs": {
        "EnrollAlert": {
            "__events__": {},
            "__info__": {
                "isRoot": true,
                "kuid": "ha419122064a4852a489d6280e5fad01",
                "srcKUID": "ee3deacff03c42e1aec4c400b664be9e",
                "wType": "FlexContainer"
            },
            "autogrowMode": {
                "Default": 0
            },
            "height": {
                "Default": {
                    "type": "string",
                    "value": "380dp"
                }
            },
            "responsiveData": {
                "b1": {
                    "top": {
                        "type": "string",
                        "value": "80dp"
                    }
                },
                "b2": {
                    "height": {
                        "type": "string",
                        "value": "100%"
                    },
                    "top": {
                        "type": "string",
                        "value": "80dp"
                    }
                },
                "b3": {
                    "height": {
                        "type": "string",
                        "value": "100%"
                    },
                    "top": {
                        "type": "string",
                        "value": "80dp"
                    }
                },
                "b4": {
                    "top": {
                        "type": "string",
                        "value": "80dp"
                    }
                }
            },
            "top": {}
        },
        "btnBackToLogin": {
            "__events__": {},
            "__info__": {
                "kuid": "a10cd760b17243e8a43d5fd24ff1e8ee",
                "srcKUID": "dd40b1427455401ab18fd695ea81360b",
                "wType": "Button"
            },
            "i18n_text": "i18n.common.HowToEnroll",
            "zIndex": {
                "Default": 1
            }
        },
        "btnEnroll": {
            "__events__": {},
            "__info__": {
                "kuid": "fc167e182a9542adb34fc8012ed81aae",
                "srcKUID": "d7b4457ad12d4995a5e216e17659083a",
                "wType": "Button"
            },
            "i18n_text": "i18n.common.EnrollLabel"
        },
        "flxServerError": {
            "__events__": {},
            "__info__": {
                "kuid": "c765c781d48a485f9df061539750bd3b",
                "srcKUID": "f4e9d39c57a24cffaa79cb4600ebbd14",
                "wType": "FlexContainer"
            },
            "responsiveData": {
                "b2": {
                    "top": {
                        "type": "string",
                        "value": "40dp"
                    }
                },
                "b3": {
                    "top": {
                        "type": "string",
                        "value": "40dp"
                    }
                }
            },
            "top": {}
        },
        "imgEnroll": {
            "__events__": {},
            "__info__": {
                "kuid": "d6d80aab61234d57bb3b24b94c948947",
                "srcKUID": "hc8a4faa750b46e48d812f2cde021e04",
                "wType": "Image"
            },
            "src": "server_error.png"
        },
        "lblAppTitle": {
            "__events__": {},
            "__info__": {
                "kuid": "g99a383d0e2d47cf8cb207450e4a0259",
                "srcKUID": "d5ff2501a9f4406196644facea6b731b",
                "wType": "Label"
            },
            "centerX": {},
            "responsiveData": {
                "b2": {
                    "centerX": {
                        "type": "string",
                        "value": "50%"
                    },
                    "top": {
                        "type": "string",
                        "value": "130dp"
                    }
                },
                "b3": {
                    "centerX": {
                        "type": "string",
                        "value": "50%"
                    },
                    "top": {
                        "type": "string",
                        "value": "130dp"
                    }
                }
            },
            "top": {}
        },
        "lblHowToEnroll": {
            "__events__": {},
            "__info__": {
                "kuid": "eda046e978784cbc9d59afda2974e92b",
                "srcKUID": "i153217e20f14b7c93c07a2d2aa196b2",
                "wType": "Label"
            }
        },
        "lblNotYetEnrolledOrError": {
            "__events__": {},
            "__info__": {
                "kuid": "bbe33fac2d5c488781834b09437e693c",
                "srcKUID": "if92671d622945cd9ff31874c2e608ff",
                "wType": "Label"
            }
        },
        "rtxServerError": {
            "__events__": {},
            "__info__": {
                "kuid": "ea468d4dd94b428ebdcf8fd4b6aeba34",
                "srcKUID": "c34b04f6deb54d29807f28caa8576e53",
                "wType": "RichText"
            }
        }
    },
    "id": "EnrollPromptScreen",
    "info": null,
    "isdatareferenced": false,
    "isvisible": true,
    "kuid": "d247d4d3446640f6a740bd27340c6fdd",
    "layouttype": 4,
    "masterType": 0,
    "name": "kony.ui.UserWidgetInstance",
    "parent": "flxEnroll",
    "pf": "frmEnrollNow",
    "snaptogrid": true,
    "sourceUserWidget": "ee3deacff03c42e1aec4c400b664be9e",
    "vizprops": {
        "hidewidgethierarchy": false
    },
    "wType": "UserWidgetInstance"
}