{
    "DNDConfig": null,
    "__parentReadjusting__": false,
    "_height_": {
        "type": "ref",
        "value": "preferred"
    },
    "_margin_": [
        0,
        0,
        0,
        0
    ],
    "_orientation_": 6,
    "_padding_": [
        0,
        0,
        0,
        0
    ],
    "_percent_": true,
    "_skin_": "s68cde8c1c40436989962f3559a757ac",
    "_top_": {
        "type": "string",
        "value": "0dp"
    },
    "_width_": {
        "type": "string",
        "value": "85%"
    },
    "allboxes": [],
    "autogrowmode": 1,
    "canUpdateUI": true,
    "centerx": {
        "type": "string",
        "value": "50%"
    },
    "children": [
        "lblQuestion4",
        "lbxQuestion4",
        "lblAnswer4",
        "tbxAnswer4"
    ],
    "clipbounds": true,
    "containerweight": 100,
    "enablescrolling": true,
    "id": "flxSecurityQASet4",
    "info": null,
    "isvisible": true,
    "kuid": "i35d33a8154448688bb4ea9a505f072e",
    "layouttype": 4,
    "name": "kony.ui.FlexContainer",
    "parent": "flxScrollContainerSetSecurityQuestions",
    "pf": "frmEnrollNow",
    "responsiveData": {
        "b1": {
            "top": {
                "type": "string",
                "value": "20dp"
            },
            "width": {
                "type": "string",
                "value": "70%"
            }
        },
        "b2": {
            "top": {
                "type": "string",
                "value": "20dp"
            }
        },
        "b3": {
            "top": {
                "type": "string",
                "value": "20dp"
            }
        },
        "b4": {
            "top": {
                "type": "string",
                "value": "20dp"
            }
        }
    },
    "snapgridsize": 10,
    "snaptogrid": true,
    "wType": "FlexContainer",
    "widgetalignment": 1,
    "zindex": 1
}