{
    "DNDConfig": null,
    "__parentReadjusting__": false,
    "_height_": {
        "type": "string",
        "value": "428px"
    },
    "_left_": {
        "type": "string",
        "value": "0dp"
    },
    "_margin_": [
        0,
        0,
        0,
        0
    ],
    "_orientation_": 6,
    "_padding_": [
        0,
        0,
        0,
        0
    ],
    "_percent_": true,
    "_skin_": "sba5a7627a5d4fa3befc93e669f0f2b0",
    "_top_": {
        "type": "string",
        "value": "0dp"
    },
    "_width_": {
        "type": "string",
        "value": "100%"
    },
    "allboxes": [],
    "allowhorizontalbounce": false,
    "allowverticalbounce": true,
    "bounces": true,
    "canUpdateUI": true,
    "children": [
        "flxSeparator",
        "lblQuestionsHeading",
        "flxSecurityQASet1",
        "flxSecurityQASet2",
        "flxSecurityQASet3",
        "flxSecurityQASet4",
        "flxSecurityQASet5",
        "flxDummy"
    ],
    "clipbounds": true,
    "containerweight": 100,
    "decelerat": false,
    "dragg": false,
    "enablescrolling": true,
    "horizontalscrollindicator": true,
    "id": "flxScrollContainerSetSecurityQuestions",
    "info": null,
    "isvisible": true,
    "kuid": "da36c6487d0146ac8b152008d280ef40",
    "layouttype": 4,
    "name": "kony.ui.FlexScrollContainer",
    "pagingenabled": false,
    "parent": "flxSecurityQuestionsSelectedUsername",
    "pf": "frmEnrollNow",
    "responsiveData": {
        "b1": {
            "height": {
                "type": "string",
                "value": "440px"
            },
            "top": {
                "type": "string",
                "value": "10dp"
            }
        },
        "b2": {
            "height": {
                "type": "string",
                "value": "340px"
            },
            "top": {
                "type": "string",
                "value": "10dp"
            }
        },
        "b3": {
            "height": {
                "type": "string",
                "value": "345dp"
            },
            "top": {
                "type": "string",
                "value": "10dp"
            }
        },
        "b4": {
            "height": {
                "type": "string",
                "value": "345dp"
            },
            "top": {
                "type": "string",
                "value": "20dp"
            }
        }
    },
    "scrolldirection": 2,
    "snapgridsize": 10,
    "snaptogrid": true,
    "track": false,
    "verticalscrollindicator": true,
    "wType": "FlexScrollContainer",
    "widgetalignment": 1,
    "zindex": 1
}