{
    "@class": "com.kony.gen.viz.model.container.KVizScrollFlexForm",
    "DNDConfig": null,
    "_margin_": [
        0,
        0,
        0,
        0
    ],
    "_orientation_": 1,
    "_padding_": [
        0,
        0,
        0,
        0
    ],
    "_percent_": true,
    "_skin_": "sdc82ba24d044110b8ece6f713b1f716",
    "_title_": null,
    "addWidgetsdone": false,
    "allboxes": [],
    "android": {
        "psp": {
            "windowSoftInputMode": 2
        }
    },
    "breakpointInfo": {
        "b1": {
            "width": 1400
        },
        "b2": {
            "width": 1024
        },
        "b3": {
            "width": 640
        },
        "b4": {
            "width": 768
        }
    },
    "canUpdateUI": true,
    "canvasWidth": 1400,
    "children": [
        "tbxAutopopulateIssueFix",
        "flxMain",
        "flxLoading",
        "flxChangeLanguage",
        "flxLoadingChangeLanguage",
        "flxTermsAndConditions"
    ],
    "containerweight": 100,
    "controllerInfo": {
        "default": {
            "channel": "desktop",
            "name": "frmEnrollNowController"
        }
    },
    "currentBreakpoint": {
        "kuid": "b3",
        "width": 640
    },
    "currentLocale": "default",
    "desktopweb": {
        "ide_onBreakpointChange": "AS_Form_ccd28ca812444b5abec806a14c54973d",
        "needAppMenu": false
    },
    "device": "desktopweb",
    "displayorientation": 1,
    "enabledforidletimeout": true,
    "friendlyName": "frmEnrollNow",
    "id": "frmEnrollNow",
    "ide_init": "AS_Form_j2c694db7f3b4081815dbdb9e6669ba0",
    "ide_onDeviceBack": "AS_Form_i750d7fa3a424782b31515a203b6b1ca",
    "ide_onTouchEnd": "AS_Form_g92f0de3822e4f0eaacec0708d95cf05",
    "ide_postShow": "AS_Form_a96fba2f050442c6ac1ebee41f29e2b9",
    "ide_preShow": "AS_Form_b4ec7767960e4f978c897f3f29856a8c",
    "info": null,
    "initdone": false,
    "inputaccessoryviewtype": 4,
    "ipad": {
        "psp": {
            "inputAccessoryViewType": 4
        }
    },
    "iphone": {
        "psp": {
            "inputAccessoryViewType": 4
        }
    },
    "isvisible": true,
    "kuid": "bd78051f2239477699cd5b3d036cf72a",
    "layouttype": 2,
    "name": "kony.ui.Form2",
    "needappmenu": true,
    "paddinginpixel": false,
    "platform": "desktopweb",
    "prevDevice": "desktopweb",
    "prevPlatform": "desktopweb",
    "responsiveData": {
        "b3": {
            "skin": "sf9684697add4e62829475852513a8c5"
        }
    },
    "retainscrollposition": false,
    "shellCSS": "desktop",
    "snapgridsize": 10,
    "snaptogrid": true,
    "titleBarSkin": "s2e24ee0a8ca46b089d8a5bea8a1a32e",
    "titlebar": true,
    "type": 3,
    "vizProps": {
        "globalRespDesignEnabled": false
    },
    "wType": "Form"
}