{
    "@class": "com.kony.gen.viz.model.component.KVizLabel",
    "DNDConfig": null,
    "__parentReadjusting__": false,
    "_height_": {
        "type": "ref",
        "value": "preferred"
    },
    "_left_": {
        "type": "string",
        "value": "16dp"
    },
    "_margin_": [
        1,
        1,
        1,
        1
    ],
    "_padding_": [
        0,
        0,
        0,
        0
    ],
    "_skin_": "s404575463f040a9ad9977b446cd4073",
    "_text_": "Label",
    "_top_": {
        "type": "string",
        "value": "505dp"
    },
    "_width_": {
        "type": "ref",
        "value": "preferred"
    },
    "_wrapping_": 2,
    "accessibilityconfig": {
        "a11yLabel": "Your savings are federally insured to at least $250,000 and backed by the full faith and credit of the Government."
    },
    "android": {
        "textStyle": {
            "letterSpacing": 0,
            "strikeThrough": false
        }
    },
    "canUpdateUI": true,
    "centerx": {
        "type": "number",
        "value": ""
    },
    "containerweight": 100,
    "contentalignment": 4,
    "id": "lblCopyrightTab2",
    "info": null,
    "ipad": {
        "psp": {
            "wrapping": 2
        }
    },
    "iphone": {
        "psp": {
            "wrapping": 2
        }
    },
    "iscustomlayout": false,
    "isvisible": true,
    "kuid": "eae870ed09234f4dae9c92dc81a8374e",
    "maxwidth": {
        "type": "number",
        "value": ""
    },
    "name": "kony.ui.Label",
    "parent": "flxMain",
    "pf": "frmEnrollNow",
    "responsiveData": {
        "b1": {
            "isVisible": false
        },
        "b2": {
            "centerX": {
                "type": "string",
                "value": "50%"
            },
            "isVisible": false,
            "left": {
                "type": "string",
                "value": ""
            },
            "maxWidth": {
                "type": "string",
                "value": "95%"
            },
            "top": {
                "type": "string",
                "value": "95.5%"
            }
        },
        "b3": {
            "isVisible": false
        },
        "b4": {
            "centerX": {
                "type": "string",
                "value": "50%"
            },
            "isVisible": false,
            "left": {
                "type": "string",
                "value": ""
            },
            "maxWidth": {
                "type": "string",
                "value": "95%"
            },
            "skin": "s404575463f040a9ad9977b446cd4073",
            "top": {
                "type": "string",
                "value": "95.50%"
            }
        }
    },
    "retaincontentalignment": false,
    "retainflexpositionproperties": false,
    "texti18n": "i18n.footer.copyrightTab2",
    "tooltip": "",
    "wType": "Label",
    "zindex": 5
}