{
    "@class": "com.kony.gen.viz.model.component.KVizLabel",
    "DNDConfig": null,
    "__parentReadjusting__": false,
    "_height_": {
        "type": "ref",
        "value": "preferred"
    },
    "_left_": {
        "type": "number",
        "value": "75"
    },
    "_margin_": [
        1,
        1,
        1,
        1
    ],
    "_padding_": [
        0,
        0,
        0,
        0
    ],
    "_skin_": "s18d3552bc4143569a7c5aef6bd5eaa1",
    "_text_": "",
    "_top_": {
        "type": "string",
        "value": "150dp"
    },
    "_width_": {
        "type": "string",
        "value": "80%"
    },
    "_wrapping_": 2,
    "accessibilityconfig": {
        "a11yLabel": "Select the Product you want to Enroll in"
    },
    "android": {
        "textStyle": {
            "letterSpacing": 0,
            "strikeThrough": false
        }
    },
    "canUpdateUI": true,
    "centerx": {
        "type": "string",
        "value": "50%"
    },
    "containerweight": 100,
    "contentalignment": 1,
    "id": "lblSelectProductToEnrollFor",
    "info": null,
    "ipad": {
        "psp": {
            "wrapping": 2
        }
    },
    "iphone": {
        "psp": {
            "wrapping": 2
        }
    },
    "isvisible": true,
    "kuid": "j23685ea42e34ddc8dd8d4954c351a15",
    "name": "kony.ui.Label",
    "paddinginpixel": false,
    "parent": "flxSelectProductToEnrollFor",
    "pf": "frmEnrollNow",
    "responsiveData": {
        "b1": {
            "centerX": {
                "type": "string",
                "value": ""
            },
            "skin": "s18d3552bc4143569a7c5aef6bd5eaa1",
            "top": {
                "type": "string",
                "value": "160dp"
            }
        },
        "b2": {
            "width": {
                "type": "string",
                "value": "70%"
            }
        },
        "b3": {
            "centerX": {
                "type": "string",
                "value": "50%"
            },
            "left": {
                "type": "string",
                "value": ""
            },
            "padding": [
                0,
                0,
                0,
                0
            ],
            "skin": "s18d3552bc4143569a7c5aef6bd5eaa1",
            "width": {
                "type": "string",
                "value": "85%"
            }
        },
        "b4": {}
    },
    "texti18n": "i18n.Enroll.SelectProductyouWantToEnrol",
    "tooltip": "",
    "wType": "Label",
    "zindex": 1
}