{
    "@class": "com.kony.gen.viz.model.component.KVizUserWidget",
    "DNDConfig": null,
    "__parentReadjusting__": false,
    "_android_": {},
    "_androidwearos_": {},
    "_children_": [],
    "_desktopweb_": {},
    "_height_": {
        "type": "string",
        "value": "100%"
    },
    "_ipad_": {},
    "_iphone_": {},
    "_kiosk_": {},
    "_left_": {
        "type": "string",
        "value": "0dp"
    },
    "_margin_": [
        0,
        0,
        0,
        0
    ],
    "_orientation_": 1,
    "_padding_": [
        0,
        0,
        0,
        0
    ],
    "_percent_": true,
    "_render_": true,
    "_responsiveData_": {
        "b1": {
            "height": {
                "type": "string",
                "value": "100%"
            }
        },
        "b2": {
            "height": {
                "type": "string",
                "value": "100%"
            }
        },
        "b3": {
            "height": {
                "type": "string",
                "value": "100%"
            }
        },
        "b4": {
            "height": {
                "type": "string",
                "value": "100%"
            }
        }
    },
    "_skin_": "s1d5d3417cb74ec9883e5f01b8521945",
    "_spa_": {},
    "_spaan_": {},
    "_spaandroidtablet_": {},
    "_spabb_": {},
    "_spaip_": {},
    "_spaipad_": {},
    "_spamobile_": {},
    "_spatablet_": {},
    "_spawindowstablet_": {},
    "_spawinphone8_": {},
    "_tabrcandroid_": {},
    "_top_": {
        "type": "string",
        "value": "0dp"
    },
    "_vizProps_": {
        "hidewidgethierarchy": false
    },
    "_width_": {
        "type": "string",
        "value": "100%"
    },
    "_windows10_": {},
    "_windows8_": {},
    "_winphone10_": {},
    "_winphone8_": {},
    "areflexpropsreferenced": false,
    "canUpdateUI": true,
    "centerx": {
        "type": "string",
        "value": ""
    },
    "clipbounds": false,
    "containerweight": 0,
    "dataDiffs": {
        "DateInput": {
            "__events__": {},
            "__info__": {
                "kuid": "ae1554447bc944f99712041c58ea7777",
                "srcKUID": "ca36b68ddda04cab8c30b1f8f97f41a1",
                "wType": "UserWidgetInstance"
            },
            "centerX": {
                "Default": {
                    "type": "string",
                    "value": ""
                }
            },
            "left": {
                "Default": {
                    "type": "string",
                    "value": "0dp"
                }
            },
            "responsiveData": {
                "b1": {},
                "b2": {},
                "b4": {}
            },
            "top": {
                "Default": {
                    "type": "string",
                    "value": "0dp"
                }
            },
            "width": {
                "Default": {
                    "type": "string",
                    "value": "100%"
                }
            }
        },
        "DateInput.flxDateInputKA": {
            "__events__": {},
            "__info__": {
                "kuid": "de58a3d3e3314c3a94752ea2b211bb22",
                "srcKUID": "f3a8bdf09d294f4393bcf5c78613e00b",
                "wType": "FlexContainer"
            }
        },
        "DateInput.lblDatePlaceholderKA": {
            "__events__": {},
            "__info__": {
                "kuid": "aff20e8b5ee7461fbe13201ca20f2d73",
                "srcKUID": "d697d6739e5b4d94ad789dcec28ef316",
                "wType": "Label"
            },
            "left": {},
            "responsiveData": {
                "b3": {
                    "left": {
                        "type": "string",
                        "value": "0dp"
                    }
                }
            }
        },
        "DateInput.lblEnteredDateKA": {
            "__events__": {},
            "__info__": {
                "kuid": "c78793069af64f629bf833fdf19a729b",
                "srcKUID": "j2947aed57ef4a90ab510cf8293688e1",
                "wType": "Label"
            },
            "left": {},
            "responsiveData": {
                "b1": {
                    "left": {
                        "type": "string",
                        "value": "3%"
                    }
                },
                "b2": {
                    "left": {
                        "type": "string",
                        "value": "3%"
                    }
                },
                "b3": {
                    "left": {
                        "type": "string",
                        "value": "3.10%"
                    }
                },
                "b4": {
                    "left": {
                        "type": "string",
                        "value": "3%"
                    }
                }
            }
        },
        "DateInput.tbxDateInputKA": {
            "__events__": {},
            "__info__": {
                "kuid": "ddd96ce34a794d079783d8408594b126",
                "srcKUID": "j91785f266064d76a97ecdf5d693cd83",
                "wType": "TextField"
            },
            "left": {},
            "responsiveData": {
                "b1": {
                    "left": {
                        "type": "string",
                        "value": "1dp"
                    },
                    "width": {
                        "type": "string",
                        "value": "100%"
                    }
                },
                "b2": {
                    "left": {
                        "type": "string",
                        "value": "1dp"
                    },
                    "width": {
                        "type": "string",
                        "value": "90%"
                    }
                },
                "b3": {
                    "left": {
                        "type": "string",
                        "value": "1dp"
                    },
                    "width": {
                        "type": "string",
                        "value": "90%"
                    }
                },
                "b4": {
                    "left": {
                        "type": "string",
                        "value": "1dp"
                    },
                    "width": {
                        "type": "string",
                        "value": "90%"
                    }
                }
            },
            "width": {}
        },
        "btnPhone": {
            "__events__": {},
            "__info__": {
                "kuid": "a3484b53103d4d2db5b9f83240f02ba1",
                "srcKUID": "h90c4e18e9624590959a0568b927fca7",
                "wType": "Button"
            },
            "responsiveData": {
                "b1": {
                    "isVisible": false
                },
                "b2": {
                    "isVisible": false
                },
                "b3": {
                    "isVisible": false
                },
                "b4": {
                    "isVisible": false
                }
            }
        },
        "btnProceed": {
            "__events__": {
                "ide_onClick": "AS_Button_aa2fc85679bf4271a045018262c582c1"
            },
            "__info__": {
                "kuid": "d82fed675b6e4bc88581d95b513788c8",
                "srcKUID": "be3bb94db8dd4859a211ab7451332836",
                "wType": "Button"
            },
            "responsiveData": {
                "b1": {
                    "top": {
                        "type": "string",
                        "value": "30dp"
                    },
                    "width": {
                        "type": "string",
                        "value": "68%"
                    }
                },
                "b2": {
                    "width": {
                        "type": "string",
                        "value": "85%"
                    }
                },
                "b3": {
                    "top": {
                        "type": "string",
                        "value": "25px"
                    },
                    "width": {
                        "type": "string",
                        "value": "85%"
                    }
                },
                "b4": {
                    "width": {
                        "type": "string",
                        "value": "85%"
                    }
                }
            },
            "top": {},
            "width": {}
        },
        "flexSSN": {
            "__events__": {},
            "__info__": {
                "kuid": "f3fda7c641984696bda9f4e22f8f6e34",
                "srcKUID": "fdbc996e65d14cd3aa9ecf95e2407681",
                "wType": "FlexContainer"
            },
            "left": {
                "Default": {
                    "type": "string",
                    "value": ""
                }
            },
            "responsiveData": {
                "b1": {
                    "width": {
                        "type": "string",
                        "value": "68%"
                    }
                },
                "b2": {
                    "width": {
                        "type": "string",
                        "value": "85%"
                    }
                },
                "b3": {
                    "width": {
                        "type": "string",
                        "value": "85%"
                    }
                },
                "b4": {
                    "width": {
                        "type": "string",
                        "value": "85%"
                    }
                }
            },
            "top": {
                "Default": {
                    "type": "string",
                    "value": "20dp"
                }
            },
            "width": {
                "Default": {
                    "type": "string",
                    "value": "70%"
                }
            }
        },
        "flxDOB": {
            "__events__": {},
            "__info__": {
                "kuid": "fc0e1ba330cd4a8895d8745a86d0dec5",
                "srcKUID": "j9b765d8ce364b60a02f11f8890b0415",
                "wType": "FlexContainer"
            },
            "isVisible": true,
            "left": {},
            "responsiveData": {
                "b1": {
                    "isVisible": true,
                    "left": {
                        "type": "string",
                        "value": ""
                    },
                    "top": {
                        "type": "string",
                        "value": "10dp"
                    },
                    "width": {
                        "type": "string",
                        "value": "68%"
                    }
                },
                "b2": {
                    "left": {
                        "type": "string",
                        "value": ""
                    },
                    "top": {
                        "type": "string",
                        "value": "1.23%"
                    },
                    "width": {
                        "type": "string",
                        "value": "85%"
                    }
                },
                "b3": {
                    "left": {
                        "type": "string",
                        "value": ""
                    },
                    "top": {
                        "type": "string",
                        "value": "1.23%"
                    }
                },
                "b4": {
                    "left": {
                        "type": "string",
                        "value": ""
                    },
                    "top": {
                        "type": "string",
                        "value": "1.23%"
                    }
                }
            },
            "top": {},
            "width": {}
        },
        "flxDateInput": {
            "__events__": {},
            "__info__": {
                "kuid": "efc156a33ab647da98da25768a2c0e0b",
                "srcKUID": "e3e8e9124d8d411db20ee259ee24b52e",
                "wType": "FlexContainer"
            },
            "responsiveData": {
                "b1": {
                    "isVisible": false,
                    "top": {
                        "type": "string",
                        "value": "10dp"
                    },
                    "width": {
                        "type": "string",
                        "value": "68%"
                    }
                },
                "b2": {
                    "isVisible": false,
                    "top": {
                        "type": "string",
                        "value": "10dp"
                    },
                    "width": {
                        "type": "string",
                        "value": "85%"
                    }
                },
                "b3": {
                    "isVisible": false,
                    "top": {
                        "type": "string",
                        "value": "10dp"
                    },
                    "width": {
                        "type": "string",
                        "value": "85%"
                    }
                },
                "b4": {
                    "isVisible": false,
                    "top": {
                        "type": "string",
                        "value": "10dp"
                    },
                    "width": {
                        "type": "string",
                        "value": "85%"
                    }
                }
            },
            "top": {},
            "width": {}
        },
        "flxLetsVerifyCntr": {
            "__events__": {},
            "__info__": {
                "kuid": "ha7c4a5b5a4c4709abaeecebf3ce9614",
                "srcKUID": "b8cf3f9c91214436bca5dbae7639375c",
                "wType": "FlexContainer"
            },
            "autogrowMode": {
                "Default": 0
            },
            "height": {},
            "left": {},
            "responsiveData": {
                "b1": {
                    "height": {
                        "type": "string",
                        "value": "120dp"
                    },
                    "left": {
                        "type": "string",
                        "value": "78dp"
                    },
                    "right": {
                        "type": "string",
                        "value": ""
                    },
                    "top": {
                        "type": "string",
                        "value": "110dp"
                    },
                    "width": {
                        "type": "string",
                        "value": "400dp"
                    }
                },
                "b2": {
                    "height": {
                        "type": "string",
                        "value": "150dp"
                    },
                    "top": {
                        "type": "string",
                        "value": "90dp"
                    }
                },
                "b3": {
                    "height": {
                        "type": "string",
                        "value": "150dp"
                    },
                    "top": {
                        "type": "string",
                        "value": "115dp"
                    },
                    "zIndex": 1
                },
                "b4": {
                    "height": {
                        "type": "string",
                        "value": "150dp"
                    },
                    "top": {
                        "type": "string",
                        "value": "90dp"
                    }
                }
            },
            "right": {},
            "top": {
                "Default": {
                    "type": "string",
                    "value": "132dp"
                }
            },
            "width": {},
            "zIndex": {}
        },
        "flxPhone": {
            "__events__": {},
            "__info__": {
                "kuid": "e42ed5a918df416db9d41b23c6837701",
                "srcKUID": "e523033e0b504ae7abb7ab12afed958b",
                "wType": "FlexContainer"
            },
            "autogrowMode": {
                "Default": 1
            },
            "centerX": {},
            "height": {},
            "responsiveData": {
                "b1": {
                    "centerX": {
                        "type": "string",
                        "value": "50%"
                    },
                    "isVisible": true,
                    "top": {
                        "type": "string",
                        "value": "17px"
                    }
                },
                "b2": {
                    "centerX": {
                        "type": "string",
                        "value": "50%"
                    },
                    "isVisible": true,
                    "top": {
                        "type": "string",
                        "value": "20dp"
                    }
                },
                "b3": {
                    "centerX": {
                        "type": "string",
                        "value": "50%"
                    },
                    "height": {
                        "type": "ref",
                        "value": "preferred"
                    },
                    "isVisible": true,
                    "top": {
                        "type": "string",
                        "value": "20dp"
                    },
                    "width": {
                        "type": "string",
                        "value": "100%"
                    }
                },
                "b4": {
                    "centerX": {
                        "type": "string",
                        "value": "50%"
                    },
                    "isVisible": true,
                    "top": {
                        "type": "string",
                        "value": "23dp"
                    }
                }
            },
            "top": {},
            "width": {}
        },
        "flxUserVerify": {
            "__events__": {},
            "__info__": {
                "kuid": "d83f8189170a46cba8ca627ff90b217e",
                "srcKUID": "bf7c020cda5745df870cabab73404fbf",
                "wType": "FlexContainer"
            },
            "centerX": {},
            "left": {},
            "responsiveData": {
                "b1": {
                    "centerX": {
                        "type": "string",
                        "value": ""
                    },
                    "left": {
                        "type": "number",
                        "value": "0"
                    }
                },
                "b2": {
                    "centerX": {
                        "type": "string",
                        "value": "50%"
                    }
                },
                "b3": {
                    "centerX": {
                        "type": "string",
                        "value": "50%"
                    }
                },
                "b4": {
                    "centerX": {
                        "type": "string",
                        "value": "50%"
                    },
                    "top": {
                        "type": "string",
                        "value": "2dp"
                    }
                }
            },
            "top": {
                "Default": {
                    "type": "string",
                    "value": "1dp"
                }
            }
        },
        "flxWhatIsSSN": {
            "__events__": {},
            "__info__": {
                "kuid": "b0bcc70461f044da801f49fcf662786d",
                "srcKUID": "c92ac0f385a9485aabe51009a86675cf",
                "wType": "FlexContainer"
            }
        },
        "imgUserVerify": {
            "__events__": {},
            "__info__": {
                "kuid": "e3decac8ece04bc4aeb693ab38b3fcb5",
                "srcKUID": "j33e13b2537945d295d2bd76b7f9d5e8",
                "wType": "Image"
            },
            "height": {
                "Default": {
                    "type": "string",
                    "value": "57dp"
                }
            },
            "responsiveData": {
                "b2": {
                    "width": {
                        "type": "string",
                        "value": "57dp"
                    }
                }
            },
            "src": "user_verify.png",
            "width": {
                "Default": {
                    "type": "string",
                    "value": "57dp"
                }
            }
        },
        "imgWhatIsSSN": {
            "__events__": {},
            "__info__": {
                "kuid": "hbd4f97863074c7495fd1fa1f80e120f",
                "srcKUID": "d7d103ca476c4a86b695adf5fd7f7aa6",
                "wType": "Image"
            },
            "src": "info_grey.png"
        },
        "lblCallUs": {
            "__events__": {},
            "__info__": {
                "kuid": "j42c258a75c24ed48b4b7ab1bc0b8377",
                "srcKUID": "dcdaf49a88c544a3942db9f728524136",
                "wType": "Label"
            },
            "left": {},
            "responsiveData": {
                "b1": {
                    "centerX": {
                        "type": "string",
                        "value": "50%"
                    },
                    "left": {
                        "type": "string",
                        "value": ""
                    },
                    "width": {
                        "type": "string",
                        "value": "100%"
                    }
                },
                "b2": {
                    "centerX": {
                        "type": "string",
                        "value": "50%"
                    },
                    "left": {
                        "type": "string",
                        "value": ""
                    },
                    "width": {
                        "type": "string",
                        "value": "100%"
                    }
                },
                "b3": {
                    "centerX": {
                        "type": "string",
                        "value": "50%"
                    },
                    "left": {
                        "type": "string",
                        "value": ""
                    },
                    "width": {
                        "type": "string",
                        "value": "100%"
                    }
                },
                "b4": {
                    "centerX": {
                        "type": "string",
                        "value": "50%"
                    },
                    "left": {
                        "type": "string",
                        "value": ""
                    },
                    "width": {
                        "type": "string",
                        "value": "100%"
                    }
                }
            },
            "width": {}
        },
        "lblDOB": {
            "__events__": {},
            "__info__": {
                "kuid": "cf1b45cccbb94866b3d51beb0281cca6",
                "srcKUID": "e8735069e3ba47359c2d8fbc40604a6a",
                "wType": "Label"
            },
            "centerX": {
                "Default": {
                    "type": "string",
                    "value": "50%"
                }
            },
            "left": {
                "Default": {
                    "type": "string",
                    "value": ""
                }
            },
            "responsiveData": {
                "b1": {
                    "width": {
                        "type": "string",
                        "value": "68%"
                    }
                },
                "b2": {
                    "width": {
                        "type": "string",
                        "value": "85%"
                    }
                },
                "b3": {
                    "width": {
                        "type": "string",
                        "value": "85%"
                    }
                },
                "b4": {
                    "width": {
                        "type": "string",
                        "value": "85%"
                    }
                }
            },
            "top": {
                "Default": {
                    "type": "string",
                    "value": "20dp"
                }
            },
            "width": {}
        },
        "lblLastName": {
            "__events__": {},
            "__info__": {
                "kuid": "b4b3126fe11b427898b126be236be291",
                "srcKUID": "j12dcae6378747ba98300d343b58678f",
                "wType": "Label"
            },
            "centerX": {
                "Default": {
                    "type": "string",
                    "value": "50%"
                }
            },
            "left": {
                "Default": {
                    "type": "string",
                    "value": ""
                }
            },
            "responsiveData": {
                "b1": {
                    "width": {
                        "type": "string",
                        "value": "68%"
                    }
                },
                "b2": {
                    "width": {
                        "type": "string",
                        "value": "85%"
                    }
                },
                "b3": {
                    "width": {
                        "type": "string",
                        "value": "85%"
                    }
                },
                "b4": {
                    "width": {
                        "type": "string",
                        "value": "85%"
                    }
                }
            },
            "top": {
                "Default": {
                    "type": "string",
                    "value": "0dp"
                }
            },
            "width": {}
        },
        "lblLetsVerify": {
            "__events__": {},
            "__info__": {
                "kuid": "b788b6adfe3e4563856478df126e25b8",
                "srcKUID": "cd30cab4e8f845b79bc0797da33d628a",
                "wType": "Label"
            },
            "centerX": {},
            "left": {
                "Default": {
                    "type": "string",
                    "value": "71dp"
                }
            },
            "responsiveData": {
                "b1": {
                    "centerX": {
                        "type": "string",
                        "value": ""
                    }
                },
                "b2": {
                    "centerX": {
                        "type": "string",
                        "value": "50%"
                    },
                    "left": {
                        "type": "string",
                        "value": ""
                    },
                    "top": {
                        "type": "string",
                        "value": "60dp"
                    }
                },
                "b3": {
                    "centerX": {
                        "type": "string",
                        "value": "50%"
                    },
                    "left": {
                        "type": "string",
                        "value": ""
                    },
                    "top": {
                        "type": "string",
                        "value": "65dp"
                    },
                    "width": {
                        "type": "string",
                        "value": "100%"
                    }
                },
                "b4": {
                    "centerX": {
                        "type": "string",
                        "value": "50%"
                    },
                    "top": {
                        "type": "string",
                        "value": "59dp"
                    }
                }
            },
            "top": {
                "Default": {
                    "type": "string",
                    "value": "17dp"
                }
            },
            "width": {}
        },
        "lblSSN": {
            "__events__": {},
            "__info__": {
                "kuid": "d6a235164e9143baae278345d77fb833",
                "srcKUID": "fdffbcf52f3b41c58571c42539f3f229",
                "wType": "Label"
            },
            "centerY": {
                "Default": {
                    "type": "string",
                    "value": "42%"
                }
            },
            "responsiveData": {
                "b4": {}
            },
            "text": "",
            "top": {
                "Default": {
                    "type": "string",
                    "value": "0dp"
                }
            }
        },
        "lblWrongInfo": {
            "__events__": {},
            "__info__": {
                "kuid": "a218bb11408a4d10ab2f508acf3c55fe",
                "srcKUID": "a366af506aef42df9151d1b846615cf4",
                "wType": "Label"
            },
            "centerX": {},
            "isVisible": false,
            "left": {},
            "responsiveData": {
                "b1": {
                    "centerX": {
                        "type": "string",
                        "value": ""
                    },
                    "left": {
                        "type": "number",
                        "value": "0"
                    },
                    "top": {
                        "type": "string",
                        "value": "55%"
                    }
                },
                "b3": {
                    "top": {
                        "type": "string",
                        "value": "96dp"
                    }
                }
            },
            "top": {}
        },
        "lbxDate": {
            "__events__": {
                "ide_onSelection": "AS_ListBox_abdb35e128d94c5a8f408844217d39e8"
            },
            "__info__": {
                "kuid": "j62d7dfec92c42658d888f9bebccd37b",
                "srcKUID": "i3062ad3eea04170abc1e942a1838b87",
                "wType": "ListBox"
            },
            "left": {},
            "responsiveData": {
                "b1": {
                    "left": {
                        "type": "string",
                        "value": "4.30%"
                    }
                },
                "b2": {
                    "left": {
                        "type": "string",
                        "value": "4%"
                    }
                },
                "b3": {
                    "left": {
                        "type": "string",
                        "value": "4.30%"
                    },
                    "right": {
                        "type": "string",
                        "value": ""
                    }
                },
                "b4": {
                    "left": {
                        "type": "string",
                        "value": "4%"
                    }
                }
            },
            "right": {}
        },
        "lbxMonth": {
            "__events__": {
                "ide_onSelection": "AS_ListBox_f43bcc9dd3d241adb337edb636d7c25c"
            },
            "__info__": {
                "kuid": "a7f9137ee6504c7184f61902be053f5d",
                "srcKUID": "aaca66aad50746e3844ce54bfe62cd5c",
                "wType": "ListBox"
            },
            "left": {},
            "responsiveData": {
                "b1": {
                    "left": {
                        "type": "string",
                        "value": "5.50%"
                    }
                },
                "b2": {
                    "left": {
                        "type": "string",
                        "value": "5.50%"
                    }
                },
                "b3": {
                    "left": {
                        "type": "string",
                        "value": "5.50%"
                    }
                },
                "b4": {
                    "left": {
                        "type": "string",
                        "value": "5.50%"
                    }
                }
            }
        },
        "lbxYear": {
            "__events__": {
                "ide_onSelection": "AS_ListBox_a5b4a6387a4648f796d1f94a8f057281"
            },
            "__info__": {
                "kuid": "c8662e19105c41e0969876b3181b3915",
                "srcKUID": "ce534d5f4d324af8aeb9bad6e194d326",
                "wType": "ListBox"
            }
        },
        "letsverify": {
            "__events__": {},
            "__info__": {
                "isRoot": true,
                "kuid": "e5f35fac26f04a6db4f59722f548decc",
                "srcKUID": "b754989b224241c5b4b9b8fdcf7054c4",
                "wType": "FlexContainer"
            },
            "autogrowMode": {
                "Default": 0
            },
            "centerX": {
                "Default": {
                    "type": "string",
                    "value": ""
                }
            },
            "height": {},
            "left": {
                "Default": {
                    "type": "string",
                    "value": "0dp"
                }
            },
            "responsiveData": {
                "b1": {
                    "height": {
                        "type": "string",
                        "value": "100%"
                    }
                },
                "b2": {
                    "height": {
                        "type": "string",
                        "value": "100%"
                    }
                },
                "b3": {
                    "height": {
                        "type": "string",
                        "value": "100%"
                    }
                },
                "b4": {
                    "height": {
                        "type": "string",
                        "value": "100%"
                    }
                }
            },
            "top": {
                "Default": {
                    "type": "string",
                    "value": "0dp"
                }
            }
        },
        "tbxLastName": {
            "__events__": {
                "desktopweb": {
                    "ide_onKeyUp": "AS_TextField_c8c113c1feb04593a665de302e563d06"
                }
            },
            "__info__": {
                "kuid": "bfc23c1b25a24c62bbec1752ea6883ea",
                "srcKUID": "cb120e94936b453190d24bbbcc97fc5c",
                "wType": "TextField"
            },
            "responsiveData": {
                "b1": {
                    "top": {
                        "type": "string",
                        "value": "10dp"
                    },
                    "width": {
                        "type": "string",
                        "value": "68%"
                    }
                },
                "b2": {
                    "top": {
                        "type": "string",
                        "value": "1%"
                    },
                    "width": {
                        "type": "string",
                        "value": "85%"
                    }
                },
                "b3": {
                    "text": "",
                    "top": {
                        "type": "string",
                        "value": "1%"
                    }
                },
                "b4": {
                    "top": {
                        "type": "string",
                        "value": "1%"
                    }
                }
            },
            "top": {},
            "width": {}
        },
        "tbxSSN": {
            "__events__": {
                "desktopweb": {
                    "ide_onKeyUp": "AS_TextField_h6de70a95a364601b403b7bd19d979ab"
                }
            },
            "__info__": {
                "kuid": "be4c58a93c414e9a8f5cd086a5d96043",
                "srcKUID": "dcd32b94748c4722a3c7e8f83629012f",
                "wType": "TextField"
            },
            "i18n_placeholder": "i18n.NUO.EnterSSN",
            "i18n_text": null,
            "responsiveData": {
                "b1": {
                    "text": "",
                    "top": {
                        "type": "string",
                        "value": "10dp"
                    },
                    "width": {
                        "type": "string",
                        "value": "68%"
                    }
                },
                "b2": {
                    "top": {
                        "type": "string",
                        "value": "1.40%"
                    },
                    "width": {
                        "type": "string",
                        "value": "85%"
                    }
                },
                "b3": {
                    "top": {
                        "type": "string",
                        "value": "1.40%"
                    }
                },
                "b4": {
                    "top": {
                        "type": "string",
                        "value": "1.40%"
                    }
                }
            },
            "secureTextEntry": false,
            "text": "",
            "top": {
                "Default": {
                    "type": "string",
                    "value": "0.23000000000000398%"
                }
            },
            "width": {}
        }
    },
    "id": "letsverify",
    "info": null,
    "isdatareferenced": false,
    "issegmentchild": false,
    "isvisible": true,
    "kuid": "j3badfa31f504354b65cb37e36825e62",
    "layouttype": 4,
    "masterType": 0,
    "name": "kony.ui.UserWidgetInstance",
    "parent": "flxVerification",
    "pf": "frmEnrollNow",
    "snapgridsize": 10,
    "snaptogrid": true,
    "sourceUserWidget": "b754989b224241c5b4b9b8fdcf7054c4",
    "vizprops": {
        "hidewidgethierarchy": false
    },
    "wType": "UserWidgetInstance"
}