{
    "@class": "com.kony.gen.viz.model.component.KVizUserWidget",
    "DNDConfig": null,
    "__parentReadjusting__": false,
    "_android_": {},
    "_androidwearos_": {},
    "_children_": [],
    "_desktopweb_": {},
    "_height_": {
        "type": "string",
        "value": "500dp"
    },
    "_ipad_": {},
    "_iphone_": {},
    "_kiosk_": {},
    "_left_": {
        "type": "string",
        "value": "0dp"
    },
    "_margin_": [
        0,
        0,
        0,
        0
    ],
    "_orientation_": 1,
    "_padding_": [
        0,
        0,
        0,
        0
    ],
    "_percent_": true,
    "_render_": true,
    "_responsiveData_": {
        "b1": {
            "height": {
                "type": "string",
                "value": "100%"
            }
        },
        "b2": {
            "height": {
                "type": "string",
                "value": "100%"
            }
        },
        "b3": {
            "height": {
                "type": "string",
                "value": "100%"
            }
        },
        "b4": {
            "height": {
                "type": "string",
                "value": "100%"
            }
        }
    },
    "_skin_": "s1d5d3417cb74ec9883e5f01b8521945",
    "_spa_": {},
    "_spaan_": {},
    "_spaandroidtablet_": {},
    "_spabb_": {},
    "_spaip_": {},
    "_spaipad_": {},
    "_spamobile_": {},
    "_spatablet_": {},
    "_spawindowstablet_": {},
    "_spawinphone8_": {},
    "_tabrcandroid_": {},
    "_top_": {
        "type": "string",
        "value": "0dp"
    },
    "_vizProps_": {
        "hidewidgethierarchy": false
    },
    "_width_": {
        "type": "string",
        "value": "100%"
    },
    "_windows10_": {},
    "_windows8_": {},
    "_winphone10_": {},
    "_winphone8_": {},
    "areflexpropsreferenced": false,
    "canUpdateUI": true,
    "clipbounds": false,
    "containerweight": 0,
    "dataDiffs": {
        "btnLoginLater": {
            "__events__": {},
            "__info__": {
                "kuid": "gad09090b11f42d2b6819bc1022c0934",
                "srcKUID": "f67f79b8a9a1476f88559884650ee91b",
                "wType": "Button"
            },
            "i18n_text": "i18n.enroll.doneLoginLater",
            "responsiveData": {
                "b2": {
                    "text": "DONE",
                    "top": {
                        "type": "string",
                        "value": "10dp"
                    }
                }
            },
            "text": "DONE",
            "top": {}
        },
        "btnProceed": {
            "__events__": {
                "ide_onClick": "AS_Button_feae1769d354440b8d25b5581061d8c7"
            },
            "__info__": {
                "kuid": "i8a55a93102a4f42a6b6f112883e1698",
                "srcKUID": "a9f0717b188746e2b397e4a07bbabf87",
                "wType": "Button"
            },
            "height": {},
            "i18n_text": "i18n.common.proceed",
            "responsiveData": {
                "b1": {
                    "height": {
                        "type": "string",
                        "value": "40dp"
                    },
                    "top": {
                        "type": "string",
                        "value": "56px"
                    },
                    "width": {
                        "type": "string",
                        "value": "68%"
                    }
                },
                "b3": {
                    "top": {
                        "type": "string",
                        "value": "43dp"
                    },
                    "width": {
                        "type": "string",
                        "value": "85%"
                    }
                }
            },
            "text": "PROCEED",
            "top": {},
            "width": {}
        },
        "flxBottom": {
            "__events__": {},
            "__info__": {
                "kuid": "d4d6f30cadf74cf5bf199eea89ed1737",
                "srcKUID": "i102e11464fe4f59abcf2d679bb1faf9",
                "wType": "FlexContainer"
            },
            "autogrowMode": {
                "Default": 0
            },
            "height": {
                "Default": {
                    "type": "string",
                    "value": "60dp"
                }
            },
            "left": {},
            "responsiveData": {
                "b1": {
                    "isVisible": true,
                    "top": {
                        "type": "string",
                        "value": "44dp"
                    }
                },
                "b2": {
                    "top": {
                        "type": "string",
                        "value": "30dp"
                    }
                },
                "b3": {
                    "left": {
                        "type": "string",
                        "value": "0dp"
                    },
                    "top": {
                        "type": "string",
                        "value": "40dp"
                    },
                    "width": {
                        "type": "ref",
                        "value": "preferred"
                    }
                },
                "b4": {
                    "top": {
                        "type": "string",
                        "value": "41dp"
                    }
                }
            },
            "top": {},
            "width": {}
        },
        "imgEnroll": {
            "__events__": {},
            "__info__": {
                "kuid": "c8d3724bcf694368812ab23b2fece9d2",
                "srcKUID": "ae801c59e46e4352a44e693bc9dfa67f",
                "wType": "Image"
            },
            "responsiveData": {
                "b1": {
                    "top": {
                        "type": "string",
                        "value": "19.65%"
                    }
                },
                "b2": {
                    "top": {
                        "type": "string",
                        "value": "189dp"
                    }
                },
                "b3": {
                    "top": {
                        "type": "string",
                        "value": "161dp"
                    }
                },
                "b4": {
                    "top": {
                        "type": "string",
                        "value": "161dp"
                    }
                }
            },
            "top": {}
        },
        "lblDone": {
            "__events__": {},
            "__info__": {
                "kuid": "ia762b1dbd2b4f938d675977407fe32a",
                "srcKUID": "e9115b97f94f4356b2889821b4a86ced",
                "wType": "Label"
            },
            "centerX": {
                "Default": {
                    "type": "string",
                    "value": "50%"
                }
            },
            "left": {},
            "responsiveData": {
                "b1": {
                    "top": {
                        "type": "string",
                        "value": "0dp"
                    }
                },
                "b2": {
                    "top": {
                        "type": "string",
                        "value": "20dp"
                    }
                },
                "b3": {
                    "left": {
                        "type": "string",
                        "value": "0dp"
                    },
                    "top": {
                        "type": "string",
                        "value": "0dp"
                    }
                },
                "b4": {
                    "left": {
                        "type": "string",
                        "value": "0dp"
                    },
                    "top": {
                        "type": "string",
                        "value": "0dp"
                    }
                }
            },
            "top": {}
        },
        "lblLoginNextTime": {
            "__events__": {},
            "__info__": {
                "kuid": "c3ea9c300f954e70aa18ea7b6380f5f4",
                "srcKUID": "ed43944ec0fa4d43aff7253c12217b8b",
                "wType": "Label"
            },
            "centerX": {
                "Default": {
                    "type": "string",
                    "value": "50%"
                }
            },
            "i18n_text": "i18n.login.LoginLater",
            "responsiveData": {
                "b1": {},
                "b2": {},
                "b3": {},
                "b4": {}
            },
            "top": {
                "Default": {
                    "type": "string",
                    "value": "28dp"
                }
            }
        },
        "lblNotYetEnrolledOrError": {
            "__events__": {},
            "__info__": {
                "kuid": "e97aed5d99994b8fab605958feb1379a",
                "srcKUID": "3277de67aba1479d8654d0d54447d10b",
                "wType": "Label"
            },
            "i18n_text": "i18n.flxSecurityQuestionsAck.Youhavesetyoursecurityquestionssuccessfully",
            "responsiveData": {
                "b1": {
                    "top": {
                        "type": "string",
                        "value": "33px"
                    },
                    "width": {
                        "type": "string",
                        "value": "69.02%"
                    }
                },
                "b2": {
                    "top": {
                        "type": "string",
                        "value": "71px"
                    }
                },
                "b3": {
                    "top": {
                        "type": "string",
                        "value": "41px"
                    },
                    "width": {
                        "type": "string",
                        "value": "80%"
                    }
                },
                "b4": {
                    "top": {
                        "type": "string",
                        "value": "40px"
                    }
                }
            },
            "text": "",
            "width": {}
        },
        "orline": {
            "__events__": {},
            "__info__": {
                "kuid": "f881c25d234544a48a35212f4d6ea229",
                "srcKUID": "ddd7bd5097474023bc5a38cda9bd1961",
                "wType": "UserWidgetInstance"
            },
            "responsiveData": {
                "b1": {
                    "top": {
                        "type": "string",
                        "value": "50dp"
                    }
                },
                "b2": {
                    "top": {
                        "type": "string",
                        "value": "50dp"
                    }
                },
                "b3": {
                    "top": {
                        "type": "string",
                        "value": "52dp"
                    }
                },
                "b4": {
                    "top": {
                        "type": "string",
                        "value": "50dp"
                    }
                }
            }
        },
        "orline.imgOr": {
            "__events__": {},
            "__info__": {
                "kuid": "i7ee3804ba9447f087f38bcb27213b9d",
                "srcKUID": "ddd9a7a073fc49c889b8dbfa04d05738",
                "wType": "Image"
            }
        },
        "orline.lblCrossOr": {
            "__events__": {},
            "__info__": {
                "kuid": "c56fb54a7252451a8ce8cd3d06eb9cab",
                "srcKUID": "ee189fb2198c4d9d9489ab88434788ca",
                "wType": "Label"
            }
        },
        "securityAck": {
            "__events__": {},
            "__info__": {
                "isRoot": true,
                "kuid": "eca9e4d150ea4041af6df83a1ddce6f3",
                "srcKUID": "078695809ff1470b853ed95ba347aaa3",
                "wType": "FlexContainer"
            },
            "autogrowMode": {
                "Default": 0
            },
            "height": {},
            "responsiveData": {
                "b1": {
                    "height": {
                        "type": "string",
                        "value": "100%"
                    }
                },
                "b2": {
                    "height": {
                        "type": "string",
                        "value": "100%"
                    }
                },
                "b3": {
                    "height": {
                        "type": "string",
                        "value": "100%"
                    }
                },
                "b4": {
                    "height": {
                        "type": "string",
                        "value": "100%"
                    }
                }
            }
        }
    },
    "id": "securityAck",
    "info": null,
    "isdatareferenced": false,
    "isvisible": true,
    "kuid": "eca9e4d150ea4041af6df83a1ddce6f3",
    "layouttype": 4,
    "masterType": 0,
    "name": "kony.ui.UserWidgetInstance",
    "parent": "flxSecurityQuestionsAck",
    "pf": "frmEnrollNow",
    "snapgridsize": 10,
    "snaptogrid": true,
    "sourceUserWidget": "078695809ff1470b853ed95ba347aaa3",
    "wType": "UserWidgetInstance"
}