{
    "@class": "com.kony.gen.viz.model.component.KVizLabel",
    "DNDConfig": null,
    "__parentReadjusting__": false,
    "_height_": {
        "type": "ref",
        "value": "preferred"
    },
    "_left_": {
        "type": "string",
        "value": "63dp"
    },
    "_margin_": [
        1,
        1,
        1,
        1
    ],
    "_padding_": [
        0,
        0,
        1,
        0
    ],
    "_right_": {
        "type": "number",
        "value": ""
    },
    "_skin_": "s18d3552bc4143569a7c5aef6bd5eaa1",
    "_text_": "Welcome Back",
    "_top_": {
        "type": "string",
        "value": "120dp"
    },
    "_width_": {
        "type": "ref",
        "value": "preferred"
    },
    "_wrapping_": 2,
    "accessibilityconfig": {
        "a11yLabel": "Welcome Back!"
    },
    "android": {
        "textStyle": {
            "letterSpacing": 0,
            "strikeThrough": false
        }
    },
    "canUpdateUI": true,
    "centerx": {
        "type": "number",
        "value": ""
    },
    "containerweight": 100,
    "contentalignment": 5,
    "id": "lblWelcomeBackSelectedUsername",
    "info": null,
    "ipad": {
        "psp": {
            "wrapping": 2
        }
    },
    "iphone": {
        "psp": {
            "wrapping": 2
        }
    },
    "isvisible": true,
    "kuid": "bee880642b0b413188af8787b37cbd03",
    "name": "kony.ui.Label",
    "paddinginpixel": false,
    "parent": "flxLoginSelectedUsername",
    "pf": "frmLogin",
    "responsiveData": {
        "b1": {
            "contentAlignment": 1,
            "left": {
                "type": "string",
                "value": "81dp"
            },
            "padding": [
                0,
                0,
                1,
                0
            ],
            "skin": "s18d3552bc4143569a7c5aef6bd5eaa1"
        },
        "b2": {
            "centerX": {
                "type": "string",
                "value": "50%"
            },
            "contentAlignment": 5,
            "left": {
                "type": "string",
                "value": ""
            },
            "padding": [
                1,
                0,
                1,
                0
            ],
            "right": {
                "type": "string",
                "value": ""
            },
            "width": {
                "type": "ref",
                "value": "preferred"
            }
        },
        "b3": {
            "centerX": {
                "type": "string",
                "value": "50%"
            },
            "left": {
                "type": "string",
                "value": ""
            },
            "padding": [
                1,
                0,
                1,
                0
            ]
        },
        "b4": {
            "centerX": {
                "type": "string",
                "value": "50%"
            },
            "left": {
                "type": "string",
                "value": ""
            },
            "padding": [
                1,
                0,
                1,
                0
            ],
            "width": {
                "type": "ref",
                "value": "preferred"
            }
        }
    },
    "texti18n": "i18n.common.WelcomeBackLabel",
    "tooltip": "",
    "wType": "Label",
    "zindex": 1
}