{
    "@class": "com.kony.gen.viz.model.component.KVizLabel",
    "DNDConfig": null,
    "__parentReadjusting__": false,
    "_height_": {
        "type": "ref",
        "value": "preferred"
    },
    "_left_": {
        "type": "string",
        "value": "59dp"
    },
    "_margin_": [
        1,
        1,
        1,
        1
    ],
    "_padding_": [
        1,
        0,
        1,
        0
    ],
    "_skin_": "s1479fa717444db6b49648e6b8b80f1a",
    "_text_": "Label",
    "_top_": {
        "type": "string",
        "value": "5.16%"
    },
    "_width_": {
        "type": "ref",
        "value": "preferred"
    },
    "_wrapping_": 2,
    "accessibilityconfig": {
        "a11yLabel": "Username"
    },
    "android": {
        "textStyle": {
            "letterSpacing": 0,
            "strikeThrough": false
        }
    },
    "canUpdateUI": true,
    "centerx": {
        "type": "string",
        "value": "50%"
    },
    "containerweight": 100,
    "contentalignment": 5,
    "id": "lblYourUsername",
    "info": null,
    "ipad": {
        "psp": {
            "wrapping": 2
        }
    },
    "iphone": {
        "psp": {
            "wrapping": 2
        }
    },
    "isvisible": true,
    "kuid": "e035672c989f423d84e8bc5d27b62077",
    "name": "kony.ui.Label",
    "paddinginpixel": false,
    "parent": "flxUserContent",
    "pf": "frmLogin",
    "responsiveData": {
        "b1": {
            "centerX": {
                "type": "string",
                "value": ""
            },
            "left": {
                "type": "string",
                "value": "63dp"
            },
            "top": {
                "type": "string",
                "value": "12.16%"
            }
        },
        "b2": {
            "left": {
                "type": "string",
                "value": ""
            },
            "top": {
                "type": "string",
                "value": "49.16%"
            }
        },
        "b3": {
            "centerX": {
                "type": "string",
                "value": "50%"
            },
            "left": {
                "type": "string",
                "value": ""
            },
            "padding": [
                1,
                0,
                1,
                0
            ],
            "skin": "s1479fa717444db6b49648e6b8b80f1a",
            "top": {
                "type": "string",
                "value": "44.16%"
            }
        },
        "b4": {
            "left": {
                "type": "string",
                "value": ""
            },
            "top": {
                "type": "string",
                "value": "41.16%"
            }
        }
    },
    "texti18n": "i18n.login.UserName",
    "tooltip": "",
    "wType": "Label",
    "zindex": 1
}