{
    "@class": "com.kony.gen.viz.model.component.KVizUserWidget",
    "DNDConfig": null,
    "__parentReadjusting__": false,
    "_children_": [],
    "_height_": {
        "type": "string",
        "value": "568dp"
    },
    "_left_": {
        "type": "string",
        "value": "0dp"
    },
    "_margin_": [
        0,
        0,
        0,
        0
    ],
    "_orientation_": 1,
    "_padding_": [
        0,
        0,
        0,
        0
    ],
    "_percent_": true,
    "_render_": true,
    "_skin_": "s4f295c6755849a8ada803af434f162b",
    "_top_": {
        "type": "string",
        "value": "0dp"
    },
    "_width_": {
        "type": "string",
        "value": "100%"
    },
    "areflexpropsreferenced": false,
    "autogrowmode": 0,
    "canUpdateUI": true,
    "clipbounds": false,
    "containerweight": 0,
    "dataDiffs": {
        "MFA": {
            "__events__": {},
            "__info__": {
                "isRoot": true,
                "kuid": "g784bfd5ee9b42b198856c8a87ad6438",
                "srcKUID": "eb6e5509ded14a0cbabe8eb5dd199a35",
                "wType": "FlexContainer"
            },
            "isVisible": false,
            "responsiveData": {
                "b1": {
                    "isVisible": false
                }
            }
        },
        "btnLoginLater": {
            "__events__": {},
            "__info__": {
                "kuid": "b0e0d641e67f4a84af9e5b3ca1d49d05",
                "srcKUID": "bf04165f615d48219541b9b7ed76fdba",
                "wType": "Button"
            }
        },
        "btnProceed": {
            "__events__": {},
            "__info__": {
                "kuid": "cf0b0b2ac9744311ad9d43f3a800754d",
                "srcKUID": "f62efd8c26f94acf9448324b81459da1",
                "wType": "Button"
            },
            "height": {},
            "responsiveData": {
                "b1": {
                    "height": {
                        "type": "string",
                        "value": "40px"
                    }
                },
                "b2": {
                    "height": {
                        "type": "string",
                        "value": "40px"
                    }
                },
                "b3": {
                    "height": {
                        "type": "string",
                        "value": "40px"
                    }
                },
                "b4": {
                    "height": {
                        "type": "string",
                        "value": "40px"
                    }
                }
            }
        },
        "flxEnterSACCodes": {
            "__events__": {},
            "__info__": {
                "kuid": "f6b8fa89dcf840fb92e4bb3ebe91cad4",
                "srcKUID": "b8fa041ed068409197841ca840a52047",
                "wType": "FlexContainer"
            }
        },
        "flxSecureAccessCode": {
            "__events__": {},
            "__info__": {
                "kuid": "fb6a51abb88945cdb8e8681f95762063",
                "srcKUID": "eb2fa99398d2488781b46616788ca9ee",
                "wType": "FlexContainer"
            }
        },
        "imgNeweBrowserDetection": {
            "__events__": {},
            "__info__": {
                "kuid": "f1dcd5df8131439e91cf0957ae788986",
                "srcKUID": "i265c7ffe621444693476899cbd030a7",
                "wType": "Image"
            },
            "src": "mfa_new_brower_detection.png"
        },
        "imgViewSACCode": {
            "__events__": {},
            "__info__": {
                "kuid": "e7fa687ed73244419312b24c65812125",
                "srcKUID": "ida847269271423b86755ac75da43034",
                "wType": "Image"
            },
            "src": "view.png"
        },
        "lblEnterSecureAccessCode": {
            "__events__": {},
            "__info__": {
                "kuid": "c9045623fc9b49a78ba8df9525c5d3ba",
                "srcKUID": "jf50c8205bb944778fd032178864ef43",
                "wType": "Label"
            }
        },
        "lblNeweBrowserDetection": {
            "__events__": {},
            "__info__": {
                "kuid": "gccccae695f2412a9419034f8e431987",
                "srcKUID": "a5284be7c9b248b3bb3b15d9a095b0b9",
                "wType": "Label"
            },
            "i18n_text": "i18n.LoginMFA.WeHaveDetectedaNewDevice"
        },
        "lblWarning": {
            "__events__": {},
            "__info__": {
                "kuid": "j0f914365ccc4de989df3837dbab7a35",
                "srcKUID": "eee7a7f49ec347d49ecbfd0d7dbf8fae",
                "wType": "Label"
            }
        },
        "tbxEnterSACCode": {
            "__events__": {},
            "__info__": {
                "kuid": "i423be0b7d244741a884de862dd629fc",
                "srcKUID": "b26539ab338741c4a7f6a4a9c760dd51",
                "wType": "TextField"
            }
        }
    },
    "id": "MFA",
    "info": null,
    "isdatareferenced": false,
    "isvisible": false,
    "kuid": "g784bfd5ee9b42b198856c8a87ad6438",
    "layouttype": 4,
    "masterType": 0,
    "name": "kony.ui.UserWidgetInstance",
    "parent": "flxLoginMFA",
    "pf": "frmLogin",
    "snaptogrid": true,
    "sourceUserWidget": "eb6e5509ded14a0cbabe8eb5dd199a35",
    "vizprops": {
        "hidewidgethierarchy": false
    },
    "wType": "UserWidgetInstance"
}