{
    "@class": "com.kony.gen.viz.model.component.KVizUserWidget",
    "DNDConfig": null,
    "__parentReadjusting__": false,
    "_children_": [],
    "_height_": {
        "type": "string",
        "value": "568dp"
    },
    "_left_": "0dp",
    "_margin_": [
        0,
        0,
        0,
        0
    ],
    "_orientation_": 1,
    "_padding_": [
        0,
        0,
        0,
        0
    ],
    "_percent_": true,
    "_render_": true,
    "_skin_": "s1d5d3417cb74ec9883e5f01b8521945",
    "_top_": "0%",
    "_width_": {
        "type": "string",
        "value": "100%"
    },
    "areflexpropsreferenced": false,
    "autogrowmode": 0,
    "canUpdateUI": true,
    "clipbounds": false,
    "containerweight": 0,
    "dataDiffs": {
        "ResetOrEnroll": {
            "__events__": {},
            "__info__": {
                "isRoot": true,
                "kuid": "i30865d32d6f421f8047efe336f97503",
                "srcKUID": "0208e6ecc77f41af9baf71257ef63f6d",
                "wType": "FlexContainer"
            },
            "autogrowMode": {
                "Default": 0
            },
            "height": {
                "Default": {
                    "type": "string",
                    "value": "568dp"
                }
            },
            "responsiveData": {
                "b1": {
                    "height": {
                        "type": "string",
                        "value": "100%"
                    }
                },
                "b2": {
                    "height": {
                        "type": "string",
                        "value": "100%"
                    }
                },
                "b3": {
                    "height": {
                        "type": "string",
                        "value": "100%"
                    }
                },
                "b4": {
                    "height": {
                        "type": "string",
                        "value": "100%"
                    },
                    "isVisible": true
                }
            }
        },
        "btnNext": {
            "__events__": {
                "ide_onClick": "AS_Button_ec982f6c3e4d43dda32d288ea7cb89ea"
            },
            "__info__": {
                "kuid": "bf316c7bd8024eee8f515a2b757bf3ed",
                "srcKUID": "02636d582cdb49dba6387f223de8d558",
                "wType": "Button"
            },
            "centerX": {},
            "height": {},
            "left": {},
            "responsiveData": {
                "b1": {
                    "centerX": {
                        "type": "string",
                        "value": "50%"
                    },
                    "height": {
                        "type": "string",
                        "value": "40dp"
                    },
                    "left": {
                        "type": "string",
                        "value": ""
                    },
                    "top": {
                        "type": "string",
                        "value": "28dp"
                    },
                    "width": {
                        "type": "string",
                        "value": "68%"
                    }
                },
                "b2": {
                    "top": {
                        "type": "string",
                        "value": "21dp"
                    }
                },
                "b3": {
                    "isVisible": true,
                    "top": {
                        "type": "string",
                        "value": "23dp"
                    }
                },
                "b4": {
                    "top": {
                        "type": "string",
                        "value": "20dp"
                    }
                }
            },
            "top": {},
            "width": {}
        },
        "btnReadMore": {
            "__events__": {},
            "__info__": {
                "kuid": "g330dbbb7ada418d969f49ef99d969e7",
                "srcKUID": "d8471f6e8e7b4bc590ba922f0cadf224",
                "wType": "Button"
            }
        },
        "btnUseOTP": {
            "__events__": {
                "ide_onClick": "AS_Button_da99080919b041c4ac365b2690a28094"
            },
            "__info__": {
                "kuid": "ia0a195a446b44a5be21b16d7d5158cc",
                "srcKUID": "g25ca6eb2ac34f2cae6e465c03e832db",
                "wType": "Button"
            },
            "left": {},
            "responsiveData": {
                "b1": {
                    "centerX": {
                        "type": "string",
                        "value": "50%"
                    },
                    "left": {
                        "type": "string",
                        "value": ""
                    },
                    "top": {
                        "type": "string",
                        "value": "42dp"
                    },
                    "width": {
                        "type": "string",
                        "value": "68%"
                    }
                },
                "b2": {
                    "top": {
                        "type": "string",
                        "value": "35dp"
                    }
                },
                "b3": {
                    "top": {
                        "type": "string",
                        "value": "25dp"
                    },
                    "width": {
                        "type": "string",
                        "value": "60%"
                    }
                },
                "b4": {
                    "top": {
                        "type": "string",
                        "value": "30dp"
                    }
                }
            },
            "top": {},
            "width": {}
        },
        "flxCVV": {
            "__events__": {},
            "__info__": {
                "kuid": "ea93ffa15e27421dad05843aeb701baa",
                "srcKUID": "bb1c305ae05f46d7ae9462cab4710167",
                "wType": "FlexContainer"
            },
            "autogrowMode": {
                "Default": 0
            },
            "centerX": {},
            "height": {},
            "responsiveData": {
                "b1": {
                    "centerX": {
                        "type": "string",
                        "value": "50%"
                    },
                    "height": {
                        "type": "string",
                        "value": "40dp"
                    },
                    "top": {
                        "type": "string",
                        "value": "20dp"
                    },
                    "width": {
                        "type": "string",
                        "value": "68%"
                    }
                },
                "b2": {
                    "top": {
                        "type": "string",
                        "value": "20dp"
                    }
                },
                "b3": {
                    "top": {
                        "type": "string",
                        "value": "20dp"
                    }
                },
                "b4": {
                    "top": {
                        "type": "string",
                        "value": "20dp"
                    }
                }
            },
            "top": {
                "Default": {
                    "type": "string",
                    "value": "21dp"
                }
            },
            "width": {}
        },
        "flxCVVDescription": {
            "__events__": {},
            "__info__": {
                "kuid": "bdfab3363149499a85ef178b9e32a256",
                "srcKUID": "bad14fd41f85465eba4602b31e1b2cd4",
                "wType": "FlexContainer"
            }
        },
        "flxCVVHeader": {
            "__events__": {},
            "__info__": {
                "kuid": "dd37a490c3e54c14ab97fd123e02f691",
                "srcKUID": "a1e578ce8dbf44be89842e5df27b18a6",
                "wType": "FlexContainer"
            },
            "autogrowMode": {
                "Default": 1
            },
            "centerX": {},
            "centerY": {},
            "height": {},
            "left": {},
            "responsiveData": {
                "b1": {
                    "centerX": {
                        "type": "string",
                        "value": "50%"
                    },
                    "height": {
                        "type": "ref",
                        "value": "preferred"
                    },
                    "layoutType": 3,
                    "left": {
                        "type": "string",
                        "value": "0dp"
                    },
                    "top": {
                        "type": "string",
                        "value": "30dp"
                    },
                    "width": {
                        "type": "string",
                        "value": "100%"
                    }
                },
                "b2": {
                    "centerX": {
                        "type": "string",
                        "value": "50%"
                    },
                    "centerY": {
                        "type": "string",
                        "value": ""
                    },
                    "height": {
                        "type": "ref",
                        "value": "preferred"
                    },
                    "top": {
                        "type": "string",
                        "value": "15dp"
                    },
                    "width": {
                        "type": "string",
                        "value": "85%"
                    }
                },
                "b3": {
                    "centerX": {
                        "type": "string",
                        "value": "50%"
                    },
                    "height": {
                        "type": "ref",
                        "value": "preferred"
                    },
                    "top": {
                        "type": "string",
                        "value": "15dp"
                    },
                    "width": {
                        "type": "string",
                        "value": "85%"
                    }
                },
                "b4": {
                    "centerX": {
                        "type": "string",
                        "value": "50%"
                    },
                    "height": {
                        "type": "ref",
                        "value": "preferred"
                    },
                    "top": {
                        "type": "string",
                        "value": "15dp"
                    },
                    "width": {
                        "type": "string",
                        "value": "85%"
                    }
                }
            },
            "top": {},
            "width": {}
        },
        "flxCards": {
            "__events__": {},
            "__info__": {
                "kuid": "c2d4394035e540bdbda435c807d8b965",
                "srcKUID": "jccca178b0e14ed298b73609e018deba",
                "wType": "FlexContainer"
            },
            "bottom": {},
            "responsiveData": {
                "b1": {
                    "bottom": {
                        "type": "string",
                        "value": ""
                    },
                    "top": {
                        "type": "string",
                        "value": "10dp"
                    },
                    "width": {
                        "type": "string",
                        "value": "68%"
                    }
                },
                "b2": {
                    "bottom": {
                        "type": "string",
                        "value": ""
                    },
                    "top": {
                        "type": "string",
                        "value": "10dp"
                    }
                },
                "b3": {
                    "bottom": {
                        "type": "string",
                        "value": ""
                    },
                    "top": {
                        "type": "string",
                        "value": "10dp"
                    }
                },
                "b4": {
                    "bottom": {
                        "type": "string",
                        "value": ""
                    },
                    "top": {
                        "type": "string",
                        "value": "10dp"
                    }
                }
            },
            "top": {},
            "width": {}
        },
        "flxHeaderNError": {
            "__events__": {},
            "__info__": {
                "kuid": "a939dfa5c45743ef8816f678daa5f551",
                "srcKUID": "e80d3244bbf44172a8133922a910975c",
                "wType": "FlexContainer"
            },
            "autogrowMode": {
                "Default": 1
            },
            "height": {},
            "left": {},
            "responsiveData": {
                "b1": {
                    "height": {
                        "type": "string",
                        "value": "65dp"
                    },
                    "top": {
                        "type": "string",
                        "value": "140dp"
                    }
                },
                "b2": {
                    "height": {
                        "type": "ref",
                        "value": "preferred"
                    },
                    "layoutType": 4,
                    "top": {
                        "type": "string",
                        "value": "130dp"
                    }
                },
                "b3": {
                    "top": {
                        "type": "string",
                        "value": "130dp"
                    }
                },
                "b4": {
                    "height": {
                        "type": "ref",
                        "value": "preferred"
                    },
                    "layoutType": 4,
                    "left": {
                        "type": "string",
                        "value": ""
                    },
                    "top": {
                        "type": "string",
                        "value": "130dp"
                    }
                }
            },
            "top": {}
        },
        "flxImageUser": {
            "__events__": {},
            "__info__": {
                "kuid": "fe5c2299975a4c43b832a8878e44c054",
                "srcKUID": "b6f1efc80aab430f8618ae9af16a563d",
                "wType": "FlexContainer"
            },
            "autogrowMode": {
                "Default": 0
            },
            "centerX": {},
            "height": {},
            "left": {},
            "responsiveData": {
                "b1": {
                    "centerX": {
                        "type": "string",
                        "value": ""
                    },
                    "height": {
                        "type": "string",
                        "value": "60dp"
                    },
                    "left": {
                        "type": "string",
                        "value": "2dp"
                    },
                    "top": {
                        "type": "string",
                        "value": "0%"
                    },
                    "width": {
                        "type": "string",
                        "value": "60dp"
                    }
                },
                "b2": {
                    "centerX": {
                        "type": "string",
                        "value": "50%"
                    },
                    "left": {
                        "type": "number",
                        "value": "245"
                    },
                    "top": {
                        "type": "string",
                        "value": "1.5100000000000016%"
                    }
                },
                "b3": {
                    "centerX": {
                        "type": "string",
                        "value": "50%"
                    },
                    "isVisible": false,
                    "left": {
                        "type": "string",
                        "value": ""
                    },
                    "top": {
                        "type": "string",
                        "value": "0dp"
                    }
                },
                "b4": {
                    "centerX": {
                        "type": "string",
                        "value": "50%"
                    },
                    "top": {
                        "type": "string",
                        "value": "1dp"
                    }
                }
            },
            "top": {},
            "width": {}
        },
        "flxResetEnrollCVV": {
            "__events__": {},
            "__info__": {
                "kuid": "j5a6604cbee34c55abdcb0ddf7d25ca3",
                "srcKUID": "d99d9068b38d47a19dc1186bf072fd6b",
                "wType": "FlexContainer"
            },
            "autogrowMode": {
                "Default": 0
            },
            "centerX": {},
            "height": {
                "Default": {
                    "type": "string",
                    "value": "120dp"
                }
            },
            "left": {},
            "responsiveData": {
                "b1": {
                    "centerX": {
                        "type": "string",
                        "value": ""
                    },
                    "height": {
                        "type": "string",
                        "value": "100dp"
                    },
                    "isVisible": false,
                    "left": {
                        "type": "string",
                        "value": "78dp"
                    },
                    "top": {
                        "type": "string",
                        "value": "128dp"
                    },
                    "width": {
                        "type": "string",
                        "value": "84%"
                    }
                },
                "b2": {
                    "top": {
                        "type": "string",
                        "value": "0dp"
                    },
                    "width": {
                        "type": "string",
                        "value": "100%"
                    }
                },
                "b3": {
                    "top": {
                        "type": "string",
                        "value": "22.5%"
                    },
                    "width": {
                        "type": "string",
                        "value": "100%"
                    }
                },
                "b4": {
                    "top": {
                        "type": "string",
                        "value": "117dp"
                    }
                }
            },
            "top": {
                "Default": {
                    "type": "string",
                    "value": "5.5%"
                }
            },
            "width": {}
        },
        "flxViewHideCVV": {
            "__events__": {},
            "__info__": {
                "kuid": "e482ed6ef40f46ed88f58b6bc0162794",
                "srcKUID": "ae0a700a042c4db0a80ca67e599bf666",
                "wType": "FlexContainer"
            }
        },
        "imgCVV": {
            "__events__": {},
            "__info__": {
                "kuid": "jc206a19033647678ab92a8da3938444",
                "srcKUID": "a9d15f7e0d7c467d80bfb64b88ef7a14",
                "wType": "Image"
            },
            "centerX": {},
            "centerY": {},
            "left": {},
            "responsiveData": {
                "b1": {
                    "centerX": {
                        "type": "string",
                        "value": ""
                    },
                    "centerY": {
                        "type": "string",
                        "value": ""
                    },
                    "left": {
                        "type": "string",
                        "value": "79dp"
                    }
                },
                "b2": {
                    "centerX": {
                        "type": "string",
                        "value": "50%"
                    },
                    "centerY": {
                        "type": "string",
                        "value": ""
                    },
                    "left": {
                        "type": "string",
                        "value": ""
                    },
                    "top": {
                        "type": "string",
                        "value": "0dp"
                    }
                },
                "b3": {
                    "centerX": {
                        "type": "string",
                        "value": "50%"
                    },
                    "centerY": {
                        "type": "string",
                        "value": ""
                    },
                    "left": {
                        "type": "string",
                        "value": ""
                    },
                    "top": {
                        "type": "string",
                        "value": "2dp"
                    }
                },
                "b4": {
                    "centerX": {
                        "type": "string",
                        "value": "50%"
                    },
                    "centerY": {
                        "type": "string",
                        "value": ""
                    },
                    "left": {
                        "type": "string",
                        "value": ""
                    },
                    "top": {
                        "type": "string",
                        "value": "0dp"
                    }
                }
            },
            "src": "cvv_icon.png",
            "top": {}
        },
        "imgUser": {
            "__events__": {},
            "__info__": {
                "kuid": "c103ae5f49254313beb1d3abf0d911a5",
                "srcKUID": "b9bc20088b244674bc1ce85a05a680e7",
                "wType": "Image"
            },
            "height": {},
            "responsiveData": {
                "b1": {
                    "height": {
                        "type": "string",
                        "value": "54dp"
                    },
                    "width": {
                        "type": "string",
                        "value": "54dp"
                    }
                }
            },
            "src": "default_username.png",
            "width": {}
        },
        "imgUserOutline": {
            "__events__": {},
            "__info__": {
                "kuid": "b2fe6ec2438d4dd38e3984b2e0a4172a",
                "srcKUID": "j39409bb32974322b14223ba871212bf",
                "wType": "Image"
            },
            "height": {},
            "responsiveData": {
                "b1": {
                    "height": {
                        "type": "string",
                        "value": "57dp"
                    },
                    "width": {
                        "type": "string",
                        "value": "57dp"
                    }
                }
            },
            "src": "user_reset_password_frame.png",
            "width": {}
        },
        "imgViewCVV": {
            "__events__": {},
            "__info__": {
                "kuid": "dba7da26449241959d7478d1bc42f627",
                "srcKUID": "a3be5a081a184ebba4ca5e4f17da0a00",
                "wType": "Image"
            },
            "src": "view.png"
        },
        "lblResendOtp": {
            "__events__": {},
            "__info__": {
                "kuid": "ab481ab5102946efaed3a2bf8dd032c8",
                "srcKUID": "j76f1c4de8e844d9936b1055852d9a80",
                "wType": "Label"
            },
            "isVisible": false
        },
        "lblResetPassword": {
            "__events__": {},
            "__info__": {
                "kuid": "b8b06f2f6b814897aea5ed6a5394b0f4",
                "srcKUID": "d03e109538064e50b8f4eea08ff7a640",
                "wType": "Label"
            },
            "centerX": {},
            "left": {},
            "responsiveData": {
                "b1": {
                    "centerX": {
                        "type": "string",
                        "value": ""
                    },
                    "left": {
                        "type": "string",
                        "value": "79dp"
                    },
                    "top": {
                        "type": "string",
                        "value": "0dp"
                    }
                },
                "b2": {
                    "centerX": {
                        "type": "string",
                        "value": "50%"
                    },
                    "left": {
                        "type": "string",
                        "value": ""
                    },
                    "top": {
                        "type": "string",
                        "value": "0dp"
                    },
                    "width": {
                        "type": "ref",
                        "value": "preferred"
                    }
                },
                "b3": {
                    "centerX": {
                        "type": "string",
                        "value": "50%"
                    },
                    "text": "",
                    "top": {
                        "type": "string",
                        "value": "0dp"
                    },
                    "width": {
                        "type": "ref",
                        "value": "preferred"
                    }
                },
                "b4": {
                    "centerX": {
                        "type": "string",
                        "value": "50%"
                    },
                    "left": {
                        "type": "string",
                        "value": ""
                    },
                    "text": "",
                    "top": {
                        "type": "string",
                        "value": "0dp"
                    },
                    "width": {
                        "type": "ref",
                        "value": "preferred"
                    }
                }
            },
            "text": "hg",
            "top": {},
            "width": {}
        },
        "lblWelcome": {
            "__events__": {},
            "__info__": {
                "kuid": "h3046cdfc1e74fe7bdbfbe2731673e4d",
                "srcKUID": "2b62cb1a5c9a4eabbe42320f06e6bdf1",
                "wType": "Label"
            }
        },
        "lblWrongCvv": {
            "__events__": {},
            "__info__": {
                "kuid": "b067a7ce049c4dbdb4014be0757eabe2",
                "srcKUID": "d9309b2392c64c6abb4a9bebf303933d",
                "wType": "Label"
            },
            "centerX": {},
            "left": {},
            "responsiveData": {
                "b1": {
                    "centerX": {
                        "type": "string",
                        "value": ""
                    },
                    "isVisible": false,
                    "left": {
                        "type": "string",
                        "value": "76dp"
                    },
                    "right": {
                        "type": "string",
                        "value": ""
                    },
                    "top": {
                        "type": "string",
                        "value": "30dp"
                    },
                    "width": {
                        "type": "ref",
                        "value": "preferred"
                    }
                },
                "b2": {
                    "isVisible": false,
                    "text": "Enrolling ",
                    "top": {
                        "type": "string",
                        "value": "30dp"
                    }
                },
                "b3": {
                    "isVisible": false,
                    "top": {
                        "type": "string",
                        "value": "30dp"
                    },
                    "width": {
                        "type": "string",
                        "value": "75%"
                    }
                },
                "b4": {
                    "isVisible": false,
                    "top": {
                        "type": "string",
                        "value": "30dp"
                    }
                }
            },
            "right": {},
            "text": "E",
            "top": {},
            "width": {}
        },
        "lstbxCards": {
            "__events__": {
                "ide_onTouchStart": "AS_ListBox_c790c4d06bea4977bc373f4d4d1d535c"
            },
            "__info__": {
                "kuid": "f7e20364deef46f7b6e404870a1b04d5",
                "srcKUID": "f1491e3cf7d84916bcbb34ea71ed592b",
                "wType": "ListBox"
            },
            "masterData": []
        },
        "orline": {
            "__events__": {},
            "__info__": {
                "kuid": "c1ec579a73b64773bb1f8f6062ab35e2",
                "srcKUID": "h275e5d157674e3c8c0d5c06b6c9ffec",
                "wType": "UserWidgetInstance"
            },
            "centerX": {},
            "left": {},
            "responsiveData": {
                "b1": {
                    "centerX": {
                        "type": "string",
                        "value": ""
                    },
                    "isVisible": true,
                    "left": {
                        "type": "string",
                        "value": "98dp"
                    },
                    "top": {
                        "type": "string",
                        "value": "40dp"
                    },
                    "width": {
                        "type": "string",
                        "value": "60%"
                    }
                },
                "b2": {
                    "top": {
                        "type": "string",
                        "value": "35dp"
                    }
                },
                "b3": {
                    "top": {
                        "type": "string",
                        "value": "35dp"
                    }
                },
                "b4": {
                    "top": {
                        "type": "string",
                        "value": "35dp"
                    }
                }
            },
            "top": {},
            "width": {}
        },
        "orline.imgOr": {
            "__events__": {},
            "__info__": {
                "kuid": "f7d110e74bac4e6f8a34b59ed9658286",
                "srcKUID": "b51991ed02d641138a000efc9be453a3",
                "wType": "Image"
            },
            "src": "or_circle.png"
        },
        "orline.lblCrossOr": {
            "__events__": {},
            "__info__": {
                "kuid": "f64cb0259eef42fbaad8076f9efd79f6",
                "srcKUID": "h5d1861b2daf4f3d9076239b4c4258a5",
                "wType": "Label"
            }
        },
        "rtxEnterCVV": {
            "__events__": {},
            "__info__": {
                "kuid": "j7a876f664724222afba0f906415a41a",
                "srcKUID": "g1422f12c98a45b3a1fde9282fb678f3",
                "wType": "RichText"
            },
            "centerX": {},
            "centerY": {},
            "height": {
                "Default": {
                    "type": "ref",
                    "value": "preferred"
                }
            },
            "left": {},
            "responsiveData": {
                "b1": {
                    "centerY": {
                        "type": "string",
                        "value": ""
                    },
                    "height": {
                        "type": "ref",
                        "value": "preferred"
                    },
                    "left": {
                        "type": "string",
                        "value": "20dp"
                    },
                    "top": {
                        "type": "string",
                        "value": "4dp"
                    },
                    "width": {
                        "type": "string",
                        "value": "58%"
                    }
                },
                "b2": {
                    "centerX": {
                        "type": "string",
                        "value": "50%"
                    },
                    "centerY": {
                        "type": "string",
                        "value": ""
                    },
                    "left": {
                        "type": "string",
                        "value": ""
                    },
                    "top": {
                        "type": "string",
                        "value": "5dp"
                    },
                    "width": {
                        "type": "string",
                        "value": "80%"
                    }
                },
                "b3": {
                    "centerX": {
                        "type": "string",
                        "value": "50%"
                    },
                    "centerY": {
                        "type": "string",
                        "value": ""
                    },
                    "left": {
                        "type": "string",
                        "value": ""
                    },
                    "top": {
                        "type": "string",
                        "value": "5dp"
                    },
                    "width": {
                        "type": "string",
                        "value": "88%"
                    }
                },
                "b4": {
                    "centerX": {
                        "type": "string",
                        "value": "50%"
                    },
                    "centerY": {
                        "type": "string",
                        "value": ""
                    },
                    "left": {
                        "type": "string",
                        "value": ""
                    },
                    "top": {
                        "type": "string",
                        "value": "0dp"
                    },
                    "width": {
                        "type": "string",
                        "value": "100%"
                    }
                }
            },
            "top": {},
            "width": {}
        },
        "tbxCVV": {
            "__events__": {
                "desktopweb": {
                    "ide_onBeginEditing": "AS_TextField_c2d9de5f0b544570a165739090cb744c",
                    "ide_onKeyUp": "AS_TextField_e1039fff3fb44a11822e0ea10aa5484e"
                }
            },
            "__info__": {
                "kuid": "b68f1b120aff482fac6d1e43aa940048",
                "srcKUID": "e431425baf2f4bdbbff764af879f8da5",
                "wType": "TextField"
            },
            "height": {
                "Default": {
                    "type": "string",
                    "value": "100%"
                }
            },
            "left": {
                "Default": {
                    "type": "string",
                    "value": "0%"
                }
            },
            "responsiveData": {
                "b1": {
                    "width": {
                        "type": "string",
                        "value": "100%"
                    }
                },
                "b4": {}
            },
            "width": {
                "Default": {
                    "type": "string",
                    "value": "100%"
                }
            }
        },
        "txtCVVDescription": {
            "__events__": {},
            "__info__": {
                "kuid": "d88530068ff84197b0b067815cf48451",
                "srcKUID": "h447670791064965a779bd90692bf1d0",
                "wType": "RichText"
            }
        }
    },
    "id": "ResetOrEnroll",
    "info": null,
    "isdatareferenced": false,
    "issegmentchild": false,
    "isvisible": true,
    "kuid": "i30865d32d6f421f8047efe336f97503",
    "layouttype": 4,
    "masterType": 0,
    "name": "kony.ui.UserWidgetInstance",
    "parent": "flxResetUsingCVV",
    "pf": "frmLogin",
    "snapgridsize": 10,
    "snaptogrid": true,
    "sourceUserWidget": "0208e6ecc77f41af9baf71257ef63f6d",
    "vizprops": {
        "hidewidgethierarchy": false
    },
    "wType": "UserWidgetInstance"
}