{
    "@class": "com.kony.gen.viz.model.component.KVizButton",
    "DNDConfig": null,
    "__parentReadjusting__": false,
    "_height_": {
        "type": "string",
        "value": "30dp"
    },
    "_left_": {
        "type": "string",
        "value": "6dp"
    },
    "_margin_": [
        6,
        6,
        6,
        6
    ],
    "_padding_": [
        0,
        0,
        0,
        0
    ],
    "_right_": {
        "type": "number",
        "value": "0"
    },
    "_skin_": "se4cbdf6e51f48eda9966caa941c6a19",
    "_text_": "KNOW MORE...",
    "_top_": {
        "type": "string",
        "value": "2dp"
    },
    "_width_": {
        "type": "ref",
        "value": "preferred"
    },
    "accessibilityconfig": {
        "a11yLabel": "Learn More..."
    },
    "canUpdateUI": true,
    "containerId": true,
    "containerweight": 100,
    "contentalignment": 4,
    "desktopweb": {
        "psp": {}
    },
    "disabledSkins": {
        "focusSkin": "sf44d06ca8224832827ea7fdff757013",
        "hoverSkin": "s14e5f4459414366a95c5a71c1f39486"
    },
    "displaytext": true,
    "id": "btnKnowMore",
    "ide_onClick": "AS_Button_g413108cbdaf4439928dcef97cd9d84f",
    "info": null,
    "iscustomlayout": false,
    "isvisible": true,
    "kuid": "f89d85b72c2a46d2a40cf7369aa1bb71",
    "name": "kony.ui.Button",
    "parent": "flxRight",
    "pf": "segSelectProductsNUO",
    "retaincontentalignment": false,
    "retainflexpositionproperties": false,
    "texti18n": "i18n.NUO.KnowMore",
    "tooltip": "Know More",
    "wType": "Button",
    "zindex": 1
}