{
    "@class": "com.kony.gen.viz.model.component.KVizButton",
    "DNDConfig": null,
    "_height_": {
        "type": "string",
        "value": "40dp"
    },
    "_left_": {
        "type": "number",
        "value": ""
    },
    "_margin_": [
        6,
        6,
        6,
        6
    ],
    "_padding_": [
        0,
        0,
        0,
        0
    ],
    "_right_": {
        "type": "string",
        "value": "3.77%"
    },
    "_skin_": "s95376e131db404ebbe858e3b39046ef",
    "_text_": "Search",
    "_top_": {
        "type": "string",
        "value": "20dp"
    },
    "_width_": {
        "type": "string",
        "value": "18.99%"
    },
    "accessibilityconfig": {
        "a11yLabel": "Search"
    },
    "canUpdateUI": true,
    "centery": {
        "type": "string",
        "value": ""
    },
    "containerweight": 100,
    "contentalignment": 5,
    "desktopweb": {
        "psp": {
            "hoverSkin": "s7ab6326aaf94c28b90b61fcb1b54547"
        }
    },
    "displaytext": true,
    "focusskin": "sfd0ce0d7f454c9f83c7e815a90a8a55",
    "id": "btnSearch",
    "info": null,
    "isvisible": true,
    "kuid": "f762b00286af498dac80bdccf75e738a",
    "name": "kony.ui.Button",
    "parent": "flxSearchButtons",
    "pf": "frmAddBeneficiaryEuro",
    "responsiveData": {
        "b1": {
            "left": {
                "type": "string",
                "value": "7%"
            },
            "right": {
                "type": "string",
                "value": "3%"
            }
        },
        "b2": {
            "left": {
                "type": "string",
                "value": "7%"
            },
            "right": {
                "type": "string",
                "value": "2.50%"
            },
            "width": {
                "type": "string",
                "value": "22%"
            }
        },
        "b3": {
            "centerY": {
                "type": "string",
                "value": "66.67%"
            },
            "contentAlignment": 5,
            "height": {
                "type": "string",
                "value": "40dp"
            },
            "left": {
                "type": "string",
                "value": "3.23%"
            },
            "right": {
                "type": "string",
                "value": "20%"
            },
            "top": {
                "type": "string",
                "value": "20dp"
            },
            "width": {
                "type": "string",
                "value": "45.16%"
            }
        },
        "b4": {
            "left": {
                "type": "string",
                "value": "5%"
            },
            "right": {
                "type": "string",
                "value": "3%"
            },
            "width": {
                "type": "string",
                "value": "20%"
            }
        }
    },
    "texti18n": "i18n.billPay.Search",
    "tooltip": "Search",
    "wType": "Button",
    "zindex": 1
}