{
    "@class": "com.kony.gen.viz.model.component.KVizLabel",
    "DNDConfig": null,
    "_bottom_": {
        "type": "string",
        "value": ""
    },
    "_height_": {
        "type": "ref",
        "value": "preferred"
    },
    "_left_": {
        "type": "string",
        "value": "3%"
    },
    "_margin_": [
        1,
        1,
        1,
        1
    ],
    "_padding_": [
        0,
        0,
        2,
        0
    ],
    "_skin_": "sffa7cd1b1684dc08c89e203ddb75736",
    "_text_": "To find your SWIFT code, please enter bank details then hit Search.",
    "_top_": {
        "type": "string",
        "value": "15dp"
    },
    "_width_": {
        "type": "ref",
        "value": "preferred"
    },
    "_wrapping_": 2,
    "accessibilityconfig": {
        "a11yLabel": "To find your SWIFT code, please enter bank details t"
    },
    "android": {
        "textStyle": {
            "letterSpacing": 0,
            "strikeThrough": false
        }
    },
    "canUpdateUI": true,
    "centerx": {
        "type": "string",
        "value": ""
    },
    "containerweight": 100,
    "contentalignment": 1,
    "id": "lblSwiftText",
    "info": null,
    "ipad": {
        "psp": {
            "wrapping": 2
        }
    },
    "iphone": {
        "psp": {
            "wrapping": 2
        }
    },
    "isvisible": true,
    "kuid": "b63eeb542fc44f63b5aad2c3a3272e9a",
    "name": "kony.ui.Label",
    "paddinginpixel": false,
    "parent": "flxPopup",
    "pf": "frmAddBeneficiaryEuro",
    "responsiveData": {
        "b1": {},
        "b2": {
            "width": {
                "type": "string",
                "value": "94%"
            }
        },
        "b3": {
            "height": {
                "type": "string",
                "value": "0dp"
            }
        },
        "b4": {}
    },
    "texti18n": "i18n.TransfersEur.TofindyourSWIFTcodepleaseenterbankdetailsthenhitSearch",
    "tooltip": "",
    "wType": "Label",
    "zindex": 1
}