{
    "@class": "com.kony.gen.viz.model.component.KVizButton",
    "DNDConfig": null,
    "__parentReadjusting__": false,
    "_height_": {
        "type": "string",
        "value": "100%"
    },
    "_left_": {
        "type": "string",
        "value": "0dp"
    },
    "_margin_": [
        6,
        6,
        6,
        6
    ],
    "_padding_": [
        0,
        0,
        0,
        0
    ],
    "_skin_": "sae54276696f477dbbd70e34725a8526",
    "_text_": "REQUEST MONEY",
    "_width_": {
        "type": "string",
        "value": "33.33%"
    },
    "accessibilityconfig": {
        "a11yLabel": "REQUEST MONEY"
    },
    "canUpdateUI": true,
    "centery": {
        "type": "string",
        "value": "50%"
    },
    "containerId": true,
    "containerweight": 100,
    "contentalignment": 5,
    "disabledSkins": {
        "focusSkin": "sf44d06ca8224832827ea7fdff757013"
    },
    "displaytext": true,
    "id": "btnRequestMoney",
    "ide_onClick": "AS_Button_d62adf39de124c918c043563fb7d9922",
    "info": null,
    "isvisible": false,
    "kuid": "ba3bf081473441c0b65fc48fb68b3acd",
    "name": "kony.ui.Button",
    "parent": "flxActions",
    "pf": "segManageRecipientSelectedMobile",
    "wType": "Button",
    "zindex": 1
}