{
    "@class": "com.kony.gen.viz.model.component.KVizButton",
    "DNDConfig": null,
    "__parentReadjusting__": false,
    "_height_": {
        "type": "string",
        "value": "50dp"
    },
    "_left_": {
        "type": "string",
        "value": "0dp"
    },
    "_margin_": [
        6,
        6,
        6,
        6
    ],
    "_padding_": [
        3,
        0,
        3,
        0
    ],
    "_skin_": "s7c03a67da7f437395974eb07e972971",
    "_text_": "INTERNATIONAL ACCOUNT",
    "_top_": {
        "type": "string",
        "value": "0dp"
    },
    "_width_": {
        "type": "ref",
        "value": "preferred"
    },
    "accessibilityconfig": {
        "a11yLabel": "Recent"
    },
    "canUpdateUI": true,
    "containerweight": 100,
    "contentalignment": 5,
    "desktopweb": {
        "psp": {
            "hoverSkin": "sd5fb4525cc9414e911580d4f0b6f580"
        }
    },
    "disabledSkins": {
        "focusSkin": "sf44d06ca8224832827ea7fdff757013"
    },
    "displaytext": true,
    "focusskin": null,
    "id": "btnRecent",
    "info": null,
    "isvisible": true,
    "kuid": "a4777d3384c741c69678f9489dacf942",
    "name": "kony.ui.Button",
    "paddingLocked": false,
    "paddinginpixel": false,
    "parent": "flxTabs",
    "pf": "frmWireTransfersManageRecipients",
    "responsiveData": {
        "b4": {
            "top": {
                "type": "string",
                "value": "-1dp"
            }
        }
    },
    "texti18n": "i18n.transfers.recent",
    "tooltip": "Recent",
    "wType": "Button",
    "zindex": 1
}