{
	 "@class": "com.kony.gen.viz.model.component.KVizLabel",
	 "DNDConfig": null,
	 "__parentReadjusting__": false,
	 "_height_": {
		 "type": "ref",
		 "value": "preferred"
	},
	 "_margin_": [
		 1,
		 1,
		 1,
		 1
	],
	 "_padding_": [
		 0,
		 0,
		 2,
		 0
	],
	 "_skin_": "s18d3552bc4143569a7c5aef6bd5eaa1",
	 "_text_": "Label",
	 "_top_": {
		 "type": "string",
		 "value": "25dp"
	},
	 "_width_": {
		 "type": "string",
		 "value": "1200dp"
	},
	 "_wrapping_": 2,
	 "accessibilityconfig": {
		 "a11yLabel": "Lets authenticate!"
	},
	 "android": {
		 "textStyle": {
			 "letterSpacing": 0,
			 "strikeThrough": false
		}
	},
	 "canUpdateUI": true,
	 "centerx": {
		 "type": "string",
		 "value": "50%"
	},
	 "containerweight": 100,
	 "contentalignment": 4,
	 "id": "lblLetsAuthenticate",
	 "info": null,
	 "ipad": {
		 "psp": {
			 "wrapping": 2
		}
	},
	 "iphone": {
		 "psp": {
			 "wrapping": 2
		}
	},
	 "isvisible": true,
	 "kuid": "c6a498a0541f4ac0bcc1580a151d3c40",
	 "name": "kony.ui.Label",
	 "paddinginpixel": false,
	 "parent": "flxMainWrapper",
	 "pf": "frmMFATransactions",
	 "responsiveData": {
		 "b1": {
			 "width": {
				 "type": "string",
				 "value": "88%"
			}
		},
		 "b2": {
			 "left": {
				 "type": "string",
				 "value": "2.50%"
			},
			 "width": {
				 "type": "string",
				 "value": "95%"
			}
		},
		 "b3": {
			 "width": {
				 "type": "string",
				 "value": "95%"
			}
		}
	},
	 "texti18n": "i18n.MFA.LetsAuthenticate",
	 "tooltip": "",
	 "wType": "Label",
	 "zindex": 1
}