{
    "@class": "com.kony.gen.viz.model.component.KVizButton",
    "DNDConfig": null,
    "__parentReadjusting__": false,
    "_height_": {
        "type": "string",
        "value": "100%"
    },
    "_margin_": [
        6,
        6,
        6,
        6
    ],
    "_padding_": [
        0,
        0,
        0,
        0
    ],
    "_right_": {
        "type": "string",
        "value": "0.80%"
    },
    "_skin_": "s7c03a67da7f437395974eb07e972971",
    "_text_": "Tab6",
    "_top_": {
        "type": "string",
        "value": "0dp"
    },
    "_width_": {
        "type": "string",
        "value": "15.40%"
    },
    "canUpdateUI": true,
    "centery": {
        "type": "string",
        "value": "50%"
    },
    "containerweight": 100,
    "contentalignment": 5,
    "displaytext": true,
    "focusskin": "sa3ae29cca1a4fdbbeb159a5bc7548e3",
    "id": "btnTab6",
    "ide_onClick": "AS_Button_b6208369b2cd46d484df0018d4d3a46e",
    "info": null,
    "iscustomlayout": false,
    "isvisible": true,
    "kuid": "u2ab6087f6d24a47a66773a691f0cd5b",
    "name": "kony.ui.Button",
    "parent": "TabsHeaderNewCopy",
    "pf": "userwidgetmodel",
    "retaincontentalignment": false,
    "retainflexpositionproperties": false,
    "wType": "Button",
    "zindex": 1
}