{
    "@class": "com.kony.gen.viz.model.component.KVizButton",
    "DNDConfig": null,
    "__parentReadjusting__": false,
    "_height_": {
        "type": "string",
        "value": "40dp"
    },
    "_left_": {
        "type": "number",
        "value": ""
    },
    "_margin_": [
        6,
        6,
        6,
        6
    ],
    "_padding_": [
        0,
        0,
        0,
        0
    ],
    "_right_": {
        "type": "string",
        "value": "28dp"
    },
    "_skin_": "sfbbba35ede4457b94eb681b72349b98",
    "_text_": "PROCEED",
    "_top_": {
        "type": "number",
        "value": ""
    },
    "_width_": {
        "type": "string",
        "value": "257dp"
    },
    "accessibilityconfig": {
        "a11yLabel": "Save & Update"
    },
    "canUpdateUI": true,
    "centery": {
        "type": "string",
        "value": "50%"
    },
    "containerweight": 100,
    "contentalignment": 5,
    "desktopweb": {
        "psp": {
            "hoverSkin": "s7ab6326aaf94c28b90b61fcb1b54547"
        }
    },
    "disabledSkins": {
        "blockedUISkin": "s1400c825f384a46b15a0f8d6829ecef"
    },
    "displaytext": true,
    "focusskin": "sfd0ce0d7f454c9f83c7e815a90a8a55",
    "hoverskin": "",
    "id": "btnContinue",
    "info": null,
    "isvisible": true,
    "kuid": "h0baa8c340de4d0abfc00bf526eeff31",
    "name": "kony.ui.Button",
    "parent": "flxButtons",
    "pf": "frmEditTemplatePrimaryDetails",
    "responsiveData": {
        "b1": {
            "desktopweb": {
                "psp": {
                    "hoverSkin": "s4be8bdf85bf477882e287999fecbcd9"
                }
            },
            "focusSkin": "s4be8bdf85bf477882e287999fecbcd9",
            "right": {
                "type": "string",
                "value": "20dp"
            },
            "skin": "s4be8bdf85bf477882e287999fecbcd9",
            "width": {
                "type": "string",
                "value": "150dp"
            }
        },
        "b2": {
            "right": {
                "type": "string",
                "value": "20dp"
            },
            "skin": "s4be8bdf85bf477882e287999fecbcd9",
            "width": {
                "type": "string",
                "value": "150dp"
            }
        },
        "b3": {
            "centerY": {
                "type": "string",
                "value": ""
            },
            "left": {
                "type": "string",
                "value": "2%"
            },
            "right": {
                "type": "string",
                "value": "2%"
            },
            "top": {
                "type": "string",
                "value": "20dp"
            },
            "width": {
                "type": "string",
                "value": "96%"
            }
        },
        "b4": {
            "right": {
                "type": "string",
                "value": "20dp"
            },
            "skin": "s4be8bdf85bf477882e287999fecbcd9",
            "text": "Continue",
            "width": {
                "type": "string",
                "value": "150px"
            }
        }
    },
    "texti18n": "i18n.konybb.common.SaveAndUpdate",
    "tooltip": "Continue",
    "wType": "Button",
    "zindex": 1
}