{
    "DNDConfig": null,
    "__parentReadjusting__": false,
    "_height_": {
        "type": "ref",
        "value": "preferred"
    },
    "_left_": {
        "type": "string",
        "value": "6.07%"
    },
    "_margin_": [
        0,
        0,
        0,
        0
    ],
    "_orientation_": 6,
    "_padding_": [
        0,
        0,
        0,
        0
    ],
    "_percent_": true,
    "_skin_": "sdc143f0e5b64ae3a3f155f691c73fa7",
    "_top_": {
        "type": "string",
        "value": "0px"
    },
    "_width_": {
        "type": "string",
        "value": "58.10%"
    },
    "allboxes": [],
    "autogrowmode": 1,
    "canUpdateUI": true,
    "children": [
        "flxHeading",
        "lblSeparator",
        "flxPrimaryDetailsMain",
        "flxButtons"
    ],
    "clipbounds": false,
    "containerweight": 100,
    "enablescrolling": true,
    "id": "flxEditPrimaryDetails",
    "info": null,
    "isvisible": false,
    "kuid": "bef91582ad7e414b9c973a5dd3661269",
    "layouttype": 4,
    "name": "kony.ui.FlexContainer",
    "parent": "flxMainWrapper",
    "pf": "frmEditTemplatePrimaryDetails",
    "responsiveData": {
        "b1": {
            "isVisible": true,
            "width": {
                "type": "string",
                "value": "88%"
            },
            "zIndex": 21
        },
        "b2": {
            "isVisible": true,
            "left": {
                "type": "string",
                "value": "3.25%"
            },
            "width": {
                "type": "string",
                "value": "93.50%"
            }
        },
        "b3": {
            "isVisible": true,
            "left": {
                "type": "string",
                "value": "0%"
            },
            "skin": "sdc143f0e5b64ae3a3f155f691c73fa7",
            "top": {
                "type": "string",
                "value": "0px"
            },
            "width": {
                "type": "string",
                "value": "100%"
            }
        },
        "b4": {
            "isVisible": true,
            "layoutType": 2,
            "width": {
                "type": "string",
                "value": "1200dp"
            }
        }
    },
    "snapgridsize": 10,
    "snaptogrid": true,
    "wType": "FlexContainer",
    "widgetalignment": 1,
    "zindex": 8
}