{
    "DNDConfig": null,
    "__parentReadjusting__": false,
    "_height_": {
        "type": "string",
        "value": "1dp"
    },
    "_margin_": [
        0,
        0,
        0,
        0
    ],
    "_orientation_": 6,
    "_padding_": [
        0,
        0,
        0,
        0
    ],
    "_percent_": true,
    "_skin_": "s294228bd4704f2bb11597405c469ae0",
    "_top_": {
        "type": "string",
        "value": "20dp"
    },
    "_width_": {
        "type": "string",
        "value": "100%"
    },
    "allboxes": [],
    "autogrowmode": 0,
    "canUpdateUI": true,
    "centerx": {
        "type": "string",
        "value": "50%"
    },
    "children": [],
    "clipbounds": true,
    "containerweight": 100,
    "enablescrolling": true,
    "id": "flxSeperatorCurrencyType",
    "info": null,
    "isvisible": true,
    "kuid": "f6dc30ab842e4135a4c3b84c0a4ab921",
    "layouttype": 4,
    "name": "kony.ui.FlexContainer",
    "parent": "advancedFilters",
    "pf": "userwidgetmodel",
    "responsiveData": {
        "b3": {
            "top": {
                "type": "string",
                "value": "0dp"
            }
        }
    },
    "snapgridsize": 10,
    "snaptogrid": true,
    "wType": "FlexContainer",
    "widgetalignment": 1,
    "zindex": 1
}