{
    "@class": "com.kony.gen.viz.model.container.KVizSegment2",
    "DNDConfig": null,
    "__parentReadjusting__": false,
    "_data_": [],
    "_height_": {
        "type": "ref",
        "value": "preferred"
    },
    "_indicator_": "none",
    "_left_": {
        "type": "string",
        "value": "0"
    },
    "_margin_": [
        0,
        0,
        0,
        0
    ],
    "_orientation_": 2,
    "_padding_": [
        0,
        0,
        0,
        0
    ],
    "_top_": {
        "type": "string",
        "value": "0"
    },
    "_width_": {
        "type": "string",
        "value": "100%"
    },
    "autogrowmode": 1,
    "canUpdateUI": true,
    "containerweight": 100,
    "counter": "04",
    "desktop": {
        "_data_": [],
        "rowTemplateId": "g7284c09a64e44d2bf2486e2e55b1313",
        "rowtemplate": "flxAccountTypeList",
        "sectionHeaderTemplateId": "h3b298d0bc954d08a2089234ec157958",
        "sectionheadertemplate": "flxTypeOfAccountsHeader",
        "widgetdatamap": {
            "flxAccountTypeList": "flxAccountTypeList",
            "flxRow": "flxRow",
            "flxType1": "flxType1",
            "flxType2": "flxType2",
            "flxTypeOfAccountsHeader": "flxTypeOfAccountsHeader",
            "imgCheckBox": "imgCheckBox",
            "imgCheckBox2": "imgCheckBox2",
            "imgCheckbox": "imgCheckbox",
            "lblAccountType1": "lblAccountType1",
            "lblAccountType2": "lblAccountType2",
            "lblSelectAll": "lblSelectAll"
        }
    },
    "focusedindex": null,
    "focuseditem": null,
    "groupcells": false,
    "hasSections": true,
    "id": "segTypeOfAccounts",
    "info": null,
    "ipad": {
        "psp": {
            "indicator": "rowselect"
        }
    },
    "iphone": {
        "psp": {
            "indicator": "rowselect"
        }
    },
    "iscustomlayout": false,
    "isvisible": true,
    "kuid": "dacaa7b86289413e84e14c08e3acd05f",
    "masterdata": {},
    "name": "kony.ui.SegmentedUI2",
    "needpageindicator": true,
    "pageoffdotimage": "pageoffdot.png",
    "pageondotimage": "pageondot.png",
    "paginationconfig": {
        "position": "bottom"
    },
    "parent": "flxToaBody",
    "pf": "userwidgetmodel",
    "retaincontentalignment": false,
    "retainflexpositionproperties": false,
    "retainselection": false,
    "rowcounter": 4,
    "rowfocusskin": "s0f9bf3c1b3e4a7bb6bf9fd18b0211f2",
    "rowskin": "scf5f90f6ac04976ab88b2a4f7153285",
    "rowtemplate": "flxAccountTypeList",
    "screenlevelwidget": false,
    "seccounter": 0,
    "sectionheaderskin": "sdc4ff4ed1584272be2ae69045dfb29d",
    "sectionheadertemplate": "flxTypeOfAccountsHeader",
    "selectedRows": null,
    "selectedState": false,
    "selectedindex": null,
    "selectedindices": null,
    "selecteditems": null,
    "selectedsectionindex": 0,
    "selectionbehavior": "default",
    "separatorcolor": "aaaaaa00",
    "separatorrequired": false,
    "separatorthickness": 1,
    "showscrollbars": false,
    "viewtype": "tableview",
    "vizProps": {},
    "wType": "Segment",
    "widgetalignment": 5,
    "widgetdatamap": {
        "flxAccountTypeList": "flxAccountTypeList",
        "flxRow": "flxRow",
        "flxType1": "flxType1",
        "flxType2": "flxType2",
        "flxTypeOfAccountsHeader": "flxTypeOfAccountsHeader",
        "imgCheckBox": "imgCheckBox",
        "imgCheckBox2": "imgCheckBox2",
        "imgCheckbox": "imgCheckbox",
        "lblAccountType1": "lblAccountType1",
        "lblAccountType2": "lblAccountType2",
        "lblSelectAll": "lblSelectAll"
    }
}