{
    "DNDConfig": null,
    "__parentReadjusting__": false,
    "_height_": {
        "type": "ref",
        "value": "preferred"
    },
    "_left_": {
        "type": "string",
        "value": "0%"
    },
    "_margin_": [
        0,
        0,
        0,
        0
    ],
    "_orientation_": 6,
    "_padding_": [
        0,
        0,
        0,
        0
    ],
    "_percent_": true,
    "_skin_": "s69e3f540de2471d8558a88df8fa7fd2",
    "_top_": {
        "type": "string",
        "value": "120dp"
    },
    "_width_": {
        "type": "string",
        "value": "100%"
    },
    "allboxes": [],
    "autogrowmode": 1,
    "canUpdateUI": true,
    "children": [
        "flxMainWrapper",
        "flxskncontainer",
        "flxContentContainer"
    ],
    "clipbounds": false,
    "containerweight": 100,
    "enablescrolling": true,
    "id": "flxMain",
    "info": null,
    "isvisible": true,
    "kuid": "j6d1c96defae4b93b087b5609fe2cf20",
    "layouttype": 4,
    "minheight": {
        "type": "string",
        "value": "500dp"
    },
    "name": "kony.ui.FlexContainer",
    "parent": "frmBBUsersDashboard",
    "pf": "frmBBUsersDashboard",
    "responsiveData": {
        "b2": {
            "isVisible": true
        },
        "b3": {
            "minHeight": {
                "type": "string",
                "value": "500dp"
            },
            "top": {
                "type": "string",
                "value": "50dp"
            }
        }
    },
    "snapgridsize": 10,
    "snaptogrid": true,
    "wType": "FlexContainer",
    "widgetalignment": 1,
    "zindex": 1
}