{
    "DNDConfig": null,
    "__parentReadjusting__": false,
    "_height_": {
        "type": "string",
        "value": "1dp"
    },
    "_left_": {
        "type": "string",
        "value": "1.46%"
    },
    "_margin_": [
        0,
        0,
        0,
        0
    ],
    "_orientation_": 6,
    "_padding_": [
        0,
        0,
        0,
        0
    ],
    "_percent_": true,
    "_right_": {
        "type": "string",
        "value": "1.46%"
    },
    "_skin_": "s0cce812b4204ce4b9fee468f6bd938f",
    "_top_": {
        "type": "string",
        "value": "0dp"
    },
    "_width_": {
        "type": "number",
        "value": ""
    },
    "allboxes": [],
    "canUpdateUI": true,
    "children": [],
    "clipbounds": true,
    "containerweight": 100,
    "enablescrolling": true,
    "id": "flxSeperatorUserDetails",
    "info": null,
    "iscustomlayout": false,
    "isvisible": true,
    "kuid": "ab2f1bce03e24eea9f16290bde3874a5",
    "layouttype": 2,
    "name": "kony.ui.FlexContainer",
    "parent": "flxUserDetails",
    "pf": "frmBBUsersDashboard",
    "responsiveData": {
        "b1": {
            "height": {
                "type": "string",
                "value": "1dp"
            },
            "isVisible": true,
            "right": {
                "type": "string",
                "value": "4.46%"
            },
            "skin": "s20af796b4a64882b1637df7ce394327",
            "top": {
                "type": "string",
                "value": "-1dp"
            },
            "width": {
                "type": "number",
                "value": "1150"
            }
        },
        "b3": {
            "top": {
                "type": "string",
                "value": "-2dp"
            }
        },
        "b4": {
            "top": {
                "type": "string",
                "value": "-1dp"
            },
            "width": {
                "type": "number",
                "value": "1155"
            }
        }
    },
    "retaincontentalignment": false,
    "retainflexpositionproperties": false,
    "snapgridsize": 10,
    "snaptogrid": true,
    "wType": "FlexContainer",
    "widgetalignment": 1,
    "zindex": 1
}