{
    "@class": "com.kony.gen.viz.model.component.KVizImage2",
    "DNDConfig": null,
    "__parentReadjusting__": false,
    "_base64_": null,
    "_height_": {
        "type": "string",
        "value": "16dp"
    },
    "_margin_": [
        0,
        0,
        0,
        0
    ],
    "_padding_": [
        0,
        0,
        0,
        0
    ],
    "_right_": {
        "type": "string",
        "value": "4.06%"
    },
    "_skin_": "s87ff3f1430247569bf7c5b0c0adf7ab",
    "_src_": "view_1.png",
    "_width_": {
        "type": "string",
        "value": "22dp"
    },
    "canUpdateUI": true,
    "centery": {
        "type": "string",
        "value": "50%"
    },
    "containerweight": 100,
    "context": {
        "channel": "desktop",
        "formID": "Form1",
        "platform": "desktopweb",
        "templateType": "forms",
        "topLevelBox": null
    },
    "id": "imgViewCVVCode",
    "imagescalemode": 1,
    "imagewhiledownloading": "img_transparent_1.png",
    "info": null,
    "isvisible": false,
    "kuid": "ca6172bf537c4f4db091dba88dcfead0",
    "name": "kony.ui.Image2",
    "parent": "flxEnterCVVCodes",
    "pf": "userwidgetmodel",
    "srcType": 1,
    "wType": "Image",
    "widgetalignment": 5,
    "zindex": 1
}