{
    "@class": "com.kony.gen.viz.model.component.KVizTextBox2",
    "DNDConfig": null,
    "__parentReadjusting__": false,
    "_height_": {
        "type": "string",
        "value": "84%"
    },
    "_left_": {
        "type": "string",
        "value": "3.40%"
    },
    "_margin_": [
        0,
        0,
        0,
        0
    ],
    "_padding_": [
        0,
        0,
        0,
        0
    ],
    "_placeholder_": "",
    "_right_": {
        "type": "string",
        "value": "14%"
    },
    "_skin_": "s74680073b0348c4b52a2530f0050643",
    "_text_": "",
    "autocapitalize": "none",
    "autocomplete": false,
    "autocorrect": false,
    "autofilter": false,
    "canUpdateUI": true,
    "centery": {
        "type": "string",
        "value": "50%"
    },
    "containerheight": "",
    "containerheightmode": 1,
    "containerweight": 100,
    "contentalignment": 4,
    "focusskin": "s74680073b0348c4b52a2530f0050643",
    "id": "tbxEnterCVVCode",
    "info": null,
    "isvisible": true,
    "keyboardtype": "A",
    "kuid": "d42fe3ad1bd6430d8f6c2aee97f91eb9",
    "mode": "A",
    "name": "kony.ui.TextBox2",
    "paddinginpixel": false,
    "parent": "flxEnterCVVCodes",
    "pf": "userwidgetmodel",
    "placeholderi18n": "i18n.MFA.EnterSecureAccessCode",
    "securetextentry": true,
    "textinputmode": "A",
    "viewtype": "default",
    "wType": "TextField",
    "zindex": 1
}