{
    "@class": "com.kony.gen.viz.model.component.KVizButton",
    "DNDConfig": null,
    "__parentReadjusting__": false,
    "_height_": {
        "type": "string",
        "value": "40px"
    },
    "_left_": {
        "type": "string",
        "value": "64%"
    },
    "_margin_": [
        6,
        6,
        6,
        6
    ],
    "_padding_": [
        0,
        0,
        0,
        0
    ],
    "_right_": {
        "type": "number",
        "value": ""
    },
    "_skin_": "s3681a7211a345fba79d7013af78ba93",
    "_text_": "ADD ACCOUNT",
    "_top_": {
        "type": "string",
        "value": "0px"
    },
    "_width_": {
        "type": "string",
        "value": "32.40%"
    },
    "accessibilityconfig": {
        "a11yLabel": "Next"
    },
    "canUpdateUI": true,
    "containerweight": 100,
    "contentalignment": 5,
    "desktopweb": {
        "psp": {
            "hoverSkin": "s3681a7211a345fba79d7013af78ba93"
        }
    },
    "displaytext": true,
    "focusskin": "s3681a7211a345fba79d7013af78ba93",
    "id": "btnNext",
    "info": null,
    "isvisible": true,
    "kuid": "gb7b221c664e441c8866fe63c6ce7849",
    "name": "kony.ui.Button",
    "parent": "flxButtons",
    "pf": "frmMakeOneTimePayee",
    "responsiveData": {
        "b1": {
            "top": {
                "type": "string",
                "value": "30dp"
            }
        },
        "b2": {
            "left": {
                "type": "string",
                "value": ""
            },
            "right": {
                "type": "string",
                "value": "3%"
            },
            "top": {
                "type": "string",
                "value": "30px"
            },
            "width": {
                "type": "string",
                "value": "28%"
            }
        },
        "b3": {
            "left": {
                "type": "string",
                "value": "2.50%"
            },
            "top": {
                "type": "string",
                "value": "20dp"
            },
            "width": {
                "type": "string",
                "value": "95%"
            }
        },
        "b4": {
            "top": {
                "type": "string",
                "value": "30dp"
            }
        }
    },
    "texti18n": "i18n.common.next",
    "tooltip": "Next",
    "wType": "Button",
    "zindex": 1
}