{
    "@class": "com.kony.gen.viz.model.component.KVizListBox",
    "DNDConfig": null,
    "__parentReadjusting__": false,
    "_height_": {
        "type": "string",
        "value": "50dp"
    },
    "_left_": {
        "type": "string",
        "value": "25.30%"
    },
    "_margin_": [
        0,
        0,
        0,
        0
    ],
    "_padding_": [
        1,
        0,
        0,
        0
    ],
    "_skin_": "s75f6ba84f4e4ef7a57963870d9bcd48",
    "_top_": {
        "type": "string",
        "value": "0dp"
    },
    "_width_": {
        "type": "string",
        "value": "49.20%"
    },
    "canUpdateUI": true,
    "containerweight": 100,
    "contentalignment": 4,
    "context": {
        "channel": "desktop",
        "formID": "uw5514daf4719841ebb059096e6ebef5c8",
        "platform": "desktopweb",
        "templateType": "userwidgets",
        "topLevelBox": null
    },
    "desktopweb": {},
    "groupcells": false,
    "id": "listbxAccFrSending",
    "info": null,
    "isvisible": false,
    "kuid": "765d1248891b493dbfe5438686376ab3",
    "masterdata": [
        [
            "Key424",
            "Choose an Account"
        ]
    ],
    "name": "kony.ui.ListBox",
    "paddinginpixel": false,
    "parent": "flxAccoFrSending",
    "pf": "userwidgetmodel",
    "selectedkeys": null,
    "selectedkeyvalue": null,
    "selectedkeyvalues": null,
    "size": 18,
    "viewconfig": {
        "toggleViewConfig": {
            "viewStyle": 0
        }
    },
    "viewtype": 0,
    "wType": "ListBox",
    "zindex": 1,
    "focusskin": "s9eb08f78097439eb767801e8fdeb5cd"
}