{
	 "@class": "com.kony.gen.viz.model.component.KVizImage2",
	 "DNDConfig": null,
	 "__parentReadjusting__": false,
	 "_base64_": null,
	 "_height_": {
		 "type": "string",
		 "value": "7dp"
	},
	 "_left_": {
		 "type": "string",
		 "value": "46.30%"
	},
	 "_margin_": [
		 0,
		 0,
		 0,
		 0
	],
	 "_padding_": [
		 0,
		 0,
		 0,
		 0
	],
	 "_skin_": "s78a5f26c9f14cec9ebed1bb46098f80",
	 "_src_": "arrow_down.png",
	 "_width_": {
		 "type": "string",
		 "value": "14dp"
	},
	 "accessibilityconfig": {
		 "a11yLabel": "Section Dropdown",
		 "a11yValue": ""
	},
	 "canUpdateUI": true,
	 "centery": {
		 "type": "string",
		 "value": "50%"
	},
	 "containerId": true,
	 "containerweight": 100,
	 "context": {
		 "channel": "desktop",
		 "platform": "desktopweb",
		 "templateType": "segments",
		 "topLevelBox": null
	},
	 "id": "imgDropdown",
	 "imagescalemode": 1,
	 "imagewhiledownloading": "img_transparent.png",
	 "info": null,
	 "isvisible": true,
	 "kuid": "bd504e2b2c744946a13bd0d2bafd8fc8",
	 "name": "kony.ui.Image2",
	 "parent": "flxDropdown",
	 "pf": "segBillPayScheduledMobile",
	 "srcType": 1,
	 "tooltip": "View Transaction Details",
	 "wType": "Image",
	 "widgetalignment": 5,
	 "zindex": 1
}