{
    "@class": "com.kony.gen.viz.model.component.KVizUserWidget",
    "DNDConfig": null,
    "__parentReadjusting__": false,
    "_children_": [],
    "_height_": {
        "type": "ref",
        "value": "preferred"
    },
    "_left_": {
        "type": "string",
        "value": "0dp"
    },
    "_margin_": [
        0,
        0,
        0,
        0
    ],
    "_orientation_": 1,
    "_padding_": [
        0,
        0,
        0,
        0
    ],
    "_percent_": true,
    "_render_": true,
    "_skin_": "s24c92fc23b14f5484b693ee9b8a9b35",
    "_top_": {
        "type": "string",
        "value": "20dp"
    },
    "_width_": {
        "type": "string",
        "value": "100%"
    },
    "areflexpropsreferenced": false,
    "autogrowmode": 1,
    "canUpdateUI": true,
    "clipbounds": true,
    "containerweight": 0,
    "dataDiffs": {
        "flxContainer": {
            "__events__": {},
            "__info__": {
                "kuid": "da2895e82a0041388c60c2892b04cc97",
                "srcKUID": "f13dc08cac9b42cf84a6cd0eb46e5de8",
                "wType": "FlexContainer"
            }
        },
        "flxInfo": {
            "__events__": {},
            "__info__": {
                "kuid": "fe75eb7a568c42c49ba788ce2173f0e1",
                "srcKUID": "e95f6b8ffb5f415db6652af917c31c62",
                "wType": "FlexContainer"
            }
        },
        "flxKey": {
            "__events__": {},
            "__info__": {
                "kuid": "ea44eefe34f344498b4afb9aa0ff3a1e",
                "srcKUID": "d4492c719df94445a861e97f34dc4949",
                "wType": "FlexContainer"
            },
            "left": {
                "Default": {
                    "type": "string",
                    "value": "3.50%"
                }
            },
            "width": {
                "Default": {
                    "type": "string",
                    "value": "20%"
                }
            }
        },
        "flxValue": {
            "__events__": {},
            "__info__": {
                "kuid": "h6fa8ee1306c4b77a4866cda07141709",
                "srcKUID": "b141325e5e9048519b71af002cfee26a",
                "wType": "FlexContainer"
            },
            "left": {
                "Default": {
                    "type": "string",
                    "value": "26.20%"
                }
            },
            "width": {
                "Default": {
                    "type": "string",
                    "value": "70%"
                }
            }
        },
        "imgWhatIsSSN": {
            "__events__": {},
            "__info__": {
                "kuid": "idf6c9dce6994846b291fa13e77280bc",
                "srcKUID": "f54ec2da1e9d451d9345687646b48cc3",
                "wType": "Image"
            }
        },
        "keyValue": {
            "__events__": {},
            "__info__": {
                "isRoot": true,
                "kuid": "d6b2e105d3514a049525cd171dd4cd3f",
                "srcKUID": "cc43b83fad51498eaee44e391076b1e1",
                "wType": "FlexContainer"
            },
            "top": {
                "Default": {
                    "type": "string",
                    "value": "20dp"
                }
            }
        },
        "lblColon": {
            "__events__": {},
            "__info__": {
                "kuid": "d7fb210098da42a69b91c2aed42f5e68",
                "srcKUID": "c1b15d6a704e4365be1c4ff0a75c3f55",
                "wType": "Label"
            },
            "isVisible": false
        },
        "lblKey": {
            "__events__": {},
            "__info__": {
                "kuid": "h38b07d1c53a49eb8ba554eb33ae585f",
                "srcKUID": "daa1384a75084c57b8a708d751b05837",
                "wType": "Label"
            }
        },
        "lblValue": {
            "__events__": {},
            "__info__": {
                "kuid": "acc79ad3cc6845709f6bbefdce090bfd",
                "srcKUID": "had7006a19c947e7ae413b191f0cc841",
                "wType": "Label"
            }
        }
    },
    "id": "keyValue3",
    "info": null,
    "iscustomlayout": false,
    "isdatareferenced": false,
    "isvisible": true,
    "kuid": "i810ddf41d834899a53cbed4b16a48d9",
    "layouttype": 2,
    "masterType": 0,
    "name": "kony.ui.UserWidgetInstance",
    "parent": "flxKeyValues",
    "pf": "userwidgetmodel",
    "retaincontentalignment": false,
    "retainflexpositionproperties": false,
    "snaptogrid": true,
    "sourceUserWidget": "cc43b83fad51498eaee44e391076b1e1",
    "wType": "UserWidgetInstance"
}