{
    "DNDConfig": null,
    "__parentReadjusting__": false,
    "_height_": {
        "type": "string",
        "value": "60dp"
    },
    "_left_": {
        "type": "string",
        "value": "0dp"
    },
    "_margin_": [
        0,
        0,
        0,
        0
    ],
    "_orientation_": 6,
    "_padding_": [
        0,
        0,
        0,
        0
    ],
    "_percent_": true,
    "_skin_": "sc681e20fcca47828a35daf1b6ea5496",
    "_top_": {
        "type": "string",
        "value": "0dp"
    },
    "_width_": {
        "type": "string",
        "value": "100%"
    },
    "allboxes": [],
    "autogrowmode": 0,
    "canUpdateUI": true,
    "children": [
        "lblMyAccounts",
        "CopyflxSeperator0dfcbfe80de1946"
    ],
    "clipbounds": true,
    "containerweight": 100,
    "desktopweb": {
        "psp": {
            "hoverSkin": "s8be1958f0c74cfda5ca279b8413dd6d"
        }
    },
    "enablescrolling": true,
    "id": "flxMyAccounts",
    "info": null,
    "isvisible": true,
    "kuid": "ca3ec01e870a42fa9d98c44db4f89c47",
    "layouttype": 2,
    "name": "kony.ui.FlexContainer",
    "parent": "flxAccountsSubMenu",
    "pf": "userwidgetmodel",
    "snapgridsize": 10,
    "snaptogrid": true,
    "wType": "FlexContainer",
    "widgetalignment": 1,
    "zindex": 1
}