{
    "@class": "com.kony.gen.viz.model.component.KVizUserWidget",
    "DNDConfig": null,
    "__parentReadjusting__": false,
    "_android_": {},
    "_androidwearos_": {},
    "_children_": [],
    "_desktopweb_": {},
    "_height_": {
        "type": "ref",
        "value": "preferred"
    },
    "_ipad_": {},
    "_iphone_": {},
    "_kiosk_": {},
    "_left_": {
        "type": "string",
        "value": "1dp"
    },
    "_margin_": [
        0,
        0,
        0,
        0
    ],
    "_orientation_": 1,
    "_padding_": [
        0,
        0,
        0,
        0
    ],
    "_percent_": true,
    "_render_": true,
    "_responsiveData_": {
        "b3": {
            "isVisible": true
        }
    },
    "_skin_": "sdc143f0e5b64ae3a3f155f691c73fa7",
    "_spa_": {},
    "_spaan_": {},
    "_spaandroidtablet_": {},
    "_spabb_": {},
    "_spaip_": {},
    "_spaipad_": {},
    "_spamobile_": {},
    "_spatablet_": {},
    "_spawindowstablet_": {},
    "_spawinphone8_": {},
    "_tabrcandroid_": {},
    "_top_": "0dp",
    "_vizProps_": {
        "hidewidgethierarchy": false
    },
    "_width_": {
        "type": "string",
        "value": "100%"
    },
    "_windows10_": {},
    "_windows8_": {},
    "_winphone10_": {},
    "_winphone8_": {},
    "areflexpropsreferenced": false,
    "autogrowmode": 1,
    "canUpdateUI": true,
    "clipbounds": false,
    "containerweight": 0,
    "dataDiffs": {
        "EnterCVVModule": {
            "__events__": {},
            "__info__": {
                "isRoot": true,
                "kuid": "afefba48aad344c492fb16d80cb576e9",
                "srcKUID": "e35ac3c7ee6a4bffaf3be9527ab87a00",
                "wType": "FlexContainer"
            },
            "responsiveData": {
                "b3": {
                    "isVisible": true
                }
            }
        },
        "btnCancel": {
            "__events__": {},
            "__info__": {
                "kuid": "a3bb8503ebbc48eeac52da63f063dbcd",
                "srcKUID": "e2ce91e00ca3401991fa50eeaa0b6d7e",
                "wType": "Button"
            },
            "bottom": {},
            "height": {
                "Default": {
                    "type": "string",
                    "value": "40dp"
                }
            },
            "i18n_text": "i18n.transfers.Cancel",
            "left": {},
            "responsiveData": {
                "b3": {
                    "bottom": {
                        "type": "string",
                        "value": ""
                    },
                    "left": {
                        "type": "string",
                        "value": "10dp"
                    },
                    "right": {
                        "type": "string",
                        "value": "10dp"
                    },
                    "top": {
                        "type": "string",
                        "value": "80dp"
                    },
                    "width": {
                        "type": "string",
                        "value": ""
                    }
                }
            },
            "right": {},
            "top": {},
            "width": {}
        },
        "btnProceed": {
            "__events__": {},
            "__info__": {
                "kuid": "ab389e34f54a4e8a86e50eb9fb7c9845",
                "srcKUID": "c151aa3ddb624eedb92dd23afd8cfa87",
                "wType": "Button"
            },
            "bottom": {},
            "height": {
                "Default": {
                    "type": "string",
                    "value": "40dp"
                }
            },
            "i18n_text": "i18n.common.proceed",
            "left": {
                "Default": {
                    "type": "string",
                    "value": "76.8%"
                }
            },
            "responsiveData": {
                "b2": {
                    "left": {
                        "type": "string",
                        "value": ""
                    }
                },
                "b3": {
                    "bottom": {
                        "type": "string",
                        "value": ""
                    },
                    "left": {
                        "type": "string",
                        "value": "10dp"
                    },
                    "right": {
                        "type": "string",
                        "value": "10dp"
                    },
                    "top": {
                        "type": "string",
                        "value": "20dp"
                    },
                    "width": {
                        "type": "string",
                        "value": ""
                    }
                }
            },
            "right": {},
            "top": {},
            "width": {}
        },
        "flxActions": {
            "__events__": {},
            "__info__": {
                "kuid": "e84236834768499985040eca54c35e49",
                "srcKUID": "h23f0c4fa241458796efcd620e170f38",
                "wType": "FlexContainer"
            },
            "autogrowMode": {
                "Default": 0
            },
            "height": {},
            "responsiveData": {
                "b3": {
                    "height": {
                        "type": "string",
                        "value": "160dp"
                    }
                }
            }
        },
        "flxDefaultAccountForSending": {
            "__events__": {},
            "__info__": {
                "kuid": "f03686ca094a4ed5b3d73b85eebeadcf",
                "srcKUID": "a718cba4d1764215818f061ee2fe0953",
                "wType": "FlexContainer"
            }
        },
        "flxDefaultAccountForSendingInfo": {
            "__events__": {},
            "__info__": {
                "kuid": "idc806d19f5d45b094a0abf1e362a9ff",
                "srcKUID": "ade0ab4e99464b6da6109bcc65904e84",
                "wType": "FlexContainer"
            }
        },
        "flxEnterCVV": {
            "__events__": {},
            "__info__": {
                "kuid": "a023fe147e2644c7a3f8c187398f6f20",
                "srcKUID": "fe4a0780e0c94a2a8524c35610fc95c9",
                "wType": "FlexContainer"
            }
        },
        "flxEnterCVVCode": {
            "__events__": {},
            "__info__": {
                "kuid": "e1286e4e498d40198b4731f04824e63c",
                "srcKUID": "ef49dec3b3a84058bbd5c19af61f6b78",
                "wType": "FlexContainer"
            }
        },
        "flxEnterCVVCodeInfo": {
            "__events__": {},
            "__info__": {
                "kuid": "c4e36d3bf34c4275b5addd95f1aa1d37",
                "srcKUID": "b1150f1b137449f0a8f1de2b6ebf5995",
                "wType": "FlexContainer"
            }
        },
        "flxEnterCVVCodes": {
            "__events__": {},
            "__info__": {
                "kuid": "bf351d3027684e1e966f6fbc217bebaf",
                "srcKUID": "a06b1d8562e842d587411bbd0a217740",
                "wType": "FlexContainer"
            },
            "left": {},
            "responsiveData": {
                "b2": {
                    "left": {
                        "type": "string",
                        "value": "16%"
                    }
                },
                "b3": {
                    "left": {
                        "type": "string",
                        "value": "21%"
                    },
                    "width": {
                        "type": "string",
                        "value": "32%"
                    }
                }
            },
            "width": {}
        },
        "flxHeader": {
            "__events__": {},
            "__info__": {
                "kuid": "jf0c7c4982f9473093d0fe64c97b469f",
                "srcKUID": "f1d567858793450eb9df6876df707c59",
                "wType": "FlexContainer"
            }
        },
        "flxSeparator": {
            "__events__": {},
            "__info__": {
                "kuid": "dd05fbf4d21b4b7fab77a5ca18f30452",
                "srcKUID": "ac412654d8f6415a856df86bbc8c5e4e",
                "wType": "FlexContainer"
            }
        },
        "flxSeparator2": {
            "__events__": {},
            "__info__": {
                "kuid": "afdbd0545ef04540aaa7be5e53a71a3d",
                "srcKUID": "e1073d1e81ea48a280a0722189f28bdf",
                "wType": "FlexContainer"
            }
        },
        "flxWarningEnterCVV": {
            "__events__": {},
            "__info__": {
                "kuid": "dcb729a2310743059ca5559fbe60cafc",
                "srcKUID": "h83862e1f7984212b6b82a590de7ff08",
                "wType": "FlexContainer"
            },
            "responsiveData": {
                "b3": {
                    "isVisible": true
                }
            }
        },
        "imgDefaultAccountForSendingInfo": {
            "__events__": {},
            "__info__": {
                "kuid": "bdd38f6d8276456ab5e0d86b8e470fcf",
                "srcKUID": "i027b51a2b7a4239a559480c725f84f2",
                "wType": "Image"
            }
        },
        "imgEnterCVVCodeInfo": {
            "__events__": {},
            "__info__": {
                "kuid": "c0b43955a4094560b40c0d563b13ed96",
                "srcKUID": "g595c322e54846be901beaa3389f68e8",
                "wType": "Image"
            }
        },
        "imgViewCVVCode": {
            "__events__": {
                "ide_onTouchEnd": "AS_Image_fef64f781b8a42589fc133350c7d9458",
                "ide_onTouchStart": "AS_Image_dcf3b4d5b9674382bb37384d63c2a74d"
            },
            "__info__": {
                "kuid": "e08d582df490407abad34e90e2381a84",
                "srcKUID": "j0ec1694f805480d9ec820515a410132",
                "wType": "Image"
            }
        },
        "imgWarningEnterCVV": {
            "__events__": {},
            "__info__": {
                "kuid": "je079ab719ae43d798163f0de7395b1c",
                "srcKUID": "f745bb2abec24ad4ae6dc02520cec035",
                "wType": "Image"
            }
        },
        "lblDefaultAccountForSending": {
            "__events__": {},
            "__info__": {
                "kuid": "jd061c572a7d47669547ffbf09b4b445",
                "srcKUID": "fa1e0d35a0704af48b4c8ea2329cd940",
                "wType": "Label"
            },
            "left": {},
            "responsiveData": {
                "b3": {
                    "left": {
                        "type": "string",
                        "value": "2.30%"
                    },
                    "width": {
                        "type": "string",
                        "value": "35%"
                    }
                }
            },
            "top": {
                "Default": {
                    "type": "number",
                    "value": "18"
                }
            },
            "width": {}
        },
        "lblEnterCVVCode": {
            "__events__": {},
            "__info__": {
                "kuid": "b4eb0cdb40cd453d9662aafac398d4eb",
                "srcKUID": "bae9115121af4666b5ce91507b21c0cb",
                "wType": "Label"
            },
            "top": {
                "Default": {
                    "type": "number",
                    "value": "18"
                }
            }
        },
        "lblHeader": {
            "__events__": {},
            "__info__": {
                "kuid": "db28f04e876749f4bb73d810daa01e94",
                "srcKUID": "g862fe931c6f44c4bb592c1332e812e4",
                "wType": "Label"
            }
        },
        "lblHeading2": {
            "__events__": {},
            "__info__": {
                "kuid": "c4d7285c7c42421cb98985efd5d7313a",
                "srcKUID": "f52424e989344981bcac59610efeb494",
                "wType": "Label"
            },
            "responsiveData": {
                "b3": {
                    "right": {
                        "type": "string",
                        "value": ""
                    },
                    "width": {
                        "type": "string",
                        "value": "90%"
                    }
                }
            },
            "right": {},
            "width": {}
        },
        "lblNoteSecureAccessCode": {
            "__events__": {},
            "__info__": {
                "kuid": "ed2db8a19af24ba38b89665ad114c7af",
                "srcKUID": "ee1cb4ea56754ff1a9c60de086f73566",
                "wType": "Label"
            }
        },
        "lblWarningEnterCVV": {
            "__events__": {},
            "__info__": {
                "kuid": "icc3399a4e5d4b3e800db26c3c89c311",
                "srcKUID": "g59352b31c3b497a9537bd4bcde0e43d",
                "wType": "Label"
            },
            "responsiveData": {
                "b3": {
                    "width": {
                        "type": "string",
                        "value": "88%"
                    }
                }
            },
            "width": {}
        },
        "lbxDefaultAccountForSending": {
            "__events__": {},
            "__info__": {
                "kuid": "ic51bbe125d0432392ec44fc6db98c7d",
                "srcKUID": "c75fc8c8da654c3dbdd9c2dea8265ac1",
                "wType": "ListBox"
            },
            "left": {},
            "responsiveData": {
                "b2": {
                    "left": {
                        "type": "string",
                        "value": "4%"
                    }
                },
                "b3": {
                    "width": {
                        "type": "string",
                        "value": "32%"
                    }
                }
            },
            "width": {}
        },
        "tbxEnterCVVCode": {
            "__events__": {
                "desktopweb": {
                    "ide_onEndEditing": "AS_TextField_h3d5808ece124e0e85c2b94b1c9c9f35",
                    "ide_onKeyUp": "AS_TextField_h2941e0be42c4675a2c9d12792cc1263"
                }
            },
            "__info__": {
                "kuid": "a7e02391f0e9484d94850ef9cd0384db",
                "srcKUID": "ab0ec0f903c4452689a68a7933f4313d",
                "wType": "TextField"
            }
        }
    },
    "id": "EnterCVVModule",
    "info": null,
    "isdatareferenced": false,
    "isvisible": true,
    "kuid": "afefba48aad344c492fb16d80cb576e9",
    "layouttype": 4,
    "masterType": 0,
    "name": "kony.ui.UserWidgetInstance",
    "parent": "flxEnterCVVCode",
    "pf": "frmTransfersEur",
    "snaptogrid": true,
    "sourceUserWidget": "e35ac3c7ee6a4bffaf3be9527ab87a00",
    "vizprops": {
        "hidewidgethierarchy": false
    },
    "wType": "UserWidgetInstance"
}