{
    "DNDConfig": null,
    "__parentReadjusting__": false,
    "_bottom_": {
        "type": "number",
        "value": ""
    },
    "_height_": {
        "type": "ref",
        "value": "preferred"
    },
    "_left_": {
        "type": "string",
        "value": "6.07%"
    },
    "_margin_": [
        0,
        0,
        0,
        0
    ],
    "_orientation_": 6,
    "_padding_": [
        0,
        0,
        0,
        0
    ],
    "_percent_": true,
    "_right_": {
        "type": "number",
        "value": ""
    },
    "_skin_": "s24c92fc23b14f5484b693ee9b8a9b35",
    "_top_": {
        "type": "string",
        "value": "10px"
    },
    "_width_": {
        "type": "string",
        "value": "58.10%"
    },
    "allboxes": [],
    "autogrowmode": 1,
    "canUpdateUI": true,
    "children": [
        "transfermain",
        "flxRecipientsSegment"
    ],
    "clipbounds": false,
    "containerweight": 100,
    "enablescrolling": true,
    "id": "flxTrasfersWindow",
    "info": null,
    "isvisible": true,
    "kuid": "e741eb16cca74070945fd347498e5061",
    "layouttype": 2,
    "minheight": {
        "type": "string",
        "value": "596dp"
    },
    "name": "kony.ui.FlexContainer",
    "parent": "flxMainWrapper",
    "pf": "frmTransfersEur",
    "responsiveData": {
        "b1": {
            "bottom": {
                "type": "string",
                "value": "10dp"
            },
            "isVisible": true,
            "left": {
                "type": "string",
                "value": "6.07%"
            },
            "minHeight": {
                "type": "string",
                "value": ""
            },
            "skin": "s24c92fc23b14f5484b693ee9b8a9b35",
            "width": {
                "type": "string",
                "value": "58.10%"
            }
        },
        "b2": {
            "bottom": {
                "type": "string",
                "value": "10dp"
            },
            "isVisible": true,
            "left": {
                "type": "string",
                "value": "3.25%"
            },
            "minHeight": {
                "type": "string",
                "value": ""
            },
            "skin": "s24c92fc23b14f5484b693ee9b8a9b35",
            "top": {
                "type": "string",
                "value": "10px"
            },
            "width": {
                "type": "string",
                "value": "93.50%"
            }
        },
        "b3": {
            "height": {
                "type": "ref",
                "value": "preferred"
            },
            "isVisible": true,
            "layoutType": 2,
            "left": {
                "type": "string",
                "value": "0dp"
            },
            "minHeight": {
                "type": "string",
                "value": ""
            },
            "right": {
                "type": "string",
                "value": "0dp"
            },
            "skin": "s24c92fc23b14f5484b693ee9b8a9b35",
            "top": {
                "type": "string",
                "value": "0px"
            },
            "width": {
                "type": "string",
                "value": ""
            }
        },
        "b4": {
            "isVisible": true,
            "minHeight": {
                "type": "string",
                "value": ""
            },
            "skin": "s24c92fc23b14f5484b693ee9b8a9b35",
            "width": {
                "type": "string",
                "value": "58.10%"
            }
        },
        "b5": {
            "isVisible": true,
            "minHeight": {
                "type": "string",
                "value": ""
            }
        }
    },
    "snapgridsize": 10,
    "snaptogrid": true,
    "wType": "FlexContainer",
    "widgetalignment": 1,
    "zindex": 1
}