{
    "@class": "com.kony.gen.viz.model.component.KVizImage2",
    "DNDConfig": null,
    "__parentReadjusting__": false,
    "_base64_": null,
    "_height_": {
        "type": "string",
        "value": "25dp"
    },
    "_left_": {
        "type": "string",
        "value": "30dp"
    },
    "_margin_": [
        0,
        0,
        0,
        0
    ],
    "_padding_": [
        0,
        0,
        0,
        0
    ],
    "_skin_": "s78a5f26c9f14cec9ebed1bb46098f80",
    "_src_": "imagedrag.png",
    "_top_": {
        "type": "string",
        "value": "24dp"
    },
    "_width_": {
        "type": "string",
        "value": "25dp"
    },
    "accessibilityconfig": {
        "a11yARIA": {
            "tabindex": -1
        },
        "a11yHidden": true,
        "a11yValue": ""
    },
    "canUpdateUI": true,
    "centery": {
        "type": "string",
        "value": "40%"
    },
    "containerweight": 100,
    "id": "imgNoMatchesFound",
    "imagescalemode": 1,
    "info": null,
    "iscustomlayout": false,
    "isvisible": true,
    "kuid": "dfa28242b2444332943e523543458ecd",
    "name": "kony.ui.Image2",
    "parent": "flxNoMatchesFound",
    "pf": "frmTransfersEur",
    "responsiveData": {
        "b1": {
            "src": "error_yellow.png"
        },
        "b2": {
            "src": "error_yellow.png"
        },
        "b3": {
            "src": "error_yellow.png"
        },
        "b4": {
            "src": "error_yellow.png",
            "top": {
                "type": "string",
                "value": ""
            }
        },
        "b5": {
            "src": "error_yellow.png"
        }
    },
    "retaincontentalignment": false,
    "retainflexpositionproperties": false,
    "srcType": 1,
    "wType": "Image",
    "widgetalignment": 5,
    "zindex": 1
}