{
    "@class": "com.kony.gen.viz.model.component.KVizLabel",
    "DNDConfig": null,
    "__parentReadjusting__": false,
    "_height_": {
        "type": "ref",
        "value": "preferred"
    },
    "_left_": {
        "type": "string",
        "value": "70dp"
    },
    "_margin_": [
        1,
        1,
        1,
        1
    ],
    "_padding_": [
        0,
        0,
        0,
        0
    ],
    "_skin_": "s7b901f0589e4cbd914447ed46411bf5",
    "_text_": "No Matches Found. \nPlease enter your Account Number and Proceed",
    "_top_": {
        "type": "string",
        "value": "27dp"
    },
    "_width_": {
        "type": "ref",
        "value": "preferred"
    },
    "_wrapping_": 2,
    "android": {
        "textStyle": {
            "letterSpacing": 0,
            "strikeThrough": false
        }
    },
    "canUpdateUI": true,
    "containerweight": 100,
    "contentalignment": 4,
    "id": "lblNoMatchesFound",
    "info": null,
    "ipad": {
        "psp": {
            "wrapping": 2
        }
    },
    "iphone": {
        "psp": {
            "wrapping": 2
        }
    },
    "iscustomlayout": false,
    "isvisible": true,
    "kuid": "cdce61a26dad40c9b537659f34040e54",
    "name": "kony.ui.Label",
    "parent": "flxNoMatchesFound",
    "pf": "frmTransfersEur",
    "responsiveData": {
        "b1": {
            "skin": "s7b901f0589e4cbd914447ed46411bf5"
        },
        "b2": {
            "skin": "s7b901f0589e4cbd914447ed46411bf5"
        },
        "b3": {
            "skin": "s7b901f0589e4cbd914447ed46411bf5",
            "width": {
                "type": "string",
                "value": "85%"
            }
        },
        "b4": {
            "skin": "s7b901f0589e4cbd914447ed46411bf5"
        },
        "b5": {
            "skin": "s7b901f0589e4cbd914447ed46411bf5"
        }
    },
    "retaincontentalignment": false,
    "retainflexpositionproperties": false,
    "tooltip": "",
    "wType": "Label",
    "zindex": 1
}