{
    "@class": "com.kony.gen.viz.model.component.KVizUserWidget",
    "DNDConfig": null,
    "__parentReadjusting__": false,
    "_android_": {},
    "_androidwearos_": {},
    "_children_": [],
    "_desktopweb_": {},
    "_height_": {
        "type": "ref",
        "value": "preferred"
    },
    "_ipad_": {},
    "_iphone_": {},
    "_kiosk_": {},
    "_left_": {
        "type": "string",
        "value": "1dp"
    },
    "_margin_": [
        0,
        0,
        0,
        0
    ],
    "_orientation_": 1,
    "_padding_": [
        0,
        0,
        0,
        0
    ],
    "_percent_": true,
    "_render_": true,
    "_responsiveData_": {},
    "_skin_": "sdc143f0e5b64ae3a3f155f691c73fa7",
    "_spa_": {},
    "_spaan_": {},
    "_spaandroidtablet_": {},
    "_spabb_": {},
    "_spaip_": {},
    "_spaipad_": {},
    "_spamobile_": {},
    "_spatablet_": {},
    "_spawindowstablet_": {},
    "_spawinphone8_": {},
    "_tabrcandroid_": {},
    "_top_": "0dp",
    "_vizProps_": {
        "hidewidgethierarchy": false
    },
    "_width_": {
        "type": "string",
        "value": "100%"
    },
    "_windows10_": {},
    "_windows8_": {},
    "_winphone10_": {},
    "_winphone8_": {},
    "areflexpropsreferenced": false,
    "autogrowmode": 1,
    "canUpdateUI": true,
    "clipbounds": false,
    "containerweight": 0,
    "dataDiffs": {
        "LetsAuthenticate": {
            "__events__": {},
            "__info__": {
                "isRoot": true,
                "kuid": "b61b97810ab44a9888788148a4dced03",
                "srcKUID": "c110f31ce6a342ed93e196fc53ae6d8f",
                "wType": "FlexContainer"
            }
        },
        "btnCancel": {
            "__events__": {},
            "__info__": {
                "kuid": "g974575673884f98924b574023174939",
                "srcKUID": "d6c5e9ebe58d454ca1a0ed9f994b9e9d",
                "wType": "Button"
            },
            "height": {
                "Default": {
                    "type": "string",
                    "value": "40dp"
                }
            },
            "i18n_text": "i18n.transfers.Cancel",
            "left": {},
            "responsiveData": {
                "b3": {
                    "left": {
                        "type": "string",
                        "value": "10dp"
                    },
                    "right": {
                        "type": "string",
                        "value": "10dp"
                    },
                    "top": {
                        "type": "string",
                        "value": "80dp"
                    },
                    "width": {
                        "type": "string",
                        "value": ""
                    }
                }
            },
            "right": {},
            "top": {},
            "width": {}
        },
        "btnProceed": {
            "__events__": {},
            "__info__": {
                "kuid": "a9389ac60d704579a0c2e40997354a19",
                "srcKUID": "a390d49d5d9e4a25a793214eebc32426",
                "wType": "Button"
            },
            "height": {
                "Default": {
                    "type": "string",
                    "value": "40dp"
                }
            },
            "i18n_text": "i18n.common.proceed",
            "left": {
                "Default": {
                    "type": "string",
                    "value": "76.8%"
                }
            },
            "responsiveData": {
                "b2": {
                    "left": {
                        "type": "string",
                        "value": ""
                    }
                },
                "b3": {
                    "left": {
                        "type": "string",
                        "value": "10dp"
                    },
                    "right": {
                        "type": "string",
                        "value": "10dp"
                    },
                    "top": {
                        "type": "string",
                        "value": "20dp"
                    },
                    "width": {
                        "type": "string",
                        "value": ""
                    }
                }
            },
            "right": {},
            "top": {},
            "width": {}
        },
        "btnProfileSetting": {
            "__events__": {},
            "__info__": {
                "kuid": "b60a0c1138164b069183afda2d88afb5",
                "srcKUID": "a0a8589a83fc4c93acb891384e93e398",
                "wType": "Button"
            }
        },
        "flxActions": {
            "__events__": {},
            "__info__": {
                "kuid": "dafd7f7c441e4bcf80a3a294640bfde2",
                "srcKUID": "c18056c1885a469b8b7167178d91ae17",
                "wType": "FlexContainer"
            },
            "autogrowMode": {
                "Default": 0
            },
            "height": {},
            "responsiveData": {
                "b3": {
                    "height": {
                        "type": "string",
                        "value": "160dp"
                    }
                }
            }
        },
        "flxCheckBoxPhoneNo": {
            "__events__": {},
            "__info__": {
                "kuid": "h31b191eb4b64711be59c94bfb9c767a",
                "srcKUID": "bb65a12df78b4ea1b5745013a3812f2e",
                "wType": "FlexContainer"
            }
        },
        "flxCheckboxEmailId": {
            "__events__": {},
            "__info__": {
                "kuid": "f4cec18318084cd2a3680fe3378cd891",
                "srcKUID": "a1a9feb097fc4de79085c30cae06b133",
                "wType": "FlexContainer"
            }
        },
        "flxDetails": {
            "__events__": {},
            "__info__": {
                "kuid": "fae26ee5da244130bcb6f7206024f1f2",
                "srcKUID": "aefbe13b53194acfb9d0aae6baa63d7f",
                "wType": "FlexContainer"
            }
        },
        "flxHeader": {
            "__events__": {},
            "__info__": {
                "kuid": "ja4ae45777c44cbcbf5216d72ce64034",
                "srcKUID": "ib9d03e44e744af88f062a94dcd1efde",
                "wType": "FlexContainer"
            }
        },
        "flxProfileSetting": {
            "__events__": {},
            "__info__": {
                "kuid": "ga8c147ccd6045ca92fee48a3c03757d",
                "srcKUID": "d24d179578c54533b1b15ed5025a24dd",
                "wType": "FlexContainer"
            }
        },
        "flxRegisteredEmailId": {
            "__events__": {},
            "__info__": {
                "kuid": "d79c83aa36a04db39de9f0a4a1f4590e",
                "srcKUID": "b9acf9ab55c6446093ba55f15a723f9d",
                "wType": "FlexContainer"
            }
        },
        "flxRegisteredPhoneNo": {
            "__events__": {},
            "__info__": {
                "kuid": "a04f9b26c5d4460899639c716c54c1c0",
                "srcKUID": "ad4018780fa34e558f6648ac96379d39",
                "wType": "FlexContainer"
            }
        },
        "flxSeparator": {
            "__events__": {},
            "__info__": {
                "kuid": "baa93de5b3654695ba1ddb08f77429ca",
                "srcKUID": "g45a48792a344617a66466029c804983",
                "wType": "FlexContainer"
            }
        },
        "flxSeparator2": {
            "__events__": {},
            "__info__": {
                "kuid": "b6e622431a4d4db083fae6e6b40292c7",
                "srcKUID": "c132a9d87a2d4399a0ec03d9b31cd00a",
                "wType": "FlexContainer"
            }
        },
        "imgCheckBoxPhoneNo": {
            "__events__": {},
            "__info__": {
                "kuid": "b5b8b692a2d44cdfa808fc31d55eb6a7",
                "srcKUID": "d153b419fbfe4e619b377a9bc6a65eae",
                "wType": "Image"
            }
        },
        "imgCheckboxEmailId": {
            "__events__": {},
            "__info__": {
                "kuid": "ad59284e9b7d458ba380ef137782f295",
                "srcKUID": "e04d639c4030433898502072ba5575d3",
                "wType": "Image"
            }
        },
        "lblChangeReceivingMedium": {
            "__events__": {},
            "__info__": {
                "kuid": "ie738b1277e84c4990bf36ffa0b4aa49",
                "srcKUID": "b8756d17655a462ebc648f0cd830b40f",
                "wType": "Label"
            }
        },
        "lblCloseBrace": {
            "__events__": {},
            "__info__": {
                "kuid": "ab0b4ebdcaa94d62bc3dcc17c4a68129",
                "srcKUID": "hdc925593da046d7b18f9480343a5af3",
                "wType": "Label"
            }
        },
        "lblCloseBracePhoneNo": {
            "__events__": {},
            "__info__": {
                "kuid": "e1b67f08da83496cbb48f8f052ee3ee3",
                "srcKUID": "e73c83d0369c41708b15ac589c34927a",
                "wType": "Label"
            }
        },
        "lblHeader": {
            "__events__": {},
            "__info__": {
                "kuid": "gc1b7dd7f1ae48e9932f993aab63b035",
                "srcKUID": "b29f289e898d4085bd3776fc03f87654",
                "wType": "Label"
            }
        },
        "lblHeading1": {
            "__events__": {},
            "__info__": {
                "kuid": "de71e7555adb445cb04e7c45b3284053",
                "srcKUID": "de4c99c07c0b4ac2a18238bbd4fff9bf",
                "wType": "Label"
            }
        },
        "lblHeading2": {
            "__events__": {},
            "__info__": {
                "kuid": "c1c1179314ec4fe49f3568841ebeeaea",
                "srcKUID": "e71fac16f420444e9550a8e9d3d2b169",
                "wType": "Label"
            }
        },
        "lblNoteSecureAccessCode": {
            "__events__": {},
            "__info__": {
                "kuid": "b4fa5d08ef074dc686f404d570323996",
                "srcKUID": "j87f2012feeb4bfaaa1be3e332445685",
                "wType": "Label"
            }
        },
        "lblOpenBrace": {
            "__events__": {},
            "__info__": {
                "kuid": "ff3685d819844bf88d39ef597c70e07b",
                "srcKUID": "dafcf44392f44a55b683bd77a6b46cd5",
                "wType": "Label"
            }
        },
        "lblOpenBracePhoneNo": {
            "__events__": {},
            "__info__": {
                "kuid": "ha5cb76168fe4df2823c1cf70e2bede6",
                "srcKUID": "g69c29a21d844a408b9e506a2e213b64",
                "wType": "Label"
            }
        },
        "lblPhoneNo": {
            "__events__": {},
            "__info__": {
                "kuid": "b131a8c436a04ca3ab7ab26e4e9a23d3",
                "srcKUID": "a46e4ab7fa004db0a34f8b56c15eb18c",
                "wType": "Label"
            }
        },
        "lblRegisteredEmailIDs": {
            "__events__": {},
            "__info__": {
                "kuid": "cd7ab89fb9614fc69d4f34d696600b27",
                "srcKUID": "e40ace0b297843e399f4d43ed49b6fae",
                "wType": "Label"
            }
        },
        "lblRegisteredEmailId": {
            "__events__": {},
            "__info__": {
                "kuid": "ca86ad1fffbb4943ab8b6b7bce10bff2",
                "srcKUID": "j8cf773e75c4411ea2c2e0c1aed82392",
                "wType": "Label"
            }
        },
        "lblRegisteredPhoneNo": {
            "__events__": {},
            "__info__": {
                "kuid": "bd49a3f9e8b441fa953361be42a65ea1",
                "srcKUID": "f6a1c34450644c2cad46e2bc9793d078",
                "wType": "Label"
            }
        }
    },
    "id": "LetsAuthenticateSecureAccessCode",
    "info": null,
    "isdatareferenced": false,
    "isvisible": true,
    "kuid": "b61b97810ab44a9888788148a4dced03",
    "layouttype": 4,
    "masterType": 0,
    "name": "kony.ui.UserWidgetInstance",
    "parent": "flxOptionToRecieveAccessCode",
    "pf": "frmTransfersEur",
    "snaptogrid": true,
    "sourceUserWidget": "c110f31ce6a342ed93e196fc53ae6d8f",
    "vizprops": {
        "hidewidgethierarchy": false
    },
    "wType": "UserWidgetInstance"
}