{
    "@class": "com.kony.gen.viz.model.component.KVizUserWidget",
    "DNDConfig": null,
    "__parentReadjusting__": false,
    "_android_": {},
    "_androidwearos_": {},
    "_children_": [],
    "_desktopweb_": {},
    "_height_": {
        "type": "string",
        "value": "100%"
    },
    "_ipad_": {},
    "_iphone_": {},
    "_kiosk_": {},
    "_left_": "0dp",
    "_margin_": [
        0,
        0,
        0,
        0
    ],
    "_orientation_": 1,
    "_padding_": [
        0,
        0,
        0,
        0
    ],
    "_percent_": true,
    "_render_": true,
    "_responsiveData_": {},
    "_skin_": "sac80c61f28a4b73954e03b8f1c01e91",
    "_spa_": {},
    "_spaan_": {},
    "_spaandroidtablet_": {},
    "_spabb_": {},
    "_spaip_": {},
    "_spaipad_": {},
    "_spamobile_": {},
    "_spatablet_": {},
    "_spawindowstablet_": {},
    "_spawinphone8_": {},
    "_tabrcandroid_": {},
    "_top_": {
        "type": "string",
        "value": "0dp"
    },
    "_vizProps_": {
        "hidewidgethierarchy": false
    },
    "_width_": {
        "type": "string",
        "value": "100%"
    },
    "_windows10_": {},
    "_windows8_": {},
    "_winphone10_": {},
    "_winphone8_": {},
    "areflexpropsreferenced": false,
    "autogrowmode": 0,
    "canUpdateUI": true,
    "clipbounds": true,
    "containerweight": 0,
    "dataDiffs": {
        "btnClose": {
            "__events__": {
                "ide_onClick": "AS_Button_i7d76100d0484e04aa9bcc72096b1aee"
            },
            "__info__": {
                "kuid": "h4fa0231eb9f4dbeb48330721561e761",
                "srcKUID": "54158461e7144e7585022fa4467f17b7",
                "wType": "Button"
            }
        },
        "flxFlip": {
            "__events__": {},
            "__info__": {
                "kuid": "da889459013c47f1bb5479f72378114e",
                "srcKUID": "i7c45985f4384345b335ebca746babaa",
                "wType": "FlexContainer"
            }
        },
        "flxHeader": {
            "__events__": {},
            "__info__": {
                "kuid": "d3bcf5bfee5b40a1b451e60bf9c93414",
                "srcKUID": "514f71af02d64d759024ec240acd8c91",
                "wType": "FlexContainer"
            }
        },
        "flxImageContainer": {
            "__events__": {},
            "__info__": {
                "kuid": "cadd848d15ee461ab9d4a81958c21aec",
                "srcKUID": "a1f79217369a4d2e8110e9b6d808c88c",
                "wType": "FlexContainer"
            },
            "autogrowMode": {
                "Default": 0
            },
            "height": {},
            "left": {
                "Default": {
                    "type": "string",
                    "value": "0dp"
                }
            },
            "responsiveData": {
                "b2": {
                    "height": {
                        "type": "string",
                        "value": "530dp"
                    }
                },
                "b3": {
                    "height": {
                        "type": "string",
                        "value": "500dp"
                    }
                }
            }
        },
        "flxImageHolder": {
            "__events__": {},
            "__info__": {
                "kuid": "cd80c87ede0d4d4687a0d5400cd30d3f",
                "srcKUID": "d2addce8b4774f6fb0a35b0a16bb6e3b",
                "wType": "FlexContainer"
            },
            "responsiveData": {
                "b1": {
                    "isVisible": false
                },
                "b2": {
                    "isVisible": false,
                    "right": {
                        "type": "string",
                        "value": "30dp"
                    }
                },
                "b3": {
                    "isVisible": false,
                    "right": {
                        "type": "string",
                        "value": "10dp"
                    }
                },
                "b4": {
                    "isVisible": false
                },
                "b5": {
                    "isVisible": false
                }
            },
            "right": {}
        },
        "flxNote": {
            "__events__": {},
            "__info__": {
                "kuid": "e9b51b8583824158b21946a0ac3022cf",
                "srcKUID": "i55c6542f3f94e34836f02f0ed3c5cd0",
                "wType": "FlexContainer"
            },
            "autogrowMode": {
                "Default": 0
            },
            "height": {},
            "responsiveData": {
                "b1": {
                    "height": {
                        "type": "string",
                        "value": "82dp"
                    },
                    "width": {
                        "type": "string",
                        "value": "100%"
                    }
                },
                "b5": {
                    "isVisible": true
                }
            },
            "width": {}
        },
        "flxPrint": {
            "__events__": {},
            "__info__": {
                "kuid": "id49d3f85cd14ddeb72a8bbb3f885ec6",
                "srcKUID": "bbfc8634e6364383a74cb013aec30ea9",
                "wType": "FlexContainer"
            }
        },
        "flxSeparator": {
            "__events__": {},
            "__info__": {
                "kuid": "b50fb8bcac5a445990a86ed08ba81c48",
                "srcKUID": "ac22503863594909b9535065f80281cc",
                "wType": "FlexContainer"
            }
        },
        "flxViewReportWrapper": {
            "__events__": {},
            "__info__": {
                "kuid": "ee4220557b27454482f683013c78ae48",
                "srcKUID": "8476d61910f44ec7874f08820625816e",
                "wType": "FlexContainer"
            },
            "autogrowMode": {
                "Default": 0
            },
            "bottom": {},
            "centerY": {
                "Default": {
                    "type": "string",
                    "value": ""
                }
            },
            "height": {},
            "left": {},
            "responsiveData": {
                "b1": {
                    "height": {
                        "type": "string",
                        "value": "764dp"
                    }
                },
                "b2": {
                    "height": {
                        "type": "string",
                        "value": "664dp"
                    },
                    "left": {
                        "type": "string",
                        "value": "10dp"
                    },
                    "right": {
                        "type": "string",
                        "value": "10dp"
                    },
                    "width": {
                        "type": "string",
                        "value": ""
                    },
                    "zIndex": 1
                },
                "b3": {
                    "bottom": {
                        "type": "string",
                        "value": ""
                    },
                    "height": {
                        "type": "string",
                        "value": "634dp"
                    },
                    "left": {
                        "type": "string",
                        "value": "10dp"
                    },
                    "right": {
                        "type": "string",
                        "value": "10dp"
                    },
                    "top": {
                        "type": "string",
                        "value": "230dp"
                    },
                    "width": {
                        "type": "string",
                        "value": ""
                    }
                }
            },
            "right": {},
            "top": {
                "Default": {
                    "type": "string",
                    "value": "230dp"
                }
            },
            "width": {},
            "zIndex": {}
        },
        "flxZoom": {
            "__events__": {},
            "__info__": {
                "kuid": "cd4e1ddb0d7340699f3d801482426e89",
                "srcKUID": "eb0ac23083e347d299df7eca8b24c060",
                "wType": "FlexContainer"
            }
        },
        "imgReport": {
            "__events__": {},
            "__info__": {
                "kuid": "h1a8fa99efd040efb3e520ae8f68e3fc",
                "srcKUID": "f6c8ce7062a84bb4aac770ef7c8e6c3b",
                "wType": "Image"
            },
            "left": {},
            "responsiveData": {
                "b1": {
                    "left": {
                        "type": "string",
                        "value": "0dp"
                    },
                    "width": {
                        "type": "string",
                        "value": "100%"
                    }
                },
                "b2": {
                    "left": {
                        "type": "string",
                        "value": "5%"
                    },
                    "right": {
                        "type": "string",
                        "value": ""
                    },
                    "width": {
                        "type": "string",
                        "value": "90%"
                    }
                },
                "b3": {
                    "left": {
                        "type": "string",
                        "value": "0dp"
                    },
                    "right": {
                        "type": "string",
                        "value": ""
                    },
                    "width": {
                        "type": "string",
                        "value": "100%"
                    }
                },
                "b4": {
                    "left": {
                        "type": "string",
                        "value": "1.50%"
                    },
                    "right": {
                        "type": "string",
                        "value": "1.50%"
                    },
                    "width": {
                        "type": "string",
                        "value": "97%"
                    }
                },
                "b5": {
                    "left": {
                        "type": "string",
                        "value": "0dp"
                    },
                    "width": {
                        "type": "string",
                        "value": "100%"
                    }
                }
            },
            "right": {},
            "width": {}
        },
        "lblHeader": {
            "__events__": {},
            "__info__": {
                "kuid": "b094651fb35f4811a3cc0404ac70a4cf",
                "srcKUID": "dca7cb12777e444ba690cae35c95cb64",
                "wType": "Label"
            },
            "i18n_text": "i18n.transfers.viewReport",
            "left": {},
            "responsiveData": {
                "b1": {
                    "left": {
                        "type": "string",
                        "value": "5.50%"
                    }
                },
                "b4": {
                    "left": {
                        "type": "string",
                        "value": "5.50%"
                    }
                },
                "b5": {
                    "left": {
                        "type": "string",
                        "value": "5.50%"
                    }
                }
            }
        },
        "lblNote": {
            "__events__": {},
            "__info__": {
                "kuid": "eb06c3f207b54829b346ede440460432",
                "srcKUID": "g781850271df47ebb66fb72db503a7a7",
                "wType": "Label"
            },
            "left": {},
            "responsiveData": {
                "b1": {
                    "width": {
                        "type": "string",
                        "value": "100%"
                    }
                },
                "b2": {
                    "left": {
                        "type": "string",
                        "value": "5%"
                    },
                    "width": {
                        "type": "string",
                        "value": "90%"
                    }
                },
                "b3": {
                    "left": {
                        "type": "string",
                        "value": "2%"
                    },
                    "text": " Lorem ipsum dolor sit amet, consectetur adipising elit. Aenean euismod bibendum laoreet. Proin gravida dolor sit amet lacus accumsan et viverra justo commodo.Proin sodales pulvinar tempor. Cum sociis antoque penatibus et magnis dis parturient montes, Nam fermentum, nulla luctus pharetra vulputate, fellis tellus mollis orci, sed rhoncus sapien nunc eget. ",
                    "width": {
                        "type": "string",
                        "value": "96%"
                    }
                },
                "b4": {
                    "width": {
                        "type": "string",
                        "value": "100%"
                    }
                }
            },
            "width": {}
        },
        "viewReport": {
            "__events__": {},
            "__info__": {
                "isRoot": true,
                "kuid": "ad9a1db5f710415286c52ededbb5213f",
                "srcKUID": "d0e949d4b5dc4d5da2987ae476b102c2",
                "wType": "FlexContainer"
            },
            "autogrowMode": {
                "Default": 0
            },
            "height": {
                "Default": {
                    "type": "string",
                    "value": "100%"
                }
            },
            "isVisible": true
        }
    },
    "id": "viewReport",
    "info": null,
    "isdatareferenced": false,
    "isvisible": true,
    "kuid": "ad9a1db5f710415286c52ededbb5213f",
    "layouttype": 2,
    "masterType": 0,
    "name": "kony.ui.UserWidgetInstance",
    "parent": "flxTransferViewReport",
    "pf": "frmTransfersEur",
    "snaptogrid": true,
    "sourceUserWidget": "d0e949d4b5dc4d5da2987ae476b102c2",
    "vizprops": {
        "hidewidgethierarchy": false
    },
    "wType": "UserWidgetInstance"
}