{
    "@class": "com.kony.gen.viz.model.component.KVizTextBox2",
    "DNDConfig": null,
    "_height_": {
        "type": "string",
        "value": "40dp"
    },
    "_left_": {
        "type": "string",
        "value": "35dp"
    },
    "_margin_": [
        0,
        0,
        0,
        0
    ],
    "_padding_": [
        0,
        0,
        0,
        0
    ],
    "_placeholder_": "0.00",
    "_skin_": "sb049626e4a048c682930b6769048b65",
    "_text_": "",
    "_width_": {
        "type": "string",
        "value": "90.28%"
    },
    "accessibilityconfig": {
        "a11yLabel": "Amount"
    },
    "autocapitalize": "none",
    "autocomplete": false,
    "autocorrect": false,
    "autofilter": false,
    "canUpdateUI": true,
    "centery": "49.29%",
    "containerId": true,
    "containerheight": "",
    "containerheightmode": 1,
    "containerweight": 100,
    "contentalignment": 4,
    "disabledSkins": {
        "focusSkin": "s5f5a9f8c3a548e281fa49915b760e95"
    },
    "id": "tbxAmount2",
    "info": null,
    "isvisible": true,
    "keyboardtype": "A",
    "kuid": "d17417adb87341c5a57707726facda81",
    "mode": "A",
    "name": "kony.ui.TextBox2",
    "parent": "flxAmount2",
    "pf": "segGroupAlertRowDW",
    "securetextentry": false,
    "textinputmode": "A",
    "viewtype": "default",
    "wType": "TextField",
    "watchos": {
        "render": false
    },
    "windows10": {
        "render": false
    },
    "winphone10": {
        "render": false
    },
    "zindex": 1
}