{
    "@class": "com.kony.gen.viz.model.component.KVizLabel",
    "DNDConfig": null,
    "_height_": {
        "type": "ref",
        "value": "preferred"
    },
    "_left_": {
        "type": "string",
        "value": "14dp"
    },
    "_margin_": [
        1,
        1,
        1,
        1
    ],
    "_padding_": [
        0,
        0,
        0,
        0
    ],
    "_skin_": "saba7a95163a455f8f2f131435e16122",
    "_text_": "$",
    "_width_": {
        "type": "string",
        "value": "10dp"
    },
    "_wrapping_": 2,
    "accessibilityconfig": {
        "a11yLabel": "$"
    },
    "android": {
        "textStyle": {
            "letterSpacing": 0,
            "strikeThrough": false
        }
    },
    "canUpdateUI": true,
    "centery": {
        "type": "string",
        "value": "50%"
    },
    "containerId": true,
    "containerweight": 100,
    "contentalignment": 4,
    "id": "lblCurrencySymbol3",
    "info": null,
    "ipad": {
        "psp": {
            "wrapping": 2
        }
    },
    "iphone": {
        "psp": {
            "wrapping": 2
        }
    },
    "isvisible": true,
    "kuid": "c34b4004342c498a9e8d91aa21f038af",
    "name": "kony.ui.Label",
    "parent": "flxAmount3",
    "pf": "segCategoryAlertRow",
    "tooltip": "$",
    "wType": "Label",
    "zindex": 1
}