{
    "@class": "com.kony.gen.viz.model.component.KVizButton",
    "DNDConfig": null,
    "__parentReadjusting__": false,
    "_height_": {
        "type": "ref",
        "value": "preferred"
    },
    "_margin_": [
        6,
        6,
        6,
        6
    ],
    "_padding_": [
        0,
        0,
        0,
        0
    ],
    "_right_": {
        "type": "string",
        "value": "50.05%"
    },
    "_skin_": "sf6ca31ec68641e5a2df8232c58cd39a",
    "_text_": "",
    "_top_": {
        "type": "string",
        "value": "50dp"
    },
    "_width_": {
        "type": "ref",
        "value": "preferred"
    },
    "accessibilityconfig": {
        "a11yLabel": "Add New Stop Check Request"
    },
    "canUpdateUI": true,
    "centery": {
        "type": "string",
        "value": "175.00%"
    },
    "containerweight": 100,
    "contentalignment": 5,
    "disabledSkins": {
        "focusSkin": "sf44d06ca8224832827ea7fdff757013"
    },
    "displaytext": true,
    "focusskin": null,
    "id": "btnNewStopChequeRequest",
    "info": null,
    "isvisible": true,
    "kuid": "ae897aa2aa544877915dc6433a431266",
    "name": "kony.ui.Button",
    "parent": "flxMyCheques",
    "pf": "userwidgetmodel",
    "texti18n": "i18n.StopCheckPayments.AddNewStopCheckRequest",
    "tooltip": "Add New Stop Check Request",
    "wType": "Button",
    "zindex": 1
}