{
    "DNDConfig": null,
    "__parentReadjusting__": false,
    "_height_": {
        "type": "string",
        "value": "50dp"
    },
    "_left_": {
        "type": "string",
        "value": "0dp"
    },
    "_margin_": [
        0,
        0,
        0,
        0
    ],
    "_orientation_": 6,
    "_padding_": [
        0,
        0,
        0,
        0
    ],
    "_percent_": true,
    "_skin_": "s4b5ad27f86e4f7c8aaa9a78bf7cc838",
    "_top_": {
        "type": "string",
        "value": "0dp"
    },
    "_width_": {
        "type": "string",
        "value": "100%"
    },
    "allboxes": [],
    "autogrowmode": 0,
    "canUpdateUI": true,
    "children": [
        "flxRow",
        "lblSeparator"
    ],
    "clipbounds": true,
    "containerId": true,
    "containerweight": 100,
    "controllerInfo": {
        "default": {
            "channel": "desktop",
            "name": "flxBulkwireFilesUnSelectedController"
        }
    },
    "desktopweb": {
        "psp": {
            "hoverSkin": "s824f3ac025e47cfaf75ba9696b5ae0f"
        }
    },
    "disabledSkins": {},
    "enablescrolling": true,
    "id": "flxBulkwireFilesUnSelected",
    "info": null,
    "isTemplate": true,
    "isvisible": true,
    "kuid": "d9bd175d36154bd6a7f0b9ba54f85c48",
    "layouttype": 2,
    "name": "kony.ui.FlexContainer",
    "parent": "segBulkwireFilesUnSelected",
    "pf": "segBulkwireFilesUnSelected",
    "snapgridsize": 10,
    "snaptogrid": true,
    "wType": "FlexContainer",
    "widgetalignment": 1,
    "zindex": 2
}