{
    "@class": "com.kony.gen.viz.model.container.KVizSegment2",
    "DNDConfig": null,
    "__parentReadjusting__": false,
    "_data_": [],
    "_height_": {
        "type": "ref",
        "value": "preferred"
    },
    "_indicator_": "none",
    "_left_": {
        "type": "string",
        "value": "0dp"
    },
    "_margin_": [
        0,
        0,
        0,
        0
    ],
    "_orientation_": 2,
    "_padding_": [
        0,
        0,
        0,
        0
    ],
    "_top_": {
        "type": "string",
        "value": "0dp"
    },
    "_width_": {
        "type": "string",
        "value": "100%"
    },
    "autogrowmode": 1,
    "canUpdateUI": true,
    "containerweight": 100,
    "counter": "03",
    "desktop": {
        "_data_": [],
        "rowTemplateId": "ic4ac69d8e72449887c963bb0c1ada8a",
        "rowtemplate": "flxsegment",
        "widgetdatamap": {
            "CopyLabel0a25bb187ff174b": "CopyLabel0a25bb187ff174b",
            "CopyLabel0f686ea9ea96c4e": "CopyLabel0f686ea9ea96c4e",
            "Label0j5951129f89142": "Label0j5951129f89142",
            "btnviewdetails": "btnviewdetails",
            "flxsegment": "flxsegment",
            "flxsegmentseperator": "flxsegmentseperator",
            "lblAccount": "lblAccount",
            "lblbank": "lblbank",
            "lblstatus": "lblstatus"
        }
    },
    "focusedindex": null,
    "focuseditem": null,
    "groupcells": false,
    "hasSections": false,
    "id": "segkonyaccounts",
    "info": null,
    "ipad": {
        "psp": {
            "indicator": "rowselect"
        }
    },
    "iphone": {
        "psp": {
            "indicator": "rowselect"
        }
    },
    "isvisible": true,
    "kuid": "b2e4e5faab4a44f99e3f2f2f2f6a6e25",
    "masterdata": {},
    "mobile": {
        "rowTemplateId": null,
        "rowtemplate": null,
        "sectionHeaderTemplateId": null
    },
    "name": "kony.ui.SegmentedUI2",
    "needpageindicator": true,
    "pageoffdotimage": "pageoffdot.png",
    "pageondotimage": "pageondot.png",
    "paginationconfig": {
        "position": "bottom"
    },
    "parent": "flxmain",
    "pf": "userwidgetmodel",
    "retainselection": false,
    "rowcounter": 3,
    "rowfocusskin": "s9f69e977910472eb44c62ae28c41fe1",
    "rowskin": "sba3462f916e4bdfab3124f79fb3450b",
    "rowtemplate": null,
    "screenlevelwidget": false,
    "seccounter": 0,
    "sectionheaderskin": "sdc4ff4ed1584272be2ae69045dfb29d",
    "selectedRows": null,
    "selectedState": false,
    "selectedindex": null,
    "selectedindices": null,
    "selecteditems": null,
    "selectedsectionindex": 0,
    "selectionbehavior": "default",
    "separatorrequired": false,
    "showscrollbars": false,
    "viewtype": "tableview",
    "wType": "Segment",
    "widgetalignment": 5,
    "widgetdatamap": {
        "CopyLabel0a25bb187ff174b": "CopyLabel0a25bb187ff174b",
        "CopyLabel0f686ea9ea96c4e": "CopyLabel0f686ea9ea96c4e",
        "Label0j5951129f89142": "Label0j5951129f89142",
        "btnviewdetails": "btnviewdetails",
        "flxsegment": "flxsegment",
        "flxsegmentseperator": "flxsegmentseperator",
        "lblAccount": "lblAccount",
        "lblbank": "lblbank",
        "lblstatus": "lblstatus"
    },
    "zindex": 1
}