{
    "@class": "com.kony.gen.viz.model.container.KVizSegment2",
    "DNDConfig": null,
    "__parentReadjusting__": false,
    "_data_": [],
    "_height_": {
        "type": "ref",
        "value": "preferred"
    },
    "_indicator_": "none",
    "_left_": {
        "type": "string",
        "value": "0dp"
    },
    "_margin_": [
        0,
        0,
        0,
        0
    ],
    "_orientation_": 2,
    "_padding_": [
        0,
        0,
        0,
        0
    ],
    "_right_": {
        "type": "string",
        "value": "0dp"
    },
    "_top_": {
        "type": "string",
        "value": "5dp"
    },
    "autogrowmode": 1,
    "canUpdateUI": true,
    "containerweight": 100,
    "counter": "10",
    "focusedindex": null,
    "focuseditem": null,
    "groupcells": false,
    "hasSections": true,
    "id": "segTransferFrom",
    "info": null,
    "ipad": {
        "psp": {
            "indicator": "rowselect"
        }
    },
    "iphone": {
        "psp": {
            "indicator": "rowselect"
        }
    },
    "iscustomlayout": false,
    "isvisible": true,
    "kuid": "c11add9ece86436599b011037cc84e02",
    "masterdata": {},
    "name": "kony.ui.SegmentedUI2",
    "needpageindicator": true,
    "pageoffdotimage": "pageoffdot.png",
    "pageondotimage": "pageondot.png",
    "paginationconfig": {
        "position": "bottom"
    },
    "parent": "flxFromSegment",
    "pf": "frmCreateTemplatePrimaryDetails",
    "retaincontentalignment": false,
    "retainflexpositionproperties": false,
    "retainselection": false,
    "rowTemplateId": "e05d5102a0c44e7bb3c28ebb85ec6408",
    "rowcounter": 0,
    "rowfocusskin": "s0f9bf3c1b3e4a7bb6bf9fd18b0211f2",
    "rowskin": "scf5f90f6ac04976ab88b2a4f7153285",
    "rowtemplate": "flxFromAccountsList",
    "screenlevelwidget": false,
    "seccounter": 1,
    "sectionHeaderTemplateId": "c1aacf4a45ea456786081ea8beb8e2b0",
    "sectionheaderskin": "sdc4ff4ed1584272be2ae69045dfb29d",
    "sectionheadertemplate": "flxTransfersFromListHeader",
    "selectedRows": null,
    "selectedState": false,
    "selectedindex": null,
    "selectedindices": null,
    "selecteditems": null,
    "selectedsectionindex": 0,
    "selectionbehavior": "default",
    "separatorrequired": false,
    "showscrollbars": false,
    "viewtype": "tableview",
    "vizProps": {},
    "wType": "Segment",
    "widgetalignment": 5,
    "widgetdatamap": {
        "flxAccountListitem": "flxAccountListitem",
        "flxAmount": "flxAmount",
        "flxBankIcon": "flxBankIcon",
        "flxDropdown": "flxDropdown",
        "flxFromAccountsList": "flxFromAccountsList",
        "flxIcons": "flxIcons",
        "flxSeparator": "flxSeparator",
        "flxTransfersFromListHeader": "flxTransfersFromListHeader",
        "imgBankIcon": "imgBankIcon",
        "imgDropdown": "imgDropdown",
        "imgIcon": "imgIcon",
        "lblAccType": "lblAccType",
        "lblAccountName": "lblAccountName",
        "lblAmount": "lblAmount",
        "lblCurrencySymbol": "lblCurrencySymbol",
        "lblTransactionHeader": "lblTransactionHeader"
    },
    "zindex": 100
}