{
    "@class": "com.kony.gen.viz.model.component.KVizButton",
    "DNDConfig": null,
    "_height_": {
        "type": "ref",
        "value": "preferred"
    },
    "_left_": {
        "type": "string",
        "value": "10dp"
    },
    "_margin_": [
        6,
        6,
        6,
        6
    ],
    "_padding_": [
        0,
        0,
        0,
        0
    ],
    "_skin_": "sf6ca31ec68641e5a2df8232c57be16a",
    "_text_": "View Activity",
    "_top_": {
        "type": "string",
        "value": "0dp"
    },
    "_width_": {
        "type": "ref",
        "value": "preferred"
    },
    "accessibilityconfig": {
        "a11yLabel": "View Activity"
    },
    "canUpdateUI": true,
    "centery": {
        "type": "string",
        "value": "50%"
    },
    "containerId": true,
    "containerweight": 100,
    "contentalignment": 4,
    "desktopweb": {
        "psp": {}
    },
    "disabledSkins": {
        "focusSkin": "sf44d06ca8224832827ea7fdff757013"
    },
    "displaytext": true,
    "id": "btn1",
    "info": null,
    "isvisible": true,
    "kuid": "f2ed709503b546b79d89a78159d17a6c",
    "maxwidth": {
        "type": "string",
        "value": "90%"
    },
    "name": "kony.ui.Button",
    "parent": "flxbtn1",
    "pf": "segExternalAccountsFastTransfersSelectedNewIC",
    "tooltip": "VIEW ACTIVITY",
    "wType": "Button",
    "zindex": 1
}