{
    "DNDConfig": null,
    "__parentReadjusting__": false,
    "_height_": {
        "type": "string",
        "value": "100%"
    },
    "_left_": {
        "type": "string",
        "value": "0dp"
    },
    "_margin_": [
        0,
        0,
        0,
        0
    ],
    "_orientation_": 6,
    "_padding_": [
        0,
        0,
        0,
        0
    ],
    "_percent_": true,
    "_skin_": "s680c9bafb594fe4bfa388d84acc43b2",
    "_top_": {
        "type": "string",
        "value": "0dp"
    },
    "_width_": {
        "type": "string",
        "value": "45dp"
    },
    "allboxes": [],
    "autogrowmode": 0,
    "canUpdateUI": true,
    "children": [
        "imgDropdown"
    ],
    "clipbounds": true,
    "containerId": true,
    "containerweight": 100,
    "desktopweb": {
        "psp": {
            "hoverSkin": "s8316467354f4e6b8670ccc45f269b09"
        }
    },
    "enablescrolling": true,
    "id": "flxDropdown",
    "ide_onClick": "AS_FlexContainer_d2fd18c8d2ba4c75944a3cfcd5a2b73a",
    "info": null,
    "isvisible": true,
    "kuid": "cb586b6c5a36413086c3b0562c9d2b1e",
    "layouttype": 2,
    "name": "kony.ui.FlexContainer",
    "parent": "flxRow",
    "pf": "segSentSelectedMobile",
    "snapgridsize": 10,
    "snaptogrid": true,
    "wType": "FlexContainer",
    "widgetalignment": 1,
    "zindex": 1
}