{
	 "@class": "com.kony.gen.viz.model.component.KVizLabel",
	 "DNDConfig": null,
	 "__parentReadjusting__": false,
	 "_height_": {
		 "type": "ref",
		 "value": "preferred"
	},
	 "_margin_": [
		 1,
		 1,
		 1,
		 1
	],
	 "_padding_": [
		 0,
		 0,
		 0,
		 0
	],
	 "_skin_": "s18d3552bc4143569a7c5aef6bd5eaa1",
	 "_text_": "Label",
	 "_top_": {
		 "type": "string",
		 "value": "9.719999999999999%"
	},
	 "_width_": {
		 "type": "ref",
		 "value": "preferred"
	},
	 "_wrapping_": 2,
	 "android": {
		 "textStyle": {
			 "letterSpacing": 0,
			 "strikeThrough": false
		}
	},
	 "canUpdateUI": true,
	 "centerx": {
		 "type": "string",
		 "value": "45.46%"
	},
	 "containerweight": 100,
	 "contentalignment": 5,
	 "id": "lblLetsVerify",
	 "info": null,
	 "ipad": {
		 "psp": {
			 "wrapping": 2
		}
	},
	 "iphone": {
		 "psp": {
			 "wrapping": 2
		}
	},
	 "isvisible": true,
	 "kuid": "cd30cab4e8f845b79bc0797da33d628a",
	 "name": "kony.ui.Label",
	 "parent": "flxLetsVerifyCntr",
	 "pf": "userwidgetmodel",
	 "texti18n": "i18n.login.LetsVerify",
	 "tooltip": "",
	 "wType": "Label",
	 "zindex": 1,
	 "accessibilityconfig": {
		 "a11yLabel": "Lets verify its you!"
	}
}