{
    "@class": "com.kony.gen.viz.model.component.KVizButton",
    "DNDConfig": null,
    "_height_": {
        "type": "string",
        "value": "49dp"
    },
    "_left_": {
        "type": "string",
        "value": "20dp"
    },
    "_margin_": [
        6,
        6,
        6,
        6
    ],
    "_padding_": [
        0,
        0,
        0,
        0
    ],
    "_skin_": "s398fcbdbbb44727b6c35a06ef8752cf",
    "_text_": "MAKE A TRANSFER",
    "_top_": {
        "type": "string",
        "value": "0dp"
    },
    "_width_": {
        "type": "string",
        "value": "90%"
    },
    "accessibilityconfig": {
        "a11yLabel": "Transfer Money"
    },
    "canUpdateUI": true,
    "centerx": {
        "type": "number",
        "value": ""
    },
    "containerweight": 100,
    "contentalignment": 4,
    "disabledSkins": {
        "focusSkin": "sf44d06ca8224832827ea7fdff757013"
    },
    "displaytext": true,
    "id": "btnMakeTransfer",
    "ide_onClick": "AS_Button_b86f0b9fb79344678e17324a5ce90e5a",
    "info": null,
    "isvisible": true,
    "kuid": "a1669fe18f20447cad5080c8c289aa8f",
    "name": "kony.ui.Button",
    "parent": "flxPrimaryActions",
    "pf": "frmAccountsDetails",
    "responsiveData": {
        "b1": {
            "skin": "s611bd2c5d324490aa9f7ed9d412984f"
        },
        "b3": {
            "centerX": {
                "type": "string",
                "value": ""
            },
            "contentAlignment": 5,
            "left": {
                "type": "string",
                "value": "34%"
            },
            "skin": "s398fcbdbbb44727b6c35a06ef8752cf",
            "top": {
                "type": "string",
                "value": "0dp"
            },
            "width": {
                "type": "string",
                "value": "32%"
            }
        },
        "b4": {
            "skin": "s611bd2c5d324490aa9f7ed9d412984f"
        }
    },
    "texti18n": "i18n.billPay.BillPayMakeTransfer",
    "tooltip": "Make  A Transfer",
    "wType": "Button",
    "zindex": 1
}