{
    "DNDConfig": null,
    "_height_": {
        "type": "string",
        "value": "150%"
    },
    "_left_": {
        "type": "string",
        "value": "0%"
    },
    "_margin_": [
        0,
        0,
        0,
        0
    ],
    "_orientation_": 6,
    "_padding_": [
        0,
        0,
        0,
        0
    ],
    "_percent_": true,
    "_skin_": "s24c92fc23b14f5484b693ee9b8a9b35",
    "_top_": {
        "type": "string",
        "value": "0dp"
    },
    "_width_": {
        "type": "string",
        "value": "100%"
    },
    "allboxes": [],
    "autogrowmode": 0,
    "canUpdateUI": true,
    "children": [
        "searchDownloadTransction"
    ],
    "clipbounds": true,
    "containerweight": 100,
    "enablescrolling": true,
    "id": "flxSearchDownloadTransaction",
    "info": null,
    "isvisible": false,
    "kuid": "cf612b9d59194d31b65febc5bfae33c6",
    "layouttype": 2,
    "name": "kony.ui.FlexContainer",
    "parent": "frmAccountsDetails",
    "pf": "frmAccountsDetails",
    "responsiveData": {
        "b1": {},
        "b2": {
            "isVisible": false
        },
        "b3": {
            "isVisible": false,
            "left": {
                "type": "string",
                "value": "0%"
            },
            "top": {
                "type": "string",
                "value": "0dp"
            }
        },
        "b4": {
            "isVisible": false
        }
    },
    "snapgridsize": 10,
    "snaptogrid": true,
    "wType": "FlexContainer",
    "widgetalignment": 1,
    "zindex": 1000
}