{
    "@class": "com.kony.gen.viz.model.component.KVizLabel",
    "DNDConfig": null,
    "_height_": {
        "type": "ref",
        "value": "preferred"
    },
    "_left_": {
        "type": "string",
        "value": "20dp"
    },
    "_margin_": [
        1,
        1,
        1,
        1
    ],
    "_padding_": [
        0,
        0,
        0,
        0
    ],
    "_skin_": "sb21459f022449ceba61957e28f76983",
    "_text_": "Our online banking application will be unavailable on 13/04/2017 between 12:00 AM to 4:00 AM while we upgrade our system to provide you a better banking experience.",
    "_width_": {
        "type": "string",
        "value": "85%"
    },
    "_wrapping_": 2,
    "accessibilityconfig": {
        "a11yLabel": "Our online banking application will be unavailable on 13/04/2017 between 12:00 AM to 4:00 AM while we upgrade our system to provide you a better banking experience."
    },
    "android": {
        "textStyle": {
            "letterSpacing": 0,
            "strikeThrough": false
        }
    },
    "canUpdateUI": true,
    "centery": {
        "type": "string",
        "value": "50%"
    },
    "containerweight": 100,
    "contentalignment": 4,
    "id": "lblRenewExpired",
    "info": null,
    "ipad": {
        "psp": {
            "wrapping": 2
        }
    },
    "iphone": {
        "psp": {
            "wrapping": 2
        }
    },
    "isvisible": true,
    "kuid": "b47b2133ad78403e98176ae7292210b9",
    "name": "kony.ui.Label",
    "parent": "flxRenewExpired",
    "pf": "frmAccountsDetails",
    "responsiveData": {
        "b1": {
            "centerY": {
                "type": "string",
                "value": "50.00%"
            },
            "isVisible": true,
            "left": {
                "type": "string",
                "value": "70dp"
            },
            "text": "Your connection has expired.Please renew now to get latest status",
            "width": {
                "type": "ref",
                "value": "preferred"
            }
        },
        "b2": {
            "centerY": {
                "type": "string",
                "value": "25%"
            },
            "isVisible": true,
            "left": {
                "type": "string",
                "value": "60dp"
            },
            "skin": "s5cfc7eedaa64cd6b4c1972cc50846ef",
            "text": "Your connection has 5 days remaining.Please Renew now",
            "width": {
                "type": "string",
                "value": "85%"
            }
        },
        "b3": {
            "centerY": {
                "type": "string",
                "value": "50.00%"
            },
            "isVisible": true,
            "left": {
                "type": "string",
                "value": "71dp"
            },
            "text": "Your connection has 5 days remaining.",
            "width": {
                "type": "ref",
                "value": "preferred"
            }
        },
        "b4": {
            "centerY": {
                "type": "string",
                "value": "50.00%"
            },
            "isVisible": true,
            "left": {
                "type": "string",
                "value": "73dp"
            },
            "text": "Your connection has 5 days remaining.",
            "width": {
                "type": "ref",
                "value": "preferred"
            }
        }
    },
    "tooltip": "",
    "wType": "Label",
    "zindex": 1
}