{
    "@class": "com.kony.gen.viz.model.component.KVizUserWidget",
    "DNDConfig": null,
    "_children_": [],
    "_height_": {
        "type": "ref",
        "value": "preferred"
    },
    "_left_": {
        "type": "string",
        "value": "0dp"
    },
    "_margin_": [
        0,
        0,
        0,
        0
    ],
    "_orientation_": 1,
    "_padding_": [
        0,
        0,
        0,
        0
    ],
    "_percent_": true,
    "_render_": true,
    "_right_": {
        "type": "number",
        "value": ""
    },
    "_skin_": "sdc143f0e5b64ae3a3f155f691c73fa7",
    "_top_": {
        "type": "string",
        "value": "0dp"
    },
    "_width_": {
        "type": "string",
        "value": "100%"
    },
    "areflexpropsreferenced": false,
    "autogrowmode": 1,
    "canUpdateUI": true,
    "clipbounds": false,
    "containerweight": 0,
    "dataDiffs": {
        "Segment0d986ba7141b544": {
            "__events__": {},
            "__info__": {
                "kuid": "a53036f0b4554556b6fb74c01a1e63e6",
                "srcKUID": "ibb38d70785f48ec8a77885e0bcccf67",
                "wType": "Segment"
            }
        },
        "ViewStatements": {
            "__events__": {},
            "__info__": {
                "isRoot": true,
                "kuid": "dd396d0814714a8082e184f5fc8b5a54",
                "srcKUID": "f230099fe2084db1b654e553ead9be22",
                "wType": "FlexContainer"
            },
            "isVisible": false,
            "left": {},
            "responsiveData": {
                "b1": {
                    "left": {
                        "type": "string",
                        "value": "6%"
                    },
                    "right": {
                        "type": "string",
                        "value": ""
                    },
                    "width": {
                        "type": "string",
                        "value": "88%"
                    }
                },
                "b3": {
                    "isVisible": null,
                    "left": {
                        "type": "string",
                        "value": "30dp"
                    },
                    "width": {
                        "type": "string",
                        "value": "94%"
                    }
                }
            },
            "right": {},
            "width": {
                "Default": {
                    "type": "string",
                    "value": "100%"
                }
            }
        },
        "confirmButtons": {
            "__events__": {},
            "__info__": {
                "kuid": "dd3fd18194b04bf0b293c77977b275f0",
                "srcKUID": "hb83a2b504ed41d6adced17f6ef19600",
                "wType": "UserWidgetInstance"
            },
            "height": {},
            "responsiveData": {
                "b2": {
                    "height": {
                        "type": "string",
                        "value": "140px"
                    }
                }
            },
            "top": {
                "Default": {
                    "type": "string",
                    "value": "100dp"
                }
            }
        },
        "confirmButtons.btnConfirm": {
            "__events__": {
                "ide_onClick": "AS_Button_c9c3a0c9cdfb496287ccbab9995ca970"
            },
            "__info__": {
                "kuid": "c32df2bd9d744283a53710c714abed68",
                "srcKUID": "ec03a2b3992e459182aec106ee592211",
                "wType": "Button"
            },
            "centerY": {},
            "height": {
                "Default": {
                    "type": "string",
                    "value": "40dp"
                }
            },
            "left": {},
            "responsiveData": {
                "b2": {
                    "centerY": {
                        "type": "string",
                        "value": ""
                    },
                    "left": {
                        "type": "string",
                        "value": "2%"
                    },
                    "right": {
                        "type": "string",
                        "value": "2%"
                    },
                    "top": {
                        "type": "string",
                        "value": "80dp"
                    },
                    "width": {
                        "type": "string",
                        "value": ""
                    }
                },
                "b3": {
                    "width": {
                        "type": "string",
                        "value": "25%"
                    }
                }
            },
            "right": {},
            "top": {},
            "width": {}
        },
        "confirmButtons.btnModify": {
            "__events__": {
                "ide_onClick": "AS_Button_g1f5eef63d5348c18819c9f3c55321d6"
            },
            "__info__": {
                "kuid": "a6e3387cc1d64925a40c69b73477dcb5",
                "srcKUID": "dd25782c73fd49379ba8b8369e14af40",
                "wType": "Button"
            },
            "centerY": {},
            "height": {
                "Default": {
                    "type": "string",
                    "value": "40dp"
                }
            },
            "left": {},
            "responsiveData": {
                "b2": {
                    "centerY": {
                        "type": "string",
                        "value": ""
                    },
                    "left": {
                        "type": "string",
                        "value": "2%"
                    },
                    "right": {
                        "type": "string",
                        "value": "2%"
                    },
                    "top": {
                        "type": "string",
                        "value": "20dp"
                    },
                    "width": {
                        "type": "string",
                        "value": ""
                    }
                },
                "b3": {
                    "right": {
                        "type": "string",
                        "value": "29.18%"
                    },
                    "width": {
                        "type": "string",
                        "value": "25%"
                    }
                }
            },
            "right": {},
            "top": {},
            "width": {}
        },
        "confirmButtons.flxHorizontalLine": {
            "__events__": {},
            "__info__": {
                "kuid": "hea4650b59934e77b102dbd6c4a3b4ee",
                "srcKUID": "eb14d42939d842b8a79b940402b2d1f8",
                "wType": "FlexContainer"
            }
        },
        "confirmHeaders": {
            "__events__": {},
            "__info__": {
                "kuid": "i4aaf7d664a74470ae99211d3128f539",
                "srcKUID": "bce9b8d8b6174505a1a055c6778b64c6",
                "wType": "UserWidgetInstance"
            }
        },
        "confirmHeaders.flxHeader": {
            "__events__": {},
            "__info__": {
                "kuid": "ad61f6dadc994e6bb16555ce19f665cc",
                "srcKUID": "bfbfb9f59a6f415880f5ba35fbddd249",
                "wType": "FlexContainer"
            }
        },
        "confirmHeaders.lblHeading": {
            "__events__": {},
            "__info__": {
                "kuid": "g38358a6f01a49b6af4e42f8ac645eb0",
                "srcKUID": "b632c5d3e7934929bf29a1aa5ab625f2",
                "wType": "Label"
            }
        },
        "flxAccountInfo": {
            "__events__": {},
            "__info__": {
                "kuid": "dad1ac36661f49cbb37b1d9bbbf0499e",
                "srcKUID": "beea66996f6a4e8fa1dda9d62b6ea671",
                "wType": "FlexContainer"
            }
        },
        "flxAccountSelectedValue": {
            "__events__": {},
            "__info__": {
                "kuid": "d77a66869ffc4ec7bb27b6f72b32c652",
                "srcKUID": "a323871b801e446ebf45c1931c349eed",
                "wType": "FlexContainer"
            },
            "isVisible": false,
            "responsiveData": {}
        },
        "flxAccounts": {
            "__events__": {},
            "__info__": {
                "kuid": "b68ade677dd14b169b7f382260e9790f",
                "srcKUID": "dfbc13e6f6b941f9affb3a0bec535509",
                "wType": "FlexScrollContainer"
            }
        },
        "flxContainerSelectAccounts": {
            "__events__": {},
            "__info__": {
                "kuid": "eb233265766f4dc98a189ce164a53efa",
                "srcKUID": "cf30db17ce084cfc83d157500fde4f4c",
                "wType": "FlexContainer"
            },
            "responsiveData": {
                "b3": {
                    "width": {
                        "type": "string",
                        "value": "100dp"
                    }
                }
            },
            "width": {}
        },
        "flxHorizontalLine": {
            "__events__": {},
            "__info__": {
                "kuid": "g8a3e8d175954754ad4d2b64cdb454e0",
                "srcKUID": "f803874a15a04c7da309364f1c3b18ef",
                "wType": "FlexContainer"
            }
        },
        "flxMain": {
            "__events__": {},
            "__info__": {
                "kuid": "d3f64093bcb546efb9baf228ec40f5d6",
                "srcKUID": "e32c28eaed764d268ab10482b9b0071e",
                "wType": "FlexContainer"
            }
        },
        "flxSelectReasonForDispute": {
            "__events__": {},
            "__info__": {
                "kuid": "a3e32af1450e481885f795a7f003ec1b",
                "srcKUID": "f333c945231649a1832778682b4a9482",
                "wType": "FlexContainer"
            },
            "responsiveData": {
                "b2": {
                    "layoutType": 2
                },
                "b4": {}
            },
            "width": {
                "Default": {
                    "type": "string",
                    "value": "100%"
                }
            }
        },
        "flxSelectYear": {
            "__events__": {},
            "__info__": {
                "kuid": "c9f1b73f765e44e28ec8e5b8a406a5a2",
                "srcKUID": "f07196fa222d414b9dec5c9870a7aea6",
                "wType": "FlexContainer"
            },
            "left": {},
            "responsiveData": {
                "b2": {
                    "left": {
                        "type": "string",
                        "value": "2.10%"
                    },
                    "top": {
                        "type": "string",
                        "value": "50dp"
                    },
                    "width": {
                        "type": "string",
                        "value": "100dp"
                    }
                },
                "b3": {
                    "left": {
                        "type": "string",
                        "value": "10%"
                    }
                }
            },
            "top": {},
            "width": {}
        },
        "lblAccountIcon": {
            "__events__": {},
            "__info__": {
                "kuid": "d92d9c29581440fdb0a182e029f4305d",
                "srcKUID": "f80f49b97e5e41cc92e1dfd3d6c50a48",
                "wType": "Label"
            }
        },
        "lblAccountName": {
            "__events__": {},
            "__info__": {
                "kuid": "j213c1d6380e4b68802d14f5739b40e7",
                "srcKUID": "f983d214e8024f5bb6c5adbd415b2af1",
                "wType": "Label"
            }
        },
        "lblAccountsDropdown": {
            "__events__": {},
            "__info__": {
                "kuid": "a7f435c74edb45a2af9fa7b1fb380582",
                "srcKUID": "ff48a7c298de46118fd0dd3b5fb702cb",
                "wType": "Label"
            }
        },
        "lblKeySelectAccount": {
            "__events__": {},
            "__info__": {
                "kuid": "adff676d544242b5b14bf358869c6f3d",
                "srcKUID": "c84e9ab5e34745acb53f8d6147507cf9",
                "wType": "Label"
            }
        },
        "lblSelectYear": {
            "__events__": {},
            "__info__": {
                "kuid": "eb43c736446d44258a3107f7c3f6fe4b",
                "srcKUID": "a9f6dedafc6e42dbb4f9ac2263d9f953",
                "wType": "ListBox"
            },
            "left": {},
            "responsiveData": {
                "b2": {
                    "left": {
                        "type": "string",
                        "value": "120dp"
                    },
                    "top": {
                        "type": "string",
                        "value": "50dp"
                    },
                    "width": {
                        "type": "string",
                        "value": "60%"
                    }
                },
                "b3": {
                    "left": {
                        "type": "string",
                        "value": "10dp"
                    }
                }
            },
            "top": {},
            "width": {}
        },
        "lblSelectYears": {
            "__events__": {},
            "__info__": {
                "kuid": "hc3d5cf3a2004e60b1ba7c7753def4b2",
                "srcKUID": "af3a486eeb4a4c03ae665f052b41faa1",
                "wType": "Label"
            }
        },
        "lstSelectAccount": {
            "__events__": {},
            "__info__": {
                "kuid": "ea6061dc0ea44c86b8b59e11e966ce85",
                "srcKUID": "dd373e182df546628ab446eacbf4beb4",
                "wType": "ListBox"
            },
            "left": {},
            "responsiveData": {
                "b1": {
                    "left": {
                        "type": "string",
                        "value": "10dp"
                    }
                },
                "b2": {
                    "left": {
                        "type": "string",
                        "value": "120dp"
                    },
                    "width": {
                        "type": "string",
                        "value": "60%"
                    }
                },
                "b3": {
                    "left": {
                        "type": "string",
                        "value": "10dp"
                    },
                    "width": {
                        "type": "string",
                        "value": "26.66%"
                    }
                },
                "b4": {
                    "left": {
                        "type": "string",
                        "value": "10dp"
                    }
                }
            },
            "width": {}
        },
        "segAccounts": {
            "__events__": {},
            "__info__": {
                "kuid": "d9e2a32808c94603b3706ef1cfa85c19",
                "srcKUID": "b3cbf256147342789536ed4d89492a59",
                "wType": "Segment"
            }
        }
    },
    "id": "ViewStatements",
    "info": null,
    "isdatareferenced": false,
    "issegmentchild": false,
    "isvisible": false,
    "kuid": "dd396d0814714a8082e184f5fc8b5a54",
    "layouttype": 2,
    "masterType": 0,
    "name": "kony.ui.UserWidgetInstance",
    "parent": "flxViewStatements",
    "pf": "frmAccountsDetails",
    "snaptogrid": true,
    "sourceUserWidget": "f230099fe2084db1b654e553ead9be22",
    "vizprops": {
        "hidewidgethierarchy": false
    },
    "wType": "UserWidgetInstance"
}