{
    "@class": "com.kony.gen.viz.model.component.KVizUserWidget",
    "DNDConfig": null,
    "_children_": [],
    "_height_": {
        "type": "ref",
        "value": "preferred"
    },
    "_left_": {
        "type": "string",
        "value": "0dp"
    },
    "_margin_": [
        0,
        0,
        0,
        0
    ],
    "_orientation_": 1,
    "_padding_": [
        0,
        0,
        0,
        0
    ],
    "_percent_": true,
    "_right_": {
        "type": "number",
        "value": ""
    },
    "_skin_": "s24c92fc23b14f5484b693ee9b8a9b35",
    "_top_": {
        "type": "string",
        "value": "0dp"
    },
    "_width_": {
        "type": "string",
        "value": "100%"
    },
    "areflexpropsreferenced": false,
    "autogrowmode": 1,
    "canUpdateUI": true,
    "clipbounds": false,
    "containerweight": 0,
    "dataDiffs": {
        "SegmentMonthWiseFiles1": {
            "__events__": {},
            "__info__": {
                "kuid": "j2fb466dee5c4fb09741dd2f215fa121",
                "srcKUID": "f75ad91c0cd54204bc1054b570e98f7b",
                "wType": "Segment"
            }
        },
        "SegmentMonthWiseFiles10": {
            "__events__": {},
            "__info__": {
                "kuid": "f6f3efde87094072b8d7792843add3ca",
                "srcKUID": "eb820ad0412340be80bbb94a0761fd04",
                "wType": "Segment"
            }
        },
        "SegmentMonthWiseFiles11": {
            "__events__": {},
            "__info__": {
                "kuid": "i64757ee1b79432290c96a5d153e4f19",
                "srcKUID": "gb6b7c14386b4cbeb5096c0029b37265",
                "wType": "Segment"
            }
        },
        "SegmentMonthWiseFiles12": {
            "__events__": {},
            "__info__": {
                "kuid": "ec6e1d50f1864c348ac793222b307d29",
                "srcKUID": "g4346256df584987af31ff8191827de2",
                "wType": "Segment"
            }
        },
        "SegmentMonthWiseFiles2": {
            "__events__": {},
            "__info__": {
                "kuid": "c4007719dd2945b4b46d8a22992132a9",
                "srcKUID": "ga2ca5c1b9ea44308d4b4e221bd2589d",
                "wType": "Segment"
            }
        },
        "SegmentMonthWiseFiles3": {
            "__events__": {},
            "__info__": {
                "kuid": "fc58abee018b4a65a26ecd87383e3d4f",
                "srcKUID": "d1e53ac4af834329b217d261960c18bd",
                "wType": "Segment"
            }
        },
        "SegmentMonthWiseFiles4": {
            "__events__": {},
            "__info__": {
                "kuid": "ee8159f0271b479abd7d47d299ee1d5e",
                "srcKUID": "b3a32eaa469b4cc78283fd1e7d5c83b2",
                "wType": "Segment"
            }
        },
        "SegmentMonthWiseFiles5": {
            "__events__": {},
            "__info__": {
                "kuid": "j3531c7716cb47408a41a5ef8043b1c1",
                "srcKUID": "a97c9b07654b456980a612e31de2139c",
                "wType": "Segment"
            }
        },
        "SegmentMonthWiseFiles6": {
            "__events__": {},
            "__info__": {
                "kuid": "g5fd47fb975d4bd88270d43471b31a58",
                "srcKUID": "gd1b19c42ce8467a89fc11563f674de4",
                "wType": "Segment"
            }
        },
        "SegmentMonthWiseFiles7": {
            "__events__": {},
            "__info__": {
                "kuid": "e2b1e9dc3ca14a06826378fc4dbd408a",
                "srcKUID": "ia6750413064457cacfcb8711a7952b4",
                "wType": "Segment"
            }
        },
        "SegmentMonthWiseFiles8": {
            "__events__": {},
            "__info__": {
                "kuid": "a58228a3618d49a6a494f01535c70418",
                "srcKUID": "e1b277dbbace4f3f84cb21bf9e722dd6",
                "wType": "Segment"
            }
        },
        "SegmentMonthWiseFiles9": {
            "__events__": {},
            "__info__": {
                "kuid": "fce0b6ea6ca64f679fd31b6ca81efa4d",
                "srcKUID": "f188d2086c69414ba679e3751b8b4ac9",
                "wType": "Segment"
            }
        },
        "btnConfirm": {
            "__events__": {},
            "__info__": {
                "kuid": "cc1a68ccb8af423dab9bb7ad48a201dd",
                "srcKUID": "f2d53f5ee9ea4e72a42b15beb01c3512",
                "wType": "Button"
            }
        },
        "btnModify": {
            "__events__": {},
            "__info__": {
                "kuid": "f1ed29c269254e62aa3d27d058f1758e",
                "srcKUID": "b2bd90173998455dbbefde69730b1eb7",
                "wType": "Button"
            }
        },
        "flexDataMonth1": {
            "__events__": {},
            "__info__": {
                "kuid": "dcc1644e7fa243879ef69b0a2a9b01be",
                "srcKUID": "j2344127f4f84eeba10ba2323e733dcb",
                "wType": "FlexContainer"
            }
        },
        "flexDataMonth10": {
            "__events__": {},
            "__info__": {
                "kuid": "h3627aaf3dab4d8cbeff1ced8d708de9",
                "srcKUID": "fb0352f732524ee9837023afb5905886",
                "wType": "FlexContainer"
            }
        },
        "flexDataMonth11": {
            "__events__": {},
            "__info__": {
                "kuid": "g0feba88895b40dc928764845dd82bed",
                "srcKUID": "f77e9047c9294bd6a1f2bc6009f3860a",
                "wType": "FlexContainer"
            }
        },
        "flexDataMonth12": {
            "__events__": {},
            "__info__": {
                "kuid": "e7c608f1911441378a7097ea73aa7a7e",
                "srcKUID": "bea20899c8ca4a24a80502f9b7603902",
                "wType": "FlexContainer"
            }
        },
        "flexDataMonth2": {
            "__events__": {},
            "__info__": {
                "kuid": "ba66baa4d14a4165bf5f4fce4a487969",
                "srcKUID": "cbe31ab3a5d14d16849913809815672b",
                "wType": "FlexContainer"
            }
        },
        "flexDataMonth3": {
            "__events__": {},
            "__info__": {
                "kuid": "c5a3a6e2e7ae4e81a35524020af69990",
                "srcKUID": "f0793b38a8e54088bb07885aaf0bd668",
                "wType": "FlexContainer"
            }
        },
        "flexDataMonth4": {
            "__events__": {},
            "__info__": {
                "kuid": "ge67d191c5c042ddb241402528d1c665",
                "srcKUID": "c41428a911454761b24039cc2ed10b29",
                "wType": "FlexContainer"
            }
        },
        "flexDataMonth5": {
            "__events__": {},
            "__info__": {
                "kuid": "je9c3f62b1774f09a5f9b22d4d2e8477",
                "srcKUID": "d30ef4a57cb945f68455ad8a7e505569",
                "wType": "FlexContainer"
            }
        },
        "flexDataMonth6": {
            "__events__": {},
            "__info__": {
                "kuid": "h7de39f44e874a8eba5b4b93d9814266",
                "srcKUID": "cae5a2b423764663b69e916d2e31f1b5",
                "wType": "FlexContainer"
            }
        },
        "flexDataMonth7": {
            "__events__": {},
            "__info__": {
                "kuid": "jb3cb9726eb740f788839f0183036058",
                "srcKUID": "f9e92080007e4cf0a53c268595c9928b",
                "wType": "FlexContainer"
            }
        },
        "flexDataMonth8": {
            "__events__": {},
            "__info__": {
                "kuid": "h59bb4e649384897a7d6cf2097c8bf83",
                "srcKUID": "f7b69991b02042e6bfe49910c250ea99",
                "wType": "FlexContainer"
            }
        },
        "flexDataMonth9": {
            "__events__": {},
            "__info__": {
                "kuid": "aff1c65803f3460592d1c2ab31a5a86e",
                "srcKUID": "cb522e6b7f0a4b69affed36593f0a616",
                "wType": "FlexContainer"
            }
        },
        "flxAccountInfo": {
            "__events__": {},
            "__info__": {
                "kuid": "c9ef45e96d72408fa221d1a87e5a4eea",
                "srcKUID": "b5b393a720d04b07b5d6b41d4da7d93b",
                "wType": "FlexContainer"
            }
        },
        "flxAccountSelectedValue": {
            "__events__": {},
            "__info__": {
                "kuid": "f5c44e9599584f8c9a4a84245efbf215",
                "srcKUID": "b1d0ada257354a479c13b6016b3f3f7d",
                "wType": "FlexContainer"
            }
        },
        "flxAccounts": {
            "__events__": {},
            "__info__": {
                "kuid": "d0280e5dcabf47d687478e7328950bcc",
                "srcKUID": "b24f7963a4054d669bfe9e3cc9e10ea4",
                "wType": "FlexScrollContainer"
            }
        },
        "flxConfirmButtons": {
            "__events__": {},
            "__info__": {
                "kuid": "a32216d9d51241c3aaa192c3cef776d2",
                "srcKUID": "bec24283e98f4d359a822afed1821aea",
                "wType": "FlexContainer"
            }
        },
        "flxContainerSelectAccounts": {
            "__events__": {},
            "__info__": {
                "kuid": "ccefd8741e314504bac3414bba0eb13a",
                "srcKUID": "f223ce6d551946ef95971dd944cc40f5",
                "wType": "FlexContainer"
            }
        },
        "flxHeader": {
            "__events__": {},
            "__info__": {
                "kuid": "ca62ba1a95914d488a23ffc47cf6a78d",
                "srcKUID": "e2b0abd7f43b48cf8f2863a771577090",
                "wType": "FlexContainer"
            }
        },
        "flxHorizontalLine0": {
            "__events__": {},
            "__info__": {
                "kuid": "bcd5241bf0fa42ba903ca851f39e01e6",
                "srcKUID": "db36d1f5cc034ed2bc529668561f9134",
                "wType": "FlexContainer"
            }
        },
        "flxHorizontalLine1": {
            "__events__": {},
            "__info__": {
                "kuid": "g0ac0aea3b0b4c969bc791577c41b5f5",
                "srcKUID": "aadbd3e099304be4be31e448fe19155d",
                "wType": "FlexContainer"
            }
        },
        "flxHorizontalLine10": {
            "__events__": {},
            "__info__": {
                "kuid": "b120c87d2de94447ae4f5bed4316d42b",
                "srcKUID": "a5f23672556c4e35b58c010a13f2e2fb",
                "wType": "FlexContainer"
            }
        },
        "flxHorizontalLine11": {
            "__events__": {},
            "__info__": {
                "kuid": "j37e99ae50aa4b3cbae94bda39aee864",
                "srcKUID": "d3cf6fd98ca14177ae58f6c8826ab1c4",
                "wType": "FlexContainer"
            }
        },
        "flxHorizontalLine12": {
            "__events__": {},
            "__info__": {
                "kuid": "a4ad9418d7ea4f0997cd61175a6bb457",
                "srcKUID": "e8bf717cc408435cb57e1c62f2dd0df6",
                "wType": "FlexContainer"
            }
        },
        "flxHorizontalLine2": {
            "__events__": {},
            "__info__": {
                "kuid": "c710529cbd894bb58b79ccb320c4404c",
                "srcKUID": "hfaf81278d654f73b5027f463f5e5b04",
                "wType": "FlexContainer"
            }
        },
        "flxHorizontalLine3": {
            "__events__": {},
            "__info__": {
                "kuid": "j5d082c5f072496f9bd6861a4479947c",
                "srcKUID": "je6a8e9d978c41ee8d668931ebbbf731",
                "wType": "FlexContainer"
            }
        },
        "flxHorizontalLine4": {
            "__events__": {},
            "__info__": {
                "kuid": "b1ad933a03ad487090ce5d2ceb1d553f",
                "srcKUID": "ebfdecfd82fb406ab79dcb9d805e6adc",
                "wType": "FlexContainer"
            }
        },
        "flxHorizontalLine5": {
            "__events__": {},
            "__info__": {
                "kuid": "jc7f528b535e40ffb8fc7d59bad6c84e",
                "srcKUID": "be0fdcb13a5d46b183c13d741cbaac93",
                "wType": "FlexContainer"
            }
        },
        "flxHorizontalLine6": {
            "__events__": {},
            "__info__": {
                "kuid": "c1aa5e69da5d4a3192ef6c9c54d6a59d",
                "srcKUID": "fa1821e3bb0c42f6aa11a23363168aef",
                "wType": "FlexContainer"
            }
        },
        "flxHorizontalLine7": {
            "__events__": {},
            "__info__": {
                "kuid": "ee581edc75154e3998af1fc0e20cb031",
                "srcKUID": "ge30139bb8d2481a972d5575e7236d94",
                "wType": "FlexContainer"
            }
        },
        "flxHorizontalLine8": {
            "__events__": {},
            "__info__": {
                "kuid": "dc5b7833366b436cb2bef11dc33ce86b",
                "srcKUID": "bc48d8d7f2204d5aa99600007ee6533f",
                "wType": "FlexContainer"
            }
        },
        "flxHorizontalLine9": {
            "__events__": {},
            "__info__": {
                "kuid": "c45ed2e353604efe8cc79ddc1b8e03d0",
                "srcKUID": "jbbb5a951e944f0a81993bb73dd310dc",
                "wType": "FlexContainer"
            }
        },
        "flxMain": {
            "__events__": {},
            "__info__": {
                "kuid": "beedd6e973224928b3b87505a4a2a410",
                "srcKUID": "d4bedbbfe7cc49a29605058205831d3d",
                "wType": "FlexContainer"
            }
        },
        "flxMessageWrapper": {
            "__events__": {},
            "__info__": {
                "kuid": "g652f91e1bb14be69e8e1ab68550d1f8",
                "srcKUID": "b0ded49d8c7b4d76a3fe67f5f779540e",
                "wType": "FlexContainer"
            }
        },
        "flxMonthStatements1": {
            "__events__": {},
            "__info__": {
                "kuid": "ibcf9b0ce69f4f77bee4464751f36940",
                "srcKUID": "e48acfa7769d4afd9ae25190cc3b232f",
                "wType": "FlexContainer"
            }
        },
        "flxMonthStatements10": {
            "__events__": {},
            "__info__": {
                "kuid": "ab8c37f5b50548b182e3030ed818675f",
                "srcKUID": "f39f37b8c16c48319645435b4fe64af8",
                "wType": "FlexContainer"
            }
        },
        "flxMonthStatements11": {
            "__events__": {},
            "__info__": {
                "kuid": "cca818ebbd244a4292d07415a9c4cf40",
                "srcKUID": "h436e8ed2e894e309e5991d62a78c296",
                "wType": "FlexContainer"
            }
        },
        "flxMonthStatements12": {
            "__events__": {},
            "__info__": {
                "kuid": "hf5a2d0a56d74d6d928944cb8d10dd3b",
                "srcKUID": "eed8b65998b141c6a815cf70b125a0ca",
                "wType": "FlexContainer"
            }
        },
        "flxMonthStatements2": {
            "__events__": {},
            "__info__": {
                "kuid": "b618b8d200b84371adf928c8a8f829e2",
                "srcKUID": "hd414b9cd1914042a10819b6482e90d9",
                "wType": "FlexContainer"
            }
        },
        "flxMonthStatements3": {
            "__events__": {},
            "__info__": {
                "kuid": "fd80e94d1ef847f28808527d81b1ae72",
                "srcKUID": "b76737fbc8c74334a46d9094b6ca408c",
                "wType": "FlexContainer"
            }
        },
        "flxMonthStatements4": {
            "__events__": {},
            "__info__": {
                "kuid": "fb3d5cc2bf97436d9a6efe6c8a583b95",
                "srcKUID": "icd642f3109e438aa4671d65ff06f543",
                "wType": "FlexContainer"
            }
        },
        "flxMonthStatements5": {
            "__events__": {},
            "__info__": {
                "kuid": "j1d479e972fe4a49baa4eef4179f76f2",
                "srcKUID": "c25abf4432d94182b5efcbb3699244b4",
                "wType": "FlexContainer"
            }
        },
        "flxMonthStatements6": {
            "__events__": {},
            "__info__": {
                "kuid": "e22235ac763f4d4e82c193f624de0846",
                "srcKUID": "c4c5d614a9dd4e9e9a6f1351c87a1d1f",
                "wType": "FlexContainer"
            }
        },
        "flxMonthStatements7": {
            "__events__": {},
            "__info__": {
                "kuid": "a6033cc7180049eaaaca1dd8a14364c0",
                "srcKUID": "bfa51d29f97b4e9099983b8564da582e",
                "wType": "FlexContainer"
            }
        },
        "flxMonthStatements8": {
            "__events__": {},
            "__info__": {
                "kuid": "ec95382f823149de8611467898908dbd",
                "srcKUID": "a3f0b941ec05406ab082eb2ab8137c3b",
                "wType": "FlexContainer"
            }
        },
        "flxMonthStatements9": {
            "__events__": {},
            "__info__": {
                "kuid": "c7562666b9cd47d7b972c4826fe49222",
                "srcKUID": "b609dc27fe66473280000be25bb31bc2",
                "wType": "FlexContainer"
            }
        },
        "flxMonthsData": {
            "__events__": {},
            "__info__": {
                "kuid": "e2e71b076c7044ca909041a6d8b859bb",
                "srcKUID": "j6d7c24cd9894a3aba659e39313c204c",
                "wType": "FlexContainer"
            }
        },
        "flxNoRecordsFound": {
            "__events__": {},
            "__info__": {
                "kuid": "d172c9b9dac144528cf86583c3217b92",
                "srcKUID": "g85defb0d0d74399ad209dc97d047b4e",
                "wType": "FlexContainer"
            }
        },
        "flxSelectReasonForDispute": {
            "__events__": {},
            "__info__": {
                "kuid": "ccbfd63a88f2480889dd5d9268506ea2",
                "srcKUID": "f916fefa1910447582f12de80ebfbc81",
                "wType": "FlexContainer"
            }
        },
        "flxSelectYear": {
            "__events__": {},
            "__info__": {
                "kuid": "b2d7158c9c57413e812f575ae31c5301",
                "srcKUID": "bda949d540f3454e8cf34b4280657c8b",
                "wType": "FlexContainer"
            }
        },
        "flxSeparator": {
            "__events__": {},
            "__info__": {
                "kuid": "df017f40e3ed4502aef41b4a50f7010e",
                "srcKUID": "b7dededb0d3e4667ac8d96a0ed76fc8d",
                "wType": "FlexContainer"
            }
        },
        "flxSort": {
            "__events__": {},
            "__info__": {
                "kuid": "edc4a5716bce406ab7fccd0b6851e88e",
                "srcKUID": "gb1d2e7cdaca43c3bcd0aa48d79324b1",
                "wType": "FlexContainer"
            }
        },
        "flxSortColumns": {
            "__events__": {},
            "__info__": {
                "kuid": "d1b0b037dfdc411c85beabc198b6edfb",
                "srcKUID": "d0f52985ea8b41d1adcf09e2997bb9bb",
                "wType": "FlexContainer"
            }
        },
        "flxSortDate": {
            "__events__": {},
            "__info__": {
                "kuid": "cf324cc7a07e44ee97ba80802a5f8ec1",
                "srcKUID": "ab5f14ac96184bd885439c0fb996f184",
                "wType": "FlexContainer"
            }
        },
        "flxSortSeparator": {
            "__events__": {},
            "__info__": {
                "kuid": "b244322e09b849d3a0722c59210ad7a9",
                "srcKUID": "f88c2013e9b6493ab1775d68df66e79d",
                "wType": "FlexContainer"
            }
        },
        "flxStatements": {
            "__events__": {},
            "__info__": {
                "kuid": "h9332a8e69cf4456baef3c74dcd43839",
                "srcKUID": "d44dd851e25b4ce4b29369e6b5da03c8",
                "wType": "FlexContainer"
            }
        },
        "flxlblMonth10Separator": {
            "__events__": {},
            "__info__": {
                "kuid": "d86b83f7b6464d62bcd63571efa246d5",
                "srcKUID": "be25ef11dd034df19b4cfa988ba5c604",
                "wType": "FlexContainer"
            }
        },
        "flxlblMonth11Separator": {
            "__events__": {},
            "__info__": {
                "kuid": "bc1cb600a9e643de83585d2c69dad70e",
                "srcKUID": "e798d56c5e5b4deeb1ecc869c11d911b",
                "wType": "FlexContainer"
            }
        },
        "flxlblMonth12Separator": {
            "__events__": {},
            "__info__": {
                "kuid": "ddcb366fd6564c5e957da58758810c95",
                "srcKUID": "j69e4ff84c5045849da8016aaa6eb895",
                "wType": "FlexContainer"
            }
        },
        "flxlblMonth1Separator": {
            "__events__": {},
            "__info__": {
                "kuid": "c0ffa7caa8044f78a031ac3f32f69cf3",
                "srcKUID": "da4d41a80fd543ffb0b8b7c65efeb8e3",
                "wType": "FlexContainer"
            }
        },
        "flxlblMonth2Separator": {
            "__events__": {},
            "__info__": {
                "kuid": "d9784af656cd43b685427c7196943efd",
                "srcKUID": "cbfae31f350f4f23b53571fe0c519299",
                "wType": "FlexContainer"
            }
        },
        "flxlblMonth3Separator": {
            "__events__": {},
            "__info__": {
                "kuid": "b29cfacd70554aa7a2cf3e7453dbc677",
                "srcKUID": "d9876edd0f2c41c38ac8449e672e98f5",
                "wType": "FlexContainer"
            }
        },
        "flxlblMonth4Separator": {
            "__events__": {},
            "__info__": {
                "kuid": "e9953ad26b164cd3bda30f7b27155f79",
                "srcKUID": "e02b1e284d1b4a55a76f7c3030097038",
                "wType": "FlexContainer"
            }
        },
        "flxlblMonth5Separator": {
            "__events__": {},
            "__info__": {
                "kuid": "b95a3182fa9e4919a7972654419a19d0",
                "srcKUID": "g98cb6adebef47c59cf71dbc8bf2e46e",
                "wType": "FlexContainer"
            }
        },
        "flxlblMonth6Separator": {
            "__events__": {},
            "__info__": {
                "kuid": "bc3d03b3ac7541949e590e5e8ae0cf9d",
                "srcKUID": "cd8f2ebcd7da4522ac204186c7b18055",
                "wType": "FlexContainer"
            }
        },
        "flxlblMonth7Separator": {
            "__events__": {},
            "__info__": {
                "kuid": "a4ef24c3ab48455c911cab2d8bc2f4d5",
                "srcKUID": "a36aa36b01884a7bb33073569a3375ed",
                "wType": "FlexContainer"
            }
        },
        "flxlblMonth8Separator": {
            "__events__": {},
            "__info__": {
                "kuid": "je3ccd07317942e0a1898eb18317326a",
                "srcKUID": "b9612d880aa24b4a8ee6da49174e4783",
                "wType": "FlexContainer"
            }
        },
        "flxlblMonth9Separator": {
            "__events__": {},
            "__info__": {
                "kuid": "d5e00ca0aa754fd8a4c1cff6487307f7",
                "srcKUID": "ce65504495354ee1a99f69d812c1c418",
                "wType": "FlexContainer"
            }
        },
        "imgInfo": {
            "__events__": {},
            "__info__": {
                "kuid": "f24ff486f47546d18615b943d2d3ef42",
                "srcKUID": "j36bcef4d9884d7b9f29aca7934810d7",
                "wType": "Image"
            }
        },
        "imgSortDate": {
            "__events__": {},
            "__info__": {
                "kuid": "b354dc12473242ff8b4ab23792bb9157",
                "srcKUID": "b075ce5603994ec5a2d2e3825c98ef24",
                "wType": "Image"
            }
        },
        "lblAccountIcon": {
            "__events__": {},
            "__info__": {
                "kuid": "b4c1cdf702094eeb81c02162d4924282",
                "srcKUID": "a6b7997c777844c48dc10d30d5474b2c",
                "wType": "Label"
            }
        },
        "lblAccountName": {
            "__events__": {},
            "__info__": {
                "kuid": "ef5f358dc6bb41e8867fb3df0ba462ee",
                "srcKUID": "bcaa0766583b4daeb07f38eac95318b1",
                "wType": "Label"
            }
        },
        "lblAccountsDropdown": {
            "__events__": {},
            "__info__": {
                "kuid": "f12d5955d4414358ae4e5beb0aaa1c18",
                "srcKUID": "f9b382a631034609a026abb28e935c28",
                "wType": "Label"
            }
        },
        "lblKeySelectAccount": {
            "__events__": {},
            "__info__": {
                "kuid": "ac39bd66f7a941a1a5e43855cdead564",
                "srcKUID": "icbb09a348ac4458847224f83eceef92",
                "wType": "Label"
            }
        },
        "lblMonth1": {
            "__events__": {},
            "__info__": {
                "kuid": "g4fcf5bcb8e34515ab477dbf09c2c2de",
                "srcKUID": "b3645de14a3b4359a307e3c44693e35e",
                "wType": "Label"
            }
        },
        "lblMonth10": {
            "__events__": {},
            "__info__": {
                "kuid": "h4026926659642ff8eed4ec198c837f4",
                "srcKUID": "ef0f3c40f3fb4506b11286e0dfd3a1b6",
                "wType": "Label"
            }
        },
        "lblMonth11": {
            "__events__": {},
            "__info__": {
                "kuid": "e70453c9a8334fb9b4241cb573a251f3",
                "srcKUID": "f3f32c4533254427be073ac272c43d84",
                "wType": "Label"
            }
        },
        "lblMonth12": {
            "__events__": {},
            "__info__": {
                "kuid": "fb86f01a8d0845778f1760fb0e9ddea3",
                "srcKUID": "e885bf20ef23413384ddcd35b816c822",
                "wType": "Label"
            }
        },
        "lblMonth2": {
            "__events__": {},
            "__info__": {
                "kuid": "b69839392e6f4558afc5c2a9a22caaa7",
                "srcKUID": "i0ad41a8b996429d9599d4bc4d2f02f0",
                "wType": "Label"
            }
        },
        "lblMonth3": {
            "__events__": {},
            "__info__": {
                "kuid": "a21b9486dbc34800937c578e6d3fc359",
                "srcKUID": "ea678ff91c1c4a218fa2e5975b7fde50",
                "wType": "Label"
            }
        },
        "lblMonth4": {
            "__events__": {},
            "__info__": {
                "kuid": "a9755999a0c04353ba2facf3dde9c132",
                "srcKUID": "d73ce3b79625455dbb30180b6fe6df6a",
                "wType": "Label"
            }
        },
        "lblMonth5": {
            "__events__": {},
            "__info__": {
                "kuid": "c593279bb4484a008928566e362a11ce",
                "srcKUID": "b37f11539238476bba8ad0e55e16a72c",
                "wType": "Label"
            }
        },
        "lblMonth6": {
            "__events__": {},
            "__info__": {
                "kuid": "a62de3ad965f4b33b836a0d9a2453e79",
                "srcKUID": "acbf914c7f0e4f7389ba9164551112a7",
                "wType": "Label"
            }
        },
        "lblMonth7": {
            "__events__": {},
            "__info__": {
                "kuid": "hd98ab6a686842478f5e8b3d2d1af24d",
                "srcKUID": "jf0dda4635e84a03bd29f4db6e89ba06",
                "wType": "Label"
            }
        },
        "lblMonth8": {
            "__events__": {},
            "__info__": {
                "kuid": "i9a13a782c224d3a8e49cf45e6cd49c8",
                "srcKUID": "bc26b955db2b4bf0a47ae7a3cfb7a095",
                "wType": "Label"
            }
        },
        "lblMonth9": {
            "__events__": {},
            "__info__": {
                "kuid": "e6c7ad03e5b3495dbb66cd8cadf06f0f",
                "srcKUID": "f0c61cf547514b85ab8ece83a3c9706a",
                "wType": "Label"
            }
        },
        "lblNoRecordsFound": {
            "__events__": {},
            "__info__": {
                "kuid": "a411d05171794337811395088c329d5c",
                "srcKUID": "b0af4df787da461d88844e18fb8840b3",
                "wType": "Label"
            }
        },
        "lblSelectYear": {
            "__events__": {},
            "__info__": {
                "kuid": "e503615141ea4d2987c2e52182f2287b",
                "srcKUID": "d75d356cbed745ce88b537f45408387c",
                "wType": "ListBox"
            }
        },
        "lblSelectYears": {
            "__events__": {},
            "__info__": {
                "kuid": "a3d79403c16f40d098511a962538e563",
                "srcKUID": "g5a1ac2242d34fe4a1c8858c693522dd",
                "wType": "Label"
            }
        },
        "lblSortDate": {
            "__events__": {},
            "__info__": {
                "kuid": "c4a4309b1b7d4e7ab075dd28c58d4da3",
                "srcKUID": "fbce277642b648ac9a3639cd240a686e",
                "wType": "Label"
            }
        },
        "lblSortDescription": {
            "__events__": {},
            "__info__": {
                "kuid": "ia6343b1db7a43e989bf5d722ab324e1",
                "srcKUID": "g0153cca66134d188cbea774c91880fc",
                "wType": "Label"
            }
        },
        "lblViewStatements": {
            "__events__": {},
            "__info__": {
                "kuid": "c3e25353d60c4f3e8b3fc12f251de0fe",
                "srcKUID": "a97cc372001e42ff97b5ceb5ae4f3761",
                "wType": "Label"
            }
        },
        "lstSelectAccount": {
            "__events__": {},
            "__info__": {
                "kuid": "gc4c72943b4143f5a41ae35828332cec",
                "srcKUID": "e7a5e29f1c0a4dca879a113c52270b62",
                "wType": "ListBox"
            }
        },
        "segAccounts": {
            "__events__": {},
            "__info__": {
                "kuid": "e07dbe0ad08b46c88e5efc769dc0ad2e",
                "srcKUID": "gcc6766fad1d4f139a090d10447e700c",
                "wType": "Segment"
            }
        },
        "viewStatetements": {
            "__events__": {},
            "__info__": {
                "isRoot": true,
                "kuid": "d091a827e72b4b7591da88bd3e229679",
                "srcKUID": "e89bf9f44f694e74b28ce1b4166b901e",
                "wType": "FlexContainer"
            },
            "left": {
                "Default": {
                    "type": "string",
                    "value": "0dp"
                }
            },
            "responsiveData": {
                "b1": {
                    "left": {
                        "type": "string",
                        "value": "6.40%"
                    },
                    "right": {
                        "type": "string",
                        "value": "6.40%"
                    },
                    "width": {
                        "type": "string",
                        "value": "87.20%"
                    }
                },
                "b2": {}
            },
            "right": {
                "Default": {
                    "type": "number",
                    "value": ""
                }
            },
            "width": {
                "Default": {
                    "type": "string",
                    "value": "100%"
                }
            }
        }
    },
    "enablescrolling": true,
    "id": "viewStatementsnew",
    "info": null,
    "iscustomlayout": false,
    "isdatareferenced": false,
    "isvisible": true,
    "kuid": "d091a827e72b4b7591da88bd3e229679",
    "layouttype": 4,
    "masterType": 0,
    "name": "kony.ui.UserWidgetInstance",
    "parent": "flxViewStatements",
    "pf": "frmAccountsDetails",
    "retaincontentalignment": false,
    "retainflexpositionproperties": false,
    "retainflowhorizontalalignment": false,
    "snapgridsize": 10,
    "snaptogrid": true,
    "sourceUserWidget": "e89bf9f44f694e74b28ce1b4166b901e",
    "wType": "UserWidgetInstance"
}