{
    "@class": "com.kony.gen.viz.model.component.KVizButton",
    "DNDConfig": null,
    "__parentReadjusting__": false,
    "_bottom_": {
        "type": "string",
        "value": "0dp"
    },
    "_height_": {
        "type": "string",
        "value": "30dp"
    },
    "_margin_": [
        6,
        6,
        6,
        6
    ],
    "_padding_": [
        0,
        0,
        0,
        0
    ],
    "_right_": {
        "type": "string",
        "value": "0%"
    },
    "_skin_": "se4cbdf6e51f48eda9966caa941c6a19",
    "_text_": "Cancel this Occurrence",
    "_width_": {
        "type": "string",
        "value": "45%"
    },
    "accessibilityconfig": {
        "a11yLabel": "Cancel this Occurrence"
    },
    "canUpdateUI": true,
    "containerId": true,
    "containerweight": 100,
    "contentalignment": 5,
    "desktopweb": {
        "psp": {
            "hoverSkin": "s8ba57bbb01e49f2acad2f1ea21d8717"
        }
    },
    "disabledSkins": {
        "focusSkin": "sf44d06ca8224832827ea7fdff757013"
    },
    "displaytext": true,
    "id": "btnCancelThisOccurrence",
    "ide_onClick": "AS_Button_a1e7c74994a74893aa15a8a7735bf425",
    "info": null,
    "isvisible": true,
    "kuid": "d2f582939a50403c912d164a96e70745",
    "name": "kony.ui.Button",
    "parent": "flxButtonContainer",
    "pf": "segScheduledTransactionsSelectedMobile",
    "tooltip": "Print",
    "wType": "Button",
    "zindex": 1
}