{
    "@class": "com.kony.gen.viz.model.component.KVizUserWidget",
    "DNDConfig": null,
    "__parentReadjusting__": false,
    "_android_": {},
    "_androidwearos_": {},
    "_children_": [],
    "_desktopweb_": {},
    "_height_": {
        "type": "ref",
        "value": "preferred"
    },
    "_ipad_": {},
    "_iphone_": {},
    "_kiosk_": {},
    "_left_": {
        "type": "string",
        "value": "0dp"
    },
    "_margin_": [
        0,
        0,
        0,
        0
    ],
    "_orientation_": 1,
    "_padding_": [
        0,
        0,
        0,
        0
    ],
    "_percent_": true,
    "_render_": true,
    "_responsiveData_": {},
    "_skin_": "s24c92fc23b14f5484b693ee9b8a9b35",
    "_spa_": {},
    "_spaan_": {},
    "_spaandroidtablet_": {},
    "_spabb_": {},
    "_spaip_": {},
    "_spaipad_": {},
    "_spamobile_": {},
    "_spatablet_": {},
    "_spawindowstablet_": {},
    "_spawinphone8_": {},
    "_tabrcandroid_": {},
    "_top_": {
        "type": "string",
        "value": "0dp"
    },
    "_vizProps_": {
        "hidewidgethierarchy": false
    },
    "_width_": {
        "type": "string",
        "value": "100%"
    },
    "_windows10_": {},
    "_windows8_": {},
    "_winphone10_": {},
    "_winphone8_": {},
    "areflexpropsreferenced": false,
    "autogrowmode": 1,
    "canUpdateUI": true,
    "clipbounds": false,
    "containerweight": 0,
    "dataDiffs": {
        "CopyimgSortAmount0g924e2b66fe845": {
            "__events__": {},
            "__info__": {
                "kuid": "f10fec3c3f1544cd98b779cbeb8aa570",
                "srcKUID": "a4effe23ecfa4bda8bb5551cd8b49c40",
                "wType": "Image"
            },
            "src": "sorting.png"
        },
        "CopylblAmount0c7d3995df3ba4f": {
            "__events__": {},
            "__info__": {
                "kuid": "cb7ee3f3ff7d496ab3f8720f166429af",
                "srcKUID": "ed67b12ea7fb4e18a12182d47078c642",
                "wType": "Label"
            },
            "i18n_text": "i18n.transfers.amountlabel"
        },
        "FlexContainer0f0bb233b14be48": {
            "__events__": {},
            "__info__": {
                "kuid": "e6fd3a936bba4a5bb85804cddefc0bea",
                "srcKUID": "b38542976e9647da9f064e17854d6b0e",
                "wType": "FlexContainer"
            }
        },
        "WireTransferActivityWindow": {
            "__events__": {},
            "__info__": {
                "isRoot": true,
                "kuid": "ca66a7a5f241473498f7be326f69b9d6",
                "srcKUID": "c8de57c84dcc44e0827972af99240b58",
                "wType": "FlexContainer"
            }
        },
        "btnbacktopayeelist": {
            "__events__": {},
            "__info__": {
                "kuid": "f5e74cc115a044e98ed56bf3ffe0ddc2",
                "srcKUID": "f6d419bdd1f443499f5a051b255a6c35",
                "wType": "Button"
            },
            "bottom": {},
            "height": {},
            "left": {},
            "responsiveData": {
                "b1": {
                    "height": {
                        "type": "string",
                        "value": "40dp"
                    }
                },
                "b2": {
                    "height": {
                        "type": "string",
                        "value": "40dp"
                    }
                },
                "b3": {
                    "bottom": {
                        "type": "string",
                        "value": ""
                    },
                    "height": {
                        "type": "string",
                        "value": "40dp"
                    },
                    "left": {
                        "type": "string",
                        "value": "10dp"
                    },
                    "right": {
                        "type": "string",
                        "value": "10dp"
                    },
                    "top": {
                        "type": "string",
                        "value": "22dp"
                    },
                    "width": {
                        "type": "string",
                        "value": ""
                    }
                },
                "b4": {
                    "height": {
                        "type": "string",
                        "value": "40dp"
                    }
                }
            },
            "right": {},
            "top": {},
            "width": {}
        },
        "flxAmount": {
            "__events__": {},
            "__info__": {
                "kuid": "a2390fc1280344f286f578809b8dc4f7",
                "srcKUID": "g53b9566a670401f9f1acc834616d898",
                "wType": "FlexContainer"
            },
            "layoutType": 2,
            "responsiveData": {},
            "right": {
                "Default": {
                    "type": "string",
                    "value": ""
                }
            },
            "width": {
                "Default": {
                    "type": "string",
                    "value": "20%"
                }
            }
        },
        "flxDate": {
            "__events__": {},
            "__info__": {
                "kuid": "c4f5b43b05ec4adaa0ee74b38b3459e8",
                "srcKUID": "b289ef4b3a4648c6a4df5d6e868c5d25",
                "wType": "FlexContainer"
            },
            "left": {
                "Default": {
                    "type": "string",
                    "value": "0%"
                }
            },
            "responsiveData": {},
            "width": {
                "Default": {
                    "type": "string",
                    "value": "20%"
                }
            }
        },
        "flxDetails": {
            "__events__": {},
            "__info__": {
                "kuid": "i825de532dab490cbca0a92fe0742647",
                "srcKUID": "d61302ad162d44948b8d7ab4bc2ff83a",
                "wType": "FlexContainer"
            },
            "autogrowMode": {
                "Default": 0
            },
            "height": {},
            "responsiveData": {
                "b3": {
                    "height": {
                        "type": "string",
                        "value": "100dp"
                    }
                }
            }
        },
        "flxFrom": {
            "__events__": {},
            "__info__": {
                "kuid": "e9a5e7e098f84c7291c5d76f936391a5",
                "srcKUID": "c9849c0f9c3c4b45ba1fab0fac8ad0a2",
                "wType": "FlexContainer"
            },
            "responsiveData": {
                "b2": {},
                "b4": {}
            },
            "width": {
                "Default": {
                    "type": "string",
                    "value": "32.50%"
                }
            }
        },
        "flxHeader": {
            "__events__": {},
            "__info__": {
                "kuid": "hf8b0aa8a87d4809bf668b5a711d6129",
                "srcKUID": "b5ea00e620d0477ba01a60aa26f1a98d",
                "wType": "FlexContainer"
            },
            "responsiveData": {
                "b4": {
                    "isVisible": true
                }
            }
        },
        "flxLeft": {
            "__events__": {},
            "__info__": {
                "kuid": "a225b18e97524c06a5d9e3b29da487f4",
                "srcKUID": "ef1a66cdacf146afb2ed1ce116b55422",
                "wType": "FlexContainer"
            },
            "responsiveData": {
                "b3": {
                    "isVisible": false
                }
            }
        },
        "flxNoRecords": {
            "__events__": {},
            "__info__": {
                "kuid": "b6b70abe2d25463db4b9f415f3784eb7",
                "srcKUID": "fc21a019348e444686398a998cad1a28",
                "wType": "FlexContainer"
            }
        },
        "flxRight": {
            "__events__": {},
            "__info__": {
                "kuid": "ae41f79e33144633be9f1c93e019a9e8",
                "srcKUID": "ab4777c1e46e4cc6a184a3319d71920b",
                "wType": "FlexContainer"
            },
            "autogrowMode": {
                "Default": 0
            },
            "height": {},
            "left": {},
            "responsiveData": {
                "b3": {
                    "height": {
                        "type": "string",
                        "value": "54dp"
                    },
                    "layoutType": 2,
                    "left": {
                        "type": "string",
                        "value": "15dp"
                    },
                    "right": {
                        "type": "string",
                        "value": "15dp"
                    },
                    "width": {
                        "type": "string",
                        "value": ""
                    }
                }
            },
            "right": {},
            "width": {}
        },
        "flxSegment": {
            "__events__": {},
            "__info__": {
                "kuid": "h64c3e276c8e4886a57868a7a0ebc7b3",
                "srcKUID": "hc1cff3d52c54cf9b6020ac22b4b98d3",
                "wType": "FlexContainer"
            }
        },
        "flxSegmentBillPay": {
            "__events__": {},
            "__info__": {
                "kuid": "d37c7e6b361e4933b337518f963b8be5",
                "srcKUID": "c05716fe3bc644d294dd79810b0f5d58",
                "wType": "FlexContainer"
            }
        },
        "flxSeparator": {
            "__events__": {},
            "__info__": {
                "kuid": "d5e7dcc3f9544fd9b616120b21d0fae3",
                "srcKUID": "h7ed40ad4182497cbc59c7ce94c8293b",
                "wType": "FlexContainer"
            },
            "responsiveData": {
                "b4": {
                    "top": {
                        "type": "string",
                        "value": "0dp"
                    }
                }
            },
            "top": {}
        },
        "flxSeparatorDetails": {
            "__events__": {},
            "__info__": {
                "kuid": "aeb4f3a35fe74557a779046170068d0c",
                "srcKUID": "fbe12d2a24ab4824a6f9a15a9b49e4dd",
                "wType": "FlexContainer"
            }
        },
        "flxSeparatorSort": {
            "__events__": {},
            "__info__": {
                "kuid": "a3f2fcb4b785490f9d7bbb2775f0469c",
                "srcKUID": "gffd1b0c3cc742cc8ddcdeaf6becacb7",
                "wType": "FlexContainer"
            },
            "autogrowMode": {
                "Default": 0
            },
            "height": {},
            "responsiveData": {
                "b3": {
                    "height": {
                        "type": "string",
                        "value": "0dp"
                    },
                    "isVisible": false,
                    "width": {
                        "type": "string",
                        "value": "0%"
                    }
                }
            },
            "width": {}
        },
        "flxSort": {
            "__events__": {},
            "__info__": {
                "kuid": "aa22ed2fc92b4b38b8ee286d7a98ca50",
                "srcKUID": "d825fb1986074b3e95600549ed6cf486",
                "wType": "FlexContainer"
            },
            "autogrowMode": {
                "Default": 0
            },
            "height": {},
            "responsiveData": {
                "b3": {
                    "height": {
                        "type": "string",
                        "value": "0dp"
                    },
                    "isVisible": false,
                    "width": {
                        "type": "string",
                        "value": "0%"
                    }
                }
            },
            "width": {}
        },
        "flxStatus": {
            "__events__": {},
            "__info__": {
                "kuid": "bc3cf4fcf0e64411adacdf3049563c5b",
                "srcKUID": "fa18ae84b6eb4e1ba8fbab7422f17edf",
                "wType": "FlexContainer"
            },
            "left": {
                "Default": {
                    "type": "string",
                    "value": "4%"
                }
            },
            "responsiveData": {},
            "width": {
                "Default": {
                    "type": "string",
                    "value": "19%"
                }
            }
        },
        "flxamountmod": {
            "__events__": {},
            "__info__": {
                "kuid": "h5a1abc0711a4a809b7b5346fc80651d",
                "srcKUID": "i14fbe6bec204309b5af090831c1a3b1",
                "wType": "FlexContainer"
            }
        },
        "flxamountmodified": {
            "__events__": {},
            "__info__": {
                "kuid": "f9528eb1224b428387eff89e686de4a0",
                "srcKUID": "aed89a44f8734b9cbbbc3cc6a7d54c80",
                "wType": "FlexContainer"
            }
        },
        "flxbtn": {
            "__events__": {},
            "__info__": {
                "kuid": "a8ff73841ee249ed8ccc0619c06c8f7b",
                "srcKUID": "gf6fdcb9ba2d459cb970fc2dd79c5b23",
                "wType": "FlexContainer"
            }
        },
        "flxdatemod": {
            "__events__": {},
            "__info__": {
                "kuid": "h9c22ae554c448b5a10c5e5e584c8dad",
                "srcKUID": "c3747bc6ad7f4df6bbc97dd93773840b",
                "wType": "FlexContainer"
            }
        },
        "flxfromaccountimgmod": {
            "__events__": {},
            "__info__": {
                "kuid": "b33e7079dd3c4983bac110753edb9036",
                "srcKUID": "d9ebb35a2c224da0967c9f27a1675853",
                "wType": "Image"
            },
            "src": "sorting.png"
        },
        "flxfromaccountlblmod": {
            "__events__": {},
            "__info__": {
                "kuid": "f243d47e386f445faeded669678306a2",
                "srcKUID": "b3d082adc9f34e349d5de3e7fcc1d209",
                "wType": "Label"
            },
            "i18n_text": "i18n.transfers.fromAccount"
        },
        "flxfromaccountmod": {
            "__events__": {},
            "__info__": {
                "kuid": "g060ca8f3bc5464286a710dc221cf7a5",
                "srcKUID": "bdc3fde815c34a54b7556aa6ea22557c",
                "wType": "FlexContainer"
            }
        },
        "flximgdatemod": {
            "__events__": {},
            "__info__": {
                "kuid": "f55e7904901142258d52e0918ba70ca5",
                "srcKUID": "he4bc6f23b5c45dd9c48ebd31e6c5eee",
                "wType": "Image"
            },
            "src": "sorting.png"
        },
        "flxlbldatemod": {
            "__events__": {},
            "__info__": {
                "kuid": "cd15e5b4dd5c483e8860bcd33845b23c",
                "srcKUID": "dbfd812d4e584acabf3b8847aa46e72e",
                "wType": "Label"
            },
            "i18n_text": "i18n.Transfers.PaidDate"
        },
        "flxsorttransfers": {
            "__events__": {},
            "__info__": {
                "kuid": "eb39fccbfc524027ae6decba5b5cea22",
                "srcKUID": "d5ed2d8ce74445d78eb36ee569edd2d5",
                "wType": "FlexContainer"
            },
            "autogrowMode": {
                "Default": 0
            },
            "height": {},
            "responsiveData": {
                "b3": {
                    "height": {
                        "type": "string",
                        "value": "0dp"
                    },
                    "isVisible": false,
                    "width": {
                        "type": "string",
                        "value": "0%"
                    }
                }
            },
            "width": {}
        },
        "flxtransferActivityWrapper": {
            "__events__": {},
            "__info__": {
                "kuid": "i4ad8097dac24dd58114ab4902469352",
                "srcKUID": "ece61d08bf5c4801b84c53ae53115efe",
                "wType": "FlexContainer"
            },
            "responsiveData": {
                "b3": {
                    "width": {
                        "type": "string",
                        "value": "100%"
                    }
                },
                "b4": {
                    "width": {
                        "type": "string",
                        "value": "100%"
                    }
                }
            },
            "width": {}
        },
        "imgInfo": {
            "__events__": {},
            "__info__": {
                "kuid": "e662e594243a466d836b581f5431145c",
                "srcKUID": "he0b99b7a0a94fe382a1a5b2d0256c02",
                "wType": "Image"
            },
            "left": {},
            "responsiveData": {
                "b3": {
                    "left": {
                        "type": "string",
                        "value": "10dp"
                    }
                }
            },
            "src": "info_large.png"
        },
        "imgSortAmount": {
            "__events__": {},
            "__info__": {
                "kuid": "c5d2e45ad3044e1bbd09bdf5174030a5",
                "srcKUID": "eba379b8d83b4a71a032f2bbf1f10175",
                "wType": "Image"
            },
            "src": "sorting.png"
        },
        "imgSortDate": {
            "__events__": {},
            "__info__": {
                "kuid": "j0db038cf5744001be32b8a0927ecfa9",
                "srcKUID": "h8fdd05928144545bab5225bac4a9cf0",
                "wType": "Image"
            },
            "src": "sorting.png"
        },
        "imgSortFrom": {
            "__events__": {},
            "__info__": {
                "kuid": "cfd48f2255d54b8285727b49a1a0c812",
                "srcKUID": "f510a2f77a95438c8d125019de7ea198",
                "wType": "Image"
            },
            "src": "sorting.png"
        },
        "imgSortStatus": {
            "__events__": {},
            "__info__": {
                "kuid": "bf40b3e546a64b67bac4849df3136508",
                "srcKUID": "j43f7ee979fc4c62892ba638667b1da8",
                "wType": "Image"
            },
            "src": "sorting.png"
        },
        "imgamountmod": {
            "__events__": {},
            "__info__": {
                "kuid": "b2f6bcec3379498c87e82d865b8d42fc",
                "srcKUID": "e356f458815f454e8dfcecef2c7335b5",
                "wType": "Label"
            },
            "i18n_text": "i18n.billPay.Status"
        },
        "imgamountmodified": {
            "__events__": {},
            "__info__": {
                "kuid": "jc059d5dbddc4b9d93c13b1e87508080",
                "srcKUID": "jf0e7892172149b89ed86e19545816e9",
                "wType": "Image"
            },
            "src": "sorting.png"
        },
        "lblAccountHolder": {
            "__events__": {},
            "__info__": {
                "kuid": "c5502fbbc1df490d9331c0a796faed45",
                "srcKUID": "e68ce4722f09433a8e107bd6a39552e6",
                "wType": "Label"
            }
        },
        "lblAccountName": {
            "__events__": {},
            "__info__": {
                "kuid": "c25881e2c5954fb7ac721a0d4c8a7b6b",
                "srcKUID": "b373655475fe41b29a95d9c3e40b2e6c",
                "wType": "Label"
            },
            "i18n_text": "i18n.WireTransfers.BenjaminDas",
            "top": {
                "Default": {
                    "type": "string",
                    "value": "16dp"
                }
            }
        },
        "lblAmount": {
            "__events__": {},
            "__info__": {
                "kuid": "b186d05c507449c7a0c5901061916e48",
                "srcKUID": "i603e683e7304e55b0c568fb6c267faf",
                "wType": "Label"
            },
            "i18n_text": "i18n.transfers.amountlabel",
            "left": {
                "Default": {
                    "type": "string",
                    "value": ""
                }
            },
            "responsiveData": {
                "b4": {}
            },
            "right": {
                "Default": {
                    "type": "string",
                    "value": "20%"
                }
            }
        },
        "lblAmountDeducted": {
            "__events__": {},
            "__info__": {
                "kuid": "f7b2fa0e02d941c9a873e190f25fef06",
                "srcKUID": "a27f8f9eae7047afa9d5abadf5867aeb",
                "wType": "Label"
            },
            "centerY": {},
            "left": {},
            "responsiveData": {
                "b3": {
                    "centerY": {
                        "type": "string",
                        "value": "50%"
                    },
                    "left": {
                        "type": "string",
                        "value": ""
                    },
                    "right": {
                        "type": "string",
                        "value": "10dp"
                    },
                    "top": {
                        "type": "string",
                        "value": ""
                    }
                }
            },
            "right": {},
            "top": {}
        },
        "lblAmountDeductedTitle": {
            "__events__": {},
            "__info__": {
                "kuid": "g534a383d46343a4a4995b4141978059",
                "srcKUID": "b5a169374e424b6db8d3516e0a1ea0e5",
                "wType": "Label"
            },
            "centerX": {},
            "centerY": {},
            "left": {},
            "responsiveData": {
                "b3": {
                    "centerX": {
                        "type": "string",
                        "value": ""
                    },
                    "centerY": {
                        "type": "string",
                        "value": "50%"
                    },
                    "left": {
                        "type": "string",
                        "value": "10dp"
                    },
                    "top": {
                        "type": "string",
                        "value": ""
                    }
                }
            },
            "top": {}
        },
        "lblDate": {
            "__events__": {},
            "__info__": {
                "kuid": "f39ed6b33bd843059cd7751ccbb0d241",
                "srcKUID": "bdf237a6bd244a9e991ea19037ea9d3b",
                "wType": "Label"
            },
            "left": {
                "Default": {
                    "type": "string",
                    "value": "0dp"
                }
            },
            "responsiveData": {}
        },
        "lblFrom": {
            "__events__": {},
            "__info__": {
                "kuid": "fd9fc7c85d094368bd4588ac46eedbc5",
                "srcKUID": "h6084a07e1f343df95feea1e2d21ccdb",
                "wType": "Label"
            }
        },
        "lblHeader": {
            "__events__": {},
            "__info__": {
                "kuid": "fd1d03c49a1749d29d8d170cac2860cd",
                "srcKUID": "e524701ca4c041bcb099853fb7221ae5",
                "wType": "Label"
            }
        },
        "lblStatus": {
            "__events__": {},
            "__info__": {
                "kuid": "af151396d0de492d8256f94d527db32d",
                "srcKUID": "i14126be298a46edb0915e04be16b8b4",
                "wType": "Label"
            },
            "i18n_text": "i18n.billPay.Status",
            "left": {
                "Default": {
                    "type": "string",
                    "value": "30%"
                }
            },
            "responsiveData": {}
        },
        "lblToTitle": {
            "__events__": {},
            "__info__": {
                "kuid": "he5ec95d8e884d108c85df296b668b47",
                "srcKUID": "f408192be98a4343900474f1f37ce370",
                "wType": "Label"
            },
            "top": {
                "Default": {
                    "type": "string",
                    "value": "20dp"
                }
            }
        },
        "rtxNoRecords": {
            "__events__": {},
            "__info__": {
                "kuid": "a16516766cc94efa808d0f484a2d0d68",
                "srcKUID": "d1023be3a8ad47a48e4f4ef698d90719",
                "wType": "RichText"
            },
            "i18n_text": "i18n.PayAPerson.NoRecords",
            "left": {},
            "responsiveData": {
                "b1": {
                    "left": {
                        "type": "string",
                        "value": "80dp"
                    }
                },
                "b2": {
                    "left": {
                        "type": "string",
                        "value": "80dp"
                    }
                },
                "b3": {
                    "left": {
                        "type": "string",
                        "value": "60dp"
                    },
                    "width": {
                        "type": "string",
                        "value": "78%"
                    }
                },
                "b4": {
                    "left": {
                        "type": "string",
                        "value": "80dp"
                    }
                }
            },
            "width": {}
        },
        "segBillPayActivity": {
            "__events__": {},
            "__info__": {
                "kuid": "g61b63c64cd940d8b7940fbde125db7c",
                "srcKUID": "j4d99c9975da4123abe641a28962ccaa",
                "wType": "Segment"
            }
        },
        "segTransferActivity": {
            "__events__": {},
            "__info__": {
                "kuid": "f172313b84074983862fd2088a669d2e",
                "srcKUID": "g7324da504ba4e7d970c55add972afe8",
                "wType": "Segment"
            }
        },
        "tablePagination": {
            "__events__": {},
            "__info__": {
                "kuid": "a9505a18cb4a481f89b5eb24e6e4f3d2",
                "srcKUID": "cab04dfe3ca44e8eb8669290c1f15eaa",
                "wType": "UserWidgetInstance"
            }
        },
        "tablePagination.flxPagination": {
            "__events__": {},
            "__info__": {
                "kuid": "f04f250932f04d938aab95b4b6fcc7f9",
                "srcKUID": "h1a1b169bca342ef9a8bb1ee03cae7b2",
                "wType": "FlexContainer"
            }
        },
        "tablePagination.flxPaginationFirst": {
            "__events__": {},
            "__info__": {
                "kuid": "db694cc795c0451a82708da05a3612ab",
                "srcKUID": "e5b2d886d7b64b62a05a6c52293fd933",
                "wType": "FlexContainer"
            }
        },
        "tablePagination.flxPaginationLast": {
            "__events__": {},
            "__info__": {
                "kuid": "d2ff5436ad59415f94b3c6be7d00b2f1",
                "srcKUID": "b6359474391b4ad1a57161fb8aef14bb",
                "wType": "FlexContainer"
            }
        },
        "tablePagination.flxPaginationNext": {
            "__events__": {},
            "__info__": {
                "kuid": "g5c86179c3fe48508c4eff0f763ac96a",
                "srcKUID": "he68218e1abd4d009e3772869335c904",
                "wType": "FlexContainer"
            }
        },
        "tablePagination.flxPaginationPrevious": {
            "__events__": {},
            "__info__": {
                "kuid": "c7942854682d412a993c9f503538b406",
                "srcKUID": "bc136089625441628ff0c2cf46d9f93a",
                "wType": "FlexContainer"
            }
        },
        "tablePagination.flxPaginationWrapper": {
            "__events__": {},
            "__info__": {
                "kuid": "c6b7825ae55d419a9a8c8941cf661d94",
                "srcKUID": "a4428bc2df354c6f975c090cc7211fd9",
                "wType": "FlexContainer"
            }
        },
        "tablePagination.imgPaginationFirst": {
            "__events__": {},
            "__info__": {
                "kuid": "d84630b364224703ab07e741ffdd8536",
                "srcKUID": "j0fe1d9d7cc5410e8c663fa9a4ac394a",
                "wType": "Image"
            }
        },
        "tablePagination.imgPaginationLast": {
            "__events__": {},
            "__info__": {
                "kuid": "fedb3045edf743bdb979b13008897085",
                "srcKUID": "h7e75dd1d5e244da8933a3ffdda154d2",
                "wType": "Image"
            }
        },
        "tablePagination.imgPaginationNext": {
            "__events__": {},
            "__info__": {
                "kuid": "bf70a6e1b1b54f0f8a3114040e469fa8",
                "srcKUID": "d1b30bab5c844764b139ccf95299276f",
                "wType": "Image"
            }
        },
        "tablePagination.imgPaginationPrevious": {
            "__events__": {},
            "__info__": {
                "kuid": "bebe84e5fa824f99a0ccc33d6989e163",
                "srcKUID": "c3dbc45d70c34692af67a2e10f9412c8",
                "wType": "Image"
            }
        },
        "tablePagination.lblPagination": {
            "__events__": {},
            "__info__": {
                "kuid": "e70f50b0452e45b5ac6fdddc594c05fd",
                "srcKUID": "a5fc3c3441784030ba941c260c57922f",
                "wType": "Label"
            }
        },
        "tablePaginationWireTransfer": {
            "__events__": {},
            "__info__": {
                "kuid": "gdcbd914586643c686dc0a57f6f71f04",
                "srcKUID": "g312474218b948789aec22d511eebb43",
                "wType": "UserWidgetInstance"
            }
        },
        "tablePaginationWireTransfer.flxPagination": {
            "__events__": {},
            "__info__": {
                "kuid": "ga03d22e35f94dbe97888c3c438a3556",
                "srcKUID": "f5ee830fb8b44225aec2d6e01dfbbe91",
                "wType": "FlexContainer"
            }
        },
        "tablePaginationWireTransfer.flxPaginationFirst": {
            "__events__": {},
            "__info__": {
                "kuid": "b16acf197cb14ed8b619ae7b19c42b15",
                "srcKUID": "c8e29f3b383b41dc85e26f55e53446ac",
                "wType": "FlexContainer"
            }
        },
        "tablePaginationWireTransfer.flxPaginationLast": {
            "__events__": {},
            "__info__": {
                "kuid": "d8aa1f6965074ce0b3c7917464ab43a0",
                "srcKUID": "c16de52fc1684f2b9c9b755a7ea0f36b",
                "wType": "FlexContainer"
            }
        },
        "tablePaginationWireTransfer.flxPaginationNext": {
            "__events__": {},
            "__info__": {
                "kuid": "if912d4795b04dd297d77b2d477a4ebf",
                "srcKUID": "f20cab020dc04665bab6257a4cee1f32",
                "wType": "FlexContainer"
            }
        },
        "tablePaginationWireTransfer.flxPaginationPrevious": {
            "__events__": {},
            "__info__": {
                "kuid": "hf2fb4fd6aae49b0bba5dca27cbacef2",
                "srcKUID": "de409efd2bc347e182ee9747285862f5",
                "wType": "FlexContainer"
            }
        },
        "tablePaginationWireTransfer.flxPaginationWrapper": {
            "__events__": {},
            "__info__": {
                "kuid": "f7cf66d608b84bc1a5fee5a725cabe09",
                "srcKUID": "cc9c9f896631428e814476d6fa9df09d",
                "wType": "FlexContainer"
            }
        },
        "tablePaginationWireTransfer.imgPaginationFirst": {
            "__events__": {},
            "__info__": {
                "kuid": "he182946e8c34e738ebf400267a2b46d",
                "srcKUID": "h237abb71c884a46935777d5fedb7bb1",
                "wType": "Image"
            }
        },
        "tablePaginationWireTransfer.imgPaginationLast": {
            "__events__": {},
            "__info__": {
                "kuid": "c657439d272340b4bc62e7700f846a26",
                "srcKUID": "b51c82e47aa349e49855d700ec6ac230",
                "wType": "Image"
            }
        },
        "tablePaginationWireTransfer.imgPaginationNext": {
            "__events__": {},
            "__info__": {
                "kuid": "a974156dab864b288751fad9ad029f18",
                "srcKUID": "a370b7e2de054fed83de70aae2316778",
                "wType": "Image"
            }
        },
        "tablePaginationWireTransfer.imgPaginationPrevious": {
            "__events__": {},
            "__info__": {
                "kuid": "gc4e0d7777d14fe58f7dda2dbcbf1d2b",
                "srcKUID": "df278be799a641ac94c3cf79e2e2abb3",
                "wType": "Image"
            }
        },
        "tablePaginationWireTransfer.lblPagination": {
            "__events__": {},
            "__info__": {
                "kuid": "af28151e61b943d8bb4b00e02d4b3af9",
                "srcKUID": "d0cdc9b90ed94901b0643bc2e4a39e22",
                "wType": "Label"
            }
        }
    },
    "id": "WireTransferActivityWindow",
    "info": null,
    "isdatareferenced": false,
    "isvisible": true,
    "kuid": "a411cff460d94b73bcb226995a1319db",
    "layouttype": 4,
    "masterType": 0,
    "name": "kony.ui.UserWidgetInstance",
    "parent": "flxWireTransferActivityWindow",
    "pf": "frmWireTransfer",
    "snaptogrid": true,
    "sourceUserWidget": "c8de57c84dcc44e0827972af99240b58",
    "vizprops": {
        "hidewidgethierarchy": false
    },
    "wType": "UserWidgetInstance"
}