{
    "DNDConfig": null,
    "__parentReadjusting__": false,
    "_height_": {
        "type": "string",
        "value": "60dp"
    },
    "_left_": {
        "type": "string",
        "value": "0dp"
    },
    "_margin_": [
        0,
        0,
        0,
        0
    ],
    "_orientation_": 6,
    "_padding_": [
        0,
        0,
        0,
        0
    ],
    "_percent_": true,
    "_skin_": "s344174b66d24a22be7a954acfcdefc5",
    "_top_": {
        "type": "string",
        "value": "0dp"
    },
    "_width_": {
        "type": "string",
        "value": "100%"
    },
    "allboxes": [],
    "canUpdateUI": true,
    "children": [
        "lblCallUsAt",
        "flxSperator"
    ],
    "clipbounds": true,
    "containerweight": 100,
    "desktopweb": {
        "psp": {
            "hoverSkin": "s6c4cbf31f7c4fc08f7236fc38f01a0e"
        }
    },
    "disabledSkins": {},
    "enablescrolling": true,
    "hoverskin": "",
    "id": "flxCallUsAt",
    "info": null,
    "isvisible": true,
    "kuid": "f6e22dcff6944c5bb89d8dc3ea3f993c",
    "layouttype": 2,
    "name": "kony.ui.FlexContainer",
    "parent": "flxRightBarContactDetails",
    "pf": "frmShortTermDeposit",
    "responsiveData": {
        "b1": {
            "desktopweb": {
                "psp": {}
            },
            "disabledSkins": {
                "hoverSkin": "secff68ee7904525acebc42c36c39094"
            },
            "height": {
                "type": "string",
                "value": "50dp"
            },
            "top": {
                "type": "string",
                "value": "-1dp"
            }
        }
    },
    "snapgridsize": 10,
    "snaptogrid": true,
    "wType": "FlexContainer",
    "widgetalignment": 1,
    "zindex": 1
}