{
    "DNDConfig": null,
    "__parentReadjusting__": false,
    "_height_": {
        "type": "string",
        "value": "60dp"
    },
    "_left_": {
        "type": "string",
        "value": "0%"
    },
    "_margin_": [
        0,
        0,
        0,
        0
    ],
    "_orientation_": 6,
    "_padding_": [
        0,
        0,
        0,
        0
    ],
    "_percent_": true,
    "_skin_": "s344174b66d24a22be7a954acfcdefc5",
    "_top_": {
        "type": "string",
        "value": "0px"
    },
    "_width_": {
        "type": "string",
        "value": "100%"
    },
    "allboxes": [],
    "canUpdateUI": true,
    "children": [
        "lblHeader",
        "flxSeperator"
    ],
    "clipbounds": true,
    "containerweight": 100,
    "enablescrolling": true,
    "id": "flxHaveQuestions",
    "info": null,
    "isvisible": true,
    "kuid": "d423c23f61aa436cbee2bc4b5f7de549",
    "layouttype": 2,
    "name": "kony.ui.FlexContainer",
    "parent": "flxRightBarContactDetails",
    "pf": "frmShortTermDeposit",
    "responsiveData": {
        "b1": {
            "height": {
                "type": "string",
                "value": "50dp"
            },
            "skin": "s344174b66d24a22be7a954acfcdefc5",
            "top": {
                "type": "string",
                "value": "0px"
            }
        }
    },
    "snapgridsize": 10,
    "snaptogrid": true,
    "wType": "FlexContainer",
    "widgetalignment": 1,
    "zindex": 1
}