{
    "@class": "com.kony.gen.viz.model.component.KVizUserWidget",
    "DNDConfig": null,
    "__parentReadjusting__": false,
    "_android_": {},
    "_androidwearos_": {},
    "_children_": [],
    "_desktopweb_": {},
    "_height_": {
        "type": "ref",
        "value": "preferred"
    },
    "_ipad_": {},
    "_iphone_": {},
    "_kiosk_": {},
    "_left_": {
        "type": "string",
        "value": "8dp"
    },
    "_margin_": [
        0,
        0,
        0,
        0
    ],
    "_orientation_": 1,
    "_padding_": [
        0,
        0,
        0,
        0
    ],
    "_percent_": true,
    "_responsiveData_": {
        "b1": {
            "top": {
                "type": "string",
                "value": "0dp"
            }
        }
    },
    "_skin_": "sdc143f0e5b64ae3a3f155f691c73fa7",
    "_spa_": {},
    "_spaan_": {},
    "_spaandroidtablet_": {},
    "_spabb_": {},
    "_spaip_": {},
    "_spaipad_": {},
    "_spamobile_": {},
    "_spatablet_": {},
    "_spawindowstablet_": {},
    "_spawinphone8_": {},
    "_tabrcandroid_": {},
    "_top_": {
        "type": "string",
        "value": "0dp"
    },
    "_vizProps_": {
        "hidewidgethierarchy": false
    },
    "_width_": {
        "type": "string",
        "value": "100%"
    },
    "_windows10_": {},
    "_windows8_": {},
    "_winphone10_": {},
    "_winphone8_": {},
    "areflexpropsreferenced": false,
    "autogrowmode": 1,
    "canUpdateUI": true,
    "clipbounds": false,
    "containerweight": 0,
    "dataDiffs": {
        "AllForms": {
            "__events__": {},
            "__info__": {
                "kuid": "e6b098b47e684cd29cf39d51f27451f6",
                "srcKUID": "b571e721a0b949feb78266be41e593b1",
                "wType": "UserWidgetInstance"
            }
        },
        "AllForms.RichTextInfo": {
            "__events__": {},
            "__info__": {
                "kuid": "j6f6e62f0e4d4c5f9196b606e7024a76",
                "srcKUID": "d535d32cae6a43ceaec085f6d420a951",
                "wType": "RichText"
            }
        },
        "AllForms.flxAccountType": {
            "__events__": {},
            "__info__": {
                "kuid": "e4cc621583aa4e4390ccffd1970ba0f7",
                "srcKUID": "f845f84379c54c9abacb230a999425a5",
                "wType": "FlexContainer"
            }
        },
        "AllForms.flxCross": {
            "__events__": {},
            "__info__": {
                "kuid": "e5581677e9bb4adc9b8cb661443ea052",
                "srcKUID": "b465d770ddfa452abbc23d8e94cb75fb",
                "wType": "FlexContainer"
            }
        },
        "AllForms.flxInformation": {
            "__events__": {},
            "__info__": {
                "kuid": "i4d44f4c48254707aaf4c8347c2aa39f",
                "srcKUID": "af63ecf54faa4f3e92fd52a12620ebef",
                "wType": "FlexContainer"
            }
        },
        "AllForms.flxInformationText": {
            "__events__": {},
            "__info__": {
                "kuid": "f6c23ead4979445089c6256f65bad749",
                "srcKUID": "b41f3eac154d46c5aaa7974363ee26ad",
                "wType": "FlexContainer"
            }
        },
        "AllForms.imgCross": {
            "__events__": {},
            "__info__": {
                "kuid": "f4ca6f8897a645bb97eb5d95a783c444",
                "srcKUID": "c34d9bf5cc59417184d2caf2aa47e267",
                "wType": "Image"
            },
            "src": "bbcloseicon.png"
        },
        "AllForms.imgToolTip": {
            "__events__": {},
            "__info__": {
                "kuid": "g3c559f0d5ee47f48f75eb23788e86a6",
                "srcKUID": "i35555787d354b7090fb0257dfbc3ad1",
                "wType": "Image"
            },
            "src": "tool_tip.png"
        },
        "AllForms.lblInfo": {
            "__events__": {},
            "__info__": {
                "kuid": "ec0ea1e75ec4492084194210b6aedfcd",
                "srcKUID": "d633dfda720a49dd910f652042891d01",
                "wType": "Label"
            }
        },
        "AllForms.lblSeperator": {
            "__events__": {},
            "__info__": {
                "kuid": "dee28fb858c24a4bacf42ed159ff1ca8",
                "srcKUID": "j9ac10b4aabd43a5abd9cd360c54d525",
                "wType": "Label"
            }
        },
        "CopylblEMIAmount0e22cd6d13e4f47": {
            "__events__": {},
            "__info__": {
                "kuid": "b745d721a6774f81b86fa08132b42456",
                "srcKUID": "da93a311e53441859d8ddd1358e30a6a",
                "wType": "Label"
            }
        },
        "FlexGroup0ca9a6ea55a1e46": {
            "__events__": {},
            "__info__": {
                "kuid": "j7baca451c234da3810418c7ee450800",
                "srcKUID": "e8679be82bd4475bbc4b2ffc7e21596c",
                "wType": "FlexContainer"
            }
        },
        "LoanDetails": {
            "__events__": {},
            "__info__": {
                "isRoot": true,
                "kuid": "ba5be4d31c984c4fb7ccfd748b763d5f",
                "srcKUID": "eaa33efab08c43a3b22cdd8cc7d32b65",
                "wType": "FlexContainer"
            },
            "responsiveData": {
                "b1": {
                    "top": {
                        "type": "string",
                        "value": "0dp"
                    }
                }
            },
            "top": {}
        },
        "btnCancel": {
            "__events__": {},
            "__info__": {
                "kuid": "cf14a71ae2e142f0bdf8b79787a90060",
                "srcKUID": "edbb64b70d5e40b4a7acc799e1999f7e",
                "wType": "Button"
            },
            "i18n_text": "i18n.ProfileManagement.BACK",
            "responsiveData": {}
        },
        "btnConfirm": {
            "__events__": {},
            "__info__": {
                "kuid": "c58f3f19bf6742c587d089c070be6d79",
                "srcKUID": "f87d4e0058dd4780bcb487bd0ea43f43",
                "wType": "Button"
            }
        },
        "btnTermsAndConditions": {
            "__events__": {},
            "__info__": {
                "kuid": "i6f85c18eadb48bca61a7fea554921d7",
                "srcKUID": "f3ba348c325b42f5a6a0995084c878f5",
                "wType": "Button"
            }
        },
        "btnloanDetailsCancel": {
            "__events__": {},
            "__info__": {
                "kuid": "af62db12d49246c69084622e2830faf1",
                "srcKUID": "c6828373ee6b4723b4abfd0338fca9cf",
                "wType": "Button"
            }
        },
        "flxCheckbox": {
            "__events__": {},
            "__info__": {
                "kuid": "a953ad372287451985fa7657d200c096",
                "srcKUID": "edbfe243cd894434ba59bd08bbd9538c",
                "wType": "FlexContainer"
            }
        },
        "flxContent": {
            "__events__": {},
            "__info__": {
                "kuid": "a3699cb8b65c40daacc0526074763585",
                "srcKUID": "da5eb382a0394308b89461b026706417",
                "wType": "FlexContainer"
            },
            "isVisible": true,
            "responsiveData": {}
        },
        "flxError": {
            "__events__": {},
            "__info__": {
                "kuid": "jde1a6a9980542aa92c16774c1b02d4c",
                "srcKUID": "ib94a643d97147d8a98588fe377f332c",
                "wType": "FlexContainer"
            }
        },
        "flxFollowingPoints": {
            "__events__": {},
            "__info__": {
                "kuid": "cdde3ba9b203491eaa1660fe3526b9a6",
                "srcKUID": "b949b0c70499437699a7723189e05322",
                "wType": "FlexContainer"
            }
        },
        "flxHeader": {
            "__events__": {},
            "__info__": {
                "kuid": "aaddcc5c7cee4404b1092c4835f34f99",
                "srcKUID": "cc75483bc4c54d4aa7271f3d01bd780e",
                "wType": "FlexContainer"
            },
            "responsiveData": {
                "b1": {
                    "top": {
                        "type": "string",
                        "value": "0dp"
                    }
                },
                "b2": {
                    "top": {
                        "type": "string",
                        "value": "0dp"
                    }
                }
            },
            "top": {}
        },
        "flxPleaseNoteTheFollowingPoints": {
            "__events__": {},
            "__info__": {
                "kuid": "f917ea81ca6b47fcb7b4d715eb1c0569",
                "srcKUID": "i5f9c2ea723b4a2997fee9fd50bd9f99",
                "wType": "FlexContainer"
            }
        },
        "flxSeparator": {
            "__events__": {},
            "__info__": {
                "kuid": "i5f55e1b15654790af4351518f1a3cb3",
                "srcKUID": "d623f413786a4912a01ef29b4294405f",
                "wType": "FlexContainer"
            }
        },
        "flxSeparator2": {
            "__events__": {},
            "__info__": {
                "kuid": "g37106a8f723427b8faedf832e74ea60",
                "srcKUID": "e1088a31bec747ff8a56f9eeeaa1f8c4",
                "wType": "FlexContainer"
            }
        },
        "flxTCCheckBox": {
            "__events__": {},
            "__info__": {
                "kuid": "id68013dad41436a8d153f1c661dbf82",
                "srcKUID": "gf63cd8d151049d9b05fa6adbc4f9cfc",
                "wType": "FlexContainer"
            },
            "left": {},
            "responsiveData": {
                "b1": {
                    "left": {
                        "type": "string",
                        "value": "48dp"
                    }
                }
            }
        },
        "flxTCContentsCheckbox": {
            "__events__": {},
            "__info__": {
                "kuid": "fcd399e8f6444abdb87ff5395e848ac4",
                "srcKUID": "ebbf13d12ada4db096de9599b450eaac",
                "wType": "FlexContainer"
            },
            "left": {},
            "responsiveData": {
                "b1": {
                    "left": {
                        "type": "string",
                        "value": "0dp"
                    }
                }
            }
        },
        "flxa": {
            "__events__": {},
            "__info__": {
                "kuid": "e70fb8daeb8a4e878341c2fb5a62c15c",
                "srcKUID": "d0cec231d9c848b1b528b0145daf6622",
                "wType": "FlexContainer"
            }
        },
        "imgCheckbox": {
            "__events__": {},
            "__info__": {
                "kuid": "h503d58bd5124929b39f13196d5f7d7e",
                "srcKUID": "eaa0e934fa694b3aa478d77c0f24911c",
                "wType": "Image"
            },
            "src": "unchecked_box.png"
        },
        "imgError": {
            "__events__": {},
            "__info__": {
                "kuid": "e1844b80a0d64a0e83ca6228c5cf6da3",
                "srcKUID": "j6ec728f35164393949f76de6bfacfd1",
                "wType": "Image"
            },
            "src": "error_yellow.png"
        },
        "imgInfo": {
            "__events__": {},
            "__info__": {
                "kuid": "ad7730ee2b1f4d9685257817d712d626",
                "srcKUID": "e7c0278f0ad14c6aa9c4d99ec4b11bdc",
                "wType": "Image"
            },
            "src": "info_large.png"
        },
        "imgInfoTC": {
            "__events__": {},
            "__info__": {
                "kuid": "baba4180b6e94c28bc9183ae94886d5b",
                "srcKUID": "id93d08d433a46eb9e96a580d9a1f1fa",
                "wType": "Image"
            },
            "left": {},
            "responsiveData": {
                "b1": {
                    "left": {
                        "type": "string",
                        "value": "2%"
                    }
                }
            },
            "src": "info.png"
        },
        "imgTCContentsCheckbox": {
            "__events__": {},
            "__info__": {
                "kuid": "b597830602404102bad16ac07af15c10",
                "srcKUID": "b1d930fed5f2451eada3235efeb606fa",
                "wType": "Image"
            },
            "src": "unchecked_box.png"
        },
        "lblAgree": {
            "__events__": {},
            "__info__": {
                "kuid": "g71a8d71e55f41f9ba3553410b2069b1",
                "srcKUID": "g9ce4f00a2a44fbd924967f0a902586c",
                "wType": "Label"
            },
            "responsiveData": {
                "b1": {
                    "isVisible": false
                }
            }
        },
        "lblAmount": {
            "__events__": {},
            "__info__": {
                "kuid": "cca66dffd5b045aebf4e02bb63b16293",
                "srcKUID": "c85e1a26cc95449c8add0c0845284219",
                "wType": "Label"
            }
        },
        "lblDuration": {
            "__events__": {},
            "__info__": {
                "kuid": "f8e53318bc934acc8bc1fede1be105d5",
                "srcKUID": "b4d5396280454348850c2f75a6bbd2f5",
                "wType": "Label"
            }
        },
        "lblEMIAmount": {
            "__events__": {},
            "__info__": {
                "kuid": "fb37d4c34c0d422e9bdd8f003f93be1d",
                "srcKUID": "g8ad8f4b23aa45a992eaa52f2462dd73",
                "wType": "Label"
            }
        },
        "lblError": {
            "__events__": {},
            "__info__": {
                "kuid": "if15fcf43ed44b229668cfd8933a51f3",
                "srcKUID": "f339b06dfb9c473f8de48712f822e93d",
                "wType": "Label"
            }
        },
        "lblFavoriteEmailCheckBox": {
            "__events__": {},
            "__info__": {
                "kuid": "a196b3b428074c81bebecf29ce0a246b",
                "srcKUID": "d84ca8bcdbc64358bd93d006f7c61ab4",
                "wType": "Label"
            }
        },
        "lblFrom": {
            "__events__": {},
            "__info__": {
                "kuid": "b13c475d54d24c34b8d2c6b8551ba6b5",
                "srcKUID": "ba5f4bfc9d334a7c87f57f1ebaa4acb6",
                "wType": "Label"
            }
        },
        "lblHeader": {
            "__events__": {},
            "__info__": {
                "kuid": "d84c8ffb65d54b28bc2aa4d9305e1019",
                "srcKUID": "f06165908c6e4ca8ac9591979f345dca",
                "wType": "Label"
            },
            "left": {},
            "responsiveData": {
                "b1": {
                    "left": {
                        "type": "string",
                        "value": "3.77%"
                    }
                }
            }
        },
        "lblIAccept": {
            "__events__": {},
            "__info__": {
                "kuid": "ee5558e6c32f47469d891a85a941ebbc",
                "srcKUID": "a8bfd989203847929c13d9c4c8ba7390",
                "wType": "Label"
            },
            "left": {},
            "responsiveData": {
                "b1": {
                    "left": {
                        "type": "string",
                        "value": "10dp"
                    }
                }
            }
        },
        "lblInfoMessage2": {
            "__events__": {},
            "__info__": {
                "kuid": "i9d3562ba47248aa970dec011b7ff32e",
                "srcKUID": "hfcd89ec36b84944989c3511d337f49b",
                "wType": "Label"
            },
            "left": {},
            "responsiveData": {
                "b1": {
                    "left": {
                        "type": "string",
                        "value": "48dp"
                    }
                }
            }
        },
        "lblInterestRate": {
            "__events__": {},
            "__info__": {
                "kuid": "cf22de3d13424479b75c2ac2dc156944",
                "srcKUID": "c7bf765d06f34b158cb1a8e6e4131fa1",
                "wType": "Label"
            }
        },
        "lblIntrestAmt": {
            "__events__": {},
            "__info__": {
                "kuid": "b55f744702354a70bff5353353bd545f",
                "srcKUID": "e109b089be254803b7e68ecccb83e257",
                "wType": "Label"
            }
        },
        "lblLoanEndDate": {
            "__events__": {},
            "__info__": {
                "kuid": "iefa6fd834b3431ab83843b1ecd272bd",
                "srcKUID": "cd8349d4775f459a8ed4d688b51476a3",
                "wType": "Label"
            }
        },
        "lblLoanPayOffAmount": {
            "__events__": {},
            "__info__": {
                "kuid": "df0d65b4e9a444f6822287044ef17ca5",
                "srcKUID": "b9c4bf9375a24271a6fbd8eb783fb47a",
                "wType": "Label"
            }
        },
        "lblNote": {
            "__events__": {},
            "__info__": {
                "kuid": "jdd71443ab3b4e0c928031c4a6d793eb",
                "srcKUID": "jb24bc0f8a6749e8904bb941d5c87044",
                "wType": "Label"
            },
            "responsiveData": {
                "b2": {
                    "top": {
                        "type": "string",
                        "value": "485dp"
                    }
                }
            },
            "top": {}
        },
        "lblPayOn": {
            "__events__": {},
            "__info__": {
                "kuid": "fe95bb80c9914a028e00a9b7a6ed0e78",
                "srcKUID": "e90e8fff30c54883a13337fdfb46df34",
                "wType": "Label"
            }
        },
        "lblPleaseNoteTheFollowingPoints": {
            "__events__": {},
            "__info__": {
                "kuid": "dec007753ff64c6096057a4ae5dd54bc",
                "srcKUID": "i4bf0d71bcb0487b988856654e091a3b",
                "wType": "Label"
            }
        },
        "lblProductName": {
            "__events__": {},
            "__info__": {
                "kuid": "i7df23be6df34c53b91c36d921f676ca",
                "srcKUID": "gd454a2c3c5846a1ab8082c36cedd991",
                "wType": "Label"
            }
        },
        "lblTC": {
            "__events__": {},
            "__info__": {
                "kuid": "jc7409b8234146db964fdbc6f9e66252",
                "srcKUID": "b03412eb58e741bda13cbed01446f6fa",
                "wType": "Label"
            }
        },
        "lblTo": {
            "__events__": {},
            "__info__": {
                "kuid": "abb0116a4ac345db8fb865b49764fcd3",
                "srcKUID": "fbc3a6bda6ba4d53bd1750a7a57beac3",
                "wType": "Label"
            }
        },
        "lblTotalRepayment": {
            "__events__": {},
            "__info__": {
                "kuid": "ec3eb2f08da64718ad4c633ddaa1378b",
                "srcKUID": "b10742d73b344b70a59bdd4b6bb84297",
                "wType": "Label"
            }
        },
        "lblTotalRepaymenyAmt": {
            "__events__": {},
            "__info__": {
                "kuid": "d62f4edb88da4e558b5fc3b9d8ba9633",
                "srcKUID": "i4d2ab84430b48a8a013fc8be9583f4e",
                "wType": "Label"
            },
            "responsiveData": {}
        },
        "lbxSelectReasonNew": {
            "__events__": {
                "ide_onSelection": "AS_ListBox_jc2ec0064c344091a256cb0dd7d4fc63"
            },
            "__info__": {
                "kuid": "e7fbf6bde85642eebc8e6280928a6a2a",
                "srcKUID": "ee4dcaf344b74134b8bb9b13fb3e93fc",
                "wType": "ListBox"
            },
            "masterData": [
                [
                    "12Months",
                    "12Months"
                ],
                [
                    "9Months",
                    "9Months"
                ],
                [
                    "6Months",
                    "6Months"
                ],
                [
                    "3Months",
                    "3Months"
                ]
            ]
        },
        "tbxActualLoanEndDate": {
            "__events__": {},
            "__info__": {
                "kuid": "c855b32d463644578093b064a13deda9",
                "srcKUID": "a719cb2fd6134eb79564ac175489f443",
                "wType": "TextField"
            }
        },
        "tbxLoanPayOffAmount": {
            "__events__": {},
            "__info__": {
                "kuid": "a5c0304680b147778518281a781df771",
                "srcKUID": "j711e1c5918545ff9c33901f18228420",
                "wType": "TextField"
            }
        },
        "tbxOptional": {
            "__events__": {},
            "__info__": {
                "kuid": "da666ddc9e234f32957379463cc3a5f6",
                "srcKUID": "c262fa077cf047419f1509c70aaba4cb",
                "wType": "TextField"
            },
            "responsiveData": {
                "b2": {
                    "top": {
                        "type": "string",
                        "value": "510dp"
                    }
                }
            },
            "top": {}
        }
    },
    "enablescrolling": true,
    "id": "LoanDetails",
    "info": null,
    "isdatareferenced": false,
    "issegmentchild": false,
    "isvisible": true,
    "kuid": "ba5be4d31c984c4fb7ccfd748b763d5f",
    "layouttype": 4,
    "masterType": 0,
    "name": "kony.ui.UserWidgetInstance",
    "parent": "flxLoanDetails",
    "pf": "frmShortTermDeposit",
    "snapgridsize": 10,
    "snaptogrid": true,
    "sourceUserWidget": "eaa33efab08c43a3b22cdd8cc7d32b65",
    "wType": "UserWidgetInstance"
}