{
    "DNDConfig": null,
    "__parentReadjusting__": false,
    "_height_": {
        "type": "string",
        "value": "85dp"
    },
    "_left_": {
        "type": "string",
        "value": "0dp"
    },
    "_margin_": [
        0,
        0,
        0,
        0
    ],
    "_orientation_": 6,
    "_padding_": [
        0,
        0,
        0,
        0
    ],
    "_percent_": true,
    "_skin_": "s24c92fc23b14f5484b693ee9b8a9b35",
    "_top_": {
        "type": "string",
        "value": "0dp"
    },
    "_width_": {
        "type": "string",
        "value": "100%"
    },
    "allboxes": [],
    "canUpdateUI": true,
    "children": [
        "lblRecipientName",
        "lblRecipientType",
        "tbxRecipientName",
        "flxRecipientTypeRadioButtons"
    ],
    "clipbounds": true,
    "containerweight": 100,
    "enablescrolling": true,
    "id": "flxNameAndType",
    "info": null,
    "isvisible": true,
    "kuid": "e87e2eb83e0f4a3196723d0d8b244bc4",
    "layouttype": 2,
    "name": "kony.ui.FlexContainer",
    "parent": "flxStep1",
    "pf": "frmWireTransferAddInternationalAccountStep1",
    "responsiveData": {
        "b3": {
            "height": {
                "type": "string",
                "value": "170dp"
            }
        },
        "b4": {
            "height": {
                "type": "string",
                "value": "85dp"
            }
        }
    },
    "snapgridsize": 10,
    "snaptogrid": true,
    "wType": "FlexContainer",
    "widgetalignment": 1,
    "zindex": 1
}