{
    "@class": "com.kony.gen.viz.model.component.KVizUserWidget",
    "DNDConfig": null,
    "__parentReadjusting__": false,
    "_android_": {},
    "_androidwearos_": {},
    "_children_": [],
    "_desktopweb_": {},
    "_height_": {
        "type": "ref",
        "value": "preferred"
    },
    "_ipad_": {},
    "_iphone_": {},
    "_kiosk_": {},
    "_left_": {
        "type": "string",
        "value": "0dp"
    },
    "_margin_": [
        0,
        0,
        0,
        0
    ],
    "_orientation_": 1,
    "_padding_": [
        0,
        0,
        0,
        0
    ],
    "_percent_": true,
    "_responsiveData_": {
        "b2": {
            "isVisible": true
        }
    },
    "_skin_": "s24c92fc23b14f5484b693ee9b8a9b35",
    "_spa_": {},
    "_spaan_": {},
    "_spaandroidtablet_": {},
    "_spabb_": {},
    "_spaip_": {},
    "_spaipad_": {},
    "_spamobile_": {},
    "_spatablet_": {},
    "_spawindowstablet_": {},
    "_spawinphone8_": {},
    "_tabrcandroid_": {},
    "_top_": {
        "type": "string",
        "value": "0dp"
    },
    "_vizProps_": {
        "hidewidgethierarchy": false
    },
    "_width_": {
        "type": "string",
        "value": "100%"
    },
    "_windows10_": {},
    "_windows8_": {},
    "_winphone10_": {},
    "_winphone8_": {},
    "areflexpropsreferenced": false,
    "autogrowmode": 1,
    "canUpdateUI": true,
    "clipbounds": true,
    "containerweight": 0,
    "dataDiffs": {
        "AllForms": {
            "__events__": {},
            "__info__": {
                "kuid": "id0f721d064049228f6e6916eeecd093",
                "srcKUID": "b38249009bcf4f298d0684471a8824e2",
                "wType": "FlexContainer"
            },
            "isVisible": false,
            "responsiveData": {
                "b2": {}
            }
        },
        "CopyflxInfo0a2966745b9e643": {
            "__events__": {},
            "__info__": {
                "kuid": "ba957c5a4aec4ab2b653517d73566378",
                "srcKUID": "hcccc39aee5d406a88f24bb69ffc69d8",
                "wType": "FlexContainer"
            }
        },
        "CopyimgInfoIcon0c5e8897ff2be47": {
            "__events__": {},
            "__info__": {
                "kuid": "c4a7cf1c921b4b8fb25c0281e97ea181",
                "srcKUID": "d24d33d8bb2f47d3b6deee422b1a1d12",
                "wType": "Image"
            }
        },
        "RichTextInfo": {
            "__events__": {},
            "__info__": {
                "kuid": "ae9eb072d8594ff38e61951a9887a52a",
                "srcKUID": "c5ef2d6b359d45b69c8e4796658724ff",
                "wType": "RichText"
            }
        },
        "flxAccountInfoForAccountTransfer": {
            "__events__": {},
            "__info__": {
                "kuid": "e3624e7e533740059ec15c6efcd57ff8",
                "srcKUID": "a20258bb94e4461cbc9b27078478fb9c",
                "wType": "FlexContainer"
            },
            "responsiveData": {},
            "top": {
                "Default": {
                    "type": "string",
                    "value": "0dp"
                }
            }
        },
        "flxAccountType": {
            "__events__": {},
            "__info__": {
                "kuid": "c9b8f9c42778427aad915d9586996930",
                "srcKUID": "fa25320decdd4b89a86f623eeefdc3b8",
                "wType": "FlexContainer"
            }
        },
        "flxAddAccountWindow": {
            "__events__": {},
            "__info__": {
                "kuid": "jf8bcf6611f14344b29c3e750e7efacf",
                "srcKUID": "af1f73154ce64efdbbc461323e1aeb40",
                "wType": "FlexContainer"
            },
            "clipBounds": false
        },
        "flxAddBulkTransferFile": {
            "__events__": {},
            "__info__": {
                "kuid": "eef85a4a104145079e1e307e29b75200",
                "srcKUID": "c3e292e6d63444d0ae3590fffdbe5b22",
                "wType": "FlexContainer"
            },
            "responsiveData": {},
            "top": {
                "Default": {
                    "type": "string",
                    "value": "0dp"
                }
            }
        },
        "flxAddInternationalAccount": {
            "__events__": {},
            "__info__": {
                "kuid": "j052a2892f9d4be083b4da7528f39cfa",
                "srcKUID": "d2607841be804a40b8a691b374d7c6bf",
                "wType": "FlexContainer"
            },
            "responsiveData": {},
            "top": {
                "Default": {
                    "type": "string",
                    "value": "0dp"
                }
            }
        },
        "flxAddKonyAccount": {
            "__events__": {},
            "__info__": {
                "kuid": "a2aae648998846bc84bc7929ca9e9058",
                "srcKUID": "eb583846f48542898c4c023da4da9aae",
                "wType": "FlexContainer"
            },
            "responsiveData": {
                "b2": {
                    "isVisible": true
                }
            }
        },
        "flxAddNonKonyAccount": {
            "__events__": {},
            "__info__": {
                "kuid": "d7e0c2b58ea54e0699672b13794b87e2",
                "srcKUID": "c49b6be6b57f4b1e9f32826722ee4653",
                "wType": "FlexContainer"
            },
            "responsiveData": {
                "b2": {
                    "isVisible": false
                }
            },
            "top": {
                "Default": {
                    "type": "string",
                    "value": "0dp"
                }
            }
        },
        "flxBulkTransfer": {
            "__events__": {},
            "__info__": {
                "kuid": "ca3e6b7acbe847bda12896c21df537ff",
                "srcKUID": "if4ff7b2531f4f3e81dc01b33ae2dbc1",
                "wType": "FlexContainer"
            },
            "responsiveData": {},
            "top": {
                "Default": {
                    "type": "string",
                    "value": "0dp"
                }
            }
        },
        "flxCreateNewTemplate": {
            "__events__": {},
            "__info__": {
                "kuid": "a4c4d73d35de4ba0ad50957c49cca7ef",
                "srcKUID": "fa09d7cc39f54a35bc67d534a619bcca",
                "wType": "FlexContainer"
            },
            "responsiveData": {},
            "top": {
                "Default": {
                    "type": "string",
                    "value": "0dp"
                }
            }
        },
        "flxCross": {
            "__events__": {},
            "__info__": {
                "kuid": "cdb24e7967a34e5291c1f3f1fc550fdf",
                "srcKUID": "a39ae9f82d0a49b3aa5050b04830a14c",
                "wType": "FlexContainer"
            }
        },
        "flxInfo": {
            "__events__": {},
            "__info__": {
                "kuid": "d237a57f295e4696af7fed49fe267c1c",
                "srcKUID": "j0495c8fc5d948a9b73c8c45eebdd0e1",
                "wType": "FlexContainer"
            }
        },
        "flxInformation": {
            "__events__": {},
            "__info__": {
                "kuid": "eee0c12a31a54e68af3237d7980adc04",
                "srcKUID": "eacdc6e0327a4a6abe1fab7487539414",
                "wType": "FlexContainer"
            }
        },
        "flxInformationText": {
            "__events__": {},
            "__info__": {
                "kuid": "ec3c4077e07c4280b4541445d4bf1005",
                "srcKUID": "abf727bece8840d4adaba25790fcda24",
                "wType": "FlexContainer"
            }
        },
        "imgAccountInfoForAccountTransfer": {
            "__events__": {},
            "__info__": {
                "kuid": "e56789e8f1b34810a81060bdfadfc55d",
                "srcKUID": "b6cd4e8a8c9a43978fd6470d4782d3c8",
                "wType": "Image"
            }
        },
        "imgAddBulkTransferFile": {
            "__events__": {},
            "__info__": {
                "kuid": "h7e3ef3dbeb541bf9ea369e6e8d26fbd",
                "srcKUID": "d2f94153bbc54f828e6c935c1a86b846",
                "wType": "Image"
            }
        },
        "imgBulkTransfer": {
            "__events__": {},
            "__info__": {
                "kuid": "j97aef6ea83c4dc6816ac521e92f3df6",
                "srcKUID": "a5a41cf2f81b4b7dacf5fe11d2a6af13",
                "wType": "Image"
            }
        },
        "imgCross": {
            "__events__": {},
            "__info__": {
                "kuid": "cd8e6417a1ae44d29650549529ff597a",
                "srcKUID": "b6779ba9570a4af0b3c812a2562e8c76",
                "wType": "Image"
            },
            "src": "bbcloseicon.png"
        },
        "imgInfo": {
            "__events__": {},
            "__info__": {
                "kuid": "d9fa42998e9f43a3b2726ffd7b20900e",
                "srcKUID": "ea7125af68124be08d7b99d38750ab6f",
                "wType": "Image"
            }
        },
        "imgInfoIcon": {
            "__events__": {},
            "__info__": {
                "kuid": "e23986c7c1874e2a8748a67ce8c86773",
                "srcKUID": "fefbbae13c6f41159eabfcd9a5134d21",
                "wType": "Image"
            },
            "src": "info_grey.png"
        },
        "imgToolTip": {
            "__events__": {},
            "__info__": {
                "kuid": "c4a2df84506c4a5f874cb7de22f733fe",
                "srcKUID": "j31c3d12b2fb4fd480aa08101c0c5fbc",
                "wType": "Image"
            },
            "src": "tool_tip.png"
        },
        "lblAccountInfoForAccountTransfer": {
            "__events__": {},
            "__info__": {
                "kuid": "jed6e92ae8134d99ac14f13679cdb86a",
                "srcKUID": "gbc1e25a00984a6fa8a6d63e12d76238",
                "wType": "Label"
            }
        },
        "lblAddBulkTransferFile": {
            "__events__": {},
            "__info__": {
                "kuid": "ee5310259c544868917d22cdc2e541e0",
                "srcKUID": "ebdaa90d7b8c47e9a776d2d0b7cecde5",
                "wType": "Label"
            }
        },
        "lblAddInternationalAccount": {
            "__events__": {},
            "__info__": {
                "kuid": "a5d0940e31024a1a84558c925606e343",
                "srcKUID": "jeb2e34cbb604f47ba2b106aa302e7ec",
                "wType": "Label"
            }
        },
        "lblAddKonyAccount": {
            "__events__": {},
            "__info__": {
                "kuid": "he3766ffaa8e47489a0c37e20d987cb7",
                "srcKUID": "a802baae7034445dbe8033492a94c3c4",
                "wType": "Label"
            }
        },
        "lblAddNonKonyAccount": {
            "__events__": {},
            "__info__": {
                "kuid": "hf29025d1ede44eb8e451d0a377e3018",
                "srcKUID": "c2aeafdce6134bd6bc1c0b4407da4795",
                "wType": "Label"
            }
        },
        "lblBulkTransfer": {
            "__events__": {},
            "__info__": {
                "kuid": "h19f0912464e44cc8b198481a8de2d0f",
                "srcKUID": "ac41fe57c1f0479baf4439e0567321d1",
                "wType": "Label"
            }
        },
        "lblCreateNewTemplate": {
            "__events__": {},
            "__info__": {
                "kuid": "g51857f1eb024b2d8f9819ac014a4248",
                "srcKUID": "c04f7cbd0e55403bba955397b79e7bb8",
                "wType": "Label"
            }
        },
        "lblInfo": {
            "__events__": {},
            "__info__": {
                "kuid": "a848f34aa1b046db932106224600a27d",
                "srcKUID": "c2c143861a834871b01240e7cb4fd0ed",
                "wType": "Label"
            }
        },
        "lblSeparator": {
            "__events__": {},
            "__info__": {
                "kuid": "a9bac8beda1246579407e63256aeacf5",
                "srcKUID": "a0c02cf3425942828e09cee1c58ac865",
                "wType": "Label"
            },
            "bottom": {
                "Default": {
                    "type": "string",
                    "value": ""
                }
            },
            "responsiveData": {},
            "top": {
                "Default": {
                    "type": "string",
                    "value": "49dp"
                }
            }
        },
        "lblSeparator1": {
            "__events__": {},
            "__info__": {
                "kuid": "ba8a1877fd2c470cbabc0c18cda0f6a6",
                "srcKUID": "afded7624890486d8d7b2f622920fffb",
                "wType": "Label"
            },
            "bottom": {
                "Default": {
                    "type": "string",
                    "value": ""
                }
            },
            "responsiveData": {},
            "top": {
                "Default": {
                    "type": "string",
                    "value": "49dp"
                }
            }
        },
        "lblSeparator2": {
            "__events__": {},
            "__info__": {
                "kuid": "h62ba2f7428b43b1a347e128bcf5b2e3",
                "srcKUID": "j68aeca9f6d44c788df19712b4067db8",
                "wType": "Label"
            },
            "bottom": {
                "Default": {
                    "type": "string",
                    "value": ""
                }
            },
            "responsiveData": {},
            "top": {
                "Default": {
                    "type": "string",
                    "value": "49dp"
                }
            }
        },
        "lblSeparator3": {
            "__events__": {},
            "__info__": {
                "kuid": "f00318bd059041908a185d7e5357e28d",
                "srcKUID": "bd300794d11841db85e1148c33ae4e1e",
                "wType": "Label"
            },
            "bottom": {
                "Default": {
                    "type": "string",
                    "value": ""
                }
            },
            "responsiveData": {},
            "top": {
                "Default": {
                    "type": "string",
                    "value": "49dp"
                }
            }
        },
        "lblSeparator4": {
            "__events__": {},
            "__info__": {
                "kuid": "b52dad53534d479883435df03839bdd3",
                "srcKUID": "be1c055b6ad944b4869c21a3ab42d94a",
                "wType": "Label"
            },
            "bottom": {
                "Default": {
                    "type": "string",
                    "value": ""
                }
            },
            "responsiveData": {},
            "top": {
                "Default": {
                    "type": "string",
                    "value": "49dp"
                }
            }
        },
        "lblSeparator5": {
            "__events__": {},
            "__info__": {
                "kuid": "jcbd5436b1734ad79e1abf668260c469",
                "srcKUID": "f63eab80ecd640e78848da7611489c84",
                "wType": "Label"
            },
            "bottom": {
                "Default": {
                    "type": "string",
                    "value": ""
                }
            },
            "responsiveData": {},
            "top": {
                "Default": {
                    "type": "string",
                    "value": "49dp"
                }
            }
        },
        "lblSeperator": {
            "__events__": {},
            "__info__": {
                "kuid": "fec9a06cf6a54590860a88050dea3426",
                "srcKUID": "j7a61ca35c8840f3bcbfe8511da12e6b",
                "wType": "Label"
            }
        },
        "wireTransferRightbar": {
            "__events__": {},
            "__info__": {
                "isRoot": true,
                "kuid": "b6cf9aaf505348b98a67953eb4fde3c8",
                "srcKUID": "f828159eeeac4ad394a5054626224524",
                "wType": "FlexContainer"
            },
            "responsiveData": {
                "b2": {
                    "isVisible": true
                }
            }
        }
    },
    "enablescrolling": true,
    "id": "wireTransferRightbar",
    "info": null,
    "iscustomlayout": false,
    "isdatareferenced": false,
    "issegmentchild": false,
    "isvisible": true,
    "kuid": "b6cf9aaf505348b98a67953eb4fde3c8",
    "layouttype": 2,
    "masterType": 0,
    "name": "kony.ui.UserWidgetInstance",
    "parent": "flxRightBar",
    "pf": "frmWireTransferAddInternationalAccountStep1",
    "retaincontentalignment": false,
    "retainflexpositionproperties": false,
    "retainflowhorizontalalignment": false,
    "snapgridsize": 10,
    "snaptogrid": true,
    "sourceUserWidget": "f828159eeeac4ad394a5054626224524",
    "wType": "UserWidgetInstance"
}