{
    "@class": "com.kony.gen.viz.model.component.KVizRichText",
    "DNDConfig": null,
    "_height_": {
        "type": "ref",
        "value": "preferred"
    },
    "_left_": {
        "type": "string",
        "value": "0dp"
    },
    "_margin_": [
        0,
        0,
        0,
        0
    ],
    "_padding_": [
        0,
        0,
        0,
        0
    ],
    "_skin_": "s7a60b7ae4ed49bdbd3d331fba397dea",
    "_text_": " \nThe Payee (recipient of the payment) will incur all of the payment transaction fees.",
    "_top_": {
        "type": "string",
        "value": "0dp"
    },
    "_width_": {
        "type": "string",
        "value": "100.32%"
    },
    "_wrapping_": 2,
    "accessibilityconfig": {
        "a11yLabel": "This will be used as default account for your transactions. You can also change this default account. "
    },
    "canUpdateUI": true,
    "containerweight": 100,
    "contentalignment": 1,
    "id": "txtFeesTextBen",
    "info": null,
    "isvisible": true,
    "kuid": "fb2aabd3d7a745588c57020ba3e5f4b3",
    "name": "kony.ui.RichText",
    "parent": "flxFeesTextBen",
    "pf": "userwidgetmodel",
    "texti18n": "i18n.TransfersEur.InfoText2",
    "wType": "RichText",
    "widgetalignment": 5,
    "zindex": 1
}