{
    "DNDConfig": null,
    "__parentReadjusting__": false,
    "_height_": {
        "type": "string",
        "value": "80dp"
    },
    "_left_": {
        "type": "string",
        "value": "0dp"
    },
    "_margin_": [
        0,
        0,
        0,
        0
    ],
    "_orientation_": 6,
    "_padding_": [
        0,
        0,
        0,
        0
    ],
    "_percent_": true,
    "_skin_": "s24c92fc23b14f5484b693ee9b8a9b35",
    "_top_": {
        "type": "string",
        "value": "0dp"
    },
    "_width_": {
        "type": "string",
        "value": "100%"
    },
    "allboxes": [],
    "canUpdateUI": true,
    "children": [
        "lblBankAddress",
        "tbxBankAddressLine1",
        "tbxBankAddressLine2"
    ],
    "clipbounds": true,
    "containerweight": 100,
    "enablescrolling": true,
    "id": "flxBankAddress1",
    "info": null,
    "isvisible": true,
    "kuid": "g75560ed7ecb49ab8c76a580d153a9a1",
    "layouttype": 2,
    "name": "kony.ui.FlexContainer",
    "parent": "flxStep2",
    "pf": "frmWireTransferOneTimePaymentStep2",
    "responsiveData": {
        "b3": {
            "height": {
                "type": "string",
                "value": "135dp"
            }
        }
    },
    "snapgridsize": 10,
    "snaptogrid": true,
    "wType": "FlexContainer",
    "widgetalignment": 1,
    "zindex": 1
}