{
    "@class": "com.kony.gen.viz.model.component.KVizTextBox2",
    "DNDConfig": null,
    "__parentReadjusting__": false,
    "_height_": {
        "type": "string",
        "value": "40dp"
    },
    "_left_": {
        "type": "string",
        "value": "30dp"
    },
    "_margin_": [
        0,
        0,
        0,
        0
    ],
    "_padding_": [
        2,
        0,
        0,
        0
    ],
    "_placeholder_": "Enter Swift Code",
    "_right_": {
        "type": "number",
        "value": ""
    },
    "_skin_": "sbad3c0dbd09447ea3f81eebcfc69002",
    "_text_": "",
    "_top_": {
        "type": "string",
        "value": "40dp"
    },
    "_width_": {
        "type": "string",
        "value": "45.16%"
    },
    "accessibilityconfig": {
        "a11yLabel": "Enter Swift Code"
    },
    "autocapitalize": "none",
    "autocomplete": false,
    "autocorrect": false,
    "autofilter": false,
    "canUpdateUI": true,
    "containerheight": "",
    "containerheightmode": 1,
    "containerweight": 100,
    "contentalignment": 4,
    "desktopweb": {},
    "id": "tbxSwiftCode",
    "info": null,
    "isvisible": true,
    "keyboardtype": "A",
    "kuid": "d7156a645a5b4fcc907c4d90d1fa8cbc",
    "mode": "A",
    "name": "kony.ui.TextBox2",
    "paddinginpixel": false,
    "parent": "flxSwiftCode",
    "pf": "frmWireTransferOneTimePaymentStep2",
    "responsiveData": {
        "b3": {
            "left": {
                "type": "string",
                "value": "15dp"
            },
            "right": {
                "type": "string",
                "value": "15dp"
            },
            "top": {
                "type": "string",
                "value": "45dp"
            },
            "width": {
                "type": "ref",
                "value": "preferred"
            }
        },
        "b4": {
            "left": {
                "type": "string",
                "value": "20dp"
            }
        }
    },
    "securetextentry": false,
    "textinputmode": "A",
    "tooltip": "",
    "viewtype": "default",
    "wType": "TextField",
    "zindex": 1,
    "focusskin": "s2faf9c2766d4142ab33d0bf97445ae0"
}