{
    "@class": "com.kony.gen.viz.model.component.KVizUserWidget",
    "DNDConfig": null,
    "_children_": [],
    "_height_": {
        "type": "ref",
        "value": "preferred"
    },
    "_left_": {
        "type": "string",
        "value": "8dp"
    },
    "_margin_": [
        0,
        0,
        0,
        0
    ],
    "_orientation_": 1,
    "_padding_": [
        0,
        0,
        0,
        0
    ],
    "_percent_": true,
    "_render_": true,
    "_skin_": "sdc143f0e5b64ae3a3f155f691c73fa7",
    "_top_": "0dp",
    "_width_": {
        "type": "string",
        "value": "100%"
    },
    "areflexpropsreferenced": false,
    "autogrowmode": 1,
    "canUpdateUI": true,
    "clipbounds": false,
    "containerweight": 0,
    "dataDiffs": {
        "AllForms": {
            "__events__": {},
            "__info__": {
                "kuid": "a7bb2e68c46f4447880a1fa52e15a2a0",
                "srcKUID": "f03020b69e764fcc82f34fbd7c88a4a2",
                "wType": "UserWidgetInstance"
            },
            "isVisible": false,
            "left": {
                "Default": {
                    "type": "string",
                    "value": "3.78%"
                }
            },
            "responsiveData": {
                "b1": {
                    "isVisible": null,
                    "left": {
                        "type": "string",
                        "value": "25%"
                    },
                    "top": {
                        "type": "string",
                        "value": "640dp"
                    }
                },
                "b2": {
                    "isVisible": false,
                    "left": {
                        "type": "string",
                        "value": "15%"
                    },
                    "top": {
                        "type": "string",
                        "value": "452dp"
                    }
                },
                "b4": {
                    "isVisible": null,
                    "left": {
                        "type": "string",
                        "value": "17.61%"
                    },
                    "top": {
                        "type": "string",
                        "value": "450dp"
                    }
                }
            },
            "top": {
                "Default": {
                    "type": "string",
                    "value": "530dp"
                }
            }
        },
        "AllForms.RichTextInfo": {
            "__events__": {},
            "__info__": {
                "kuid": "fb90f6bdefcd4ebb820766459ad9bb6b",
                "srcKUID": "h986ae069912402ba64cfc5600c214ba",
                "wType": "RichText"
            },
            "left": {
                "Default": {
                    "type": "string",
                    "value": "7.80%"
                }
            },
            "responsiveData": {
                "b1": {
                    "left": {
                        "type": "string",
                        "value": "7.80%"
                    },
                    "top": {
                        "type": "string",
                        "value": "0dp"
                    }
                }
            },
            "top": {
                "Default": {
                    "type": "string",
                    "value": "0dp"
                }
            }
        },
        "AllForms.flxAccountType": {
            "__events__": {},
            "__info__": {
                "kuid": "b71899909e95427ba7772ddd3330aefe",
                "srcKUID": "cf79ed02761e477fb701d26cdfe93f6b",
                "wType": "FlexContainer"
            }
        },
        "AllForms.flxCross": {
            "__events__": {},
            "__info__": {
                "kuid": "a0ff5a343a10491a8d479566f5e366de",
                "srcKUID": "h647c80471ae4735b5dcaf0503649718",
                "wType": "FlexContainer"
            }
        },
        "AllForms.flxInformation": {
            "__events__": {},
            "__info__": {
                "kuid": "c6d62a7be1d947afba0c96caf94d6008",
                "srcKUID": "e889149ad31c4475948be44b3544a53e",
                "wType": "FlexContainer"
            }
        },
        "AllForms.flxInformationText": {
            "__events__": {},
            "__info__": {
                "kuid": "f84cdcbeaa944720a18ab7828899c589",
                "srcKUID": "jb49de2e128d4222822b6c51f9f407c2",
                "wType": "FlexContainer"
            }
        },
        "AllForms.imgCross": {
            "__events__": {},
            "__info__": {
                "kuid": "j430dbde8d6745a397ded46dc4298905",
                "srcKUID": "ce8829156d674d60881e0a10aea7255a",
                "wType": "Image"
            },
            "src": "bbcloseicon.png"
        },
        "AllForms.imgToolTip": {
            "__events__": {},
            "__info__": {
                "kuid": "ha0d669d213a4bbd8ea4d0b2428bb5ab",
                "srcKUID": "ffb4d153caed41f09cc5f2e35d26f4a7",
                "wType": "Image"
            },
            "src": "tool_tip.png"
        },
        "AllForms.lblInfo": {
            "__events__": {},
            "__info__": {
                "kuid": "ff4dc2f8f6434b94abd70765c134f55e",
                "srcKUID": "j1f0cd25519740caaceae8b78083769b",
                "wType": "Label"
            }
        },
        "AllForms.lblSeperator": {
            "__events__": {},
            "__info__": {
                "kuid": "bc37b96875e74cf2a808e653ac8af2d6",
                "srcKUID": "b1d84cb8e57c417cadc84e373ca72038",
                "wType": "Label"
            }
        },
        "CalendarPyOn": {
            "__events__": {},
            "__info__": {
                "kuid": "h7c5ca5998d84da8b608f7806ccf3267",
                "srcKUID": "ueb081a1446a44919f564507b9b48d9c",
                "wType": "Calendar"
            }
        },
        "CalenderPayOffDate": {
            "__events__": {},
            "__info__": {
                "kuid": "g03bdfef135b4590883ae8a7981b894b",
                "srcKUID": "h2a5931454dd4b8088f2ff0ad834abef",
                "wType": "Calendar"
            },
            "isVisible": true,
            "responsiveData": {
                "b1": {
                    "width": {
                        "type": "string",
                        "value": "100%"
                    }
                }
            },
            "width": {
                "Default": {
                    "type": "string",
                    "value": "100%"
                }
            }
        },
        "LoanPayOff": {
            "__events__": {},
            "__info__": {
                "isRoot": true,
                "kuid": "d511e067da2146d3ad18207ba7d04402",
                "srcKUID": "u9f29ae576bb4344950a8ae42412d775",
                "wType": "FlexContainer"
            },
            "isVisible": true,
            "left": {},
            "responsiveData": {
                "b1": {
                    "left": {
                        "type": "string",
                        "value": "0dp"
                    },
                    "top": {
                        "type": "string",
                        "value": "0dp"
                    }
                },
                "b2": {
                    "left": {
                        "type": "string",
                        "value": "0dp"
                    },
                    "top": {
                        "type": "string",
                        "value": "45dp"
                    }
                },
                "b3": {
                    "left": {
                        "type": "string",
                        "value": "0dp"
                    },
                    "top": {
                        "type": "string",
                        "value": "45dp"
                    },
                    "width": {
                        "type": "string",
                        "value": "100%"
                    }
                },
                "b4": {
                    "left": {
                        "type": "string",
                        "value": "0dp"
                    },
                    "top": {
                        "type": "string",
                        "value": "45dp"
                    }
                }
            },
            "top": {},
            "width": {}
        },
        "btnCancel": {
            "__events__": {},
            "__info__": {
                "kuid": "c0ddc8a5276f4a24b4b04c8a582dca6d",
                "srcKUID": "ue977b712b3b443e85c84481b143ab00",
                "wType": "Button"
            },
            "height": {
                "Default": {
                    "type": "string",
                    "value": "40dp"
                }
            },
            "i18n_text": "i18n.transfers.Cancel",
            "left": {},
            "responsiveData": {
                "b1": {
                    "height": {
                        "type": "string",
                        "value": "40dp"
                    },
                    "left": {
                        "type": "string",
                        "value": "20dp"
                    },
                    "right": {
                        "type": "string",
                        "value": "20dp"
                    },
                    "top": {
                        "type": "string",
                        "value": "640px"
                    },
                    "width": {
                        "type": "string",
                        "value": ""
                    }
                },
                "b2": {}
            },
            "right": {},
            "top": {
                "Default": {
                    "type": "string",
                    "value": "672px"
                }
            },
            "width": {}
        },
        "btnCancelDetails": {
            "__events__": {},
            "__info__": {
                "kuid": "d0b87278f631477e938be8c620c10d40",
                "srcKUID": "h896170b06a5405dad25cbb2c87a640b",
                "wType": "Button"
            },
            "bottom": {
                "Default": {
                    "type": "string",
                    "value": "20dp"
                }
            },
            "centerX": {
                "Default": {
                    "type": "number",
                    "value": ""
                }
            },
            "height": {
                "Default": {
                    "type": "string",
                    "value": "40dp"
                }
            },
            "left": {
                "Default": {
                    "type": "string",
                    "value": ""
                }
            },
            "responsiveData": {
                "b1": {
                    "centerX": {
                        "type": "string",
                        "value": "50%"
                    },
                    "left": null,
                    "top": null,
                    "width": {
                        "type": "string",
                        "value": "92%"
                    }
                },
                "b2": {
                    "left": {
                        "type": "string",
                        "value": ""
                    },
                    "right": null
                }
            },
            "right": {
                "Default": {
                    "type": "string",
                    "value": "205dp"
                }
            },
            "top": {
                "Default": {
                    "type": "string",
                    "value": "0dp"
                }
            },
            "width": {
                "Default": {
                    "type": "string",
                    "value": "150dp"
                }
            }
        },
        "btnConfirm": {
            "__events__": {
                "ide_onClick": "AS_Button_f5d7c3ed4af04f9285d2926333ea33da"
            },
            "__info__": {
                "kuid": "g1c7d6c592c5470d8b948a85321d3423",
                "srcKUID": "u9cf7fe8841040dda261e597a9b88cc8",
                "wType": "Button"
            },
            "height": {
                "Default": {
                    "type": "string",
                    "value": "40dp"
                }
            },
            "i18n_text": "i18n.PayDueAmount.PAYAMOUNT",
            "left": {},
            "responsiveData": {
                "b1": {
                    "left": {
                        "type": "string",
                        "value": "20dp"
                    },
                    "right": {
                        "type": "string",
                        "value": "20dp"
                    },
                    "top": {
                        "type": "string",
                        "value": "700px"
                    },
                    "width": {
                        "type": "string",
                        "value": ""
                    }
                },
                "b2": {}
            },
            "right": {},
            "text": "Pay Amount",
            "top": {
                "Default": {
                    "type": "string",
                    "value": "672px"
                }
            },
            "width": {}
        },
        "btnContinueDetails": {
            "__events__": {},
            "__info__": {
                "kuid": "c5042d5eccf643939006022992aa2c2e",
                "srcKUID": "ada70d54f492411c9e6bb237607130db",
                "wType": "Button"
            },
            "bottom": {
                "Default": {
                    "type": "string",
                    "value": "20dp"
                }
            },
            "centerX": {
                "Default": {
                    "type": "number",
                    "value": ""
                }
            },
            "height": {
                "Default": {
                    "type": "string",
                    "value": "40dp"
                }
            },
            "left": {
                "Default": {
                    "type": "string",
                    "value": ""
                }
            },
            "responsiveData": {
                "b1": {
                    "bottom": null,
                    "centerX": {
                        "type": "string",
                        "value": "50%"
                    },
                    "left": null,
                    "top": null,
                    "width": {
                        "type": "string",
                        "value": "92%"
                    }
                },
                "b2": {
                    "bottom": null,
                    "left": {
                        "type": "string",
                        "value": ""
                    },
                    "right": null
                },
                "b4": {}
            },
            "right": {
                "Default": {
                    "type": "string",
                    "value": "35dp"
                }
            },
            "top": {
                "Default": {
                    "type": "string",
                    "value": "0dp"
                }
            },
            "width": {
                "Default": {
                    "type": "string",
                    "value": "150dp"
                }
            }
        },
        "flxBottomDetails": {
            "__events__": {},
            "__info__": {
                "kuid": "b601ab04811f4528aa5933248de8401b",
                "srcKUID": "j25d4c25047248d2a1d171468037af90",
                "wType": "FlexContainer"
            },
            "layoutType": 2,
            "responsiveData": {
                "b1": {
                    "layoutType": 4
                }
            }
        },
        "flxButtons": {
            "__events__": {},
            "__info__": {
                "kuid": "gd2c63767fbe45f2a511e5ae5e1cea57",
                "srcKUID": "j0c4528c004e4367a4e636d7b5d87917",
                "wType": "FlexContainer"
            },
            "autogrowMode": {
                "Default": 0
            },
            "centerX": {
                "Default": {
                    "type": "string",
                    "value": ""
                }
            },
            "centerY": {
                "Default": {
                    "type": "string",
                    "value": ""
                }
            },
            "height": {
                "Default": {
                    "type": "string",
                    "value": "60dp"
                }
            },
            "layoutType": 2,
            "left": {
                "Default": {
                    "type": "string",
                    "value": "0dp"
                }
            },
            "responsiveData": {
                "b1": {
                    "height": {
                        "type": "string",
                        "value": "120dp"
                    },
                    "layoutType": 4
                }
            },
            "top": {
                "Default": {
                    "type": "string",
                    "value": "30dp"
                }
            },
            "width": {
                "Default": {
                    "type": "string",
                    "value": "100%"
                }
            },
            "zIndex": {
                "Default": 2
            }
        },
        "flxCalendar": {
            "__events__": {},
            "__info__": {
                "kuid": "f8a11050316c4c36a90c297b90f9d1c0",
                "srcKUID": "ufed5f9d11074363848dafcddba188c0",
                "wType": "FlexContainer"
            },
            "left": {},
            "responsiveData": {
                "b1": {
                    "left": {
                        "type": "string",
                        "value": "20dp"
                    },
                    "right": {
                        "type": "string",
                        "value": "20dp"
                    },
                    "top": {
                        "type": "string",
                        "value": "343dp"
                    },
                    "width": {
                        "type": "string",
                        "value": ""
                    }
                },
                "b2": {
                    "left": {
                        "type": "string",
                        "value": "20dp"
                    }
                }
            },
            "right": {},
            "top": {},
            "width": {}
        },
        "flxCalender": {
            "__events__": {},
            "__info__": {
                "kuid": "bb0e60ee5da14d2aa3cfd849994f6b53",
                "srcKUID": "b51e06c069564423a42bbb2219000f98",
                "wType": "FlexContainer"
            },
            "clipBounds": false,
            "responsiveData": {
                "b1": {
                    "width": {
                        "type": "string",
                        "value": "92%"
                    }
                }
            },
            "width": {
                "Default": {
                    "type": "string",
                    "value": "45.34%"
                }
            }
        },
        "flxCancelFilterTo": {
            "__events__": {},
            "__info__": {
                "kuid": "g214b3ddf2604f3289d1305ae8e84833",
                "srcKUID": "g6a3af8df2eb49b1a9226e98fd335167",
                "wType": "FlexContainer"
            }
        },
        "flxCheckbox": {
            "__events__": {},
            "__info__": {
                "kuid": "c17320f84fc34a45aafd2ee25dbc1aaa",
                "srcKUID": "cbb6263efbf54bf79e9fe4afaecb84dc",
                "wType": "FlexContainer"
            },
            "autogrowMode": {
                "Default": 0
            },
            "height": {},
            "left": {},
            "responsiveData": {
                "b1": {
                    "height": {
                        "type": "string",
                        "value": "16dp"
                    },
                    "left": {
                        "type": "string",
                        "value": "20dp"
                    },
                    "top": {
                        "type": "string",
                        "value": "562dp"
                    },
                    "width": {
                        "type": "string",
                        "value": "16dp"
                    }
                },
                "b2": {
                    "left": {
                        "type": "string",
                        "value": "20dp"
                    }
                }
            },
            "top": {},
            "width": {}
        },
        "flxContent": {
            "__events__": {},
            "__info__": {
                "kuid": "fee0157cf5ff40eab99812c54d5e0930",
                "srcKUID": "ce0934df615940408228f20b6f56e03f",
                "wType": "FlexContainer"
            },
            "autogrowMode": {
                "Default": 0
            },
            "clipBounds": false,
            "height": {},
            "left": {},
            "responsiveData": {
                "b1": {
                    "height": {
                        "type": "string",
                        "value": "760dp"
                    },
                    "left": {
                        "type": "string",
                        "value": "0dp"
                    },
                    "top": {
                        "type": "string",
                        "value": "15dp"
                    }
                },
                "b4": {
                    "left": {
                        "type": "string",
                        "value": "0dp"
                    },
                    "top": {
                        "type": "string",
                        "value": "0dp"
                    }
                }
            },
            "top": {}
        },
        "flxContentDuplicate": {
            "__events__": {},
            "__info__": {
                "kuid": "a64b5061bb5d411ea0632a2ae4d1d764",
                "srcKUID": "e54b8195221c48f2a73a6ed524daaf6b",
                "wType": "FlexContainer"
            },
            "left": {
                "Default": {
                    "type": "string",
                    "value": "0dp"
                }
            },
            "responsiveData": {},
            "top": {
                "Default": {
                    "type": "string",
                    "value": "0dp"
                }
            }
        },
        "flxDetails": {
            "__events__": {},
            "__info__": {
                "kuid": "j7eaf0ffb5d3440babcc669043afb28a",
                "srcKUID": "dc2d39d5bd4a42d69bbf21d4309ac9b5",
                "wType": "FlexContainer"
            },
            "clipBounds": false,
            "responsiveData": {},
            "top": {
                "Default": {
                    "type": "string",
                    "value": "20dp"
                }
            }
        },
        "flxError": {
            "__events__": {},
            "__info__": {
                "kuid": "a567a51029dd49c7af1373e950fe3c30",
                "srcKUID": "jdf34b75f02c447195d3fdc407a23eca",
                "wType": "FlexContainer"
            },
            "autogrowMode": {
                "Default": 0
            },
            "height": {
                "Default": {
                    "type": "string",
                    "value": "62dp"
                }
            },
            "isVisible": false,
            "left": {
                "Default": {
                    "type": "string",
                    "value": "0.00%"
                }
            },
            "responsiveData": {
                "b1": {},
                "b4": {
                    "left": null
                }
            },
            "top": {
                "Default": {
                    "type": "string",
                    "value": "0dp"
                }
            },
            "width": {
                "Default": {
                    "type": "string",
                    "value": "100.00%"
                }
            }
        },
        "flxHeader": {
            "__events__": {},
            "__info__": {
                "kuid": "hf767ace95564c0a8d57a7ef535b810d",
                "srcKUID": "u40a64203cd045a093f4efc158c96f27",
                "wType": "FlexContainer"
            },
            "isVisible": true,
            "responsiveData": {
                "b1": {
                    "isVisible": false
                },
                "b2": {
                    "isVisible": false
                },
                "b3": {
                    "isVisible": false
                },
                "b4": {
                    "isVisible": false
                }
            }
        },
        "flxImageInfo": {
            "__events__": {},
            "__info__": {
                "kuid": "b02f024a85df4c369aea9fddccdb8634",
                "srcKUID": "h8ae1fb006cd40eda381fc5721c74754",
                "wType": "FlexContainer"
            },
            "centerY": {},
            "responsiveData": {
                "b1": {
                    "centerY": {
                        "type": "string",
                        "value": "50%"
                    }
                }
            }
        },
        "flxImgInfoIcon": {
            "__events__": {},
            "__info__": {
                "kuid": "if9d88f5020a4591915b5ac864ed1ee3",
                "srcKUID": "f93574b8bdac4a47a600359d57a7c2dd",
                "wType": "FlexContainer"
            }
        },
        "flxImgInfoIcon1": {
            "__events__": {},
            "__info__": {
                "kuid": "a395d8d0112147a9a30bc19bd8aec425",
                "srcKUID": "fd151edc7378441385750537e3446efb",
                "wType": "FlexContainer"
            }
        },
        "flxLoadingContainerTo": {
            "__events__": {},
            "__info__": {
                "kuid": "hbc724b1e9964f21adf5c19794fcd54d",
                "srcKUID": "geaacedd8e0b40cbbefe1901341bc527",
                "wType": "FlexContainer"
            }
        },
        "flxLoadingIndicatorTo": {
            "__events__": {},
            "__info__": {
                "kuid": "d00588d694fa4302b368cb72fea43c1d",
                "srcKUID": "g5f6c305734d48a39b6c20b0b8887b3f",
                "wType": "FlexContainer"
            }
        },
        "flxLoanPayOff": {
            "__events__": {},
            "__info__": {
                "kuid": "a6c704d6eeb342f784d60fffd8b26ab1",
                "srcKUID": "ba600a06619e4d339a3ab405bcf845dd",
                "wType": "FlexContainer"
            }
        },
        "flxNoResultsTo": {
            "__events__": {},
            "__info__": {
                "kuid": "f7372ab5270a4005bdbb79e5662aa80a",
                "srcKUID": "jbf69675921842398d13f277e4a9ee84",
                "wType": "FlexContainer"
            }
        },
        "flxNoResultsToPayPersonFailure": {
            "__events__": {},
            "__info__": {
                "kuid": "he124d3e7b4545478ac50be6a453079e",
                "srcKUID": "af2010623a6a4e16b8c49ee9bc2f4a8c",
                "wType": "FlexContainer"
            }
        },
        "flxPayOff": {
            "__events__": {},
            "__info__": {
                "kuid": "a47b46e315524bb18d36d6db28daa081",
                "srcKUID": "f76c1417a5294e1884eb495d8f271c71",
                "wType": "FlexContainer"
            }
        },
        "flxPayOffDate": {
            "__events__": {},
            "__info__": {
                "kuid": "e0bf3c62581e499ab5e67bf3a85caf1f",
                "srcKUID": "cce523d0193e41e99b26485f88f873f6",
                "wType": "FlexContainer"
            }
        },
        "flxPayOffPenality": {
            "__events__": {},
            "__info__": {
                "kuid": "d573ac45536e4bed8c2db987f50a9f3b",
                "srcKUID": "h5494457015a4027b15decfd5ff939f7",
                "wType": "FlexContainer"
            },
            "autogrowMode": {
                "Default": 0
            },
            "height": {},
            "left": {},
            "responsiveData": {
                "b1": {
                    "height": {
                        "type": "string",
                        "value": "20dp"
                    },
                    "left": {
                        "type": "string",
                        "value": "0%"
                    },
                    "top": {
                        "type": "string",
                        "value": "399dp"
                    }
                }
            },
            "top": {}
        },
        "flxSeparator": {
            "__events__": {},
            "__info__": {
                "kuid": "b92a36dbc63b42209128c3a5c4ea0914",
                "srcKUID": "u49ac0b0bc2748108ad4af1bf8503f64",
                "wType": "FlexContainer"
            }
        },
        "flxSeparator2": {
            "__events__": {},
            "__info__": {
                "kuid": "b91fbb7237d94358b882a107e6288c2a",
                "srcKUID": "u270abfa87714d1cadffaedfae9755ce",
                "wType": "FlexContainer"
            },
            "responsiveData": {
                "b1": {
                    "top": {
                        "type": "string",
                        "value": "599dp"
                    }
                }
            },
            "top": {}
        },
        "flxSeperator": {
            "__events__": {},
            "__info__": {
                "kuid": "c4c9667390f245abb828b59363918741",
                "srcKUID": "g9e8f3dc948744fd8f72a81008710251",
                "wType": "FlexContainer"
            }
        },
        "flxTo": {
            "__events__": {},
            "__info__": {
                "kuid": "jdc122835f9640f9b5ddbd5f925d6a6b",
                "srcKUID": "dfe39e9f3e2448859c6dc3156691b2f1",
                "wType": "FlexContainer"
            }
        },
        "flxToIcon": {
            "__events__": {},
            "__info__": {
                "kuid": "b61cc619d90845e6aad3047cb3f44204",
                "srcKUID": "f3d90f0c1dc74f5d9ce411ca89022f37",
                "wType": "FlexContainer"
            }
        },
        "flxToSegment": {
            "__events__": {},
            "__info__": {
                "kuid": "fc7ff1321a314ff2958c5eb00f0af645",
                "srcKUID": "b2aaeefe898c449690ea26869c06ae47",
                "wType": "FlexScrollContainer"
            }
        },
        "flxTopDetails": {
            "__events__": {},
            "__info__": {
                "kuid": "dd0f0ba96a1440a3bc7e1118b1ce9e1b",
                "srcKUID": "bab203c1fbb54cf28e9a163beea8187f",
                "wType": "FlexContainer"
            },
            "layoutType": 2,
            "responsiveData": {
                "b1": {
                    "layoutType": 4
                }
            }
        },
        "flxTransferTo": {
            "__events__": {},
            "__info__": {
                "kuid": "b290d7c682f34bbb812b7ebb94ed8610",
                "srcKUID": "j66b73f18346462bbf1da2c33e14b15e",
                "wType": "FlexContainer"
            },
            "isVisible": false,
            "responsiveData": {}
        },
        "flxWarningMessage": {
            "__events__": {},
            "__info__": {
                "kuid": "b07dd3cbadee4d44b147ceae546d7e83",
                "srcKUID": "e016bb17bcd8489cb59d885e60a0bbbb",
                "wType": "FlexContainer"
            },
            "autogrowMode": {
                "Default": 0
            },
            "height": {
                "Default": {
                    "type": "string",
                    "value": "50dp"
                }
            },
            "responsiveData": {
                "b1": {
                    "height": {
                        "type": "string",
                        "value": "80dp"
                    }
                },
                "b2": {
                    "height": {
                        "type": "string",
                        "value": "50dp"
                    }
                },
                "b3": {
                    "height": {
                        "type": "string",
                        "value": "50dp"
                    }
                },
                "b4": {
                    "height": {
                        "type": "string",
                        "value": "50dp"
                    }
                }
            }
        },
        "flxa": {
            "__events__": {},
            "__info__": {
                "kuid": "b872208646bd44c38002084bdccefe54",
                "srcKUID": "ca6aa4d2aa554facba4f5aebd12a846f",
                "wType": "FlexContainer"
            }
        },
        "imgCancelFilterTo": {
            "__events__": {},
            "__info__": {
                "kuid": "a5c040089a2b4ceeba2e7b8744d7f30d",
                "srcKUID": "e647c44f406b42d9bc507e4a5f969481",
                "wType": "Image"
            }
        },
        "imgCheckbox": {
            "__events__": {},
            "__info__": {
                "kuid": "ec3d875da90a41fb93fcf9414c9eb96d",
                "srcKUID": "ia66a9f48d5c4578b430e3c70be3d935",
                "wType": "Image"
            },
            "height": {},
            "responsiveData": {
                "b1": {
                    "height": {
                        "type": "string",
                        "value": "100%"
                    },
                    "top": {
                        "type": "string",
                        "value": "0dp"
                    }
                }
            },
            "src": "unchecked_box.png",
            "top": {}
        },
        "imgError": {
            "__events__": {},
            "__info__": {
                "kuid": "g5bafcad38af4416bbb96e63625c2a81",
                "srcKUID": "de704cbd050549b697292cc74b3fc0c4",
                "wType": "Image"
            },
            "src": "error_yellow.png"
        },
        "imgInfo": {
            "__events__": {},
            "__info__": {
                "kuid": "ef311ff7366b43b6bb813482c436e945",
                "srcKUID": "c314c3f9f49c41e6be1e0114464549d1",
                "wType": "Image"
            },
            "src": "info_large.png"
        },
        "imgInfoIcon": {
            "__events__": {},
            "__info__": {
                "kuid": "de3de09bcf4844dc97c6626cddb4f504",
                "srcKUID": "j28f1356a36f4d65b2fe9614fc848758",
                "wType": "Image"
            },
            "src": "info_grey.png"
        },
        "imgInfoIcon1": {
            "__events__": {},
            "__info__": {
                "kuid": "d9e66b6d67ff4a23885d7e5f757db3bd",
                "srcKUID": "a5db7c51c5fc44939599b8ec562bb30d",
                "wType": "Image"
            },
            "src": "info_grey.png"
        },
        "imgInfoflx": {
            "__events__": {},
            "__info__": {
                "kuid": "cbfa96d904084b01ad277c3487341ae7",
                "srcKUID": "g0976d685e094d4384cb120554ff4108",
                "wType": "Image"
            },
            "src": "info_large.png"
        },
        "imgLoadingIndicatorTo": {
            "__events__": {},
            "__info__": {
                "kuid": "df7ac5d76548425fae83c6c972497cdd",
                "srcKUID": "j9e107cec96d42349222e7e21048e15c",
                "wType": "Image"
            },
            "src": "rb_4_0_ad_loading_indicator.gif"
        },
        "imgToIcon": {
            "__events__": {},
            "__info__": {
                "kuid": "bb04e0592de9406ba680d3dfab40e828",
                "srcKUID": "i5a14e09303c41abb6487271993d4760",
                "wType": "Label"
            }
        },
        "imgWarning": {
            "__events__": {},
            "__info__": {
                "kuid": "g4968401ebe840c388d95968b8432a67",
                "srcKUID": "i19ed7a2c5ef4d68a208d8124a664fa7",
                "wType": "Image"
            },
            "src": "bluealert_2.png"
        },
        "lbTransferTo": {
            "__events__": {},
            "__info__": {
                "kuid": "f005a6fbf2e04e5e85eb213c323224ab",
                "srcKUID": "eb0a0da1adfa4506870037a69baf6f52",
                "wType": "Label"
            }
        },
        "lblActualLoanEndDate": {
            "__events__": {},
            "__info__": {
                "kuid": "c1cc16d30c524214928a06f33d503f18",
                "srcKUID": "ce6f30f0b4c94a29ae3089593f75b976",
                "wType": "Label"
            },
            "left": {
                "Default": {
                    "type": "number",
                    "value": "30"
                }
            },
            "responsiveData": {
                "b1": {
                    "left": {
                        "type": "number",
                        "value": "9"
                    },
                    "top": {
                        "type": "string",
                        "value": "0dp"
                    }
                }
            },
            "text": "Actual Loan End Date:",
            "top": {
                "Default": {
                    "type": "string",
                    "value": "10dp"
                }
            }
        },
        "lblActualLoanEndDateValue": {
            "__events__": {},
            "__info__": {
                "kuid": "f24ae3014eee4b88992467228575a0cb",
                "srcKUID": "h73da5e8b81c4b3da8705999461171e2",
                "wType": "Label"
            },
            "bottom": {
                "Default": {
                    "type": "string",
                    "value": ""
                }
            },
            "left": {
                "Default": {
                    "type": "number",
                    "value": "30"
                }
            },
            "responsiveData": {
                "b1": {
                    "bottom": null,
                    "left": {
                        "type": "number",
                        "value": "9"
                    },
                    "top": {
                        "type": "string",
                        "value": "5dp"
                    }
                }
            },
            "top": {
                "Default": {
                    "type": "string",
                    "value": "30dp"
                }
            }
        },
        "lblAgree": {
            "__events__": {},
            "__info__": {
                "kuid": "gf695a079a3b4ab0a29a849a48db9d63",
                "srcKUID": "b9a5653856c14e6da2a0ba69db4183c8",
                "wType": "Label"
            },
            "i18n_text": "i18n.transfers.termsandconditions",
            "left": {},
            "responsiveData": {
                "b1": {
                    "left": {
                        "type": "string",
                        "value": "40dp"
                    },
                    "top": {
                        "type": "string",
                        "value": "562dp"
                    }
                },
                "b2": {
                    "left": {
                        "type": "string",
                        "value": "45dp"
                    }
                }
            },
            "top": {}
        },
        "lblCurrentBalanceLabel": {
            "__events__": {},
            "__info__": {
                "kuid": "f03b4d42ba4c457fa5351a46d1a12f9a",
                "srcKUID": "ef0821b69eba45edbc3c705558946811",
                "wType": "Label"
            },
            "left": {
                "Default": {
                    "type": "string",
                    "value": "575dp"
                }
            },
            "responsiveData": {
                "b1": {
                    "left": {
                        "type": "string",
                        "value": "9dp"
                    },
                    "top": {
                        "type": "string",
                        "value": "10dp"
                    }
                },
                "b2": {
                    "left": {
                        "type": "string",
                        "value": "525dp"
                    }
                }
            },
            "text": "Current Balance:",
            "top": {
                "Default": {
                    "type": "string",
                    "value": "20dp"
                }
            }
        },
        "lblCurrentBalanceValue": {
            "__events__": {},
            "__info__": {
                "kuid": "c7a88a44314b4209861e5e7815f10b66",
                "srcKUID": "ef232cb494da4f66b5c64e823c511e0a",
                "wType": "Label"
            },
            "left": {
                "Default": {
                    "type": "string",
                    "value": "575dp"
                }
            },
            "responsiveData": {
                "b1": {
                    "left": {
                        "type": "string",
                        "value": "9dp"
                    },
                    "top": {
                        "type": "string",
                        "value": "5dp"
                    }
                },
                "b2": {
                    "left": {
                        "type": "string",
                        "value": "525dp"
                    }
                }
            },
            "top": {
                "Default": {
                    "type": "string",
                    "value": "40dp"
                }
            }
        },
        "lblCurrentDueLabel": {
            "__events__": {},
            "__info__": {
                "kuid": "gc338e8de5fc404fa12da401261f0b2b",
                "srcKUID": "jba64f2d6ab54567b5017d3c44872cfe",
                "wType": "Label"
            },
            "centerX": {
                "Default": {
                    "type": "number",
                    "value": ""
                }
            },
            "left": {
                "Default": {
                    "type": "string",
                    "value": "350dp"
                }
            },
            "responsiveData": {
                "b1": {
                    "left": {
                        "type": "string",
                        "value": "9dp"
                    },
                    "top": {
                        "type": "string",
                        "value": "10dp"
                    }
                },
                "b2": {
                    "left": {
                        "type": "number",
                        "value": "320"
                    }
                }
            },
            "text": "Current Due:",
            "top": {
                "Default": {
                    "type": "string",
                    "value": "20dp"
                }
            }
        },
        "lblCurrentDueValue": {
            "__events__": {},
            "__info__": {
                "kuid": "aeadb4fd521b4b48a8346e36bbb632ef",
                "srcKUID": "gdde388b6a1b41b288deffa8535fbb78",
                "wType": "Label"
            },
            "centerX": {
                "Default": {
                    "type": "number",
                    "value": ""
                }
            },
            "left": {
                "Default": {
                    "type": "number",
                    "value": "350"
                }
            },
            "responsiveData": {
                "b1": {
                    "left": {
                        "type": "number",
                        "value": "9"
                    },
                    "top": {
                        "type": "string",
                        "value": "5dp"
                    }
                },
                "b2": {
                    "left": {
                        "type": "number",
                        "value": "320"
                    }
                }
            },
            "top": {
                "Default": {
                    "type": "string",
                    "value": "40dp"
                }
            }
        },
        "lblError": {
            "__events__": {},
            "__info__": {
                "kuid": "bc2a29ca8d3c4e1c91ed9ed6d94581ab",
                "srcKUID": "b7bbb3904bad4de8a473df8e731d7499",
                "wType": "Label"
            },
            "i18n_text": "i18n.AccountsLanding.Pageleveltransactionlevelerrorsappearhere",
            "left": {
                "Default": {
                    "type": "string",
                    "value": "20dp"
                }
            },
            "responsiveData": {}
        },
        "lblFrom": {
            "__events__": {},
            "__info__": {
                "kuid": "f428d1975b9f40baa5e6a8398d995e46",
                "srcKUID": "u0b13ddbddc84081b5a899402e09989e",
                "wType": "Label"
            },
            "i18n_text": "i18n.transfers.lblFrom",
            "left": {},
            "responsiveData": {
                "b1": {
                    "left": {
                        "type": "string",
                        "value": "20dp"
                    },
                    "top": {
                        "type": "string",
                        "value": "1dp"
                    }
                },
                "b2": {
                    "left": {
                        "type": "string",
                        "value": "20dp"
                    }
                }
            },
            "top": {}
        },
        "lblFromDetails": {
            "__events__": {},
            "__info__": {
                "kuid": "ab0602b530ff4433815eb0372c74de35",
                "srcKUID": "a805c8c572754e4eb487b948e7b1f326",
                "wType": "Label"
            },
            "i18n_text": "i18n.StopCheckPayments.from",
            "responsiveData": {}
        },
        "lblHeader": {
            "__events__": {},
            "__info__": {
                "kuid": "af14d93418c14fe5890b8e0c4cdbaa92",
                "srcKUID": "u3521e73f9d0458abc7b549b4d427a1d",
                "wType": "Label"
            },
            "centerY": {
                "Default": {
                    "type": "string",
                    "value": "50%"
                }
            },
            "height": {
                "Default": {
                    "type": "ref",
                    "value": "preferred"
                }
            },
            "i18n_text": "i18n.PayDueAmount.LOANPAYOFF",
            "left": {},
            "responsiveData": {
                "b2": {
                    "left": {
                        "type": "string",
                        "value": "20dp"
                    }
                }
            },
            "text": "Loan Pay Off",
            "top": {
                "Default": {
                    "type": "string",
                    "value": ""
                }
            }
        },
        "lblLoanEndDate": {
            "__events__": {},
            "__info__": {
                "kuid": "cfa1064e103b4486ad2ac8a22e08c4bf",
                "srcKUID": "u5a93df0c9144aaa9ea9ba10f0abd5ef",
                "wType": "Label"
            },
            "i18n_text": "i18n.PayDueAmount.ActualLoanEndDate",
            "left": {},
            "responsiveData": {
                "b1": {
                    "left": {
                        "type": "string",
                        "value": "20dp"
                    },
                    "top": {
                        "type": "string",
                        "value": "239dp"
                    },
                    "width": {
                        "type": "ref",
                        "value": "preferred"
                    }
                },
                "b2": {
                    "left": {
                        "type": "string",
                        "value": "20dp"
                    },
                    "width": {
                        "type": "ref",
                        "value": "preferred"
                    }
                },
                "b3": {
                    "width": {
                        "type": "ref",
                        "value": "preferred"
                    }
                },
                "b4": {
                    "width": {
                        "type": "ref",
                        "value": "preferred"
                    }
                }
            },
            "top": {},
            "width": {}
        },
        "lblLoanPayOffAmount": {
            "__events__": {},
            "__info__": {
                "kuid": "g128e762c4e64762be5b0fe20bbeaf19",
                "srcKUID": "c84b5fcd46324183967d1b0e9ab2faaa",
                "wType": "Label"
            },
            "i18n_text": "i18n.PayDueAmount.LoanPayoffAmount",
            "left": {},
            "responsiveData": {
                "b1": {
                    "left": {
                        "type": "string",
                        "value": "20dp"
                    },
                    "top": {
                        "type": "string",
                        "value": "158dp"
                    }
                },
                "b2": {
                    "left": {
                        "type": "string",
                        "value": "20dp"
                    }
                }
            },
            "top": {}
        },
        "lblLoanPayOffAmountLabel": {
            "__events__": {},
            "__info__": {
                "kuid": "d48eaf65b2604c8a9c65c553b6c895dc",
                "srcKUID": "ae381c1f1d01400ba83dccef673d48b3",
                "wType": "Label"
            },
            "responsiveData": {},
            "text": "Pay-Off Amount:"
        },
        "lblNoResultsTo": {
            "__events__": {},
            "__info__": {
                "kuid": "eb03fd2c891c4c018097c28674bf19f9",
                "srcKUID": "c251bc62f2964aa2862e4acac4282eef",
                "wType": "Label"
            }
        },
        "lblNoResultsToPayPersonFailure": {
            "__events__": {},
            "__info__": {
                "kuid": "he3f05823d7c425985817fc02ba5ad9c",
                "srcKUID": "e2f39c721eb742ef90e8267159c87878",
                "wType": "Label"
            }
        },
        "lblNote": {
            "__events__": {},
            "__info__": {
                "kuid": "af780a51db8b488f97b1623e3ee2188f",
                "srcKUID": "uda0d03fb1d147159fd4959242baf05a",
                "wType": "Label"
            },
            "i18n_text": "i18n.transfers.Description",
            "left": {},
            "responsiveData": {
                "b1": {
                    "left": {
                        "type": "string",
                        "value": "20dp"
                    },
                    "top": {
                        "type": "string",
                        "value": "480dp"
                    },
                    "width": {
                        "type": "ref",
                        "value": "preferred"
                    }
                },
                "b2": {
                    "left": {
                        "type": "string",
                        "value": "20dp"
                    },
                    "width": {
                        "type": "ref",
                        "value": "preferred"
                    }
                },
                "b3": {
                    "width": {
                        "type": "ref",
                        "value": "preferred"
                    }
                },
                "b4": {
                    "width": {
                        "type": "ref",
                        "value": "preferred"
                    }
                }
            },
            "top": {},
            "width": {}
        },
        "lblPayOffDate": {
            "__events__": {},
            "__info__": {
                "kuid": "b8c28eb7fc6f4185a9f6f8d4b971c6e7",
                "srcKUID": "h3aa27f8fc5f4780b6002c82d44bdff8",
                "wType": "Label"
            },
            "responsiveData": {},
            "text": "Pay-Off Date:"
        },
        "lblPayOffPenality": {
            "__events__": {},
            "__info__": {
                "kuid": "ab3e9e77d71140fabdeeb061b872a5e6",
                "srcKUID": "df51541b16c04bcabe04922a531d868f",
                "wType": "Label"
            },
            "i18n_text": "i18n.PayDueAmount.PayoffPenalty",
            "left": {},
            "responsiveData": {
                "b1": {
                    "left": {
                        "type": "string",
                        "value": "20dp"
                    },
                    "top": {
                        "type": "string",
                        "value": "0dp"
                    },
                    "width": {
                        "type": "ref",
                        "value": "preferred"
                    }
                },
                "b2": {
                    "left": {
                        "type": "string",
                        "value": "20dp"
                    },
                    "width": {
                        "type": "ref",
                        "value": "preferred"
                    }
                },
                "b3": {
                    "width": {
                        "type": "ref",
                        "value": "preferred"
                    }
                },
                "b4": {
                    "width": {
                        "type": "ref",
                        "value": "preferred"
                    }
                }
            },
            "top": {},
            "width": {}
        },
        "lblPayOffPenalityLabel": {
            "__events__": {},
            "__info__": {
                "kuid": "ae5bad5c5066405b923a1609b58aed9b",
                "srcKUID": "g7dec71420e0410986cf978ff2d94cfa",
                "wType": "Label"
            },
            "responsiveData": {},
            "text": "Pay-Off Penality:"
        },
        "lblPayOn": {
            "__events__": {},
            "__info__": {
                "kuid": "ge5f0503281e4d40b9ee661fd57bd185",
                "srcKUID": "h1fced8df50b42b1a3a6991c310b77aa",
                "wType": "Label"
            },
            "left": {},
            "responsiveData": {
                "b1": {
                    "left": {
                        "type": "string",
                        "value": "20dp"
                    },
                    "top": {
                        "type": "string",
                        "value": "318dp"
                    },
                    "width": {
                        "type": "ref",
                        "value": "preferred"
                    }
                },
                "b2": {
                    "left": {
                        "type": "string",
                        "value": "20dp"
                    }
                },
                "b3": {
                    "width": {
                        "type": "ref",
                        "value": "preferred"
                    }
                },
                "b4": {
                    "width": {
                        "type": "ref",
                        "value": "preferred"
                    }
                }
            },
            "top": {},
            "width": {}
        },
        "lblSelectAccountTo": {
            "__events__": {},
            "__info__": {
                "kuid": "i9c9f9ba6b2f4fb59c758b94a6aa7eb2",
                "srcKUID": "caf48d922d2e493ea0fff245b01e7e3f",
                "wType": "Label"
            }
        },
        "lblSendMoneyToNewRecipientPayPersonFailure": {
            "__events__": {},
            "__info__": {
                "kuid": "bd140c01dd8e4942935f818cb0e559e2",
                "srcKUID": "a9289383288749949ace40b7c803b5e4",
                "wType": "Label"
            }
        },
        "lblSendMoneyToNewRecipientTo": {
            "__events__": {},
            "__info__": {
                "kuid": "j6212629b89d4a85b2319863709edc83",
                "srcKUID": "a4bdde52c04e429fa02c90bef690844e",
                "wType": "Label"
            }
        },
        "lblTo": {
            "__events__": {},
            "__info__": {
                "kuid": "c5df77e72baa46129e3c508e2c891cc7",
                "srcKUID": "uf90135450c64ec18f5080f4f8c117ab",
                "wType": "Label"
            },
            "i18n_text": "i18n.transfers.lblTo",
            "left": {},
            "responsiveData": {
                "b1": {
                    "left": {
                        "type": "string",
                        "value": "20dp"
                    },
                    "top": {
                        "type": "string",
                        "value": "79dp"
                    }
                }
            },
            "top": {}
        },
        "lblToAmount": {
            "__events__": {},
            "__info__": {
                "kuid": "daf9723cd20744aa89b19f24c2db94f5",
                "srcKUID": "d213d6d5a1ba4ac8b100b5800a29d304",
                "wType": "Label"
            }
        },
        "lblToLabel": {
            "__events__": {},
            "__info__": {
                "kuid": "fc8ce3f80ab544d5b6555b1bad87f927",
                "srcKUID": "g6c2cc2cf79c4e87acac844e5b722755",
                "wType": "Label"
            },
            "left": {
                "Default": {
                    "type": "string",
                    "value": "30dp"
                }
            },
            "responsiveData": {
                "b1": {
                    "left": {
                        "type": "string",
                        "value": "9dp"
                    },
                    "top": {
                        "type": "string",
                        "value": "18dp"
                    }
                }
            },
            "text": "To:",
            "top": {
                "Default": {
                    "type": "string",
                    "value": "20dp"
                }
            }
        },
        "lblToValue": {
            "__events__": {},
            "__info__": {
                "kuid": "fc370b4eb30946df850192e545bd4e17",
                "srcKUID": "d325562481734a01af9616478c34102f",
                "wType": "Label"
            },
            "left": {
                "Default": {
                    "type": "number",
                    "value": "30"
                }
            },
            "responsiveData": {
                "b1": {
                    "left": {
                        "type": "string",
                        "value": "9dp"
                    },
                    "top": {
                        "type": "string",
                        "value": "5dp"
                    }
                },
                "b2": {
                    "top": {
                        "type": "string",
                        "value": "40dp"
                    }
                },
                "b3": {
                    "top": {
                        "type": "string",
                        "value": "40dp"
                    }
                },
                "b4": {
                    "top": {
                        "type": "string",
                        "value": "40dp"
                    }
                }
            },
            "top": {
                "Default": {
                    "type": "string",
                    "value": "35dp"
                }
            }
        },
        "lblToValueDetails": {
            "__events__": {},
            "__info__": {
                "kuid": "h26924e3db5b440781827741a1fb4ea0",
                "srcKUID": "c4ce64d8325b4394a376e9e110bfc7ff",
                "wType": "Label"
            },
            "left": {
                "Default": {
                    "type": "number",
                    "value": "30"
                }
            },
            "responsiveData": {
                "b1": {
                    "left": {
                        "type": "number",
                        "value": "9"
                    },
                    "top": {
                        "type": "string",
                        "value": "4dp"
                    }
                }
            },
            "top": {
                "Default": {
                    "type": "string",
                    "value": "60dp"
                }
            }
        },
        "lblTotalInterestLabel": {
            "__events__": {},
            "__info__": {
                "kuid": "h6878be536834c7795572268d8f4c13c",
                "srcKUID": "i8057d12e2e64dc59960c17644defcc5",
                "wType": "Label"
            },
            "left": {
                "Default": {
                    "type": "number",
                    "value": "575"
                }
            },
            "responsiveData": {
                "b1": {
                    "left": {
                        "type": "number",
                        "value": "9"
                    },
                    "top": {
                        "type": "string",
                        "value": "10dp"
                    }
                },
                "b2": {
                    "left": {
                        "type": "number",
                        "value": "525"
                    }
                }
            },
            "text": "Total Interest:",
            "top": {
                "Default": {
                    "type": "string",
                    "value": "10dp"
                }
            }
        },
        "lblTotalInterestValue": {
            "__events__": {},
            "__info__": {
                "kuid": "a214e73dbf6c4c8fa178428328ab7a5c",
                "srcKUID": "f97fddace88d4fffa1e8d5bae53acf31",
                "wType": "Label"
            },
            "bottom": {
                "Default": {
                    "type": "string",
                    "value": ""
                }
            },
            "left": {
                "Default": {
                    "type": "number",
                    "value": "575"
                }
            },
            "responsiveData": {
                "b1": {
                    "left": {
                        "type": "number",
                        "value": "9"
                    },
                    "top": {
                        "type": "string",
                        "value": "5dp"
                    }
                },
                "b2": {
                    "left": {
                        "type": "number",
                        "value": "525"
                    }
                }
            },
            "top": {
                "Default": {
                    "type": "string",
                    "value": "30dp"
                }
            }
        },
        "lblTotalPrincipalLabel": {
            "__events__": {},
            "__info__": {
                "kuid": "ab15e1e92d134642b397d5560f31eefe",
                "srcKUID": "ice0fb2813aa4e32b12894ac1c23e962",
                "wType": "Label"
            },
            "left": {
                "Default": {
                    "type": "number",
                    "value": "350"
                }
            },
            "responsiveData": {
                "b1": {
                    "left": {
                        "type": "number",
                        "value": "9"
                    },
                    "top": {
                        "type": "string",
                        "value": "10dp"
                    }
                },
                "b2": {
                    "left": {
                        "type": "number",
                        "value": "320"
                    }
                }
            },
            "text": "Total Principal:",
            "top": {
                "Default": {
                    "type": "string",
                    "value": "10dp"
                }
            }
        },
        "lblTotalPrincipalValue": {
            "__events__": {},
            "__info__": {
                "kuid": "b818fdeaedc0497e8d2fffb54872a477",
                "srcKUID": "b4ee6e0bffd54563a19ecd9c4fb7636b",
                "wType": "Label"
            },
            "bottom": {
                "Default": {
                    "type": "string",
                    "value": ""
                }
            },
            "left": {
                "Default": {
                    "type": "number",
                    "value": "350"
                }
            },
            "responsiveData": {
                "b1": {
                    "bottom": null,
                    "left": {
                        "type": "number",
                        "value": "9"
                    },
                    "top": {
                        "type": "string",
                        "value": "5dp"
                    }
                },
                "b2": {
                    "left": {
                        "type": "number",
                        "value": "320"
                    }
                }
            },
            "top": {
                "Default": {
                    "type": "string",
                    "value": "30dp"
                }
            }
        },
        "lblWarning": {
            "__events__": {},
            "__info__": {
                "kuid": "b86aa96720b74b21b4b759634f6a5b5a",
                "srcKUID": "j72f4c6fdca242c5a4647430c94c260a",
                "wType": "Label"
            }
        },
        "lblWarningSecond": {
            "__events__": {},
            "__info__": {
                "kuid": "cd0d878cb37d4dd8b303af4c174a01e0",
                "srcKUID": "df275e62221e4807bb2f0e6e54eea521",
                "wType": "Label"
            },
            "bottom": {
                "Default": {
                    "type": "string",
                    "value": ""
                }
            },
            "height": {
                "Default": {
                    "type": "ref",
                    "value": "preferred"
                }
            },
            "responsiveData": {
                "b1": {
                    "height": {
                        "type": "string",
                        "value": ""
                    },
                    "text": "Payoff inquiry  does not include  any currently scheduled payments or pending / new charges.",
                    "width": {
                        "type": "string",
                        "value": "80%"
                    }
                },
                "b2": {
                    "width": {
                        "type": "string",
                        "value": "90%"
                    }
                },
                "b3": {
                    "height": {
                        "type": "ref",
                        "value": "preferred"
                    },
                    "width": {
                        "type": "string",
                        "value": "90%"
                    }
                },
                "b4": {
                    "width": {
                        "type": "string",
                        "value": "90%"
                    }
                }
            },
            "text": "Payoff inquiry  does not include  any currently scheduled payments or pending / new charges.",
            "width": {
                "Default": {
                    "type": "ref",
                    "value": "preferred"
                }
            }
        },
        "listbxFrom": {
            "__events__": {},
            "__info__": {
                "kuid": "b753dae147534f379bfffb18da4bdedc",
                "srcKUID": "ufabf0e6b6a04476a8d8e07a931496d6",
                "wType": "ListBox"
            },
            "left": {},
            "masterData": [],
            "responsiveData": {
                "b1": {
                    "left": {
                        "type": "string",
                        "value": "20dp"
                    },
                    "right": {
                        "type": "string",
                        "value": "20dp"
                    },
                    "top": {
                        "type": "string",
                        "value": "24dp"
                    },
                    "width": {
                        "type": "string",
                        "value": ""
                    }
                },
                "b2": {
                    "left": {
                        "type": "string",
                        "value": "20dp"
                    }
                }
            },
            "right": {},
            "top": {},
            "width": {}
        },
        "listbxFromDetails": {
            "__events__": {},
            "__info__": {
                "kuid": "abffcbb4ed6a43e99722a3fabd0d76e2",
                "srcKUID": "f75df506b60140c9ab3f189dae643d93",
                "wType": "ListBox"
            },
            "responsiveData": {
                "b1": {
                    "width": {
                        "type": "string",
                        "value": "92%"
                    }
                }
            },
            "width": {
                "Default": {
                    "type": "string",
                    "value": "92.53%"
                }
            }
        },
        "listbxTo": {
            "__events__": {},
            "__info__": {
                "kuid": "ca013ba7163a413cb5ebeabfecb24ba6",
                "srcKUID": "ud9103a447514365b1d943b87a4b545a",
                "wType": "ListBox"
            },
            "left": {},
            "masterData": [],
            "responsiveData": {
                "b1": {
                    "left": {
                        "type": "string",
                        "value": "20dp"
                    },
                    "right": {
                        "type": "string",
                        "value": "20dp"
                    },
                    "top": {
                        "type": "string",
                        "value": "102dp"
                    },
                    "width": {
                        "type": "string",
                        "value": ""
                    }
                }
            },
            "right": {},
            "top": {},
            "width": {}
        },
        "segTransferTo": {
            "__events__": {},
            "__info__": {
                "kuid": "e123221199694397a636197e0c55bc12",
                "srcKUID": "e10110aeb13e41ca9304a39148e71a08",
                "wType": "Segment"
            }
        },
        "tbxActualLoanEndDate": {
            "__events__": {},
            "__info__": {
                "kuid": "ca1fbbe2fb4b4179b4167a80cc999d33",
                "srcKUID": "f60254f89f8a4a40b79e60443b36af3f",
                "wType": "TextField"
            },
            "left": {},
            "responsiveData": {
                "b1": {
                    "left": {
                        "type": "string",
                        "value": "20dp"
                    },
                    "right": {
                        "type": "string",
                        "value": "20dp"
                    },
                    "top": {
                        "type": "string",
                        "value": "262dp"
                    },
                    "width": {
                        "type": "string",
                        "value": ""
                    }
                },
                "b2": {
                    "left": {
                        "type": "string",
                        "value": "20dp"
                    }
                }
            },
            "right": {},
            "top": {},
            "width": {}
        },
        "tbxLoanPayOffAmount": {
            "__events__": {},
            "__info__": {
                "kuid": "deba35bcf2634823a0c936641b3ffcaf",
                "srcKUID": "ua5e674d95af49c29110e0f78fcab9c4",
                "wType": "TextField"
            },
            "left": {},
            "responsiveData": {
                "b1": {
                    "left": {
                        "type": "string",
                        "value": "20dp"
                    },
                    "right": {
                        "type": "string",
                        "value": "20dp"
                    },
                    "top": {
                        "type": "string",
                        "value": "183dp"
                    },
                    "width": {
                        "type": "string",
                        "value": ""
                    }
                },
                "b2": {
                    "left": {
                        "type": "string",
                        "value": "20dp"
                    }
                }
            },
            "right": {},
            "top": {},
            "width": {}
        },
        "tbxLoanPayOffAmountValue": {
            "__events__": {},
            "__info__": {
                "kuid": "ic0783298b394d3b90e5d1d78e599832",
                "srcKUID": "ddd3565620dd4584ae907ef3c90da3e1",
                "wType": "TextField"
            },
            "responsiveData": {
                "b1": {
                    "width": {
                        "type": "string",
                        "value": "92%"
                    }
                }
            },
            "width": {
                "Default": {
                    "type": "string",
                    "value": "45.34%"
                }
            }
        },
        "tbxOptional": {
            "__events__": {},
            "__info__": {
                "kuid": "i2f65e36630047b6bdfe83685d997210",
                "srcKUID": "u923242465814f10b4dc1ef3d4e3274b",
                "wType": "TextField"
            },
            "left": {},
            "responsiveData": {
                "b1": {
                    "left": {
                        "type": "string",
                        "value": "20dp"
                    },
                    "top": {
                        "type": "string",
                        "value": "503dp"
                    }
                },
                "b2": {
                    "left": {
                        "type": "string",
                        "value": "20dp"
                    }
                }
            },
            "top": {}
        },
        "tbxPayoffPenality": {
            "__events__": {},
            "__info__": {
                "kuid": "c60adeb9c4b04e1da3c934eb625c0391",
                "srcKUID": "j6cc3143e00e41708ab4067e31004ef6",
                "wType": "TextField"
            },
            "left": {},
            "responsiveData": {
                "b1": {
                    "left": {
                        "type": "string",
                        "value": "20dp"
                    },
                    "right": {
                        "type": "string",
                        "value": "20dp"
                    },
                    "top": {
                        "type": "string",
                        "value": "424dp"
                    },
                    "width": {
                        "type": "string",
                        "value": ""
                    }
                },
                "b2": {
                    "left": {
                        "type": "string",
                        "value": "20dp"
                    }
                }
            },
            "right": {},
            "top": {},
            "width": {}
        },
        "tbxPayoffPenalityValue": {
            "__events__": {},
            "__info__": {
                "kuid": "e951f88264f34117a75c83dc5bc71968",
                "srcKUID": "j9ec09eecc02413ebeb1c4ec21fa8565",
                "wType": "TextField"
            },
            "responsiveData": {
                "b1": {
                    "width": {
                        "type": "string",
                        "value": "92%"
                    }
                }
            },
            "width": {
                "Default": {
                    "type": "string",
                    "value": "45.34%"
                }
            }
        },
        "txtTransferTo": {
            "__events__": {},
            "__info__": {
                "kuid": "i79393ea1ef34e208fcd04955a66675e",
                "srcKUID": "fb562b721a80497fb95f690e9e51ed0e",
                "wType": "TextField"
            }
        }
    },
    "id": "LoanPayOff",
    "info": null,
    "isdatareferenced": false,
    "issegmentchild": false,
    "isvisible": true,
    "kuid": "d511e067da2146d3ad18207ba7d04402",
    "layouttype": 2,
    "masterType": 0,
    "name": "kony.ui.UserWidgetInstance",
    "parent": "flxLoanPayOff",
    "pf": "frmPayDueAmount",
    "snaptogrid": true,
    "sourceUserWidget": "u9f29ae576bb4344950a8ae42412d775",
    "vizprops": {
        "hidewidgethierarchy": false
    },
    "wType": "UserWidgetInstance"
}