{
    "DNDConfig": null,
    "__parentReadjusting__": false,
    "_height_": {
        "type": "string",
        "value": "70dp"
    },
    "_left_": {
        "type": "string",
        "value": "2.30%"
    },
    "_margin_": [
        0,
        0,
        0,
        0
    ],
    "_orientation_": 6,
    "_padding_": [
        0,
        0,
        0,
        0
    ],
    "_percent_": true,
    "_skin_": "s74d1cda3fe54198be119e65408e9ded",
    "_top_": {
        "type": "string",
        "value": "30dp"
    },
    "_width_": {
        "type": "string",
        "value": "95.40%"
    },
    "allboxes": [],
    "canUpdateUI": true,
    "children": [
        "lblAlertsWarningImageNew",
        "lblWarning"
    ],
    "clipbounds": true,
    "containerweight": 100,
    "enablescrolling": true,
    "id": "flxWarning",
    "info": null,
    "isvisible": true,
    "kuid": "gd6bacd78b8c4970aae73fa7d79c7fd6",
    "layouttype": 3,
    "name": "kony.ui.FlexContainer",
    "parent": "flxBudgetDetails",
    "pf": "frmCreateBudget",
    "responsiveData": {
        "b4": {
            "height": {
                "type": "string",
                "value": "105dp"
            },
            "layoutType": 3,
            "width": {
                "type": "string",
                "value": "95.40%"
            }
        }
    },
    "snapgridsize": 10,
    "snaptogrid": true,
    "wType": "FlexContainer",
    "widgetalignment": 1,
    "zindex": 1
}