{
    "DNDConfig": null,
    "__parentReadjusting__": false,
    "_height_": {
        "type": "string",
        "value": "110dp"
    },
    "_left_": {
        "type": "string",
        "value": "0dp"
    },
    "_margin_": [
        0,
        0,
        0,
        0
    ],
    "_orientation_": 6,
    "_padding_": [
        0,
        0,
        0,
        0
    ],
    "_percent_": true,
    "_skin_": "s24c92fc23b14f5484b693ee9b8a9b35",
    "_top_": {
        "type": "string",
        "value": "0dp"
    },
    "_width_": {
        "type": "string",
        "value": "100%"
    },
    "allboxes": [],
    "canUpdateUI": true,
    "children": [
        "flxStep2ButtonSeperator",
        "btnCancel1",
        "btnModify",
        "btnConfirm"
    ],
    "clipbounds": true,
    "containerweight": 100,
    "enablescrolling": true,
    "id": "flxStep2Buttons",
    "info": null,
    "isvisible": true,
    "kuid": "e82aed9bf4d34eaa96ee3896bd3e9930",
    "layouttype": 2,
    "name": "kony.ui.FlexContainer",
    "parent": "flxConfirmDetails",
    "pf": "frmWireTransferAddInternationalAccountAck",
    "responsiveData": {
        "b1": {
            "height": {
                "type": "string",
                "value": "100dp"
            },
            "isVisible": false
        },
        "b2": {
            "height": {
                "type": "string",
                "value": "100dp"
            },
            "isVisible": false
        },
        "b3": {
            "height": {
                "type": "string",
                "value": "220dp"
            },
            "isVisible": false
        },
        "b4": {
            "isVisible": false
        }
    },
    "snapgridsize": 10,
    "snaptogrid": true,
    "wType": "FlexContainer",
    "widgetalignment": 1,
    "zindex": 1
}