{
    "@class": "com.kony.gen.viz.model.component.KVizRichText",
    "DNDConfig": null,
    "__parentReadjusting__": false,
    "_bottom_": {
        "type": "string",
        "value": "16px"
    },
    "_height_": {
        "type": "ref",
        "value": "preferred"
    },
    "_left_": {
        "type": "string",
        "value": "0dp"
    },
    "_margin_": [
        0,
        0,
        0,
        0
    ],
    "_padding_": [
        0,
        0,
        0,
        0
    ],
    "_right_": {
        "type": "string",
        "value": "0px"
    },
    "_skin_": "sc4cc30bc71442ee9f8b2e9230a973fa",
    "_text_": "left Value",
    "_top_": {
        "type": "string",
        "value": "6dp"
    },
    "_wrapping_": 2,
    "accessibilityconfig": {
        "a11yLabel": "left Value"
    },
    "canUpdateUI": true,
    "containerweight": 100,
    "contentalignment": 1,
    "id": "rtxLeftValueBank1",
    "info": null,
    "isvisible": true,
    "kuid": "c1191f779b8145808a14ee88bbe07502",
    "name": "kony.ui.RichText",
    "parent": "flxLeftKeyValueBank1",
    "pf": "frmAccountInfoForInboundTransfer",
    "wType": "RichText",
    "widgetalignment": 5,
    "zindex": 1
}