{
    "@class": "com.kony.gen.viz.model.component.KVizButton",
    "DNDConfig": null,
    "_height_": {
        "type": "string",
        "value": "40dp"
    },
    "_left_": {
        "type": "number",
        "value": ""
    },
    "_margin_": [
        6,
        6,
        6,
        6
    ],
    "_padding_": [
        0,
        0,
        0,
        0
    ],
    "_right_": {
        "type": "string",
        "value": ""
    },
    "_skin_": "sfbbba35ede4457b94eb681b72349b98",
    "_text_": "Continue",
    "_top_": {
        "type": "string",
        "value": "0dp"
    },
    "_width_": {
        "type": "string",
        "value": "15%"
    },
    "accessibilityconfig": {
        "a11yLabel": "Yes"
    },
    "canUpdateUI": true,
    "centerx": {
        "type": "string",
        "value": "92%"
    },
    "centery": {
        "type": "string",
        "value": "50%"
    },
    "containerweight": 100,
    "contentalignment": 5,
    "desktopweb": {
        "psp": {
            "hoverSkin": "s81054b5e2b74f17a5261991df565427"
        }
    },
    "displaytext": true,
    "focusskin": "s5a4f67acd3e47b9be6d6910a7a6686f",
    "id": "btnContinue",
    "info": null,
    "isvisible": true,
    "kuid": "hf6c8173176f499c85c8133419109dab",
    "name": "kony.ui.Button",
    "parent": "flxSubmitBtnWrapper",
    "pf": "frmEditBudget",
    "responsiveData": {
        "b1": {
            "centerX": {
                "type": "string",
                "value": ""
            },
            "right": {
                "type": "string",
                "value": "2dp"
            },
            "width": {
                "type": "string",
                "value": "150dp"
            }
        },
        "b2": {
            "centerX": {
                "type": "string",
                "value": ""
            },
            "centerY": {
                "type": "string",
                "value": "50%"
            },
            "right": {
                "type": "string",
                "value": "2dp"
            },
            "width": {
                "type": "string",
                "value": "150dp"
            }
        },
        "b3": {
            "centerX": {
                "type": "string",
                "value": ""
            },
            "right": {
                "type": "string",
                "value": "1dp"
            },
            "width": {
                "type": "string",
                "value": "150px"
            }
        },
        "b4": {
            "centerX": {
                "type": "string",
                "value": ""
            },
            "centerY": {
                "type": "string",
                "value": ""
            },
            "left": {
                "type": "string",
                "value": "2.30%"
            },
            "top": {
                "type": "string",
                "value": "20dp"
            },
            "width": {
                "type": "string",
                "value": "95.40%"
            }
        }
    },
    "texti18n": "i18n.PayAPerson.Update",
    "tooltip": "Continue",
    "wType": "Button",
    "zindex": 1
}