{
    "DNDConfig": null,
    "__parentReadjusting__": false,
    "_height_": {
        "type": "string",
        "value": "40dp"
    },
    "_left_": {
        "type": "string",
        "value": "2.20%"
    },
    "_margin_": [
        0,
        0,
        0,
        0
    ],
    "_orientation_": 6,
    "_padding_": [
        0,
        0,
        0,
        0
    ],
    "_percent_": true,
    "_skin_": "s65354b7cde046abb7d41396889ffe1b",
    "_top_": {
        "type": "string",
        "value": "5dp"
    },
    "_width_": {
        "type": "string",
        "value": "40%"
    },
    "allboxes": [],
    "autogrowmode": 0,
    "canUpdateUI": true,
    "children": [
        "lblBudgetAmtCurrency",
        "tbxBudgetAmount"
    ],
    "clipbounds": true,
    "containerweight": 100,
    "enablescrolling": true,
    "id": "flxBudgetAmountValue",
    "info": null,
    "isvisible": true,
    "kuid": "idb7a84731954264bf9bb16231380cb6",
    "layouttype": 3,
    "name": "kony.ui.FlexContainer",
    "parent": "flxBudgetDetails",
    "pf": "frmEditBudget",
    "responsiveData": {
        "b1": {
            "left": {
                "type": "string",
                "value": "2.30%"
            },
            "width": {
                "type": "string",
                "value": "45.34%"
            }
        },
        "b2": {
            "left": {
                "type": "string",
                "value": "2.30%"
            },
            "width": {
                "type": "string",
                "value": "45.34%"
            }
        },
        "b3": {
            "left": {
                "type": "string",
                "value": "2.30%"
            },
            "width": {
                "type": "string",
                "value": "80%"
            }
        },
        "b4": {
            "left": {
                "type": "string",
                "value": "2.30%"
            },
            "width": {
                "type": "string",
                "value": "95.40%"
            }
        }
    },
    "snapgridsize": 10,
    "snaptogrid": true,
    "wType": "FlexContainer",
    "widgetalignment": 1,
    "zindex": 1
}