{
    "@class": "com.kony.gen.viz.model.component.KVizButton",
    "DNDConfig": null,
    "_height_": {
        "type": "string",
        "value": "40dp"
    },
    "_left_": {
        "type": "number",
        "value": ""
    },
    "_margin_": [
        6,
        6,
        6,
        6
    ],
    "_padding_": [
        0,
        0,
        0,
        0
    ],
    "_right_": {
        "type": "string",
        "value": "30dp"
    },
    "_skin_": "sea1525e3fa24829a889b1fd650f3f24",
    "_text_": "ADD RECIPIENT",
    "_top_": {
        "type": "number",
        "value": ""
    },
    "_width_": {
        "type": "string",
        "value": "220dp"
    },
    "accessibilityconfig": {
        "a11yLabel": "Confirm"
    },
    "canUpdateUI": true,
    "centery": {
        "type": "string",
        "value": "50%"
    },
    "containerweight": 100,
    "contentalignment": 5,
    "desktopweb": {
        "psp": {
            "hoverSkin": "sfd0ce0d7f454c9f83c7e815a90a8a55"
        }
    },
    "disabledSkins": {
        "blockedUISkin": "s1400c825f384a46b15a0f8d6829ecef"
    },
    "displaytext": true,
    "focusskin": "sfd0ce0d7f454c9f83c7e815a90a8a55",
    "id": "btnConfirm",
    "info": null,
    "isvisible": true,
    "kuid": "j37e78904fc44b35968165e0d7829e29",
    "name": "kony.ui.Button",
    "parent": "flxStep2Buttons",
    "pf": "frmWireTransferAddKonyAccountConfirm",
    "responsiveData": {
        "b1": {
            "centerY": {
                "type": "string",
                "value": ""
            },
            "top": {
                "type": "string",
                "value": "55dp"
            },
            "width": {
                "type": "string",
                "value": "150dp"
            }
        },
        "b2": {
            "centerY": {
                "type": "string",
                "value": ""
            },
            "top": {
                "type": "string",
                "value": "55dp"
            }
        },
        "b3": {
            "centerY": {
                "type": "string",
                "value": ""
            },
            "left": {
                "type": "string",
                "value": "15dp"
            },
            "right": {
                "type": "string",
                "value": "15dp"
            },
            "top": {
                "type": "string",
                "value": "20dp"
            },
            "width": {
                "type": "string",
                "value": ""
            }
        },
        "b4": {
            "right": {
                "type": "string",
                "value": "30dp"
            },
            "width": {
                "type": "string",
                "value": "150dp"
            }
        }
    },
    "texti18n": "i18n.transfers.Confirm",
    "tooltip": "Confirm",
    "wType": "Button",
    "zindex": 1
}