{
    "BusinessControllerConfig": {
        "CommandHandler": [],
        "BusinessControllerClass": "BulkPayments/BusinessControllers/BusinessController"
    },
    "PresentationControllerConfig": {
        "Default": {
            "PresentationExtensions": [],
            "PresentationControllerClass": "BulkPayments/PresentationControllers/PresentationController"
        }
    },
    "Forms": {
        "desktop": {
            "frmBulkPaymentsDashboard": {
                "ControllerExtensions": [],
                "FormController": "kony.mvc.MDAFormController",
                "Controller": "BulkPayments/frmBulkPaymentsDashboardController",
                "FormName": "BulkPayments/frmBulkPaymentsDashboard",
                "friendlyName": "frmBulkPaymentsDashboard"
            }
        }
    },
    "ModuleName": "BulkPayments"
}