{
    "@class": "com.kony.gen.viz.model.component.KVizButton",
    "DNDConfig": null,
    "__parentReadjusting__": false,
    "_height_": {
        "type": "string",
        "value": "25dp"
    },
    "_left_": {
        "type": "string",
        "value": "0px"
    },
    "_margin_": [
        6,
        6,
        6,
        6
    ],
    "_padding_": [
        0,
        0,
        0,
        0
    ],
    "_skin_": "s41199c8c0df41048cbf47d26a9026d5",
    "_text_": "REMINDER",
    "_top_": {
        "type": "string",
        "value": "13dp"
    },
    "_width_": {
        "type": "ref",
        "value": "preferred"
    },
    "canUpdateUI": true,
    "containerId": true,
    "containerweight": 100,
    "contentalignment": 5,
    "disabledSkins": {
        "focusSkin": "sf44d06ca8224832827ea7fdff757013"
    },
    "displaytext": true,
    "id": "btnReminder",
    "ide_onClick": "AS_Button_bea80a9d7ceb41c789879e78f31768db",
    "info": null,
    "isvisible": true,
    "kuid": "cae4d90024484641bca3275a6b9f273f",
    "name": "kony.ui.Button",
    "parent": "flxReminderAction",
    "pf": "segMyRequests",
    "wType": "Button",
    "zindex": 1,
    "accessibilityconfig": {
        "a11yLabel": "REMINDER"
    }
}