{
    "@class": "com.kony.gen.viz.model.component.KVizUserWidget",
    "DNDConfig": null,
    "__parentReadjusting__": false,
    "_children_": [],
    "_height_": {
        "type": "ref",
        "value": "preferred"
    },
    "_left_": {
        "type": "string",
        "value": "0dp"
    },
    "_margin_": [
        0,
        0,
        0,
        0
    ],
    "_orientation_": 1,
    "_padding_": [
        0,
        0,
        0,
        0
    ],
    "_percent_": true,
    "_render_": true,
    "_skin_": "s24c92fc23b14f5484b693ee9b8a9b35",
    "_top_": {
        "type": "string",
        "value": "130dp"
    },
    "_width_": {
        "type": "string",
        "value": "50%"
    },
    "areflexpropsreferenced": false,
    "autogrowmode": 1,
    "canUpdateUI": true,
    "clipbounds": true,
    "containerweight": 0,
    "dataDiffs": {
        "flxContainer": {
            "__events__": {},
            "__info__": {
                "kuid": "b2a776f0a9b84a5a8680a1cab086496c",
                "srcKUID": "a89d10d03d164ca596378e2275f4831c",
                "wType": "FlexContainer"
            }
        },
        "flxKey": {
            "__events__": {},
            "__info__": {
                "kuid": "j4da18a3ce8948bc9f97215fe21c6302",
                "srcKUID": "a1e80497c7ef4276bc9919bb5a614f55",
                "wType": "FlexContainer"
            }
        },
        "flxValue": {
            "__events__": {},
            "__info__": {
                "kuid": "c18af2c0081b4ab8b1aa8fe8a61117aa",
                "srcKUID": "e8e7f97235ac43268fd27e58321521c0",
                "wType": "FlexContainer"
            }
        },
        "keyValue": {
            "__events__": {},
            "__info__": {
                "isRoot": true,
                "kuid": "a2ed13a2b43f4e3bb04fc91e20469329",
                "srcKUID": "a717a1935c9241f9a1ae2ce4200e1fcb",
                "wType": "FlexContainer"
            },
            "top": {
                "Default": {
                    "type": "string",
                    "value": "130dp"
                }
            },
            "width": {
                "Default": {
                    "type": "string",
                    "value": "50%"
                }
            }
        },
        "lblKey": {
            "__events__": {},
            "__info__": {
                "kuid": "dbb4756325a6412091e9ec8e8c33f405",
                "srcKUID": "c38b8affae5c4770890d34485f75409b",
                "wType": "Label"
            },
            "text": "Bank:"
        },
        "lblValue": {
            "__events__": {},
            "__info__": {
                "kuid": "b07a837c84de470fb1816366b8e87fab",
                "srcKUID": "g4f2b8a9448e420da2a5166927543d27",
                "wType": "Label"
            },
            "text": "Kony Bank"
        }
    },
    "id": "keyValueBank",
    "info": null,
    "isdatareferenced": false,
    "isvisible": true,
    "kuid": "a2ed13a2b43f4e3bb04fc91e20469329",
    "layouttype": 2,
    "masterType": 0,
    "name": "kony.ui.UserWidgetInstance",
    "parent": "flxCheckingAccountSummary",
    "pf": "frmPrintTransaction",
    "snaptogrid": true,
    "sourceUserWidget": "a717a1935c9241f9a1ae2ce4200e1fcb",
    "wType": "UserWidgetInstance"
}