{
    "@class": "com.kony.gen.viz.model.component.KVizUserWidget",
    "DNDConfig": null,
    "__parentReadjusting__": false,
    "_children_": [],
    "_height_": {
        "type": "ref",
        "value": "preferred"
    },
    "_left_": {
        "type": "string",
        "value": "50%"
    },
    "_margin_": [
        0,
        0,
        0,
        0
    ],
    "_orientation_": 1,
    "_padding_": [
        0,
        0,
        0,
        0
    ],
    "_percent_": true,
    "_render_": true,
    "_skin_": "s24c92fc23b14f5484b693ee9b8a9b35",
    "_top_": {
        "type": "string",
        "value": "160dp"
    },
    "_width_": {
        "type": "string",
        "value": "50%"
    },
    "areflexpropsreferenced": false,
    "autogrowmode": 1,
    "canUpdateUI": true,
    "clipbounds": true,
    "containerweight": 0,
    "dataDiffs": {
        "flxContainer": {
            "__events__": {},
            "__info__": {
                "kuid": "h7c487601fef417099f6459547ac3a5f",
                "srcKUID": "a89d10d03d164ca596378e2275f4831c",
                "wType": "FlexContainer"
            }
        },
        "flxKey": {
            "__events__": {},
            "__info__": {
                "kuid": "ic5a8ef0f575456dad3a5374cd7b3b0a",
                "srcKUID": "a1e80497c7ef4276bc9919bb5a614f55",
                "wType": "FlexContainer"
            }
        },
        "flxValue": {
            "__events__": {},
            "__info__": {
                "kuid": "e34f86e81292488db069c177a11d0770",
                "srcKUID": "e8e7f97235ac43268fd27e58321521c0",
                "wType": "FlexContainer"
            }
        },
        "keyValue": {
            "__events__": {},
            "__info__": {
                "isRoot": true,
                "kuid": "e720a75b7e24464cbd69b62739e0550b",
                "srcKUID": "a717a1935c9241f9a1ae2ce4200e1fcb",
                "wType": "FlexContainer"
            },
            "left": {
                "Default": {
                    "type": "string",
                    "value": "50%"
                }
            },
            "top": {
                "Default": {
                    "type": "string",
                    "value": "160dp"
                }
            },
            "width": {
                "Default": {
                    "type": "string",
                    "value": "50%"
                }
            }
        },
        "lblKey": {
            "__events__": {},
            "__info__": {
                "kuid": "b65c75c8e8c24a9eadc777db6defb993",
                "srcKUID": "c38b8affae5c4770890d34485f75409b",
                "wType": "Label"
            },
            "text": "Pending Withdrawals:"
        },
        "lblValue": {
            "__events__": {},
            "__info__": {
                "kuid": "bd50cc62f6e14277b3d622fd15505da2",
                "srcKUID": "g4f2b8a9448e420da2a5166927543d27",
                "wType": "Label"
            },
            "text": "-$100.00"
        }
    },
    "id": "keyValuePendingWithdrawal",
    "info": null,
    "isdatareferenced": false,
    "isvisible": true,
    "kuid": "e720a75b7e24464cbd69b62739e0550b",
    "layouttype": 2,
    "masterType": 0,
    "name": "kony.ui.UserWidgetInstance",
    "parent": "flxCheckingAccountSummary",
    "pf": "frmPrintTransaction",
    "snaptogrid": true,
    "sourceUserWidget": "a717a1935c9241f9a1ae2ce4200e1fcb",
    "wType": "UserWidgetInstance"
}