{
    "DNDConfig": null,
    "_height_": {
        "type": "ref",
        "value": "preferred"
    },
    "_margin_": [
        0,
        0,
        0,
        0
    ],
    "_orientation_": 6,
    "_padding_": [
        0,
        0,
        0,
        0
    ],
    "_percent_": true,
    "_skin_": "s622c04fb9f54483b7c42fb95f7ad207",
    "allboxes": [],
    "autogrowmode": 1,
    "canUpdateUI": true,
    "children": [
        "flxIdentifier",
        "flxSelectedRowWrapper"
    ],
    "clipbounds": true,
    "containerId": true,
    "containerweight": 100,
    "controllerInfo": {
        "default": {
            "channel": "desktop",
            "name": "flxSegTransactionRowSelectedMobileController"
        }
    },
    "enablescrolling": true,
    "id": "flxSegTransactionRowSelectedMobile",
    "info": null,
    "isTemplate": true,
    "isvisible": true,
    "kuid": "d2ef5fd6cec146de8dbd73be4f581db3",
    "layouttype": 3,
    "name": "kony.ui.FlexContainer",
    "parent": "segTransactionsRowSelectedSavingsMobile",
    "pf": "segTransactionsRowSelectedSavingsMobile",
    "snapgridsize": 10,
    "snaptogrid": true,
    "wType": "FlexContainer",
    "widgetalignment": 1
}