{
    "DNDConfig": null,
    "__parentReadjusting__": false,
    "_height_": {
        "type": "string",
        "value": "100%"
    },
    "_left_": {
        "type": "string",
        "value": "0"
    },
    "_margin_": [
        0,
        0,
        0,
        0
    ],
    "_orientation_": 6,
    "_padding_": [
        0,
        0,
        0,
        0
    ],
    "_percent_": true,
    "_skin_": "s24c92fc23b14f5484b693ee9b8a9b35",
    "_top_": {
        "type": "string",
        "value": "0dp"
    },
    "_width_": {
        "type": "string",
        "value": "87.20%"
    },
    "allboxes": [],
    "autogrowmode": 0,
    "canUpdateUI": true,
    "children": [
        "lblUpdatedDateAndTime",
        "lblUpdatedDateAndTimeValue",
        "lblUploadedBy",
        "lblUploadedByValue",
        "lblNumberOfDebits",
        "lblNumberOfDebitsValue",
        "lblNumberOfCredits",
        "lblNumberOfCreditsValue",
        "lblCompanyID",
        "lblCompanyIDValue",
        "lblFileRequestType",
        "lblFileRequestTypeValue",
        "lblNumberOfPrenotes",
        "lblNumberOfPrenotesValue"
    ],
    "clipbounds": true,
    "containerId": true,
    "containerweight": 100,
    "enablescrolling": true,
    "id": "flxACHFileDetails",
    "info": null,
    "iscustomlayout": false,
    "isvisible": true,
    "kuid": "j6ced42c968b42d294dfe713eab92ecc",
    "layouttype": 2,
    "name": "kony.ui.FlexContainer",
    "parent": "flxFileDetails",
    "pf": "segACHViewRowTemplate",
    "retaincontentalignment": false,
    "retainflexpositionproperties": false,
    "snapgridsize": 10,
    "snaptogrid": true,
    "wType": "FlexContainer",
    "widgetalignment": 1,
    "zindex": 1
}