{
    "DNDConfig": null,
    "_height_": {
        "type": "ref",
        "value": "preferred"
    },
    "_left_": {
        "type": "string",
        "value": "0dp"
    },
    "_margin_": [
        0,
        0,
        0,
        0
    ],
    "_orientation_": 6,
    "_padding_": [
        0,
        0,
        0,
        0
    ],
    "_percent_": true,
    "_skin_": "s24c92fc23b14f5484b693ee9b8a9b35",
    "_top_": {
        "type": "string",
        "value": "15px"
    },
    "_width_": {
        "type": "string",
        "value": "100%"
    },
    "allboxes": [],
    "autogrowmode": 1,
    "canUpdateUI": true,
    "children": [
        "flxRadioBtnPhone",
        "lblPhoneNumber",
        "flxRadioBtnEmail",
        "lblEmail"
    ],
    "clipbounds": true,
    "containerweight": 100,
    "enablescrolling": true,
    "id": "flxRadioButtons",
    "info": null,
    "iscustomlayout": false,
    "isvisible": true,
    "kuid": "da1936e53cc64df9a45b2959f5195632",
    "layouttype": 3,
    "name": "kony.ui.FlexContainer",
    "parent": "flxSendMoneyFields",
    "pf": "frmP2PAddRecipient",
    "responsiveData": {
        "b3": {
            "layoutType": 2,
            "left": {
                "type": "string",
                "value": "3%"
            },
            "width": {
                "type": "string",
                "value": "94%"
            }
        }
    },
    "retaincontentalignment": false,
    "retainflexpositionproperties": false,
    "retainflowhorizontalalignment": false,
    "snapgridsize": 10,
    "snaptogrid": true,
    "wType": "FlexContainer",
    "widgetalignment": 1,
    "zindex": 1
}