{
    "DNDConfig": null,
    "_bottom_": {
        "type": "string",
        "value": "0dp"
    },
    "_height_": {
        "type": "string",
        "value": "50dp"
    },
    "_left_": {
        "type": "string",
        "value": "0%"
    },
    "_margin_": [
        0,
        0,
        0,
        0
    ],
    "_orientation_": 6,
    "_padding_": [
        0,
        0,
        0,
        0
    ],
    "_percent_": true,
    "_skin_": "sdc143f0e5b64ae3a3f155f691c73fa7",
    "_top_": {
        "type": "string",
        "value": "20px"
    },
    "_width_": {
        "type": "string",
        "value": "100%"
    },
    "accessibilityconfig": {
        "a11yARIA": {
            "tabindex": 1
        }
    },
    "allboxes": [],
    "autogrowmode": 0,
    "canUpdateUI": true,
    "children": [
        "lblWhatElse",
        "lblWhatElseDummy",
        "imgDropdown"
    ],
    "clipbounds": false,
    "containerweight": 100,
    "desktopweb": {
        "psp": {
            "hoverSkin": "s3cf0e20262243ed99bdf456494ec184"
        }
    },
    "enablescrolling": true,
    "id": "flxWhatElse",
    "info": null,
    "isvisible": true,
    "kuid": "db0e6e294e1a409eb7bf08303af34b21",
    "layouttype": 2,
    "name": "kony.ui.FlexContainer",
    "parent": "flxRightWrapper",
    "pf": "frmP2PAddRecipient",
    "responsiveData": {
        "b1": {
            "top": {
                "type": "string",
                "value": "0px"
            }
        },
        "b2": {
            "top": {
                "type": "string",
                "value": "0px"
            }
        },
        "b4": {
            "top": {
                "type": "string",
                "value": "0px"
            }
        }
    },
    "snapgridsize": 10,
    "snaptogrid": true,
    "wType": "FlexContainer",
    "widgetalignment": 1,
    "zindex": 1
}