{
    "@class": "com.kony.gen.viz.model.component.KVizUserWidget",
    "DNDConfig": null,
    "__parentReadjusting__": false,
    "_children_": [],
    "_desktopweb_": {},
    "_height_": {
        "type": "string",
        "value": "52dp"
    },
    "_left_": {
        "type": "string",
        "value": "0dp"
    },
    "_margin_": [
        0,
        0,
        0,
        0
    ],
    "_orientation_": 1,
    "_padding_": [
        0,
        0,
        0,
        0
    ],
    "_percent_": true,
    "_render_": true,
    "_responsiveData_": {
        "b1": {},
        "b3": {}
    },
    "_skin_": "s2ce93a13331476c8dd4bdd20e9a2e14",
    "_top_": {
        "type": "string",
        "value": "1dp"
    },
    "_vizProps_": {
        "hidewidgethierarchy": false
    },
    "_width_": {
        "type": "string",
        "value": "100%"
    },
    "areflexpropsreferenced": false,
    "autogrowmode": 0,
    "canUpdateUI": true,
    "clipbounds": true,
    "containerweight": 0,
    "dataDiffs": {
        "breadcrumb": {
            "__events__": {},
            "__info__": {
                "isRoot": true,
                "kuid": "i93473970b144f17810fd300ce9e6a9b",
                "srcKUID": "jdbd779e0c7743739197ebb17ae3c27e",
                "wType": "FlexContainer"
            },
            "autogrowMode": {
                "Default": 0
            },
            "height": {
                "Default": {
                    "type": "string",
                    "value": "52dp"
                }
            },
            "isVisible": false,
            "responsiveData": {
                "b1": {},
                "b3": {}
            },
            "top": {
                "Default": {
                    "type": "string",
                    "value": "1dp"
                }
            },
            "width": {
                "Default": {
                    "type": "string",
                    "value": "100%"
                }
            }
        },
        "btnBreadcrumb1": {
            "__events__": {
                "ide_onClick": "AS_Button_i3ea0a07838a47a0acf337fb09ef935c"
            },
            "__info__": {
                "kuid": "iafb4af6fa6943b7aab9d52ec5abe4b7",
                "srcKUID": "j8c10426f5ad4cc5abe5b3dafa2dbb1c",
                "wType": "Button"
            }
        },
        "btnBreadcrumb2": {
            "__events__": {
                "ide_onClick": "AS_Button_ad88995850b94d81b30fdbc2e832bea9"
            },
            "__info__": {
                "kuid": "acac1f83f9b5475b80070437cd094878",
                "srcKUID": "e8107b226c2b40cf90a9a46174bc7f1d",
                "wType": "Button"
            }
        },
        "flxBottomBorder": {
            "__events__": {},
            "__info__": {
                "kuid": "cb4e990033d84a45ae10ec2c027c4ecc",
                "srcKUID": "i0ec1627a998464aade04cd886ef46aa",
                "wType": "FlexContainer"
            }
        },
        "flxBreadcrumbcontainer": {
            "__events__": {},
            "__info__": {
                "kuid": "ebb300d4980c41df99004547ebcd1db7",
                "srcKUID": "j0c7057677fd4a26b82f7fa59cdd360e",
                "wType": "FlexContainer"
            },
            "autogrowMode": {
                "Default": 0
            },
            "centerX": {
                "Default": {
                    "type": "string",
                    "value": "50%"
                }
            },
            "height": {
                "Default": {
                    "type": "string",
                    "value": "50dp"
                }
            },
            "width": {
                "Default": {
                    "type": "string",
                    "value": "1366dp"
                }
            }
        },
        "flxTopBorder": {
            "__events__": {},
            "__info__": {
                "kuid": "f4d463c532aa40af92d6a98db6fbffcd",
                "srcKUID": "bb6bda1822574264b7678002ffe888d6",
                "wType": "FlexContainer"
            }
        },
        "imgBreadcrumb": {
            "__events__": {},
            "__info__": {
                "kuid": "gfb7f7b891e74359bb564cdddcb20012",
                "srcKUID": "f5a4304fad2f41a3b5b783c4326dfc7f",
                "wType": "Image"
            }
        },
        "imgBreadcrumb2": {
            "__events__": {},
            "__info__": {
                "kuid": "b6d19fcc846b4aa6ae19bc69ccbcaeed",
                "srcKUID": "ec657451494941c9970301e279e7bf1a",
                "wType": "Image"
            }
        },
        "lblBreadcrumb2": {
            "__events__": {},
            "__info__": {
                "kuid": "e638066e9f76468d8fb62d9d931fcc0c",
                "srcKUID": "c087aea595bb4c9fa3e64e58b7e245f9",
                "wType": "Label"
            }
        },
        "lblBreadcrumb3": {
            "__events__": {},
            "__info__": {
                "kuid": "f5f316982438493b8d20e0908694c216",
                "srcKUID": "ec107db8650a4c9db78a5676ab665c29",
                "wType": "Label"
            }
        }
    },
    "id": "breadcrumb",
    "info": null,
    "isdatareferenced": false,
    "isvisible": false,
    "kuid": "i93473970b144f17810fd300ce9e6a9b",
    "layouttype": 2,
    "masterType": 0,
    "name": "kony.ui.UserWidgetInstance",
    "parent": "flxMain",
    "pf": "frmAcknowledgementEur",
    "snaptogrid": true,
    "sourceUserWidget": "jdbd779e0c7743739197ebb17ae3c27e",
    "vizprops": {
        "hidewidgethierarchy": false
    },
    "wType": "UserWidgetInstance"
}