{
    "@class": "com.kony.gen.viz.model.component.KVizButton",
    "DNDConfig": null,
    "__parentReadjusting__": false,
    "_bottom_": {
        "type": "number",
        "value": ""
    },
    "_height_": {
        "type": "string",
        "value": "40dp"
    },
    "_left_": {
        "type": "string",
        "value": "58.6%"
    },
    "_margin_": [
        6,
        6,
        6,
        6
    ],
    "_padding_": [
        0,
        0,
        0,
        0
    ],
    "_right_": {
        "type": "number",
        "value": ""
    },
    "_skin_": "sea1525e3fa24829a889b1fd650f3f24",
    "_text_": "Save Recipient",
    "_top_": {
        "type": "string",
        "value": "800dp"
    },
    "_width_": {
        "type": "string",
        "value": "16.84%"
    },
    "accessibilityconfig": {
        "a11yLabel": "Button"
    },
    "canUpdateUI": true,
    "containerweight": 100,
    "contentalignment": 5,
    "desktopweb": {
        "psp": {
            "hoverSkin": "s81054b5e2b74f17a5261991df565427"
        }
    },
    "displaytext": true,
    "focusskin": "s5a4f67acd3e47b9be6d6910a7a6686f",
    "id": "btnMakeTransfer",
    "info": null,
    "isvisible": true,
    "kuid": "bbd4e3e747804d73ac4f0d69fc100178",
    "name": "kony.ui.Button",
    "parent": "flxContainer",
    "pf": "frmAcknowledgementEur",
    "responsiveData": {
        "b1": {},
        "b2": {
            "bottom": {
                "type": "string",
                "value": "20dp"
            },
            "left": {
                "type": "string",
                "value": "6.08%"
            },
            "right": {
                "type": "string",
                "value": "36.12%"
            },
            "top": {
                "type": "string",
                "value": "1390dp"
            },
            "width": {
                "type": "string",
                "value": "87.80%"
            }
        },
        "b3": {
            "isVisible": true,
            "left": {
                "type": "string",
                "value": "10dp"
            },
            "right": {
                "type": "string",
                "value": "10dp"
            },
            "top": {
                "type": "string",
                "value": "1530dp"
            },
            "width": {
                "type": "string",
                "value": ""
            }
        },
        "b4": {}
    },
    "tooltip": "MAKE TRANSFER",
    "wType": "Button",
    "zindex": 1
}