{
    "@class": "com.kony.gen.viz.model.component.KVizButton",
    "DNDConfig": null,
    "__parentReadjusting__": false,
    "_height_": {
        "type": "string",
        "value": "40dp"
    },
    "_margin_": [
        6,
        6,
        6,
        6
    ],
    "_padding_": [
        0,
        0,
        0,
        0
    ],
    "_right_": {
        "type": "string",
        "value": "21.20%"
    },
    "_skin_": "sea1525e3fa24829a889b1fd650f3f24",
    "_text_": "",
    "_width_": {
        "type": "string",
        "value": "18.81%"
    },
    "accessibilityconfig": {
        "a11yLabel": "Make Another Payment"
    },
    "canUpdateUI": true,
    "centery": {
        "type": "string",
        "value": "50%"
    },
    "containerweight": 100,
    "contentalignment": 5,
    "desktopweb": {
        "psp": {
            "hoverSkin": "s81054b5e2b74f17a5261991df565427"
        }
    },
    "displaytext": true,
    "focusskin": "s5a4f67acd3e47b9be6d6910a7a6686f",
    "id": "btnMakeAnotherPayment",
    "info": null,
    "isvisible": true,
    "kuid": "ha0edb23578742be991f69da280e5d76",
    "name": "kony.ui.Button",
    "parent": "flxbutttons",
    "pf": "frmAcknowledgementEur",
    "responsiveData": {
        "b2": {
            "right": {
                "type": "string",
                "value": "35%"
            },
            "width": {
                "type": "string",
                "value": "30%"
            }
        }
    },
    "texti18n": "i18n.billPay.MakeAnotherPayment",
    "tooltip": "Make Another Payment",
    "wType": "Button",
    "zindex": 1
}