{
	"@class": "com.kony.gen.viz.model.component.KVizUserWidget",
	"DNDConfig": null,
	"__parentReadjusting__": false,
	"_children_": [],
	"_desktopweb_": {
		"render": true
	},
	"_height_": {
		"type": "string",
		"value": "150dp"
	},
	"_kiosk_": {
		"render": true
	},
	"_left_": {
		"type": "string",
		"value": "0dp"
	},
	"_margin_": [
		0,
		0,
		0,
		0
	],
	"_orientation_": 1,
	"_padding_": [
		0,
		0,
		0,
		0
	],
	"_percent_": true,
	"_render_": true,
	"_responsiveData_": {},
	"_skin_": "s24c92fc23b14f5484b693ee9b8a9b35",
	"_top_": {
		"type": "string",
		"value": "0dp"
	},
	"_vizProps_": {
		"hidewidgethierarchy": false
	},
	"_width_": {
		"type": "string",
		"value": "1366dp"
	},
	"areflexpropsreferenced": false,
	"autogrowmode": 0,
	"canUpdateUI": true,
	"centerx": {
		"type": "string",
		"value": "50%"
	},
	"clipbounds": true,
	"containerweight": 0,
	"dataDiffs": {
		"btnContactUs": {
			"__events__": {
				"ide_onClick": "AS_Button_e1a4831ec26946f9b3e0dda4e1ebe8bb"
			},
			"__info__": {
				"kuid": "b1617ba9308045be9f9de6bdd57a1b40",
				"srcKUID": "c47b0c9af1b84e63aa01af59eb52124a",
				"wType": "Button"
			},
			"left": {},
			"responsiveData": {
				"b3": {
					"left": {
						"type": "string",
						"value": "20dp"
					}
				}
			}
		},
		"btnFaqs": {
			"__events__": {
				"ide_onClick": "AS_Button_h3719478a70948e3978255a99f05891e"
			},
			"__info__": {
				"kuid": "af0344645b6d4feb90711a868b946c2f",
				"srcKUID": "ced702d00bc5426892e4632faec9df5d",
				"wType": "Button"
			},
			"responsiveData": {
				"b3": {
					"isVisible": false
				}
			}
		},
		"btnLocateUs": {
			"__events__": {
				"ide_onClick": "AS_Button_e75b527aef8f4c08ab91890e15b59ded"
			},
			"__info__": {
				"kuid": "b44d5d2c90cc47dfa5adc89dffe01876",
				"srcKUID": "i52587cdcb68471f9e389671ddc5f138",
				"wType": "Button"
			},
			"centerX": {},
			"left": {},
			"responsiveData": {
				"b3": {
					"centerX": {
						"type": "string",
						"value": ""
					},
					"left": {
						"type": "string",
						"value": "0%"
					}
				},
				"b2": {
					"left": {
						"type": "string",
						"value": "0dp"
					}
				}
			}
		},
		"btnPrivacy": {
			"__events__": {
				"ide_onClick": "AS_Button_efa3d27e9c5e44afaf3396be665d378e"
			},
			"__info__": {
				"kuid": "a88541ee2f0a481b9f0eb0bae318786c",
				"srcKUID": "c3810888a2304c409e04db4cd519b8ee",
				"wType": "Button"
			},
			"responsiveData": {
				"b3": {
					"isVisible": false
				}
			}
		},
		"btnTermsAndConditions": {
			"__events__": {
				"ide_onClick": "AS_Button_ha6ccdff7a0d4b3baf366c1baeb716ff"
			},
			"__info__": {
				"kuid": "efbe5bd22193472c86df61e03f151336",
				"srcKUID": "baf7c8f817b34b618b7e1f148f49770a",
				"wType": "Button"
			},
			"responsiveData": {
				"b3": {
					"isVisible": false
				}
			}
		},
		"customfooter": {
			"__events__": {},
			"__info__": {
				"isRoot": true,
				"kuid": "d0e88b7ee5f64901afc936392278e4c4",
				"srcKUID": "a142e816812a4b5b80f84484dcef7232",
				"wType": "FlexContainer"
			},
			"centerX": {
				"Default": {
					"type": "string",
					"value": "50%"
				}
			},
			"width": {
				"Default": {
					"type": "string",
					"value": "1366dp"
				}
			},
			"zIndex": {
				"Default": 2
			},
			"responsiveData": {
				"b3": {
					"width": {
						"type": "string",
						"value": "100%"
					}
				},
				"b2": {
					"width": {
						"type": "string",
						"value": "100%"
					}
				},
				"b1": {
					"width": {
						"type": "string",
						"value": "100%"
					}
				}
			}
		},
		"flxFooterMenu": {
			"__events__": {},
			"__info__": {
				"kuid": "a6df10606e2747a4963d483300bf8dc1",
				"srcKUID": "e6b5bc6faf00428680c4dedfe25a0b9a",
				"wType": "FlexContainer"
			},
			"centerX": {
				"Default": {
					"type": "string",
					"value": "50%"
				}
			},
			"left": {
				"Default": {
					"type": "string",
					"value": ""
				}
			},
			"width": {
				"Default": {
					"type": "string",
					"value": "1200dp"
				}
			},
			"responsiveData": {
				"b3": {
					"width": {
						"type": "string",
						"value": "180dp"
					}
				},
				"b2": {
					"centerX": {
						"type": "string",
						"value": ""
					},
					"left": {
						"type": "string",
						"value": "2.50%"
					},
					"width": {
						"type": "string",
						"value": "90%"
					}
				},
				"b1": {
					"centerX": {
						"type": "string",
						"value": ""
					},
					"left": {
						"type": "string",
						"value": "6%"
					},
					"width": {
						"type": "string",
						"value": "87%"
					}
				}
			}
		},
		"flxVBar1": {
			"__events__": {},
			"__info__": {
				"kuid": "be444266592546dc8d085dbac14650ff",
				"srcKUID": "f31fd58a22cc496a93899a924cf2927d",
				"wType": "FlexContainer"
			},
			"centerX": {},
			"left": {},
			"responsiveData": {
				"b3": {
					"centerX": {
						"type": "string",
						"value": ""
					},
					"left": {
						"type": "string",
						"value": "20dp"
					}
				}
			}
		},
		"flxVBar2": {
			"__events__": {},
			"__info__": {
				"kuid": "i8610413d0864be9a561aa57ad67c0fe",
				"srcKUID": "j39a662286e64bbc9be78a96bb491e27",
				"wType": "FlexContainer"
			},
			"responsiveData": {
				"b3": {
					"isVisible": false
				}
			}
		},
		"flxVBar3": {
			"__events__": {},
			"__info__": {
				"kuid": "f67775d066d542ed88a13eee67b17a52",
				"srcKUID": "a6990ffd77914b8e8757540cb40cad1a",
				"wType": "FlexContainer"
			},
			"responsiveData": {
				"b3": {
					"isVisible": false
				}
			}
		},
		"flxVBar4": {
			"__events__": {},
			"__info__": {
				"kuid": "g75f3353ea9b48229e72b55fb21a501f",
				"srcKUID": "e75f96d248634147afa5b6848252df6e",
				"wType": "FlexContainer"
			},
			"responsiveData": {
				"b3": {
					"isVisible": false
				}
			}
		},
		"imgFooterIconOne": {
			"__events__": {},
			"__info__": {
				"kuid": "cd9a6dc5dff34ce3874f4b5f42636a94",
				"srcKUID": "f2305e3d65bb448e9d68f5608421f28a",
				"wType": "Image"
			},
			"centerY": {},
			"responsiveData": {
				"b3": {
					"isVisible": false
				},
				"b2": {
					"centerY": {
						"type": "string",
						"value": "75%"
					},
					"isVisible": false,
					"right": {
						"type": "string",
						"value": "10dp"
					}
				}
			},
			"right": {}
		},
		"imgFooterIconThree": {
			"__events__": {},
			"__info__": {
				"kuid": "d65716ef475e44cb82d959a711576399",
				"srcKUID": "hc27193bc4d14f24b60f03ac3c2bddb7",
				"wType": "Image"
			},
			"centerY": {},
			"responsiveData": {
				"b3": {
					"isVisible": false
				},
				"b2": {
					"centerY": {
						"type": "string",
						"value": "40%"
					},
					"isVisible": false,
					"right": {
						"type": "string",
						"value": "60dp"
					}
				}
			},
			"right": {}
		},
		"imgFooterIconTwo": {
			"__events__": {},
			"__info__": {
				"kuid": "cc61fec9c5204a628d89da86b08d4634",
				"srcKUID": "cf67ed169e364ace9f62b5aa10dcf1d8",
				"wType": "Image"
			},
			"centerY": {},
			"responsiveData": {
				"b3": {
					"isVisible": false
				},
				"b2": {
					"centerY": {
						"type": "string",
						"value": "40%"
					},
					"isVisible": false,
					"right": {
						"type": "string",
						"value": "10dp"
					}
				}
			},
			"right": {}
		},
		"lblCopyright": {
			"__events__": {},
			"__info__": {
				"kuid": "g20fcdeab3944f20864e1e57ee52708a",
				"srcKUID": "a696ff4e198a4124810242908deae798",
				"wType": "Label"
			},
			"centerX": {
				"Default": {
					"type": "string",
					"value": ""
				}
			},
			"left": {
				"Default": {
					"type": "string",
					"value": "6%"
				}
			},
			"width": {
				"Default": {
					"type": "ref",
					"value": "preferred"
				}
			},
			"responsiveData": {
				"b3": {},
				"b2": {
					"left": {
						"type": "string",
						"value": "2.50%"
					},
					"width": {
						"type": "string",
						"value": "90%"
					}
				},
				"b1": {}
			}
		}
	},
	"id": "customfooter",
	"info": null,
	"isdatareferenced": false,
	"isvisible": true,
	"kuid": "d0e88b7ee5f64901afc936392278e4c4",
	"layouttype": 2,
	"masterType": 0,
	"name": "kony.ui.UserWidgetInstance",
	"parent": "flxfootercontainer",
	"pf": "frmAcknowledgementEur",
	"snaptogrid": true,
	"sourceUserWidget": "a142e816812a4b5b80f84484dcef7232",
	"vizprops": {
		"hidewidgethierarchy": false
	},
	"wType": "UserWidgetInstance",
	"zindex": 2
}