{
	 "@class": "com.kony.gen.viz.model.component.KVizImage2",
	 "DNDConfig": null,
	 "__parentReadjusting__": false,
	 "_base64_": null,
	 "_height_": {
		 "type": "string",
		 "value": "40dp"
	},
	 "_left_": {
		 "type": "string",
		 "value": "20dp"
	},
	 "_margin_": [
		 0,
		 0,
		 0,
		 0
	],
	 "_padding_": [
		 0,
		 0,
		 0,
		 0
	],
	 "_skin_": "s78a5f26c9f14cec9ebed1bb46098f80",
	 "_src_": "error_yellow.png",
	 "_width_": {
		 "type": "string",
		 "value": "40dp"
	},
	 "canUpdateUI": true,
	 "centery": {
		 "type": "string",
		 "value": "47%"
	},
	 "containerweight": 100,
	 "context": {
		 "channel": "desktop",
		 "formID": "frmAcknowledgementEur",
		 "platform": "desktopweb",
		 "templateType": "forms",
		 "topLevelBox": null
	},
	 "id": "imgDowntimeWarning",
	 "imagescalemode": 1,
	 "imagewhiledownloading": "img_transparent.png",
	 "info": null,
	 "invokedProperty": "src",
	 "isvisible": true,
	 "kuid": "f39ab66ee3de4e41aae21bb9f1eea222",
	 "name": "kony.ui.Image2",
	 "parent": "flxDowntimeWarning",
	 "pf": "frmAcknowledgementEur",
	 "srcType": 1,
	 "wType": "Image",
	 "widgetalignment": 5,
	 "zindex": 1,
	 "accessibilityconfig": {
		 "a11yHidden": true,
		 "a11yARIA": {
			 "tabindex": -1
		},
		 "a11yValue": ""
	}
}