{
	 "@class": "com.kony.gen.viz.model.component.KVizImage2",
	 "DNDConfig": null,
	 "__parentReadjusting__": false,
	 "_base64_": null,
	 "_height_": {
		 "type": "string",
		 "value": "23dp"
	},
	 "_margin_": [
		 0,
		 0,
		 0,
		 0
	],
	 "_padding_": [
		 0,
		 0,
		 0,
		 0
	],
	 "_right_": {
		 "type": "string",
		 "value": "2.19%"
	},
	 "_skin_": "s78a5f26c9f14cec9ebed1bb46098f80",
	 "_src_": "print_blue.png",
	 "_width_": {
		 "type": "string",
		 "value": "25dp"
	},
	 "accessibilityconfig": {
		 "a11yLabel": "Print",
		 "a11yValue": ""
	},
	 "canUpdateUI": true,
	 "centerx": {
		 "type": "string",
		 "value": "50%"
	},
	 "centery": {
		 "type": "string",
		 "value": "50%"
	},
	 "containerweight": 100,
	 "context": {
		 "channel": "desktop",
		 "formID": "frmAcknowledgementEur",
		 "platform": "desktopweb",
		 "templateType": "forms",
		 "topLevelBox": null
	},
	 "id": "imgPrintACK",
	 "imagescalemode": 1,
	 "imagewhiledownloading": "img_transparent.png",
	 "info": null,
	 "invokedProperty": "src",
	 "isvisible": true,
	 "kuid": "cc02be27ee3d4b53bad0dbc2598a5bc9",
	 "name": "kony.ui.Image2",
	 "parent": "flxPrintACK",
	 "pf": "frmAcknowledgementEur",
	 "srcType": 1,
	 "tooltip": "Print",
	 "wType": "Image",
	 "widgetalignment": 5,
	 "zindex": 1
}