{
	 "@class": "com.kony.gen.viz.model.component.KVizLabel",
	 "DNDConfig": null,
	 "__parentReadjusting__": false,
	 "_height_": {
		 "type": "string",
		 "value": "25dp"
	},
	 "_margin_": [
		 1,
		 1,
		 1,
		 1
	],
	 "_padding_": [
		 0,
		 0,
		 2,
		 0
	],
	 "_skin_": "seb87e5e5c1c4b35b32be5dc024240cf",
	 "_text_": "D",
	 "_width_": {
		 "type": "string",
		 "value": "25px"
	},
	 "_wrapping_": 2,
	 "accessibilityconfig": {
		 "a11yLabel": "Download"
	},
	 "android": {
		 "textStyle": {
			 "letterSpacing": 0,
			 "strikeThrough": false
		}
	},
	 "canUpdateUI": true,
	 "centerx": {
		 "type": "string",
		 "value": "50%"
	},
	 "centery": {
		 "type": "string",
		 "value": "50%"
	},
	 "containerweight": 100,
	 "contentalignment": 1,
	 "id": "lblDownloadfontIcon",
	 "info": null,
	 "ipad": {
		 "psp": {
			 "wrapping": 2
		}
	},
	 "iphone": {
		 "psp": {
			 "wrapping": 2
		}
	},
	 "isvisible": true,
	 "kuid": "jec7f7b8d4904296a2d4e7473b6b2ec5",
	 "name": "kony.ui.Label",
	 "paddinginpixel": false,
	 "parent": "flxDownload",
	 "pf": "frmAcknowledgementEur",
	 "responsiveData": {
		 "b1": {},
		 "b2": {},
		 "b3": {},
		 "b4": {}
	},
	 "tooltip": "",
	 "wType": "Label",
	 "zindex": 1
}