{
	"DNDConfig": null,
	"__parentReadjusting__": false,
	"_bottom_": {
		"type": "string",
		"value": "0dp"
	},
	"_height_": {
		"type": "string",
		"value": "150dp"
	},
	"_left_": {
		"type": "string",
		"value": "0dp"
	},
	"_margin_": [
		0,
		0,
		0,
		0
	],
	"_orientation_": 6,
	"_padding_": [
		0,
		0,
		0,
		0
	],
	"_percent_": true,
	"_skin_": "sd3a991a352b4393a7ba7f7ee976b318",
	"_top_": {
		"type": "string",
		"value": "30dp"
	},
	"_width_": {
		"type": "string",
		"value": "100%"
	},
	"allboxes": [],
	"autogrowmode": 0,
	"canUpdateUI": true,
	"children": [
		"customfooter",
		"flxleftcontainer",
		"flxrightcontainer"
	],
	"clipbounds": false,
	"containerweight": 100,
	"enablescrolling": true,
	"id": "flxfootercontainer",
	"info": null,
	"isvisible": false,
	"kuid": "i9083f56d164474d907faa363f50de46",
	"layouttype": 2,
	"name": "kony.ui.FlexContainer",
	"parent": "flxMain",
	"pf": "frmMultiFactorAuthentication",
	"responsiveData": {
		"b1": {
			"isVisible": false,
			"top": {
				"type": "string",
				"value": "30dp"
			}
		},
		"b2": {
			"isVisible": false
		}
	},
	"snapgridsize": 10,
	"snaptogrid": true,
	"wType": "FlexContainer",
	"widgetalignment": 1,
	"zindex": 1
}