{
    "DNDConfig": null,
    "__parentReadjusting__": false,
    "_height_": {
        "type": "string",
        "value": "100%"
    },
    "_left_": {
        "type": "string",
        "value": "0"
    },
    "_margin_": [
        0,
        0,
        0,
        0
    ],
    "_orientation_": 6,
    "_padding_": [
        0,
        0,
        0,
        0
    ],
    "_percent_": true,
    "_skin_": "s24c92fc23b14f5484b693ee9b8a9b35",
    "_top_": {
        "type": "string",
        "value": "0dp"
    },
    "_width_": {
        "type": "string",
        "value": "100%"
    },
    "allboxes": [],
    "autogrowmode": 0,
    "canUpdateUI": true,
    "children": [
        "lblFileName",
        "lblFileNameValue",
        "lblUploadedBy",
        "lblUploadedByValue",
        "lblSystemFileName",
        "lblSystemFileNameValue"
    ],
    "clipbounds": true,
    "containerId": true,
    "containerweight": 100,
    "enablescrolling": true,
    "id": "flxBPUploadingFilesDetails",
    "info": null,
    "iscustomlayout": false,
    "isvisible": true,
    "kuid": "a6f6f5ae31e34fbfa61d4fcc202a7fc2",
    "layouttype": 2,
    "name": "kony.ui.FlexContainer",
    "parent": "flxUploadingFilesDetails",
    "pf": "segBulkPaymentsViewRowTemplate",
    "retaincontentalignment": false,
    "retainflexpositionproperties": false,
    "snapgridsize": 10,
    "snaptogrid": true,
    "wType": "FlexContainer",
    "widgetalignment": 1,
    "zindex": 1
}