{
    "@class": "com.kony.gen.viz.model.component.KVizListBox",
    "DNDConfig": null,
    "__parentReadjusting__": false,
    "_height_": {
        "type": "string",
        "value": "40dp"
    },
    "_left_": {
        "type": "string",
        "value": "2%"
    },
    "_margin_": [
        0,
        0,
        0,
        0
    ],
    "_padding_": [
        2,
        0,
        0,
        0
    ],
    "_skin_": "sd53756c2b454873b2c89cc68c2f8d51",
    "_top_": {
        "type": "string",
        "value": "145dp"
    },
    "_width_": {
        "type": "string",
        "value": "30.10%"
    },
    "canUpdateUI": true,
    "containerweight": 100,
    "contentalignment": 4,
    "context": {
        "channel": "desktop",
        "formID": "uwudd9d31efcba4acdbb3a846d25a17888",
        "platform": "desktopweb",
        "templateType": "userwidgets",
        "topLevelBox": null
    },
    "disabledSkins": {
        "focusSkin": "s75f6ba84f4e4ef7a57963870d9bcd48"
    },
    "focusskin": "s9eb08f78097439eb767801e8fdeb5cd",
    "groupcells": false,
    "id": "lbxpayFromValuemod",
    "info": null,
    "isvisible": true,
    "kuid": "e6ebb248e4b549c787b2c3b81a48758e",
    "masterdata": [
        [
            "Key148",
            "Personal Checking...123"
        ]
    ],
    "name": "kony.ui.ListBox",
    "paddinginpixel": false,
    "parent": "flxMain",
    "pf": "userwidgetmodel",
    "selectedkeys": null,
    "selectedkeyvalue": null,
    "selectedkeyvalues": null,
    "size": 18,
    "viewconfig": {
        "toggleViewConfig": {
            "viewStyle": 0
        }
    },
    "viewtype": 0,
    "wType": "ListBox",
    "zindex": 1
}