{
    "@class": "com.kony.gen.viz.model.component.KVizTextBox2",
    "DNDConfig": null,
    "__parentReadjusting__": false,
    "_height_": {
        "type": "string",
        "value": "35dp"
    },
    "_left_": {
        "type": "string",
        "value": "20px"
    },
    "_margin_": [
        0,
        0,
        0,
        0
    ],
    "_padding_": [
        3,
        0,
        0,
        0
    ],
    "_placeholder_": "",
    "_skin_": "sb36cebb3a3a4b5fb859ba26e90ecaaa",
    "_text_": "",
    "_top_": {
        "type": "string",
        "value": "0dp"
    },
    "_width_": {
        "type": "string",
        "value": "91%"
    },
    "accessibilityconfig": {
        "a11yLabel": "Enter Amount"
    },
    "autocapitalize": "none",
    "autocomplete": false,
    "autocorrect": false,
    "autofilter": false,
    "canUpdateUI": true,
    "containerheight": "",
    "containerheightmode": 1,
    "containerweight": 100,
    "contentalignment": 4,
    "id": "txtSearch",
    "info": null,
    "isvisible": true,
    "keyboardtype": "A",
    "kuid": "c337fedbc062413480f4e1745afb8c3f",
    "mode": "A",
    "name": "kony.ui.TextBox2",
    "parent": "flxEnterAmount",
    "pf": "userwidgetmodel",
    "placeholderi18n": "i18n.common.EnterAmount",
    "securetextentry": false,
    "textinputmode": "A",
    "viewtype": "default",
    "wType": "TextField",
    "zindex": 1
}