{
    "@class": "com.kony.gen.viz.model.component.KVizUserWidget",
    "DNDConfig": null,
    "_children_": [],
    "_height_": {
        "type": "string",
        "value": "268px"
    },
    "_left_": {
        "type": "string",
        "value": "0dp"
    },
    "_margin_": [
        0,
        0,
        0,
        0
    ],
    "_orientation_": 1,
    "_padding_": [
        0,
        0,
        0,
        0
    ],
    "_percent_": true,
    "_render_": true,
    "_skin_": "s701065f11074080832b59947e731160",
    "_top_": {
        "type": "string",
        "value": "300dp"
    },
    "_width_": {
        "type": "string",
        "value": "44.30%"
    },
    "android": {},
    "androidwearos": {},
    "areflexpropsreferenced": false,
    "canUpdateUI": true,
    "centerx": {
        "type": "string",
        "value": "50.00%"
    },
    "centery": {
        "type": "string",
        "value": ""
    },
    "clipbounds": false,
    "containerweight": 0,
    "dataDiffs": {
        "CustomPopup": {
            "__events__": {},
            "__info__": {
                "isRoot": true,
                "kuid": "ba3db9e0d8f14e3fbd07b76dee8ed2e3",
                "srcKUID": "eb2d311dcb4744a7b05aa4f5428a6c53",
                "wType": "FlexContainer"
            },
            "autogrowMode": {
                "Default": 0
            },
            "bottom": {},
            "centerX": {
                "Default": {
                    "type": "string",
                    "value": "50.00%"
                }
            },
            "centerY": {
                "Default": {
                    "type": "string",
                    "value": ""
                }
            },
            "height": {
                "Default": {
                    "type": "string",
                    "value": "268px"
                }
            },
            "left": {},
            "responsiveData": {
                "b1": {
                    "isVisible": false
                },
                "b3": {
                    "bottom": {
                        "type": "string",
                        "value": ""
                    },
                    "height": {
                        "type": "string",
                        "value": "268px"
                    },
                    "left": {
                        "type": "string",
                        "value": "10dp"
                    },
                    "right": {
                        "type": "string",
                        "value": ""
                    },
                    "top": {
                        "type": "string",
                        "value": "300dp"
                    },
                    "width": {
                        "type": "string",
                        "value": "75%"
                    }
                },
                "b4": {
                    "height": {
                        "type": "string",
                        "value": "268dp"
                    }
                }
            },
            "right": {},
            "top": {
                "Default": {
                    "type": "string",
                    "value": "300dp"
                }
            },
            "width": {
                "Default": {
                    "type": "string",
                    "value": "44.30%"
                }
            },
            "zIndex": {
                "Default": 1100
            }
        },
        "btnNo": {
            "__events__": {},
            "__info__": {
                "kuid": "cb866c8e547741249a20860d4205de4e",
                "srcKUID": "h61577b4448c4e22a2636221e8fe0d6d",
                "wType": "Button"
            },
            "bottom": {},
            "left": {},
            "responsiveData": {
                "b1": {
                    "left": {
                        "type": "string",
                        "value": ""
                    },
                    "right": {
                        "type": "string",
                        "value": "41%"
                    },
                    "top": {
                        "type": "string",
                        "value": "170px"
                    },
                    "width": {
                        "type": "string",
                        "value": "30%"
                    }
                },
                "b3": {
                    "left": {
                        "type": "string",
                        "value": "15dp"
                    },
                    "right": {
                        "type": "string",
                        "value": ""
                    },
                    "top": {
                        "type": "string",
                        "value": "178dp"
                    },
                    "width": {
                        "type": "string",
                        "value": "45%"
                    }
                },
                "b4": {
                    "bottom": {
                        "type": "string",
                        "value": ""
                    },
                    "left": {
                        "type": "string",
                        "value": ""
                    },
                    "right": {
                        "type": "string",
                        "value": "41%"
                    },
                    "top": {
                        "type": "string",
                        "value": "198px"
                    },
                    "width": {
                        "type": "string",
                        "value": "30%"
                    }
                }
            },
            "right": {},
            "top": {},
            "width": {}
        },
        "btnYes": {
            "__events__": {},
            "__info__": {
                "kuid": "eee75938b10940e2b08336cc1b7b692e",
                "srcKUID": "e1c11d09edb846848d4aaf921cb1e5a0",
                "wType": "Button"
            },
            "bottom": {},
            "responsiveData": {
                "b1": {
                    "bottom": {
                        "type": "string",
                        "value": ""
                    },
                    "right": {
                        "type": "string",
                        "value": "5%"
                    },
                    "top": {
                        "type": "string",
                        "value": "170px"
                    },
                    "width": {
                        "type": "string",
                        "value": "30%"
                    }
                },
                "b3": {
                    "bottom": {
                        "type": "string",
                        "value": "30dp"
                    },
                    "right": {
                        "type": "string",
                        "value": "15dp"
                    },
                    "top": {
                        "type": "string",
                        "value": "178dp"
                    },
                    "width": {
                        "type": "string",
                        "value": "45%"
                    }
                },
                "b4": {
                    "bottom": {
                        "type": "string",
                        "value": ""
                    },
                    "right": {
                        "type": "string",
                        "value": "5%"
                    },
                    "top": {
                        "type": "string",
                        "value": "198px"
                    },
                    "width": {
                        "type": "string",
                        "value": "30%"
                    }
                }
            },
            "right": {},
            "top": {},
            "width": {}
        },
        "flxCross": {
            "__events__": {},
            "__info__": {
                "kuid": "c63c48d462b244a18e68fb749a8811a7",
                "srcKUID": "e896a8d6e1244397be41e1011101c6ec",
                "wType": "FlexContainer"
            }
        },
        "flxHeader": {
            "__events__": {},
            "__info__": {
                "kuid": "a41e8e193c8e407e94d2521a26b1e2fd",
                "srcKUID": "b6d465d7232a428eba11c466c6843856",
                "wType": "FlexContainer"
            }
        },
        "flxSeperator": {
            "__events__": {},
            "__info__": {
                "kuid": "bb4202b969ea49eb9f353735cb7d2316",
                "srcKUID": "b469cc45156e429d8fa47b9786168d10",
                "wType": "FlexContainer"
            }
        },
        "flxSeperator2": {
            "__events__": {},
            "__info__": {
                "kuid": "fb3c931fc82b48aabfec5721f48cb024",
                "srcKUID": "e909e4e4b4a145b1aa92b22ece7050d3",
                "wType": "FlexContainer"
            },
            "responsiveData": {
                "b3": {
                    "isVisible": false
                }
            }
        },
        "imgCross": {
            "__events__": {},
            "__info__": {
                "kuid": "db7203f6eb43476fb06725be80036ef1",
                "srcKUID": "ja13bba308404016b1cd223dbcdf01ae",
                "wType": "Image"
            },
            "height": {
                "Default": {
                    "type": "string",
                    "value": "15dp"
                }
            },
            "src": "icon_close_grey.png"
        },
        "lblHeading": {
            "__events__": {},
            "__info__": {
                "kuid": "f85eb03d930e4d9a8251d4c56f105003",
                "srcKUID": "f97c1408984847af9f3cd9984a260c74",
                "wType": "Label"
            },
            "i18n_text": "i18n.billPay.QuitBillPay"
        },
        "lblPopupMessage": {
            "__events__": {},
            "__info__": {
                "kuid": "c95735c86b2d4368b212273e9257d179",
                "srcKUID": "f7c7509dccf24b88aeb13dc3d34fcc6b",
                "wType": "Label"
            },
            "i18n_text": "i18n.Transfers.Areyousureyouwanttocancelthistransaction"
        },
        "lblcross": {
            "__events__": {},
            "__info__": {
                "kuid": "h46b298f6e2e4d1d9e4614d3ea8d464e",
                "srcKUID": "fd30aa3a9d8f4077b98f3053f04a091b",
                "wType": "Label"
            }
        }
    },
    "desktopweb": {},
    "id": "deletePopup",
    "info": null,
    "ipad": {},
    "iphone": {},
    "isdatareferenced": false,
    "isvisible": true,
    "kiosk": {},
    "kuid": "ba3db9e0d8f14e3fbd07b76dee8ed2e3",
    "layouttype": 2,
    "masterType": 0,
    "name": "kony.ui.UserWidgetInstance",
    "parent": "flxDelete",
    "pf": "frmFastTransfers",
    "responsiveData": {
        "b1": {
            "isVisible": false
        },
        "b3": {
            "bottom": {
                "type": "string",
                "value": ""
            },
            "height": {
                "type": "string",
                "value": "268px"
            },
            "left": {
                "type": "string",
                "value": "10dp"
            },
            "right": {
                "type": "string",
                "value": ""
            },
            "top": {
                "type": "string",
                "value": "300dp"
            },
            "width": {
                "type": "string",
                "value": "75%"
            }
        },
        "b4": {
            "height": {
                "type": "string",
                "value": "268dp"
            }
        }
    },
    "snaptogrid": true,
    "sourceUserWidget": "eb2d311dcb4744a7b05aa4f5428a6c53",
    "spa": {},
    "spaan": {},
    "spaandroidtablet": {},
    "spabb": {},
    "spaip": {},
    "spaipad": {},
    "spamobile": {},
    "spatablet": {},
    "spawindowstablet": {},
    "spawinphone8": {},
    "tabrcandroid": {},
    "vizProps": {
        "hidewidgethierarchy": false
    },
    "vizprops": {
        "hidewidgethierarchy": false
    },
    "wType": "UserWidgetInstance",
    "windows10": {},
    "windows8": {},
    "winphone10": {},
    "winphone8": {},
    "zindex": 1100
}