{
    "@class": "com.kony.gen.viz.model.component.KVizUserWidget",
    "DNDConfig": null,
    "__parentReadjusting__": false,
    "_android_": {},
    "_androidwearos_": {},
    "_children_": [],
    "_desktopweb_": {},
    "_height_": {
        "type": "ref",
        "value": "preferred"
    },
    "_ipad_": {},
    "_iphone_": {},
    "_kiosk_": {},
    "_left_": {
        "type": "string",
        "value": "0dp"
    },
    "_margin_": [
        0,
        0,
        0,
        0
    ],
    "_orientation_": 1,
    "_padding_": [
        0,
        0,
        0,
        0
    ],
    "_percent_": true,
    "_responsiveData_": {},
    "_skin_": "s4d6392bface4761840338d65d827a61",
    "_spa_": {},
    "_spaan_": {},
    "_spaandroidtablet_": {},
    "_spabb_": {},
    "_spaip_": {},
    "_spaipad_": {},
    "_spamobile_": {},
    "_spatablet_": {},
    "_spawindowstablet_": {},
    "_spawinphone8_": {},
    "_tabrcandroid_": {},
    "_top_": {
        "type": "string",
        "value": "0dp"
    },
    "_vizProps_": {
        "hidewidgethierarchy": false
    },
    "_width_": {
        "type": "string",
        "value": "100%"
    },
    "_windows10_": {},
    "_windows8_": {},
    "_winphone10_": {},
    "_winphone8_": {},
    "areflexpropsreferenced": false,
    "autogrowmode": 1,
    "canUpdateUI": true,
    "clipbounds": false,
    "containerweight": 0,
    "dataDiffs": {
        "confirmButtons": {
            "__events__": {},
            "__info__": {
                "kuid": "d6e21d26cab940ad977ab9eeda900ddd",
                "srcKUID": "dae49f78c3f9473ab14fbd0c451865a6",
                "wType": "UserWidgetInstance"
            },
            "autogrowMode": {
                "Default": 0
            },
            "height": {
                "Default": {
                    "type": "string",
                    "value": "103px"
                }
            },
            "responsiveData": {}
        },
        "confirmButtons.btnCancel": {
            "__events__": {},
            "__info__": {
                "kuid": "ff86f8026f054348a34d931981f54580",
                "srcKUID": "c69dd70537134dca91d79ecfae2ab801",
                "wType": "Button"
            }
        },
        "confirmButtons.btnConfirm": {
            "__events__": {},
            "__info__": {
                "kuid": "b908b9ecba2e4bf1a07cdcec63dc74a4",
                "srcKUID": "id4ed79fda4946d7b788005be824b480",
                "wType": "Button"
            }
        },
        "confirmButtons.btnModify": {
            "__events__": {},
            "__info__": {
                "kuid": "a6c6dd47a65c400893cb6d9c65cbfe15",
                "srcKUID": "ib356fc7a2664bdfa2d82ba1e6d9bf5a",
                "wType": "Button"
            }
        },
        "confirmButtons.flxHorizontalLine": {
            "__events__": {},
            "__info__": {
                "kuid": "cea0b18d5af24fac9a642d74e9afa8a8",
                "srcKUID": "daa090bb00594a999e8dd106a8d4f9ec",
                "wType": "FlexContainer"
            }
        },
        "confirmDialog": {
            "__events__": {},
            "__info__": {
                "isRoot": true,
                "kuid": "gee08152877c44619f9331521d56b824",
                "srcKUID": "h98cde72801b440a9b31cf23ded2cf90",
                "wType": "FlexContainer"
            },
            "autogrowMode": {
                "Default": 1
            },
            "height": {
                "Default": {
                    "type": "ref",
                    "value": "preferred"
                }
            },
            "responsiveData": {}
        },
        "confirmHeaders": {
            "__events__": {},
            "__info__": {
                "kuid": "b7fcfeb18b1a4f368fe8dc52ca643611",
                "srcKUID": "e24550f8d402490a8262759a4ba49d12",
                "wType": "UserWidgetInstance"
            }
        },
        "confirmHeaders.flxHeader": {
            "__events__": {},
            "__info__": {
                "kuid": "c6ef76799ef14fdd80213515ea1b25ba",
                "srcKUID": "bfbfb9f59a6f415880f5ba35fbddd249",
                "wType": "FlexContainer"
            }
        },
        "confirmHeaders.lblHeading": {
            "__events__": {},
            "__info__": {
                "kuid": "c02682c4d85744c1b70276e5269d4ab1",
                "srcKUID": "b632c5d3e7934929bf29a1aa5ab625f2",
                "wType": "Label"
            },
            "i18n_text": null,
            "responsiveData": {},
            "text": "Your Application Details"
        },
        "flxCheckBox": {
            "__events__": {},
            "__info__": {
                "kuid": "b85d807917884be6875bd96cd0f229a8",
                "srcKUID": "b2398ecdaa564be3a0be282bae3f41d8",
                "wType": "FlexContainer"
            }
        },
        "flxHorizontalLine": {
            "__events__": {},
            "__info__": {
                "kuid": "a60d10a9c5134ecb953d38f6d037806e",
                "srcKUID": "ja9d383ccdbf4fd381eec16b183c5f52",
                "wType": "FlexContainer"
            }
        },
        "flxInfo": {
            "__events__": {},
            "__info__": {
                "kuid": "c97f32e50d464b5088962d12c95beedf",
                "srcKUID": "c460dac7446845b8b738cd3c75b26a7c",
                "wType": "FlexContainer"
            }
        },
        "flxMain": {
            "__events__": {},
            "__info__": {
                "kuid": "g4a6a73c223d4618b3906e50d6a1259f",
                "srcKUID": "e6ee261117d2403383ae859a587c5442",
                "wType": "FlexContainer"
            }
        },
        "flxPaidByRecipient": {
            "__events__": {},
            "__info__": {
                "kuid": "f7593d2ba3fb44e4b6f5189f81ec5716",
                "srcKUID": "g0eb6f055c514915a821ef8379220361",
                "wType": "FlexContainer"
            }
        },
        "flxRadio1": {
            "__events__": {},
            "__info__": {
                "kuid": "c534cc178e2f400c95190b9322c38cbb",
                "srcKUID": "b217a59c96e444bba3d17af609003de3",
                "wType": "FlexContainer"
            }
        },
        "flxRadio2": {
            "__events__": {},
            "__info__": {
                "kuid": "b2b0ea8b14134eb0ae9cf91924d4d291",
                "srcKUID": "b5c8a6b6226c4c70880f0f5348c63888",
                "wType": "FlexContainer"
            }
        },
        "flxTransactionFee": {
            "__events__": {},
            "__info__": {
                "kuid": "e37496838ed0477894c61ca2610a0786",
                "srcKUID": "a1f3e8ae0d5c464ab269664e07a8ec24",
                "wType": "FlexContainer"
            }
        },
        "flxaddress": {
            "__events__": {},
            "__info__": {
                "kuid": "i0e528ca8b694ffdbdef698f762b7f71",
                "srcKUID": "abbb3c3351294e06abaf6e01026b1121",
                "wType": "FlexContainer"
            }
        },
        "flxdeliverby": {
            "__events__": {},
            "__info__": {
                "kuid": "de3535d8f3af4801a36dbb0630efe235",
                "srcKUID": "jdfd9b3c01894318ba54c5da986c0ff2",
                "wType": "UserWidgetInstance"
            },
            "isVisible": false,
            "responsiveData": {}
        },
        "flxdeliverby.flxContainer": {
            "__events__": {},
            "__info__": {
                "kuid": "d8f5467f5fbd43499ff3956368463824",
                "srcKUID": "h23eb4b71a574ff4a83e0fae3c65c584",
                "wType": "FlexContainer"
            }
        },
        "flxdeliverby.flxInfo": {
            "__events__": {},
            "__info__": {
                "kuid": "ce97b9bd34154b9a9bea992a07956bd7",
                "srcKUID": "hd8f4f1ab3f748c4afa8d4907e25d15a",
                "wType": "FlexContainer"
            }
        },
        "flxdeliverby.flxKey": {
            "__events__": {},
            "__info__": {
                "kuid": "b313fd91ccc340f9aa18291018de1754",
                "srcKUID": "f24d364c30b842b2b7627be4feb200eb",
                "wType": "FlexContainer"
            }
        },
        "flxdeliverby.flxValue": {
            "__events__": {},
            "__info__": {
                "kuid": "f71098c7d67142dba44c7bd06cd6e04c",
                "srcKUID": "f28f644431fe4577b2a8479d3a04122c",
                "wType": "FlexContainer"
            }
        },
        "flxdeliverby.imgWhatIsSSN": {
            "__events__": {},
            "__info__": {
                "kuid": "a87c7b74f435452b91a7a784784660d0",
                "srcKUID": "ic265e6791a046178ba2ea4ed31b0e52",
                "wType": "Image"
            },
            "src": "info_grey.png"
        },
        "flxdeliverby.lblColon": {
            "__events__": {},
            "__info__": {
                "kuid": "cd83944cc8894959b40496aa29e91473",
                "srcKUID": "gfb8eb0d954944edb2b9a3f9e3a1f936",
                "wType": "Label"
            }
        },
        "flxdeliverby.lblKey": {
            "__events__": {},
            "__info__": {
                "kuid": "f0b29d4a64c9422b87c5d48ddd499eef",
                "srcKUID": "dbb6296baaa84d15b088097126ac59d4",
                "wType": "Label"
            }
        },
        "flxdeliverby.lblValue": {
            "__events__": {},
            "__info__": {
                "kuid": "afe0151ddfd04c028e6dda107033d55a",
                "srcKUID": "f98efb97007f4777ab5731d97faeb223",
                "wType": "Label"
            }
        },
        "imgInfo": {
            "__events__": {},
            "__info__": {
                "kuid": "da77396753c14e2ca7244c329d5c4064",
                "srcKUID": "f53b46edc350423f9c20f7c696452143",
                "wType": "Image"
            },
            "src": "info_grey.png"
        },
        "imgRadioBtn1": {
            "__events__": {},
            "__info__": {
                "kuid": "a60b09ec866f4cf89e6fbbcbbd5c1273",
                "srcKUID": "j7514f9e0cb146d0b0d339fe87f59323",
                "wType": "Label"
            }
        },
        "imgRadioBtn2": {
            "__events__": {},
            "__info__": {
                "kuid": "abd5d26dcc02432fab64aef076199dba",
                "srcKUID": "a913fe86ab5441a1a1dee88d59deda94",
                "wType": "Label"
            }
        },
        "keyValue": {
            "__events__": {},
            "__info__": {
                "kuid": "i9978024499141d7beb56a3a3f7501e4",
                "srcKUID": "gfca0a9baf324192b680d3f9f38bb4d0",
                "wType": "UserWidgetInstance"
            }
        },
        "keyValue.flxContainer": {
            "__events__": {},
            "__info__": {
                "kuid": "b08cc5c90c5a4e08988a2ec776ac92c4",
                "srcKUID": "d6e8bcd27a0b4e07a81970624303f374",
                "wType": "FlexContainer"
            }
        },
        "keyValue.flxInfo": {
            "__events__": {},
            "__info__": {
                "kuid": "c82edee2bb8d4c93b5ef962a43f67721",
                "srcKUID": "a013922342e14d73b4f0dddc7e6bc9e4",
                "wType": "FlexContainer"
            }
        },
        "keyValue.flxKey": {
            "__events__": {},
            "__info__": {
                "kuid": "c5584d02fdc84524ac54835d140f7100",
                "srcKUID": "d28c02e699ab4e1bb20ef0ef6f86e69d",
                "wType": "FlexContainer"
            }
        },
        "keyValue.flxValue": {
            "__events__": {},
            "__info__": {
                "kuid": "b3744baf376b4fa3baa27b71ff0ead10",
                "srcKUID": "ac8d9fa1e4064326b8d365e14fcef15e",
                "wType": "FlexContainer"
            }
        },
        "keyValue.imgWhatIsSSN": {
            "__events__": {},
            "__info__": {
                "kuid": "e02985fd47f34d9aad3855b5ac59627c",
                "srcKUID": "j749865554e94bb48fa36fc15fbb0f1d",
                "wType": "Image"
            },
            "src": "info_grey.png"
        },
        "keyValue.lblColon": {
            "__events__": {},
            "__info__": {
                "kuid": "c5819a05b9b74ac08e96c9563457a2ab",
                "srcKUID": "fa783291341840c8b6faaa7b12ac1d6e",
                "wType": "Label"
            }
        },
        "keyValue.lblKey": {
            "__events__": {},
            "__info__": {
                "kuid": "c1b11e3ab45549588ebc0bcd04f77d82",
                "srcKUID": "ebd3e56cbd044412a45a9a0ad6b41341",
                "wType": "Label"
            }
        },
        "keyValue.lblValue": {
            "__events__": {},
            "__info__": {
                "kuid": "da1cf605a1d44037a5c5cc21458ebe6c",
                "srcKUID": "e70c47bbd95d46bb85605482d7419a5e",
                "wType": "Label"
            }
        },
        "keyValue1": {
            "__events__": {},
            "__info__": {
                "kuid": "da5ebd546b294c09abdf3c1c4b4b214d",
                "srcKUID": "jbba01246dd542e9a7fd38694f13c4c5",
                "wType": "UserWidgetInstance"
            }
        },
        "keyValue1.flxContainer": {
            "__events__": {},
            "__info__": {
                "kuid": "bdb5a0abeb6e48298249a06e1f1a475b",
                "srcKUID": "b34523d66d454f5c9bcbf9240795a400",
                "wType": "FlexContainer"
            }
        },
        "keyValue1.flxInfo": {
            "__events__": {},
            "__info__": {
                "kuid": "j2fad42f30c84d0b837f9596bfd823e9",
                "srcKUID": "d45e4986ca5c420ba660462637edf7b2",
                "wType": "FlexContainer"
            }
        },
        "keyValue1.flxKey": {
            "__events__": {},
            "__info__": {
                "kuid": "e4f23e3b2be64c549f25c5f5f489da99",
                "srcKUID": "i1897df19be84fcd909dd55fb6bbbf34",
                "wType": "FlexContainer"
            }
        },
        "keyValue1.flxValue": {
            "__events__": {},
            "__info__": {
                "kuid": "fb2252f139dc470d9e93c36b73aef695",
                "srcKUID": "b024db6706d54162a0fd0e802eea4cd7",
                "wType": "FlexContainer"
            }
        },
        "keyValue1.imgWhatIsSSN": {
            "__events__": {},
            "__info__": {
                "kuid": "g4fa7325caaa47759f3c3a923a181767",
                "srcKUID": "bb7bca2941ed42fe8bef7eabf9cbfe46",
                "wType": "Image"
            },
            "src": "info_grey.png"
        },
        "keyValue1.lblColon": {
            "__events__": {},
            "__info__": {
                "kuid": "af33e5f6db174211b2caa73a71d64f98",
                "srcKUID": "b7d8c9f5026d4552ad92eaab127e33d8",
                "wType": "Label"
            }
        },
        "keyValue1.lblKey": {
            "__events__": {},
            "__info__": {
                "kuid": "gafc87ddcbba4098ae2c975a2766839b",
                "srcKUID": "e900e3a781c040568587265f8a1130c8",
                "wType": "Label"
            }
        },
        "keyValue1.lblValue": {
            "__events__": {},
            "__info__": {
                "kuid": "d140d3913159446b8747ca70b38281e4",
                "srcKUID": "e4fb8427119248ffb927ce9464f724b9",
                "wType": "Label"
            }
        },
        "keyValue2": {
            "__events__": {},
            "__info__": {
                "kuid": "c7c5d61d5e924b1495a2116e415b0e17",
                "srcKUID": "g622922df2aa469fbf2b261a8c2187e8",
                "wType": "UserWidgetInstance"
            }
        },
        "keyValue2.flxContainer": {
            "__events__": {},
            "__info__": {
                "kuid": "b3fe1b97f4f6480392d584b4374c42df",
                "srcKUID": "j3a085a1493a4d8a8f88ce5fcb273034",
                "wType": "FlexContainer"
            }
        },
        "keyValue2.flxInfo": {
            "__events__": {},
            "__info__": {
                "kuid": "f4fc8c00be5149439dc28bb3c3251df1",
                "srcKUID": "f71e80d3b05741c2bb13ec749d47d414",
                "wType": "FlexContainer"
            }
        },
        "keyValue2.flxKey": {
            "__events__": {},
            "__info__": {
                "kuid": "d8a5130a806045d1aa53c193f19e8835",
                "srcKUID": "caea584b4aeb44038ca1e18fd3fdab8d",
                "wType": "FlexContainer"
            }
        },
        "keyValue2.flxValue": {
            "__events__": {},
            "__info__": {
                "kuid": "a392730e76d04665a719988c15104ace",
                "srcKUID": "b7d9bb3394b9434fa8f8f5ba8722b517",
                "wType": "FlexContainer"
            }
        },
        "keyValue2.imgWhatIsSSN": {
            "__events__": {},
            "__info__": {
                "kuid": "hc42e747613f4b8fae780e36a7256d66",
                "srcKUID": "ib76649732ca472d9cff4e2da4eae008",
                "wType": "Image"
            },
            "src": "info_grey.png"
        },
        "keyValue2.lblColon": {
            "__events__": {},
            "__info__": {
                "kuid": "e1ae1f2aae9047c5aee405aa87f8d1ac",
                "srcKUID": "f58ac2b450814fe1b8e89d3de5056fb5",
                "wType": "Label"
            }
        },
        "keyValue2.lblKey": {
            "__events__": {},
            "__info__": {
                "kuid": "a227b4d699f84f0db3ef1282b7dced42",
                "srcKUID": "edcf80ab58044fd7886a7769f20918fa",
                "wType": "Label"
            }
        },
        "keyValue2.lblValue": {
            "__events__": {},
            "__info__": {
                "kuid": "hbdea7645d7d49dd870f514f723388de",
                "srcKUID": "a3cbbbf0492e400093c38fb8b705f92c",
                "wType": "Label"
            }
        },
        "keyValueAddress": {
            "__events__": {},
            "__info__": {
                "kuid": "fdbdfbb149d844f9b9ca6668c1709f26",
                "srcKUID": "f3ec874f35534e388b4b2660d19faa74",
                "wType": "UserWidgetInstance"
            }
        },
        "keyValueAddress.flxContainer": {
            "__events__": {},
            "__info__": {
                "kuid": "a1e13568681847839c48f2300368be53",
                "srcKUID": "h7bdb7c990c44dc3b0cc486047664544",
                "wType": "FlexContainer"
            }
        },
        "keyValueAddress.flxInfo": {
            "__events__": {},
            "__info__": {
                "kuid": "efd6f8f9a0e943b89d9b125aad198ac5",
                "srcKUID": "he91db2ffab64642b9b2cb346f7b4d40",
                "wType": "FlexContainer"
            }
        },
        "keyValueAddress.flxKey": {
            "__events__": {},
            "__info__": {
                "kuid": "fc91da499f0a4d7b980a3a3c1f3d4030",
                "srcKUID": "e84c3ad6f7a84dd6bef39d407f7dabc2",
                "wType": "FlexContainer"
            }
        },
        "keyValueAddress.flxValue": {
            "__events__": {},
            "__info__": {
                "kuid": "ed87cbc07ca149d09b6048c87bdd11c4",
                "srcKUID": "g154b7e2769b43ba886411b388cf46cd",
                "wType": "FlexContainer"
            }
        },
        "keyValueAddress.imgWhatIsSSN": {
            "__events__": {},
            "__info__": {
                "kuid": "d97863eb498f482592bc34b0d2a24114",
                "srcKUID": "e774dfb9b7914332a09c7453ad7efcd0",
                "wType": "Image"
            },
            "src": "info_grey.png"
        },
        "keyValueAddress.lblColon": {
            "__events__": {},
            "__info__": {
                "kuid": "gad108f7cfb645a89174ee9d445ec526",
                "srcKUID": "ibd8c460c4e34ffca58923721a8647fc",
                "wType": "Label"
            }
        },
        "keyValueAddress.lblKey": {
            "__events__": {},
            "__info__": {
                "kuid": "c9ef0a61a9c74e0f9343fe94bcf47580",
                "srcKUID": "c060f9c4cea943e8b42651c8d23d78b7",
                "wType": "Label"
            }
        },
        "keyValueAddress.lblValue": {
            "__events__": {},
            "__info__": {
                "kuid": "e4571e1465414a408c2ee06454869a8b",
                "srcKUID": "ac788403c6a245b7afc02bddfb1bec53",
                "wType": "Label"
            }
        },
        "keyValueAmount": {
            "__events__": {},
            "__info__": {
                "kuid": "bde040df41014ad28e669ae18522fc7b",
                "srcKUID": "a411bed3418b4f3d82f9b6da9aee953b",
                "wType": "UserWidgetInstance"
            }
        },
        "keyValueAmount.flxContainer": {
            "__events__": {},
            "__info__": {
                "kuid": "fd08270295f7433cb364cc7cbe3b8443",
                "srcKUID": "d567ce646fe94ac79399b9416191cd6f",
                "wType": "FlexContainer"
            }
        },
        "keyValueAmount.flxInfo": {
            "__events__": {},
            "__info__": {
                "kuid": "a05544a6e6be4abb9fc017ec98b0a38d",
                "srcKUID": "e338bfc61f9e49e7911948f17f2adbbd",
                "wType": "FlexContainer"
            }
        },
        "keyValueAmount.flxKey": {
            "__events__": {},
            "__info__": {
                "kuid": "f328ad3739d948fdba2e3648d371db14",
                "srcKUID": "j7cae37097ce4cbd92f2f138209130cf",
                "wType": "FlexContainer"
            }
        },
        "keyValueAmount.flxValue": {
            "__events__": {},
            "__info__": {
                "kuid": "e640476d41ed4a44bb2e748f577c1711",
                "srcKUID": "e97c170540e54f9384a5791e431054ff",
                "wType": "FlexContainer"
            },
            "left": {
                "Default": {
                    "type": "string",
                    "value": "40%"
                }
            },
            "responsiveData": {}
        },
        "keyValueAmount.imgWhatIsSSN": {
            "__events__": {},
            "__info__": {
                "kuid": "j4d5dd76125b491b8393841f598176fa",
                "srcKUID": "c6d81355afa14be28450061fb2eca98c",
                "wType": "Image"
            },
            "src": "info_grey.png"
        },
        "keyValueAmount.lblColon": {
            "__events__": {},
            "__info__": {
                "kuid": "e64984fb94bb419097880991adb9a366",
                "srcKUID": "ae64cdfeff7441f0ba7f265bed03ad7f",
                "wType": "Label"
            },
            "isVisible": false,
            "left": {
                "Default": {
                    "type": "string",
                    "value": "23.70%"
                }
            },
            "responsiveData": {},
            "text": ": "
        },
        "keyValueAmount.lblKey": {
            "__events__": {},
            "__info__": {
                "kuid": "cd71748a4c864a6a8a8570ada238254e",
                "srcKUID": "ed5099b3c381499497e1773aabd8368f",
                "wType": "Label"
            },
            "i18n_text": null,
            "responsiveData": {},
            "text": "Duration:"
        },
        "keyValueAmount.lblValue": {
            "__events__": {},
            "__info__": {
                "kuid": "cce8dcf38e7a4477ab516a9f4088b73c",
                "srcKUID": "d86215b98d5b455ebaedde9ce960a85f",
                "wType": "Label"
            },
            "left": {
                "Default": {
                    "type": "string",
                    "value": "0dp"
                }
            },
            "top": {
                "Default": {
                    "type": "string",
                    "value": "0dp"
                }
            }
        },
        "keyValueFrequency": {
            "__events__": {},
            "__info__": {
                "kuid": "h142269a03f54ca789c6b7415ac34eef",
                "srcKUID": "i304d0611db94cfe826f9c9183b3a964",
                "wType": "UserWidgetInstance"
            }
        },
        "keyValueFrequency.flxContainer": {
            "__events__": {},
            "__info__": {
                "kuid": "ed18f5e84e644c4d9bebd827e23871db",
                "srcKUID": "d1571b44b2784eedb7e7935427fda84f",
                "wType": "FlexContainer"
            }
        },
        "keyValueFrequency.flxInfo": {
            "__events__": {},
            "__info__": {
                "kuid": "b096d0f7fd734b1e9c175a63d38fc4b9",
                "srcKUID": "i7b0e784ae18438493b500f8fa6aed2a",
                "wType": "FlexContainer"
            }
        },
        "keyValueFrequency.flxKey": {
            "__events__": {},
            "__info__": {
                "kuid": "c299ee1bea284ce385b4ea7c9e3eb3b3",
                "srcKUID": "he5904cc80124f4497e795e561055b0f",
                "wType": "FlexContainer"
            }
        },
        "keyValueFrequency.flxValue": {
            "__events__": {},
            "__info__": {
                "kuid": "f542fcf2ea6a4752886adff7a4f3676a",
                "srcKUID": "b4110976647f4b378d88aa133e0187bf",
                "wType": "FlexContainer"
            },
            "left": {
                "Default": {
                    "type": "string",
                    "value": "40%"
                }
            },
            "responsiveData": {}
        },
        "keyValueFrequency.imgWhatIsSSN": {
            "__events__": {},
            "__info__": {
                "kuid": "fdf116bf899a4977ac8337fa94858925",
                "srcKUID": "h3f3ed39aa384b808ce1336d43067f8e",
                "wType": "Image"
            },
            "src": "info_grey.png"
        },
        "keyValueFrequency.lblColon": {
            "__events__": {},
            "__info__": {
                "kuid": "decca6d4f1b043cd9119eb63f95d5050",
                "srcKUID": "e857a4e72f574bdf98bfe99848b9251f",
                "wType": "Label"
            },
            "isVisible": false,
            "left": {
                "Default": {
                    "type": "string",
                    "value": "23.70%"
                }
            },
            "responsiveData": {}
        },
        "keyValueFrequency.lblKey": {
            "__events__": {},
            "__info__": {
                "kuid": "b97611a1ccfe4765b49303e15b136a4b",
                "srcKUID": "i4c0053e0b084e51b4a862ee7657dedf",
                "wType": "Label"
            },
            "i18n_text": null,
            "responsiveData": {},
            "text": "Interest Amount:"
        },
        "keyValueFrequency.lblValue": {
            "__events__": {},
            "__info__": {
                "kuid": "b680c1aa15c04ad8815b6a2a4e98ffcc",
                "srcKUID": "j248fb9d8f934312b23c7149863f9d3f",
                "wType": "Label"
            }
        },
        "keyValueFrequencyType": {
            "__events__": {},
            "__info__": {
                "kuid": "ce9cc799694c4954867e349cbd8807c0",
                "srcKUID": "f96221bee940411eb0d263db6ae7ed56",
                "wType": "UserWidgetInstance"
            }
        },
        "keyValueFrequencyType.flxContainer": {
            "__events__": {},
            "__info__": {
                "kuid": "a3b113e1a6a54150979ae0ae516f8d8b",
                "srcKUID": "e67bab4b58ff419b88ede6a03819e863",
                "wType": "FlexContainer"
            }
        },
        "keyValueFrequencyType.flxInfo": {
            "__events__": {},
            "__info__": {
                "kuid": "fb5266a3919a482da87ed72f435d2ad5",
                "srcKUID": "a8ace0b270f44919bd7fb0250747bb65",
                "wType": "FlexContainer"
            }
        },
        "keyValueFrequencyType.flxKey": {
            "__events__": {},
            "__info__": {
                "kuid": "afd4cb4e7a6345b98fdb14053363f80c",
                "srcKUID": "c9b515b3885242489043cead5aa46be4",
                "wType": "FlexContainer"
            },
            "responsiveData": {},
            "width": {
                "Default": {
                    "type": "string",
                    "value": "200dp"
                }
            }
        },
        "keyValueFrequencyType.flxValue": {
            "__events__": {},
            "__info__": {
                "kuid": "d4c53b07402b43518e15330c0a9fc741",
                "srcKUID": "j3e6ba6281ff40e8831cf50d10390c76",
                "wType": "FlexContainer"
            },
            "left": {
                "Default": {
                    "type": "string",
                    "value": "40%"
                }
            },
            "responsiveData": {}
        },
        "keyValueFrequencyType.imgWhatIsSSN": {
            "__events__": {},
            "__info__": {
                "kuid": "h3aefea6f0ed4af8b9ee64e49966e63e",
                "srcKUID": "d2e5f98ae2794c10b94d3f9145774103",
                "wType": "Image"
            },
            "src": "info_grey.png"
        },
        "keyValueFrequencyType.lblColon": {
            "__events__": {},
            "__info__": {
                "kuid": "d13beba50ada42f4b470606f4c6cb9d9",
                "srcKUID": "ee0cfc684ce645788153f2955f5292aa",
                "wType": "Label"
            },
            "isVisible": false,
            "left": {
                "Default": {
                    "type": "string",
                    "value": "23.70%"
                }
            },
            "responsiveData": {},
            "top": {
                "Default": {
                    "type": "string",
                    "value": "0dp"
                }
            }
        },
        "keyValueFrequencyType.lblKey": {
            "__events__": {},
            "__info__": {
                "kuid": "b76d0bcad5be4209986017d81c88419a",
                "srcKUID": "i685ab48983f4485a038d48f894aa312",
                "wType": "Label"
            },
            "i18n_text": null,
            "responsiveData": {},
            "text": "Monthly Repayment Amount:",
            "width": {
                "Default": {
                    "type": "string",
                    "value": "200dp"
                }
            }
        },
        "keyValueFrequencyType.lblValue": {
            "__events__": {},
            "__info__": {
                "kuid": "c0065e01313444828f1fb2325bbe82eb",
                "srcKUID": "ed001f966eb847d8b1339d9d50e41fb0",
                "wType": "Label"
            }
        },
        "keyValueFrom": {
            "__events__": {},
            "__info__": {
                "kuid": "ja6e31e228a64339ad7456ee17f87a1c",
                "srcKUID": "a22a1ef763294ebfa9168e940894c357",
                "wType": "UserWidgetInstance"
            }
        },
        "keyValueFrom.flxContainer": {
            "__events__": {},
            "__info__": {
                "kuid": "a9b423d6314446a6b9d2e51573b288d8",
                "srcKUID": "df3fca97b5944da4b71458a9d4d38f9f",
                "wType": "FlexContainer"
            }
        },
        "keyValueFrom.flxInfo": {
            "__events__": {},
            "__info__": {
                "kuid": "e06c19c10caa470e9efaf695cbb17b2e",
                "srcKUID": "b285c38b0ef746ad8de90d860b12072e",
                "wType": "FlexContainer"
            }
        },
        "keyValueFrom.flxKey": {
            "__events__": {},
            "__info__": {
                "kuid": "ecd18b88e4fb49999b166935e9868f7f",
                "srcKUID": "g687cdaed4554bf2b79243ba15955a7f",
                "wType": "FlexContainer"
            }
        },
        "keyValueFrom.flxValue": {
            "__events__": {},
            "__info__": {
                "kuid": "i8d98f2894bc41bd86f71e0d4d402d7d",
                "srcKUID": "e780c25af1b54a5e939437c8e4c160cf",
                "wType": "FlexContainer"
            },
            "left": {
                "Default": {
                    "type": "string",
                    "value": "40%"
                }
            },
            "responsiveData": {}
        },
        "keyValueFrom.imgWhatIsSSN": {
            "__events__": {},
            "__info__": {
                "kuid": "jb8d0cc0bfa84640898570052dbef743",
                "srcKUID": "d1cb9bc33b9e441daeea93de1b58f6c0",
                "wType": "Image"
            },
            "src": "info_grey.png"
        },
        "keyValueFrom.lblColon": {
            "__events__": {},
            "__info__": {
                "kuid": "fa4e737f777e4e86a90f42d7c84caff7",
                "srcKUID": "a41e6919283d4ac1bb48812352fa06df",
                "wType": "Label"
            },
            "isVisible": false,
            "left": {
                "Default": {
                    "type": "string",
                    "value": "23.70%"
                }
            },
            "responsiveData": {},
            "text": ": "
        },
        "keyValueFrom.lblKey": {
            "__events__": {},
            "__info__": {
                "kuid": "hd132f35b1134cdbb3a6c113792cd181",
                "srcKUID": "e7c0d7a6cb4d4361bd846506a78769ef",
                "wType": "Label"
            },
            "i18n_text": null,
            "responsiveData": {},
            "text": "Product Name:"
        },
        "keyValueFrom.lblValue": {
            "__events__": {},
            "__info__": {
                "kuid": "cb297962196c472ab1894f3150050a88",
                "srcKUID": "ebcad4cf1d2b4537bf7359be280b2a5f",
                "wType": "Label"
            }
        },
        "keyValueNote": {
            "__events__": {},
            "__info__": {
                "kuid": "ad385afe2ce1491aa878eb1b72207edc",
                "srcKUID": "c82f254174a8469c96ec7aa59aa087b8",
                "wType": "UserWidgetInstance"
            }
        },
        "keyValueNote.flxContainer": {
            "__events__": {},
            "__info__": {
                "kuid": "b441020fa4844dec85aa1030282df917",
                "srcKUID": "af841be489334f9fbdd6c62a307b69ef",
                "wType": "FlexContainer"
            },
            "isVisible": false,
            "responsiveData": {}
        },
        "keyValueNote.flxInfo": {
            "__events__": {},
            "__info__": {
                "kuid": "h9950a59ba024cca9a607f116b810a39",
                "srcKUID": "h0f9b75a7b4d4cbf93c0c4eb271735a6",
                "wType": "FlexContainer"
            }
        },
        "keyValueNote.flxKey": {
            "__events__": {},
            "__info__": {
                "kuid": "ce386e08dac848b2b91117b9e5421b55",
                "srcKUID": "c15f3713024d45169c5f40e8ba5e3f9f",
                "wType": "FlexContainer"
            }
        },
        "keyValueNote.flxValue": {
            "__events__": {},
            "__info__": {
                "kuid": "e2fb8e751d314b1fbe762a69984a9ae6",
                "srcKUID": "fc0f3d103da0487cbcd65392cd00ae1f",
                "wType": "FlexContainer"
            },
            "left": {
                "Default": {
                    "type": "string",
                    "value": "25.70%"
                }
            },
            "responsiveData": {}
        },
        "keyValueNote.imgWhatIsSSN": {
            "__events__": {},
            "__info__": {
                "kuid": "acbb78c2c9e249c79058c6c7c169d34b",
                "srcKUID": "aef11e7dfe2b4744a48d2de3ad23853a",
                "wType": "Image"
            },
            "src": "info_grey.png"
        },
        "keyValueNote.lblColon": {
            "__events__": {},
            "__info__": {
                "kuid": "d9b937da964b4666b814fbe11af2cbdb",
                "srcKUID": "gca0e285f2d143f8b78f03d9a9afc04f",
                "wType": "Label"
            },
            "isVisible": false,
            "left": {
                "Default": {
                    "type": "string",
                    "value": "23.70%"
                }
            },
            "responsiveData": {}
        },
        "keyValueNote.lblKey": {
            "__events__": {},
            "__info__": {
                "kuid": "c601bfb069464c8ea605e6986f3ddef9",
                "srcKUID": "f48d5d4a29694cfe8cb09dcad61dc38f",
                "wType": "Label"
            },
            "i18n_text": null,
            "isVisible": false,
            "responsiveData": {},
            "text": "Reason for Loan"
        },
        "keyValueNote.lblValue": {
            "__events__": {},
            "__info__": {
                "kuid": "e5b195d2df4d4cb9ae5eff973ea19baf",
                "srcKUID": "fea597d5c1854bd8b06382314bea3d7f",
                "wType": "Label"
            }
        },
        "keyValuePaymentDate": {
            "__events__": {},
            "__info__": {
                "kuid": "cdb0a2ccaf084d05999f8b25d7b9a73b",
                "srcKUID": "f50a7d96634a4bbe892d26c3c6bb46d8",
                "wType": "UserWidgetInstance"
            }
        },
        "keyValuePaymentDate.flxContainer": {
            "__events__": {},
            "__info__": {
                "kuid": "c40c924841f44e27857d5f6121b70cdb",
                "srcKUID": "d62e8bcd90d6424cb416e9cae13213bf",
                "wType": "FlexContainer"
            }
        },
        "keyValuePaymentDate.flxInfo": {
            "__events__": {},
            "__info__": {
                "kuid": "g3a11d7308d74c269ab12f439c98c97e",
                "srcKUID": "c22a00db2fa04da482059fcd734c2987",
                "wType": "FlexContainer"
            }
        },
        "keyValuePaymentDate.flxKey": {
            "__events__": {},
            "__info__": {
                "kuid": "c51fdf3af627470a8cb6dcad696b05e3",
                "srcKUID": "d9683bd46fab45fa8f75f920b65133ff",
                "wType": "FlexContainer"
            }
        },
        "keyValuePaymentDate.flxValue": {
            "__events__": {},
            "__info__": {
                "kuid": "j9ab299613974a44ae68c4e0f4149bfa",
                "srcKUID": "jba60477ef8e4d1f8381865bdca7138g",
                "wType": "FlexContainer"
            },
            "left": {
                "Default": {
                    "type": "string",
                    "value": "40%"
                }
            },
            "responsiveData": {}
        },
        "keyValuePaymentDate.imgWhatIsSSN": {
            "__events__": {},
            "__info__": {
                "kuid": "h7fca3ffeefe4db9b1e7287fb7ad2525",
                "srcKUID": "d96b9b09ffd8411896c24dc4d21e7967",
                "wType": "Image"
            },
            "src": "info_grey.png"
        },
        "keyValuePaymentDate.lblColon": {
            "__events__": {},
            "__info__": {
                "kuid": "ja58548200c64003bbfd6de8a4da0166",
                "srcKUID": "df5e94d112b3438ebdb06511cdbdee9f",
                "wType": "Label"
            },
            "isVisible": false,
            "left": {
                "Default": {
                    "type": "string",
                    "value": "23.70%"
                }
            },
            "responsiveData": {}
        },
        "keyValuePaymentDate.lblKey": {
            "__events__": {},
            "__info__": {
                "kuid": "f1bd4e5955da48d0ba60e3daa6c637cb",
                "srcKUID": "be177026f995496bb8364e59c77966ff",
                "wType": "Label"
            },
            "i18n_text": null,
            "responsiveData": {},
            "text": "Interest Rate:"
        },
        "keyValuePaymentDate.lblValue": {
            "__events__": {},
            "__info__": {
                "kuid": "bc906d4ff13242c0806b431b24e63df1",
                "srcKUID": "cbabed6cdde34c7b9fc687dc7eeba7df",
                "wType": "Label"
            }
        },
        "keyValueTo": {
            "__events__": {},
            "__info__": {
                "kuid": "d2958ce3b5e54257b343e7e814d57271",
                "srcKUID": "ae714394b2bf4755b0a820fd255a9828",
                "wType": "UserWidgetInstance"
            }
        },
        "keyValueTo.flxContainer": {
            "__events__": {},
            "__info__": {
                "kuid": "ea4489ea27df494abc72fba1290ec66c",
                "srcKUID": "aad170df77c24b4baeddece37f87241f",
                "wType": "FlexContainer"
            }
        },
        "keyValueTo.flxInfo": {
            "__events__": {},
            "__info__": {
                "kuid": "j4464827f7fa4dffb9ac52b9e5e68990",
                "srcKUID": "ac4208c97c9b490aaedd672a81a69eb5",
                "wType": "FlexContainer"
            }
        },
        "keyValueTo.flxKey": {
            "__events__": {},
            "__info__": {
                "kuid": "f6bb07d45f994d7f85958da9f52166d4",
                "srcKUID": "eb47a14df1c84c9cb7be416f721dccbf",
                "wType": "FlexContainer"
            }
        },
        "keyValueTo.flxValue": {
            "__events__": {},
            "__info__": {
                "kuid": "c70f532e5f164a228953dbdbcdd9c09e",
                "srcKUID": "be1a0d4555974b449edbd55ac7e205ef",
                "wType": "FlexContainer"
            },
            "left": {
                "Default": {
                    "type": "string",
                    "value": "40%"
                }
            },
            "responsiveData": {}
        },
        "keyValueTo.imgWhatIsSSN": {
            "__events__": {},
            "__info__": {
                "kuid": "d72a1261ce054e579aec10953946c3be",
                "srcKUID": "b566728ff44546309c5061ea38d7a1c2",
                "wType": "Image"
            },
            "src": "info_grey.png"
        },
        "keyValueTo.lblColon": {
            "__events__": {},
            "__info__": {
                "kuid": "c59bc1c36fdb4a83bfef0cdea37e1c6c",
                "srcKUID": "dc01b1cc73274c119369c0e1fc5f263f",
                "wType": "Label"
            },
            "isVisible": false,
            "left": {
                "Default": {
                    "type": "string",
                    "value": "23.70%"
                }
            },
            "responsiveData": {}
        },
        "keyValueTo.lblKey": {
            "__events__": {},
            "__info__": {
                "kuid": "ad4017a4b4984fbebf8fd7b6731168cf",
                "srcKUID": "fc30ea9c1a6545ada1a75b911f32d41f",
                "wType": "Label"
            },
            "i18n_text": null,
            "responsiveData": {},
            "text": "Loan Amount:"
        },
        "keyValueTo.lblValue": {
            "__events__": {},
            "__info__": {
                "kuid": "f01c97b26208495fb6a9b6db0c285ef2",
                "srcKUID": "jb025dc5e04645cc86095ca034d911bg",
                "wType": "Label"
            }
        },
        "lblCheckBox": {
            "__events__": {},
            "__info__": {
                "kuid": "b636ea533234453e9c9b3fca75f7c7c1",
                "srcKUID": "c35f93b295fe48b993a4cc9e0fb8c41e",
                "wType": "Label"
            }
        },
        "lblFee": {
            "__events__": {},
            "__info__": {
                "kuid": "b2328dcf98954df6b4af9203ae2b637a",
                "srcKUID": "d5a687c245704c1c93f3d2f96259024b",
                "wType": "Label"
            }
        },
        "lblPaidByMe": {
            "__events__": {},
            "__info__": {
                "kuid": "e41b8fed97774e96ba1dd204a5a1318b",
                "srcKUID": "a343dca702a744e09669bdd12ff0f93a",
                "wType": "Label"
            }
        },
        "lblPaidByRecipient": {
            "__events__": {},
            "__info__": {
                "kuid": "j4117b088a2f4746babf74df3d797b72",
                "srcKUID": "cfda16390cb34df0bde6e92a1c735317",
                "wType": "Label"
            }
        },
        "lblPaidRecipient": {
            "__events__": {},
            "__info__": {
                "kuid": "ec6ab6d4a8f14047887d61bce520d93e",
                "srcKUID": "h23dbd6074fc4a1c8096da5deb983d76",
                "wType": "Label"
            }
        },
        "lblTransactioFee": {
            "__events__": {},
            "__info__": {
                "kuid": "dc95a012c09d42789d37ff61444dd437",
                "srcKUID": "a3843f7a4ddb431fa4783d1cc6a786af",
                "wType": "Label"
            }
        }
    },
    "enablescrolling": true,
    "id": "confirmDialog",
    "info": null,
    "isdatareferenced": false,
    "isvisible": true,
    "kuid": "gee08152877c44619f9331521d56b824",
    "layouttype": 2,
    "masterType": 0,
    "name": "kony.ui.UserWidgetInstance",
    "parent": "flxReviewApplicationContainer",
    "pf": "frmPersonalLoan",
    "snapgridsize": 10,
    "snaptogrid": true,
    "sourceUserWidget": "h98cde72801b440a9b31cf23ded2cf90",
    "wType": "UserWidgetInstance"
}