{
    "@class": "com.kony.gen.viz.model.component.KVizRichText",
    "DNDConfig": null,
    "__parentReadjusting__": false,
    "_bottom_": {
        "type": "string",
        "value": "10dp"
    },
    "_height_": {
        "type": "ref",
        "value": "preferred"
    },
    "_left_": {
        "type": "string",
        "value": "2.50%"
    },
    "_margin_": [
        0,
        0,
        0,
        0
    ],
    "_padding_": [
        0,
        0,
        0,
        0
    ],
    "_render_": true,
    "_skin_": "s23186e58cad43ad821b713e9f9a389c",
    "_text_": "By accessing the information provided at the Kony Banking site, you agree to the following terms and conditions. The material available on these sites has been produced by independent providers and are not the opinions or recommendations of Kony Bank. All accounts are subject to the terms and conditions of the member handbook. </br></br>\n \nThe Electronic Signature Disclosure and Consent (\"E-Sign Disclosure\") contains important information that you are entitled to receive before you consent to transact business with Kony Bank(collectively, \"Kony Bank\", \"we\", \"us\" and \"our\") electronically. The words \"I\", \"you\" and \"your\" mean the applicant or member account owner. Please read this notice carefully. You can print or download a copy for your records. </br></br>\n \nE-mail Communication. We may notify you by e-mail about Electronic Communications available to you. You are responsible for providing us with a valid e-mail address to accept delivery of Electronic Communications. You are responsible for notifying us when your e-mail address changes. You acknowledge and agree that the Internet is inherently insecure. Therefore, you agree that we have no liability to you whatsoever for any loss, claim, or damages arising or in any way related to our response(s) to any e-mail or other electronic communication which we in good faith believe you have submitted to us. We have no duty to investigate the validity of or verify any e-mail or other electronic communication. </br></br>\n \nHardware and Software Requirements. In order to download, access, view, read, print, and retain the Agreement, Disclosures, and Electronic Records, you must have access to:\n<li><ul>A device capable of connecting to the internet, such as a computer. </ul>\n<ul>An internet browser that supports 128-bit encryption, such as the latest versions of Internet Explorer, Chrome or Safari. </ul>\n<ul>A valid e-mail address and e-mail software capable of reading and responding to your email. </ul>\n<ul>Sufficient electronic storage capacity on your device or on another data storage unit to retain the Electronic Communications. </ul>\n<ul>A printer that is capable of printing from your browser and email software if you choose to create a paper version of the Electronic Communications. </ul>\n<ul>Adobe Acrobat Reader – A free copy of Adobe Reader may be obtained from the Adobe website at www.adobe.com or downloaded from our online banking site. </ul>",
    "_top_": {
        "type": "string",
        "value": "0px"
    },
    "_width_": {
        "type": "string",
        "value": "94.60%"
    },
    "_wrapping_": 2,
    "accessibilityconfig": {
        "a11yLabel": "By accessing the information provided at the Kony Banking site, you agree to the following terms and conditions. The material available on these sites has been produced by independent providers and are not the opinions or recommendations of Kony Bank. All accounts are subject to the terms and conditions of the member handbook. </br></br>\n \nThe Electronic Signature Disclosure and Consent (\"E-Sign Disclosure\") contains important information that you are entitled to receive before you consent to transact business with Kony Bank(collectively, \"Kony Bank\", \"we\", \"us\" and \"our\") electronically. The words \"I\", \"you\" and \"your\" mean the applicant or member account owner. Please read this notice carefully. You can print or download a copy for your records. </br></br>\n \nE-mail Communication. We may notify you by e-mail about Electronic Communications available to you. You are responsible for providing us with a valid e-mail address to accept delivery of Electronic Communications. You are responsible for notifying us when your e-mail address changes. You acknowledge and agree that the Internet is inherently insecure. Therefore, you agree that we have no liability to you whatsoever for any loss, claim, or damages arising or in any way related to our response(s) to any e-mail or other electronic communication which we in good faith believe you have submitted to us. We have no duty to investigate the validity of or verify any e-mail or other electronic communication. </br></br>\n \nHardware and Software Requirements. In order to download, access, view, read, print, and retain the Agreement, Disclosures, and Electronic Records, you must have access to:\n<li><ul>A device capable of connecting to the internet, such as a computer. </ul>\n<ul>An internet browser that supports 128-bit encryption, such as the latest versions of Internet Explorer, Chrome or Safari. </ul>\n<ul>A valid e-mail address and e-mail software capable of reading and responding to your email. </ul>\n<ul>Sufficient electronic storage capacity on your device or on another data storage unit to retain the Electronic Communications. </ul>\n<ul>A printer that is capable of printing from your browser and email software if you choose to create a paper version of the Electronic Communications. </ul>\n<ul>Adobe Acrobat Reader – A free copy of Adobe Reader may be obtained from the Adobe website at www.adobe.com or downloaded from our online banking site. </ul>"
    },
    "canUpdateUI": true,
    "containerweight": 100,
    "contentalignment": 4,
    "desktopweb": {
        "render": true
    },
    "id": "rtxTC",
    "info": null,
    "isvisible": true,
    "kiosk": {
        "render": true
    },
    "kuid": "aa655c448d9e42e590e383e038d0bb96",
    "name": "kony.ui.RichText",
    "parent": "flxTCContents",
    "pf": "frmPersonalLoan",
    "wType": "RichText",
    "widgetalignment": 5,
    "zindex": 1
}