{
    "DNDConfig": null,
    "_height_": {
        "type": "ref",
        "value": "preferred"
    },
    "_left_": {
        "type": "string",
        "value": "0dp"
    },
    "_margin_": [
        0,
        0,
        0,
        0
    ],
    "_orientation_": 6,
    "_padding_": [
        0,
        0,
        0,
        0
    ],
    "_percent_": true,
    "_skin_": "s24c92fc23b14f5484b693ee9b8a9b35",
    "_top_": {
        "type": "string",
        "value": "0dp"
    },
    "_width_": {
        "type": "string",
        "value": "100%"
    },
    "allboxes": [],
    "autogrowmode": 1,
    "canUpdateUI": true,
    "children": [
        "flxLeft1",
        "flxFormatValue1Tab1"
    ],
    "clipbounds": true,
    "containerweight": 100,
    "desktop": {
        "responsiveconfig": {
            "offset": {
                "b1": 0,
                "b2": 0,
                "b3": 0
            },
            "span": {
                "b1": 3,
                "b2": 4,
                "b3": 6
            }
        }
    },
    "desktopweb": {
        "render": true
    },
    "enablescrolling": true,
    "id": "flx1Tab1",
    "info": null,
    "isvisible": true,
    "kiosk": {
        "render": false
    },
    "kuid": "ade7370cd323489e85ed84b597fafc15",
    "layouttype": 5,
    "mobile": {
        "responsiveconfig": {
            "offset": {
                "landscape": 0,
                "portrait": 0
            },
            "span": {
                "landscape": 6,
                "portrait": 12
            }
        }
    },
    "name": "kony.ui.FlexContainer",
    "parent": "flxTab1Left",
    "pf": "userwidgetmodel",
    "snapgridsize": 10,
    "snaptogrid": true,
    "tablet": {
        "responsiveconfig": {
            "offset": {
                "landscape": 0,
                "portrait": 0
            },
            "span": {
                "landscape": 3,
                "portrait": 6
            }
        }
    },
    "wType": "FlexContainer",
    "widgetalignment": 1,
    "zindex": 1
}