{
    "DNDConfig": null,
    "_height_": {
        "type": "ref",
        "value": "preferred"
    },
    "_left_": {
        "type": "string",
        "value": "0dp"
    },
    "_margin_": [
        0,
        0,
        0,
        0
    ],
    "_orientation_": 6,
    "_padding_": [
        0,
        0,
        0,
        0
    ],
    "_percent_": true,
    "_skin_": "s24c92fc23b14f5484b693ee9b8a9b35",
    "_top_": {
        "type": "string",
        "value": "0dp"
    },
    "_width_": {
        "type": "string",
        "value": "100%"
    },
    "allboxes": [],
    "autogrowmode": 1,
    "canUpdateUI": true,
    "children": [
        "FormatValue4Tab1"
    ],
    "clipbounds": true,
    "containerweight": 100,
    "desktop": {
        "responsiveconfig": {
            "offset": {
                "b1": 0,
                "b2": 0,
                "b3": 0
            },
            "span": {
                "b1": 6,
                "b2": 6,
                "b3": 12
            }
        }
    },
    "enablescrolling": true,
    "id": "flxFormatValue4Tab1",
    "info": null,
    "iscustomlayout": false,
    "isvisible": true,
    "kuid": "fb4a8ab9cf9a49a6a0eed5f4c1951b2a",
    "layouttype": 3,
    "mobile": {
        "responsiveconfig": {
            "offset": {
                "landscape": 0,
                "portrait": 0
            },
            "span": {
                "landscape": 6,
                "portrait": 12
            }
        }
    },
    "name": "kony.ui.FlexContainer",
    "parent": "flx4Tab1",
    "pf": "userwidgetmodel",
    "retaincontentalignment": false,
    "retainflexpositionproperties": false,
    "retainflowhorizontalalignment": false,
    "snapgridsize": 10,
    "snaptogrid": true,
    "tablet": {
        "responsiveconfig": {
            "offset": {
                "landscape": 0,
                "portrait": 0
            },
            "span": {
                "landscape": 3,
                "portrait": 6
            }
        }
    },
    "wType": "FlexContainer",
    "widgetalignment": 1
}