{
    "DNDConfig": null,
    "_height_": {
        "type": "string",
        "value": "50dp"
    },
    "_left_": {
        "type": "string",
        "value": "30dp"
    },
    "_margin_": [
        0,
        0,
        0,
        0
    ],
    "_orientation_": 6,
    "_padding_": [
        0,
        0,
        0,
        0
    ],
    "_percent_": true,
    "_right_": {
        "type": "string",
        "value": "30dp"
    },
    "_skin_": "s24c92fc23b14f5484b693ee9b8a9b35",
    "_top_": {
        "type": "string",
        "value": "0dp"
    },
    "allboxes": [],
    "autogrowmode": 0,
    "canUpdateUI": true,
    "children": [
        "btnTab1",
        "btnInstallmentDetails",
        "btnTab2",
        "btnTab3",
        "btnTab4"
    ],
    "clipbounds": true,
    "containerweight": 100,
    "desktop": {
        "responsiveconfig": {
            "offset": {
                "b1": 0,
                "b2": 0,
                "b3": 0
            },
            "span": {
                "b1": 10,
                "b2": 10,
                "b3": 0
            }
        }
    },
    "enablescrolling": true,
    "id": "flxTabs",
    "info": null,
    "isvisible": true,
    "kuid": "j81b4718fabf41699597ba75bf9b7897",
    "layouttype": 3,
    "mobile": {
        "responsiveconfig": {
            "offset": {
                "landscape": 0,
                "portrait": 0
            },
            "span": {
                "landscape": 6,
                "portrait": 12
            }
        }
    },
    "name": "kony.ui.FlexContainer",
    "parent": "flxMainDesktop",
    "pf": "userwidgetmodel",
    "responsiveData": {
        "b3": {
            "skin": "sc9c09e5dd4e433da42f228b210ab944"
        }
    },
    "snapgridsize": 10,
    "snaptogrid": true,
    "tablet": {
        "responsiveconfig": {
            "offset": {
                "landscape": 0,
                "portrait": 0
            },
            "span": {
                "landscape": 3,
                "portrait": 6
            }
        }
    },
    "wType": "FlexContainer",
    "widgetalignment": 1,
    "zindex": 1
}