{
    "DNDConfig": null,
    "_height_": {
        "type": "string",
        "value": "33dp"
    },
    "_left_": {
        "type": "string",
        "value": "0dp"
    },
    "_margin_": [
        0,
        0,
        0,
        0
    ],
    "_orientation_": 6,
    "_padding_": [
        0,
        0,
        0,
        0
    ],
    "_percent_": true,
    "_skin_": "s24c92fc23b14f5484b693ee9b8a9b35",
    "_top_": {
        "type": "string",
        "value": "0dp"
    },
    "_width_": {
        "type": "string",
        "value": "49%"
    },
    "allboxes": [],
    "autogrowmode": 0,
    "canUpdateUI": true,
    "children": [
        "lbl7Tab2"
    ],
    "clipbounds": true,
    "containerweight": 100,
    "enablescrolling": true,
    "id": "lbl7Tab2Field7",
    "info": null,
    "iscustomlayout": false,
    "isvisible": true,
    "kuid": "b1321a3b0d694e4b9a4200a35ea4aa5d",
    "layouttype": 3,
    "name": "kony.ui.FlexContainer",
    "parent": "flx7Tab2",
    "pf": "userwidgetmodel",
    "responsiveData": {
        "b1": {
            "width": {
                "type": "string",
                "value": "39%"
            }
        },
        "b2": {
            "width": {
                "type": "string",
                "value": "39%"
            }
        }
    },
    "retaincontentalignment": false,
    "retainflexpositionproperties": false,
    "retainflowhorizontalalignment": false,
    "snapgridsize": 10,
    "snaptogrid": true,
    "wType": "FlexContainer",
    "widgetalignment": 1,
    "zindex": 1
}