{
    "@class": "com.kony.gen.viz.model.component.KVizLabel",
    "DNDConfig": null,
    "_height_": {
        "type": "ref",
        "value": "preferred"
    },
    "_margin_": [
        1,
        1,
        1,
        1
    ],
    "_padding_": [
        0,
        0,
        0,
        0
    ],
    "_right_": {
        "type": "string",
        "value": "24dp"
    },
    "_skin_": "s089a30edc014fedb2eb54b3b16a7723",
    "_text_": "{\"Savings\":\"{i.i18n.accounts.availableBalance}:\",\"Checking\":\"{i.i18n.accounts.availableBalance}:\",\"Loan\":\"{i.i18n.accounts.outstandingBalance}:\",\"Deposit\":\"{i.i18n.accounts.currentBalance}:\",\"CreditCard\":\"{i.i18n.accounts.currentBalance}:\"}",
    "_width_": {
        "type": "ref",
        "value": "preferred"
    },
    "_wrapping_": 2,
    "accessibilityconfig": {
        "a11yLabel": "Available Balance"
    },
    "android": {
        "textStyle": {
            "letterSpacing": 0,
            "strikeThrough": false
        }
    },
    "canUpdateUI": true,
    "centery": {
        "type": "string",
        "value": "50%"
    },
    "containerweight": 100,
    "contentalignment": 4,
    "id": "lbl7Tab1",
    "info": null,
    "ipad": {
        "psp": {
            "wrapping": 2
        }
    },
    "iphone": {
        "psp": {
            "wrapping": 2
        }
    },
    "isvisible": true,
    "kuid": "h25e6dfb28704cfaa87c57fa8c13c8e6",
    "name": "kony.ui.Label",
    "parent": "flx7Tab1",
    "pf": "userwidgetmodel",
    "tooltip": "",
    "wType": "Label",
    "zindex": 1
}