{
    "DNDConfig": null,
    "_height_": {
        "type": "ref",
        "value": "preferred"
    },
    "_left_": {
        "type": "string",
        "value": "0dp"
    },
    "_margin_": [
        0,
        0,
        0,
        0
    ],
    "_orientation_": 6,
    "_padding_": [
        0,
        0,
        0,
        0
    ],
    "_percent_": true,
    "_skin_": "sb24340c6ced4c99be4ee6018d2f30b9",
    "_top_": {
        "type": "string",
        "value": "0dp"
    },
    "_width_": {
        "type": "string",
        "value": "100%"
    },
    "allboxes": [],
    "autogrowmode": 1,
    "canUpdateUI": true,
    "children": [
        "flxIdentifier",
        "flxMainDesktop",
        "flxShadow"
    ],
    "clipbounds": false,
    "containerweight": 100,
    "desktopweb": {
        "ide_onBreakpointChange": "AS_FlexContainer_a704b00e168149d8a6278d3aa0bc4e42"
    },
    "enablescrolling": true,
    "id": "summary",
    "ide_postShow": "AS_FlexContainer_d558df92fc1346eda11b327201a79544",
    "info": null,
    "iscustomlayout": false,
    "isvisible": true,
    "kuid": "ib0481a185ed44d9af961a34a1d9c4c1",
    "layouttype": 2,
    "name": "kony.ui.FlexContainer",
    "parent": "userwidgetmodel",
    "pf": "userwidgetmodel",
    "retaincontentalignment": false,
    "retainflexpositionproperties": false,
    "retainflowhorizontalalignment": false,
    "snapgridsize": 10,
    "snaptogrid": true,
    "wType": "FlexContainer",
    "widgetalignment": 1
}