{
    "@class": "com.kony.gen.viz.model.component.KVizButton",
    "DNDConfig": null,
    "__parentReadjusting__": false,
    "_bottom_": {
        "type": "number",
        "value": "0"
    },
    "_height_": {
        "type": "string",
        "value": "40dp"
    },
    "_margin_": [
        6,
        6,
        6,
        6
    ],
    "_padding_": [
        0,
        0,
        0,
        0
    ],
    "_right_": {
        "type": "string",
        "value": "20dp"
    },
    "_skin_": "sdc7361203bc408faf7a175e392acef4",
    "_text_": "Yes",
    "_width_": {
        "type": "string",
        "value": "150dp"
    },
    "accessibilityconfig": {
        "a11yLabel": "Yes"
    },
    "canUpdateUI": true,
    "containerweight": 100,
    "contentalignment": 5,
    "desktopweb": {
        "psp": {
            "hoverSkin": "s81054b5e2b74f17a5261991df565427"
        }
    },
    "disabledSkins": {
        "focusSkin": "sf44d06ca8224832827ea7fdff757013"
    },
    "displaytext": true,
    "hoverskin": "",
    "id": "btnAlertsDisableYes",
    "info": null,
    "isvisible": true,
    "kuid": "be2545d88f564bf388f270a7c7aa42ff",
    "name": "kony.ui.Button",
    "parent": "flxAlertsDisableButtons",
    "pf": "frmProfileManagement",
    "responsiveData": {
        "b1": {
            "skin": "sdc7361203bc408faf7a175e392acef4"
        },
        "b2": {
            "skin": "sdc7361203bc408faf7a175e392acef4"
        },
        "b3": {
            "skin": "sdc7361203bc408faf7a175e392acef4"
        }
    },
    "texti18n": "i18n.common.yes",
    "tooltip": "Yes",
    "wType": "Button",
    "zindex": 1
}