{
    "@class": "com.kony.gen.viz.model.component.KVizButton",
    "DNDConfig": null,
    "__parentReadjusting__": false,
    "_bottom_": {
        "type": "number",
        "value": "30"
    },
    "_height_": {
        "type": "string",
        "value": "40dp"
    },
    "_left_": {
        "type": "string",
        "value": "35.95%"
    },
    "_margin_": [
        6,
        6,
        6,
        6
    ],
    "_padding_": [
        0,
        0,
        0,
        0
    ],
    "_right_": {
        "type": "string",
        "value": "190dp"
    },
    "_skin_": "s53f35797e894740848702af91fb98cb",
    "_text_": "NO",
    "_width_": {
        "type": "string",
        "value": "28.47%"
    },
    "accessibilityconfig": {
        "a11yLabel": "No"
    },
    "canUpdateUI": true,
    "containerweight": 100,
    "contentalignment": 5,
    "desktopweb": {
        "psp": {
            "hoverSkin": "s81054b5e2b74f17a5261991df565427"
        }
    },
    "disabledSkins": {
        "focusSkin": "sf44d06ca8224832827ea7fdff757013"
    },
    "displaytext": true,
    "id": "btnDeletePopupNo",
    "info": null,
    "isvisible": true,
    "kuid": "bd401ea1c6f344f183eb4d1dbc4e8b51",
    "name": "kony.ui.Button",
    "parent": "flxProfileDeleteButtons",
    "pf": "frmProfileManagement",
    "responsiveData": {
        "b1": {
            "bottom": {
                "type": "number",
                "value": "20"
            },
            "left": {
                "type": "string",
                "value": ""
            },
            "skin": "s53f35797e894740848702af91fb98cb",
            "width": {
                "type": "string",
                "value": "150dp"
            }
        },
        "b2": {
            "bottom": {
                "type": "number",
                "value": "20"
            },
            "left": {
                "type": "string",
                "value": ""
            },
            "skin": "s53f35797e894740848702af91fb98cb",
            "width": {
                "type": "string",
                "value": "150dp"
            }
        },
        "b3": {
            "bottom": {
                "type": "number",
                "value": "20"
            },
            "left": {
                "type": "string",
                "value": ""
            },
            "skin": "s53f35797e894740848702af91fb98cb",
            "width": {
                "type": "string",
                "value": "150dp"
            }
        }
    },
    "texti18n": "i18n.common.no",
    "tooltip": "No",
    "wType": "Button",
    "zindex": 1
}