{
    "DNDConfig": null,
    "__parentReadjusting__": false,
    "_height_": {
        "type": "string",
        "value": "60dp"
    },
    "_left_": {
        "type": "number",
        "value": ""
    },
    "_margin_": [
        0,
        0,
        0,
        0
    ],
    "_orientation_": 6,
    "_padding_": [
        0,
        0,
        0,
        0
    ],
    "_percent_": true,
    "_skin_": "sd16ce1e169e41989424e7544cbf4816",
    "_top_": {
        "type": "string",
        "value": "30dp"
    },
    "_width_": {
        "type": "string",
        "value": "1200dp"
    },
    "allboxes": [],
    "autogrowmode": 0,
    "canUpdateUI": true,
    "centerx": {
        "type": "string",
        "value": "50%"
    },
    "children": [
        "imgDowntimeWarning",
        "rtxDowntimeWarning"
    ],
    "clipbounds": false,
    "containerweight": 100,
    "enablescrolling": true,
    "id": "flxDowntimeWarning",
    "info": null,
    "isvisible": false,
    "kuid": "gb96dd1fe09f478cab212d436814d512",
    "layouttype": 3,
    "name": "kony.ui.FlexContainer",
    "parent": "flxMainContainer",
    "pf": "frmPersonalFinanceManagement",
    "responsiveData": {
        "b1": {
            "zIndex": 1
        },
        "b2": {
            "isVisible": false,
            "width": {
                "type": "string",
                "value": "87.84%"
            },
            "zIndex": 1
        },
        "b3": {
            "isVisible": false,
            "width": {
                "type": "string",
                "value": "83.84%"
            },
            "zIndex": 1
        },
        "b4": {
            "centerX": {
                "type": "string",
                "value": ""
            },
            "isVisible": false,
            "left": {
                "type": "string",
                "value": "5dp"
            },
            "width": {
                "type": "string",
                "value": "98.50%"
            }
        }
    },
    "snapgridsize": 10,
    "snaptogrid": true,
    "wType": "FlexContainer",
    "widgetalignment": 1,
    "zindex": 1
}