{
    "DNDConfig": null,
    "__parentReadjusting__": false,
    "_height_": {
        "type": "ref",
        "value": "preferred"
    },
    "_left_": {
        "type": "string",
        "value": "0%"
    },
    "_margin_": [
        0,
        0,
        0,
        0
    ],
    "_orientation_": 6,
    "_padding_": [
        0,
        0,
        0,
        0
    ],
    "_percent_": true,
    "_skin_": "s24c92fc23b14f5484b693ee9b8a9b35",
    "_top_": {
        "type": "string",
        "value": "0dp"
    },
    "_width_": {
        "type": "string",
        "value": "100%"
    },
    "allboxes": [],
    "autogrowmode": 1,
    "canUpdateUI": true,
    "children": [
        "flxPFMOverallSpending",
        "flxPFMContainerMySpending"
    ],
    "clipbounds": false,
    "containerweight": 100,
    "enablescrolling": true,
    "id": "flxPFMContainer1",
    "info": null,
    "isvisible": true,
    "kuid": "efd94f5287924326a9130e54c4fd9807",
    "layouttype": 3,
    "name": "kony.ui.FlexContainer",
    "parent": "flxPFMContainer",
    "pf": "frmPersonalFinanceManagement",
    "responsiveData": {
        "b3": {
            "width": {
                "type": "string",
                "value": "100%"
            }
        },
        "b4": {
            "layoutType": 4
        }
    },
    "snapgridsize": 10,
    "snaptogrid": true,
    "wType": "FlexContainer",
    "widgetalignment": 1,
    "zindex": 1
}