{
    "@class": "com.kony.gen.viz.model.component.KVizLabel",
    "DNDConfig": null,
    "__parentReadjusting__": false,
    "_height_": {
        "type": "string",
        "value": "20dp"
    },
    "_left_": {
        "type": "string",
        "value": "15dp"
    },
    "_margin_": [
        1,
        1,
        1,
        1
    ],
    "_padding_": [
        0,
        0,
        0,
        0
    ],
    "_skin_": "s56b1c1042ae4d9391e23c3bc2a56d5f",
    "_text_": "",
    "_width_": {
        "type": "ref",
        "value": "preferred"
    },
    "_wrapping_": 2,
    "accessibilityconfig": {
        "a11yLabel": "Budget"
    },
    "android": {
        "textStyle": {
            "letterSpacing": 0,
            "strikeThrough": false
        }
    },
    "canUpdateUI": true,
    "centery": {
        "type": "string",
        "value": "50%"
    },
    "containerweight": 100,
    "contentalignment": 4,
    "id": "lblHeaderBudget",
    "info": null,
    "ipad": {
        "psp": {
            "wrapping": 2
        }
    },
    "iphone": {
        "psp": {
            "wrapping": 2
        }
    },
    "isvisible": true,
    "kuid": "id647f708d784455925684cca0e3bec3",
    "name": "kony.ui.Label",
    "parent": "flxHeaderBudget",
    "pf": "frmPersonalFinanceManagement",
    "responsiveData": {
        "b2": {
            "left": {
                "type": "string",
                "value": "2.66%"
            }
        },
        "b3": {
            "left": {
                "type": "string",
                "value": "4%"
            }
        }
    },
    "texti18n": "i18n.PFM.Budget2018",
    "tooltip": "",
    "wType": "Label",
    "zindex": 1
}