{
	 "@class": "com.kony.gen.viz.model.component.KVizLabel",
	 "DNDConfig": null,
	 "__parentReadjusting__": false,
	 "_height_": {
		 "type": "string",
		 "value": "120dp"
	},
	 "_left_": {
		 "type": "string",
		 "value": "53dp"
	},
	 "_margin_": [
		 1,
		 1,
		 1,
		 1
	],
	 "_padding_": [
		 0,
		 0,
		 0,
		 0
	],
	 "_skin_": "s826693db0b048069564fba7d92e9177",
	 "_text_": "a",
	 "_top_": {
		 "type": "string",
		 "value": "21dp"
	},
	 "_width_": {
		 "type": "string",
		 "value": "105dp"
	},
	 "_wrapping_": 2,
	 "accessibilityconfig": {
		 "a11yLabel": "a",
		 "a11yHidden": true,
		 "a11yARIA": {
			 "tabindex": -1
		}
	},
	 "android": {
		 "textStyle": {
			 "letterSpacing": 0,
			 "strikeThrough": false
		}
	},
	 "canUpdateUI": true,
	 "centerx": {
		 "type": "string",
		 "value": "50%"
	},
	 "centery": {
		 "type": "string",
		 "value": "75%"
	},
	 "containerweight": 100,
	 "contentalignment": 4,
	 "id": "lblimgAccounts",
	 "info": null,
	 "ipad": {
		 "psp": {
			 "wrapping": 2
		}
	},
	 "iphone": {
		 "psp": {
			 "wrapping": 2
		}
	},
	 "isvisible": true,
	 "kuid": "f6fb7ced3d884ea09f3ed276517393be",
	 "name": "kony.ui.Label",
	 "parent": "flxNoAccounts",
	 "pf": "frmPersonalFinanceManagement",
	 "responsiveData": {
		 "b3": {
			 "left": {
				 "type": "string",
				 "value": ""
			}
		},
		 "b4": {
			 "left": {
				 "type": "string",
				 "value": ""
			}
		}
	},
	 "tooltip": "",
	 "wType": "Label",
	 "zindex": 1
}