{
    "DNDConfig": null,
    "__parentReadjusting__": false,
    "_height_": {
        "type": "ref",
        "value": "preferred"
    },
    "_left_": {
        "type": "string",
        "value": "0px"
    },
    "_margin_": [
        0,
        0,
        0,
        0
    ],
    "_orientation_": 6,
    "_padding_": [
        0,
        0,
        0,
        0
    ],
    "_percent_": true,
    "_skin_": "s24c92fc23b14f5484b693ee9b8a9b35",
    "_top_": {
        "type": "string",
        "value": "31px"
    },
    "_width_": {
        "type": "string",
        "value": "100%"
    },
    "allboxes": [],
    "autogrowmode": 1,
    "canUpdateUI": true,
    "children": [
        "flxAckDetail1",
        "flxAckDetail2",
        "flxAckDetail3",
        "flxAckDetail33",
        "flxAckDetail44",
        "flxAckDetail4",
        "flxAckDetail5",
        "flxAckDetail6",
        "flxAckDetail7",
        "flxAckDetail8",
        "flxAckDetail9"
    ],
    "clipbounds": true,
    "containerweight": 100,
    "enablescrolling": true,
    "id": "flxRecipientDetails",
    "info": null,
    "iscustomlayout": false,
    "isvisible": true,
    "kuid": "a90b3a36e4c84cb792c9729c4caa78a9",
    "layouttype": 4,
    "name": "kony.ui.FlexContainer",
    "parent": "flxConfirmDetails",
    "pf": "userwidgetmodel",
    "responsiveData": {
        "b2": {},
        "b3": {
            "isVisible": true,
            "layoutType": 4,
            "top": {
                "type": "string",
                "value": "20dp"
            }
        }
    },
    "retaincontentalignment": false,
    "retainflexpositionproperties": false,
    "retainflowhorizontalalignment": false,
    "snapgridsize": 10,
    "snaptogrid": true,
    "wType": "FlexContainer",
    "widgetalignment": 1,
    "zindex": 1
}