{
    "@class": "com.kony.gen.viz.model.component.KVizListBox",
    "DNDConfig": null,
    "__parentReadjusting__": false,
    "_height_": {
        "type": "string",
        "value": "40dp"
    },
    "_left_": {
        "type": "string",
        "value": "0dp"
    },
    "_margin_": [
        0,
        0,
        0,
        0
    ],
    "_padding_": [
        3,
        0,
        0,
        0
    ],
    "_skin_": "sfae4459590b4f39af6863186b5f2646",
    "_top_": {
        "type": "string",
        "value": "6dp"
    },
    "_width_": {
        "type": "string",
        "value": "99%"
    },
    "canUpdateUI": true,
    "containerweight": 100,
    "contentalignment": 4,
    "context": {
        "channel": "desktop",
        "formID": "uwdb37d283e54e4b668fa5214113c9b5c5",
        "platform": "desktopweb",
        "templateType": "userwidgets",
        "topLevelBox": null
    },
    "groupcells": false,
    "id": "lbxAccountTypeKA",
    "info": null,
    "isvisible": true,
    "kuid": "eb73520d43f7477d8de8df37b2a749c2",
    "masterdata": [
        [
            "lb1",
            "Savings"
        ],
        [
            "lb2",
            "Checking"
        ]
    ],
    "name": "kony.ui.ListBox",
    "paddinginpixel": false,
    "parent": "flxAccountTypeKA",
    "pf": "frmFastAddDBXAccount",
    "responsiveData": {
        "b1": {
            "padding": [
                3,
                0,
                0,
                0
            ]
        },
        "b2": {
            "padding": [
                3,
                0,
                0,
                0
            ]
        },
        "b3": {
            "padding": [
                3,
                0,
                0,
                0
            ]
        },
        "b4": {
            "padding": [
                3,
                0,
                0,
                0
            ]
        }
    },
    "selectedkey": "lb1",
    "selectedkeys": null,
    "selectedkeyvalue": [
        "lb1",
        "Savings"
    ],
    "selectedkeyvalues": null,
    "size": 18,
    "viewconfig": {
        "toggleViewConfig": {
            "viewStyle": 0
        }
    },
    "viewtype": 0,
    "wType": "ListBox",
    "zindex": 1,
    "focusskin": "s9eb08f78097439eb767801e8fdeb5cd"
}