{
    "@class": "com.kony.gen.viz.model.component.KVizButton",
    "DNDConfig": null,
    "_height_": {
        "type": "string",
        "value": "50dp"
    },
    "_left_": {
        "type": "string",
        "value": "30dp"
    },
    "_margin_": [
        6,
        6,
        6,
        6
    ],
    "_padding_": [
        0,
        0,
        0,
        0
    ],
    "_skin_": "se4cbdf6e51f48eda9966caa941c6a19",
    "_text_": "SEND MONEY TO NEW RECIPIENT",
    "_top_": {
        "type": "string",
        "value": "0dp"
    },
    "_width_": {
        "type": "string",
        "value": "90%"
    },
    "accessibilityconfig": {
        "a11yLabel": "Send Money to New Recipient"
    },
    "canUpdateUI": true,
    "containerweight": 100,
    "contentalignment": 4,
    "desktopweb": {
        "psp": {
            "hoverSkin": "sb13d7d59686429aa4fbca8527b63942"
        }
    },
    "displaytext": true,
    "focusskin": "s7fc7a5968394a5882dc2758c71a59a3",
    "id": "btnSendMoneyNewRecipient",
    "ide_onClick": "AS_Button_i54db45a1af241148141bac268ffd09a",
    "info": null,
    "isvisible": true,
    "kuid": "ib30c25034c2483aa439e636ac10a9d8",
    "name": "kony.ui.Button",
    "parent": "flxAddRecipientButton",
    "pf": "frmP2PSentTab",
    "texti18n": "i18n.PayAPerson.SendMoneyToNewRecipient",
    "tooltip": "Send Money To New Recipient",
    "wType": "Button",
    "zindex": 1
}