{
    "@class": "com.kony.gen.viz.model.component.KVizLabel",
    "DNDConfig": null,
    "_height_": {
        "type": "string",
        "value": "18px"
    },
    "_margin_": [
        1,
        1,
        1,
        1
    ],
    "_padding_": [
        0,
        0,
        2,
        0
    ],
    "_right_": {
        "type": "string",
        "value": "6%"
    },
    "_skin_": "s26eb3d930d54fbabd0004730c551a74",
    "_text_": "     ",
    "_width_": {
        "type": "string",
        "value": "25px"
    },
    "_wrapping_": 2,
    "accessibilityconfig": {
        "a11yLabel": "What else do you want to do?"
    },
    "android": {
        "textStyle": {
            "letterSpacing": 0,
            "strikeThrough": false
        }
    },
    "canUpdateUI": true,
    "centery": {
        "type": "string",
        "value": "50%"
    },
    "containerweight": 100,
    "contentalignment": 4,
    "id": "lblWhatElseDummy",
    "info": null,
    "ipad": {
        "psp": {
            "wrapping": 2
        }
    },
    "iphone": {
        "psp": {
            "wrapping": 2
        }
    },
    "isvisible": true,
    "kuid": "eda601bc9e9842f49422c2169d682ad9",
    "name": "kony.ui.Label",
    "paddinginpixel": false,
    "parent": "flxWhatElse",
    "pf": "frmP2PSentTab",
    "tooltip": "What else do you want to do?",
    "wType": "Label",
    "zindex": 2
}