{
	 "@class": "com.kony.gen.viz.model.component.KVizLabel",
	 "DNDConfig": null,
	 "__parentReadjusting__": false,
	 "_height_": {
		 "type": "string",
		 "value": "100%"
	},
	 "_left_": {
		 "type": "string",
		 "value": "0dp"
	},
	 "_margin_": [
		 1,
		 1,
		 1,
		 1
	],
	 "_padding_": [
		 0,
		 0,
		 0,
		 0
	],
	 "_skin_": "sba8e5ee05d341cea629c0af7bad4c4a",
	 "_text_": "",
	 "_top_": {
		 "type": "number",
		 "value": "0"
	},
	 "_width_": {
		 "type": "string",
		 "value": "1dp"
	},
	 "_wrapping_": 2,
	 "accessibilityconfig": {
		 "a11yHidden": true,
		 "a11yLabel": "randomValue",
		 "a11yARIA": {
			 "tabindex": -1
		}
	},
	 "android": {
		 "textStyle": {
			 "letterSpacing": 0,
			 "strikeThrough": false
		}
	},
	 "canUpdateUI": true,
	 "containerId": true,
	 "containerweight": 100,
	 "contentalignment": 4,
	 "id": "CopyLabel0a25bb187ff174b",
	 "info": null,
	 "ipad": {
		 "psp": {
			 "wrapping": 2
		}
	},
	 "iphone": {
		 "psp": {
			 "wrapping": 2
		}
	},
	 "isvisible": true,
	 "kuid": "e4df4dfc39404607962cea32d8305c82",
	 "name": "kony.ui.Label",
	 "parent": "flxsegmentseperator",
	 "pf": "segAccountList",
	 "tooltip": "",
	 "wType": "Label",
	 "zindex": 1
}