{
    "DNDConfig": null,
    "__parentReadjusting__": false,
    "_height_": {
        "type": "string",
        "value": "220dp"
    },
    "_left_": {
        "type": "string",
        "value": "383dp"
    },
    "_margin_": [
        0,
        0,
        0,
        0
    ],
    "_orientation_": 6,
    "_padding_": [
        0,
        0,
        0,
        0
    ],
    "_percent_": true,
    "_skin_": "s24c92fc23b14f5484b693ee9b8a9b35",
    "_top_": {
        "type": "string",
        "value": "806dp"
    },
    "_width_": {
        "type": "string",
        "value": "100%"
    },
    "allboxes": [],
    "canUpdateUI": true,
    "children": [],
    "clipbounds": true,
    "containerweight": 100,
    "enablescrolling": true,
    "id": "flxDummySecondary",
    "info": null,
    "iscustomlayout": false,
    "isvisible": true,
    "kuid": "b1670235960f4826903f947dac30266e",
    "layouttype": 2,
    "name": "kony.ui.FlexContainer",
    "parent": "flxSecondaryDetails",
    "pf": "frmAccountsLanding",
    "responsiveData": {
        "b1": {
            "height": {
                "type": "string",
                "value": "5dp"
            },
            "left": {
                "type": "string",
                "value": "0dp"
            },
            "top": {
                "type": "string",
                "value": "420dp"
            }
        },
        "b2": {
            "height": {
                "type": "string",
                "value": "5dp"
            },
            "isVisible": true,
            "left": {
                "type": "string",
                "value": "0dp"
            },
            "top": {
                "type": "string",
                "value": "849dp"
            }
        },
        "b3": {
            "height": {
                "type": "string",
                "value": "1dp"
            },
            "isVisible": true,
            "left": {
                "type": "string",
                "value": "0dp"
            },
            "top": {
                "type": "string",
                "value": "1490dp"
            }
        },
        "b4": {
            "left": {
                "type": "string",
                "value": "0dp"
            },
            "top": {
                "type": "string",
                "value": "0dp"
            }
        }
    },
    "retaincontentalignment": false,
    "retainflexpositionproperties": false,
    "snapgridsize": 10,
    "snaptogrid": true,
    "wType": "FlexContainer",
    "widgetalignment": 1,
    "zindex": 1
}