{
    "@class": "com.kony.gen.viz.model.component.KVizUserWidget",
    "DNDConfig": null,
    "__parentReadjusting__": false,
    "_children_": [],
    "_desktopweb_": {},
    "_height_": {
        "type": "ref",
        "value": "preferred"
    },
    "_left_": {
        "type": "string",
        "value": "6%"
    },
    "_margin_": [
        0,
        0,
        0,
        0
    ],
    "_orientation_": 1,
    "_padding_": [
        0,
        0,
        0,
        0
    ],
    "_percent_": true,
    "_render_": true,
    "_responsiveData_": {
        "b1": {
            "isVisible": false
        }
    },
    "_skin_": "see57923c3f84c0086c836bed430e95a",
    "_top_": {
        "type": "string",
        "value": "0dp"
    },
    "_vizProps_": {
        "hidewidgethierarchy": false
    },
    "_width_": {
        "type": "string",
        "value": "58.20%"
    },
    "areflexpropsreferenced": false,
    "autogrowmode": 1,
    "canUpdateUI": true,
    "clipbounds": false,
    "containerweight": 0,
    "dataDiffs": {
        "flxSeparator": {
            "__events__": {},
            "__info__": {
                "kuid": "e105ff37c47c4bf6b75961afedfe8235",
                "srcKUID": "a78c39c4d81b4f5caa914a67d924cf8f",
                "wType": "FlexContainer"
            }
        },
        "flxWelcome": {
            "__events__": {},
            "__info__": {
                "kuid": "a5bed00efdec4b5299526e7e70da7328",
                "srcKUID": "a211e9ebbb8f44f287be4214ca57a283",
                "wType": "FlexContainer"
            }
        },
        "flxWelcomeWrapper": {
            "__events__": {},
            "__info__": {
                "kuid": "f86e10982e154e64a1f374f8d48b162c",
                "srcKUID": "de9ba888697a4d959a0ca56515dd9fef",
                "wType": "FlexContainer"
            }
        },
        "imgProfile": {
            "__events__": {},
            "__info__": {
                "kuid": "a927d391ec714520a8ef94ecf5f3ed5c",
                "srcKUID": "f01c6e00b7c04a5cb897306dc2204d69",
                "wType": "Image"
            },
            "src": "username_img.png"
        },
        "lblLastLoggedIn": {
            "__events__": {},
            "__info__": {
                "kuid": "e2e4cbff03db4f4b99d0b7084b257c57",
                "srcKUID": "cbddd9a480ef4420bef6e6429491f921",
                "wType": "Label"
            },
            "i18n_text": "i18n.AccountsLanding.Lastloggedin"
        },
        "lblWelcome": {
            "__events__": {},
            "__info__": {
                "kuid": "ca405a05117346d7ac34539b5f64ba38",
                "srcKUID": "j8f072cb93db4bd58beb0671152e4bd6",
                "wType": "Label"
            },
            "i18n_text": "i18n.AccountsLanding.WelcomeJohn"
        },
        "welcome": {
            "__events__": {},
            "__info__": {
                "isRoot": true,
                "kuid": "fe7b44103af5456fa0d0a7a8377947a4",
                "srcKUID": "ca8945d6d0c44de8a337a471a175d509",
                "wType": "FlexContainer"
            },
            "left": {
                "Default": {
                    "type": "string",
                    "value": "6%"
                }
            },
            "responsiveData": {
                "b1": {
                    "isVisible": false
                }
            },
            "width": {
                "Default": {
                    "type": "string",
                    "value": "58.20%"
                }
            }
        }
    },
    "id": "welcome",
    "info": null,
    "isdatareferenced": false,
    "isvisible": true,
    "kuid": "d9747073a9e5487492b60287bfad080e",
    "layouttype": 4,
    "masterType": 0,
    "name": "kony.ui.UserWidgetInstance",
    "parent": "flxWelcomeAndActions",
    "pf": "frmAccountsLanding",
    "snaptogrid": true,
    "sourceUserWidget": "ca8945d6d0c44de8a337a471a175d509",
    "vizprops": {
        "hidewidgethierarchy": false
    },
    "wType": "UserWidgetInstance"
}