{
    "DNDConfig": null,
    "_height_": {
        "type": "string",
        "value": "71dp"
    },
    "_margin_": [
        0,
        0,
        0,
        0
    ],
    "_orientation_": 6,
    "_padding_": [
        0,
        0,
        0,
        0
    ],
    "_percent_": true,
    "_skin_": "s24c92fc23b14f5484b693ee9b8a9b35",
    "allboxes": [],
    "autogrowmode": 0,
    "canUpdateUI": true,
    "children": [
        "flxRow",
        "lblSeperator"
    ],
    "clipbounds": true,
    "containerId": true,
    "containerweight": 100,
    "controllerInfo": {
        "default": {
            "channel": "desktop",
            "name": "flxProfileManagementEmailController"
        }
    },
    "enablescrolling": true,
    "id": "flxProfileManagementEmail",
    "info": null,
    "isTemplate": true,
    "isvisible": true,
    "kuid": "j42e5d679327457c8b20c7bdfd4951fc",
    "layouttype": 4,
    "name": "kony.ui.FlexContainer",
    "parent": "segProfileManagementEmail",
    "pf": "segProfileManagementEmail",
    "snapgridsize": 10,
    "snaptogrid": true,
    "wType": "FlexContainer",
    "widgetalignment": 1
}